top - 13:59:54 up 35 min,  1 user,  load average: 0.00, 0.25, 0.88
Tasks: 477 total,   1 running, 416 sleeping,   0 stopped,   0 zombie
%Cpu(s):  3.0 us,  1.7 sy,  0.0 ni, 95.2 id,  0.1 wa,  0.0 hi,  0.0 si,  0.0 st
KiB Mem : 16278772 total, 13689556 free,  1373636 used,  1215580 buff/cache
KiB Swap: 16630780 total, 16630780 free,        0 used. 14474468 avail Mem 

  PID USER      PR  NI    VIRT    RES    SHR S  %CPU %MEM     TIME+ COMMAND
29874 kenenth   20   0   41908   3648   3048 R  11.8  0.0   0:00.03 top

top - 13:59:55 up 35 min,  1 user,  load average: 0.00, 0.25, 0.88
Tasks: 477 total,   1 running, 416 sleeping,   0 stopped,   0 zombie
%Cpu(s):  0.4 us,  1.0 sy,  0.0 ni, 98.7 id,  0.0 wa,  0.0 hi,  0.0 si,  0.0 st
KiB Mem : 16278772 total, 13689556 free,  1373636 used,  1215580 buff/cache
KiB Swap: 16630780 total, 16630780 free,        0 used. 14474468 avail Mem 

  PID USER      PR  NI    VIRT    RES    SHR S  %CPU %MEM     TIME+ COMMAND
29874 kenenth   20   0   42040   3908   3048 R   3.8  0.0   0:00.07 top
 2390 kenenth   20   0 3532476 235932  90960 S   1.9  1.4   0:26.37 gnome-shell
  906 root      20   0  491168  23300  13904 S   1.0  0.1   0:17.49 NetworkMan+
 2800 kenenth   20   0  792648  36620  27432 S   1.0  0.2   0:01.05 gnome-term+

top - 13:59:56 up 35 min,  1 user,  load average: 0.00, 0.25, 0.88
Tasks: 477 total,   1 running, 416 sleeping,   0 stopped,   0 zombie
%Cpu(s):  0.1 us,  0.2 sy,  0.0 ni, 99.6 id,  0.0 wa,  0.0 hi,  0.0 si,  0.0 st
KiB Mem : 16278772 total, 13688508 free,  1374388 used,  1215876 buff/cache
KiB Swap: 16630780 total, 16630780 free,        0 used. 14473572 avail Mem 

  PID USER      PR  NI    VIRT    RES    SHR S  %CPU %MEM     TIME+ COMMAND
29874 kenenth   20   0   42040   3908   3048 R   2.9  0.0   0:00.10 top
 2178 root      20   0  432832  93060  61656 S   1.9  0.6   0:12.28 Xorg

top - 13:59:57 up 35 min,  1 user,  load average: 0.00, 0.24, 0.87
Tasks: 477 total,   1 running, 416 sleeping,   0 stopped,   0 zombie
%Cpu(s):  0.0 us,  0.2 sy,  0.0 ni, 99.6 id,  0.1 wa,  0.0 hi,  0.0 si,  0.0 st
KiB Mem : 16278772 total, 13688508 free,  1374388 used,  1215876 buff/cache
KiB Swap: 16630780 total, 16630780 free,        0 used. 14473572 avail Mem 

  PID USER      PR  NI    VIRT    RES    SHR S  %CPU %MEM     TIME+ COMMAND
29874 kenenth   20   0   42040   3908   3048 R   2.0  0.0   0:00.12 top
 2179 root     -51   0       0      0      0 S   1.0  0.0   0:01.33 irq/142-nv+
 2390 kenenth   20   0 3532476 235932  90960 S   1.0  1.4   0:26.38 gnome-shell

top - 13:59:58 up 35 min,  1 user,  load average: 0.00, 0.24, 0.87
Tasks: 477 total,   1 running, 416 sleeping,   0 stopped,   0 zombie
%Cpu(s):  0.2 us,  0.4 sy,  0.0 ni, 99.4 id,  0.0 wa,  0.0 hi,  0.0 si,  0.0 st
KiB Mem : 16278772 total, 13688508 free,  1374388 used,  1215876 buff/cache
KiB Swap: 16630780 total, 16630780 free,        0 used. 14473572 avail Mem 

  PID USER      PR  NI    VIRT    RES    SHR S  %CPU %MEM     TIME+ COMMAND
  920 avahi     20   0   48216   4760   3308 S   1.0  0.0   0:03.27 avahi-daem+
 2178 root      20   0  432832  93060  61656 S   1.0  0.6   0:12.29 Xorg
 2390 kenenth   20   0 3532476 235932  90960 S   1.0  1.4   0:26.39 gnome-shell
29874 kenenth   20   0   42040   3908   3048 R   1.0  0.0   0:00.13 top

top - 13:59:59 up 35 min,  1 user,  load average: 0.00, 0.24, 0.87
Tasks: 463 total,   1 running, 402 sleeping,   0 stopped,   0 zombie
%Cpu(s):  0.1 us,  0.1 sy,  0.0 ni, 99.8 id,  0.0 wa,  0.0 hi,  0.0 si,  0.0 st
KiB Mem : 16278772 total, 13691024 free,  1371868 used,  1215880 buff/cache
KiB Swap: 16630780 total, 16630780 free,        0 used. 14476092 avail Mem 

  PID USER      PR  NI    VIRT    RES    SHR S  %CPU %MEM     TIME+ COMMAND
29874 kenenth   20   0   42040   3908   3048 R   2.0  0.0   0:00.15 top

top - 14:00:00 up 35 min,  1 user,  load average: 0.00, 0.24, 0.87
Tasks: 463 total,   1 running, 402 sleeping,   0 stopped,   0 zombie
%Cpu(s):  0.2 us,  0.2 sy,  0.0 ni, 99.5 id,  0.0 wa,  0.0 hi,  0.0 si,  0.0 st
KiB Mem : 16278772 total, 13691024 free,  1371868 used,  1215880 buff/cache
KiB Swap: 16630780 total, 16630780 free,        0 used. 14476092 avail Mem 

  PID USER      PR  NI    VIRT    RES    SHR S  %CPU %MEM     TIME+ COMMAND
 1062 gdm       20   0 3348384 138444  82720 S   1.0  0.9   0:27.63 gnome-shell
 2178 root      20   0  432832  93060  61656 S   1.0  0.6   0:12.30 Xorg
 2390 kenenth   20   0 3532476 235932  90960 S   1.0  1.4   0:26.40 gnome-shell
29874 kenenth   20   0   42040   3908   3048 R   1.0  0.0   0:00.16 top

top - 14:00:01 up 35 min,  1 user,  load average: 0.00, 0.24, 0.87
Tasks: 463 total,   1 running, 402 sleeping,   0 stopped,   0 zombie
%Cpu(s):  0.1 us,  0.1 sy,  0.0 ni, 99.8 id,  0.0 wa,  0.0 hi,  0.0 si,  0.0 st
KiB Mem : 16278772 total, 13691024 free,  1371868 used,  1215880 buff/cache
KiB Swap: 16630780 total, 16630780 free,        0 used. 14476092 avail Mem 

  PID USER      PR  NI    VIRT    RES    SHR S  %CPU %MEM     TIME+ COMMAND
29874 kenenth   20   0   42040   3908   3048 R   3.0  0.0   0:00.19 top
  990 root      20   0 4987008  41208  25900 S   1.0  0.3   0:10.68 containerd
 2178 root      20   0  432832  93060  61656 S   1.0  0.6   0:12.31 Xorg
 2179 root     -51   0       0      0      0 S   1.0  0.0   0:01.34 irq/142-nv+
 2390 kenenth   20   0 3532476 235932  90960 S   1.0  1.4   0:26.41 gnome-shell

top - 14:00:02 up 35 min,  1 user,  load average: 0.00, 0.24, 0.87
Tasks: 463 total,   1 running, 402 sleeping,   0 stopped,   0 zombie
%Cpu(s):  0.0 us,  0.4 sy,  0.0 ni, 99.6 id,  0.0 wa,  0.0 hi,  0.0 si,  0.0 st
KiB Mem : 16278772 total, 13691764 free,  1371120 used,  1215888 buff/cache
KiB Swap: 16630780 total, 16630780 free,        0 used. 14476836 avail Mem 

  PID USER      PR  NI    VIRT    RES    SHR S  %CPU %MEM     TIME+ COMMAND
 1520 kernoops  20   0   56936    420      0 S   1.0  0.0   0:00.09 kerneloops
 2390 kenenth   20   0 3532476 235932  90960 S   1.0  1.4   0:26.42 gnome-shell
29874 kenenth   20   0   42040   3908   3048 R   1.0  0.0   0:00.20 top

top - 14:00:03 up 35 min,  1 user,  load average: 0.00, 0.24, 0.87
Tasks: 463 total,   1 running, 402 sleeping,   0 stopped,   0 zombie
%Cpu(s):  0.0 us,  0.5 sy,  0.0 ni, 99.5 id,  0.0 wa,  0.0 hi,  0.0 si,  0.0 st
KiB Mem : 16278772 total, 13691764 free,  1371120 used,  1215888 buff/cache
KiB Swap: 16630780 total, 16630780 free,        0 used. 14476836 avail Mem 

  PID USER      PR  NI    VIRT    RES    SHR S  %CPU %MEM     TIME+ COMMAND
29874 kenenth   20   0   42040   3908   3048 R   2.0  0.0   0:00.22 top
 2178 root      20   0  432832  93060  61656 S   1.0  0.6   0:12.32 Xorg
 2800 kenenth   20   0  792648  36620  27432 S   1.0  0.2   0:01.06 gnome-term+

top - 14:00:04 up 35 min,  1 user,  load average: 0.00, 0.24, 0.87
Tasks: 463 total,   1 running, 402 sleeping,   0 stopped,   0 zombie
%Cpu(s):  0.2 us,  0.4 sy,  0.0 ni, 99.4 id,  0.0 wa,  0.0 hi,  0.0 si,  0.0 st
KiB Mem : 16278772 total, 13691764 free,  1371120 used,  1215888 buff/cache
KiB Swap: 16630780 total, 16630780 free,        0 used. 14476836 avail Mem 

  PID USER      PR  NI    VIRT    RES    SHR S  %CPU %MEM     TIME+ COMMAND
29874 kenenth   20   0   42040   3908   3048 R   2.0  0.0   0:00.24 top
 2390 kenenth   20   0 3532476 235932  90960 S   1.0  1.4   0:26.43 gnome-shell

top - 14:00:05 up 35 min,  1 user,  load average: 0.00, 0.24, 0.87
Tasks: 463 total,   1 running, 402 sleeping,   0 stopped,   0 zombie
%Cpu(s):  0.2 us,  0.5 sy,  0.0 ni, 99.3 id,  0.0 wa,  0.0 hi,  0.0 si,  0.0 st
KiB Mem : 16278772 total, 13691764 free,  1371112 used,  1215896 buff/cache
KiB Swap: 16630780 total, 16630780 free,        0 used. 14476840 avail Mem 

  PID USER      PR  NI    VIRT    RES    SHR S  %CPU %MEM     TIME+ COMMAND
29874 kenenth   20   0   42040   3908   3048 R   2.0  0.0   0:00.26 top
  906 root      20   0  491168  23300  13904 S   1.0  0.1   0:17.50 NetworkMan+
 2178 root      20   0  432832  93060  61656 S   1.0  0.6   0:12.33 Xorg
 2179 root     -51   0       0      0      0 S   1.0  0.0   0:01.35 irq/142-nv+
 2390 kenenth   20   0 3532476 235932  90960 S   1.0  1.4   0:26.44 gnome-shell

top - 14:00:06 up 35 min,  1 user,  load average: 0.00, 0.24, 0.86
Tasks: 463 total,   1 running, 402 sleeping,   0 stopped,   0 zombie
%Cpu(s):  0.0 us,  0.4 sy,  0.0 ni, 99.6 id,  0.0 wa,  0.0 hi,  0.0 si,  0.0 st
KiB Mem : 16278772 total, 13691764 free,  1371112 used,  1215896 buff/cache
KiB Swap: 16630780 total, 16630780 free,        0 used. 14476840 avail Mem 

  PID USER      PR  NI    VIRT    RES    SHR S  %CPU %MEM     TIME+ COMMAND
29874 kenenth   20   0   42040   3908   3048 R   2.0  0.0   0:00.28 top

top - 14:00:07 up 35 min,  1 user,  load average: 0.00, 0.24, 0.86
Tasks: 463 total,   1 running, 402 sleeping,   0 stopped,   0 zombie
%Cpu(s):  0.1 us,  0.4 sy,  0.0 ni, 99.5 id,  0.0 wa,  0.0 hi,  0.0 si,  0.0 st
KiB Mem : 16278772 total, 13691764 free,  1371112 used,  1215896 buff/cache
KiB Swap: 16630780 total, 16630780 free,        0 used. 14476840 avail Mem 

  PID USER      PR  NI    VIRT    RES    SHR S  %CPU %MEM     TIME+ COMMAND
29874 kenenth   20   0   42040   3908   3048 R   2.0  0.0   0:00.30 top
 2178 root      20   0  432832  93060  61656 S   1.0  0.6   0:12.34 Xorg