     1	291 
     2	292 
     3	297 
     4	348 
     5	419 
     6	520 
     7	557 
     8	556 
     9	549 
    10	536 
    11	528 
    12	515 
    13	503 
    14	485 
    15	472 
    16	459 
    17	446 
    18	433 
    19	413 
    20	404 
    21	387 
    22	374 
    23	361 
    24	344 
    25	338 
    26	362 
    27	411 
    28	471 
    29	542 
    30	586 
    31	635 
    32	669 
    33	685 
    34	675 
    35	664 
    36	653 
    37	630 
    38	615 
    39	606 
    40	584 
    41	580 
    42	572 
    43	561 
    44	547 
    45	536 
    46	521 
    47	508 
    48	495 
    49	476 
    50	462 
    51	457 
    52	449 
    53	445 
    54	434 
    55	424 
    56	418 
    57	403 
    58	396 
    59	379 
    60	374 
    61	362 
    62	350 
    63	336 
    64	333 
    65	330 
    66	324 
    67	321 
    68	315 
    69	312 
    70	306 
    71	300 
    72	294 
