top - 23:19:55 up  2:36,  1 user,  load average: 0.00, 1.19, 1.91
Tasks: 286 total,   1 running, 224 sleeping,   0 stopped,   0 zombie
%Cpu(s):  3.5 us,  1.8 sy,  0.0 ni, 94.6 id,  0.1 wa,  0.0 hi,  0.0 si,  0.0 st
KiB Mem : 16278768 total, 11929528 free,  1398736 used,  2950504 buff/cache
KiB Swap: 16630780 total, 16630780 free,        0 used. 14429584 avail Mem 

  PID USER      PR  NI    VIRT    RES    SHR S  %CPU %MEM     TIME+ COMMAND
14639 kenenth   20   0   41932   3796   3136 R  18.8  0.0   0:00.03 top
 1780 root      20   0  433932  94760  61668 S   6.2  0.6   1:50.62 Xorg
 1985 kenenth   20   0 3540348 243700  96104 S   6.2  1.5   5:08.82 gnome-shell

top - 23:19:56 up  2:36,  1 user,  load average: 0.00, 1.19, 1.91
Tasks: 286 total,   2 running, 223 sleeping,   0 stopped,   0 zombie
%Cpu(s):  0.1 us,  0.1 sy,  0.0 ni, 99.8 id,  0.0 wa,  0.0 hi,  0.0 si,  0.0 st
KiB Mem : 16278768 total, 11929528 free,  1398736 used,  2950504 buff/cache
KiB Swap: 16630780 total, 16630780 free,        0 used. 14429584 avail Mem 

  PID USER      PR  NI    VIRT    RES    SHR S  %CPU %MEM     TIME+ COMMAND
 1985 kenenth   20   0 3540348 243700  96104 S   1.0  1.5   5:08.83 gnome-shell
14639 kenenth   20   0   41900   3868   3136 R   1.0  0.0   0:00.04 top

top - 23:19:57 up  2:36,  1 user,  load average: 0.00, 1.19, 1.91
Tasks: 286 total,   1 running, 224 sleeping,   0 stopped,   0 zombie
%Cpu(s):  0.2 us,  0.4 sy,  0.0 ni, 99.4 id,  0.0 wa,  0.0 hi,  0.0 si,  0.0 st
KiB Mem : 16278768 total, 11929528 free,  1398736 used,  2950504 buff/cache
KiB Swap: 16630780 total, 16630780 free,        0 used. 14429584 avail Mem 

  PID USER      PR  NI    VIRT    RES    SHR S  %CPU %MEM     TIME+ COMMAND
14639 kenenth   20   0   41900   3868   3136 R   2.0  0.0   0:00.06 top
  950 message+  20   0   51840   6208   3852 S   1.0  0.0   2:13.58 dbus-daemon
  972 root      20   0  565028  23704  13716 S   1.0  0.1   1:13.21 NetworkMan+
 1780 root      20   0  433932  94760  61668 S   1.0  0.6   1:50.63 Xorg

top - 23:19:58 up  2:36,  1 user,  load average: 0.00, 1.19, 1.91
Tasks: 286 total,   1 running, 224 sleeping,   0 stopped,   0 zombie
%Cpu(s):  0.1 us,  0.2 sy,  0.0 ni, 99.6 id,  0.0 wa,  0.0 hi,  0.0 si,  0.0 st
KiB Mem : 16278768 total, 11928748 free,  1399608 used,  2950412 buff/cache
KiB Swap: 16630780 total, 16630780 free,        0 used. 14428836 avail Mem 

  PID USER      PR  NI    VIRT    RES    SHR S  %CPU %MEM     TIME+ COMMAND
 1781 root     -51   0       0      0      0 S   1.0  0.0   0:13.40 irq/135-nv+
 1985 kenenth   20   0 3540348 243700  96104 S   1.0  1.5   5:08.84 gnome-shell
14639 kenenth   20   0   41900   3868   3136 R   1.0  0.0   0:00.07 top
22835 kenenth   20   0  794668  37412  28120 S   1.0  0.2   0:02.93 gnome-term+

top - 23:19:59 up  2:36,  1 user,  load average: 0.00, 1.19, 1.91
Tasks: 286 total,   1 running, 224 sleeping,   0 stopped,   0 zombie
%Cpu(s):  0.1 us,  0.2 sy,  0.0 ni, 99.6 id,  0.0 wa,  0.0 hi,  0.0 si,  0.0 st
KiB Mem : 16278768 total, 11928748 free,  1399608 used,  2950412 buff/cache
KiB Swap: 16630780 total, 16630780 free,        0 used. 14428836 avail Mem 

  PID USER      PR  NI    VIRT    RES    SHR S  %CPU %MEM     TIME+ COMMAND
 1129 root      20   0 5005772  38488  25972 S   1.0  0.2   0:44.92 containerd
 1780 root      20   0  433932  94760  61668 S   1.0  0.6   1:50.64 Xorg
 1985 kenenth   20   0 3540348 243700  96104 S   1.0  1.5   5:08.85 gnome-shell
14639 kenenth   20   0   41900   3868   3136 R   1.0  0.0   0:00.08 top

top - 23:20:00 up  2:36,  1 user,  load average: 0.00, 1.17, 1.90
Tasks: 286 total,   1 running, 224 sleeping,   0 stopped,   0 zombie
%Cpu(s):  0.2 us,  0.2 sy,  0.0 ni, 99.5 id,  0.0 wa,  0.0 hi,  0.0 si,  0.0 st
KiB Mem : 16278768 total, 11928748 free,  1399608 used,  2950412 buff/cache
KiB Swap: 16630780 total, 16630780 free,        0 used. 14428836 avail Mem 

  PID USER      PR  NI    VIRT    RES    SHR S  %CPU %MEM     TIME+ COMMAND
 1780 root      20   0  433932  94760  61668 S   1.0  0.6   1:50.65 Xorg
 1985 kenenth   20   0 3540348 243700  96104 S   1.0  1.5   5:08.86 gnome-shell
14639 kenenth   20   0   41900   3868   3136 R   1.0  0.0   0:00.09 top

top - 23:20:01 up  2:36,  1 user,  load average: 0.00, 1.17, 1.90
Tasks: 286 total,   1 running, 224 sleeping,   0 stopped,   0 zombie
%Cpu(s):  0.0 us,  0.6 sy,  0.0 ni, 99.4 id,  0.0 wa,  0.0 hi,  0.0 si,  0.0 st
KiB Mem : 16278768 total, 11928740 free,  1399608 used,  2950420 buff/cache
KiB Swap: 16630780 total, 16630780 free,        0 used. 14428832 avail Mem 

  PID USER      PR  NI    VIRT    RES    SHR S  %CPU %MEM     TIME+ COMMAND
 1780 root      20   0  433932  94760  61668 S   1.0  0.6   1:50.66 Xorg
14639 kenenth   20   0   41900   3868   3136 R   1.0  0.0   0:00.10 top

top - 23:20:02 up  2:36,  1 user,  load average: 0.00, 1.17, 1.90
Tasks: 286 total,   1 running, 224 sleeping,   0 stopped,   0 zombie
%Cpu(s):  0.2 us,  0.1 sy,  0.0 ni, 99.6 id,  0.0 wa,  0.0 hi,  0.0 si,  0.0 st
KiB Mem : 16278768 total, 11928740 free,  1399608 used,  2950420 buff/cache
KiB Swap: 16630780 total, 16630780 free,        0 used. 14428832 avail Mem 

  PID USER      PR  NI    VIRT    RES    SHR S  %CPU %MEM     TIME+ COMMAND
 1302 gdm       20   0 3332456 122260  66292 S   1.0  0.8   1:46.01 gnome-shell
 1780 root      20   0  433932  94760  61668 S   1.0  0.6   1:50.67 Xorg
 1781 root     -51   0       0      0      0 S   1.0  0.0   0:13.41 irq/135-nv+
 1985 kenenth   20   0 3540348 243700  96104 S   1.0  1.5   5:08.87 gnome-shell
14639 kenenth   20   0   41900   3868   3136 R   1.0  0.0   0:00.11 top

top - 23:20:03 up  2:36,  1 user,  load average: 0.00, 1.17, 1.90
Tasks: 286 total,   1 running, 224 sleeping,   0 stopped,   0 zombie
%Cpu(s):  0.0 us,  0.1 sy,  0.0 ni, 99.9 id,  0.0 wa,  0.0 hi,  0.0 si,  0.0 st
KiB Mem : 16278768 total, 11928740 free,  1399608 used,  2950420 buff/cache
KiB Swap: 16630780 total, 16630780 free,        0 used. 14428832 avail Mem 

  PID USER      PR  NI    VIRT    RES    SHR S  %CPU %MEM     TIME+ COMMAND
14639 kenenth   20   0   41900   3868   3136 R   2.0  0.0   0:00.13 top

top - 23:20:04 up  2:36,  1 user,  load average: 0.00, 1.17, 1.90
Tasks: 286 total,   1 running, 224 sleeping,   0 stopped,   0 zombie
%Cpu(s):  0.2 us,  0.2 sy,  0.0 ni, 99.5 id,  0.0 wa,  0.0 hi,  0.0 si,  0.0 st
KiB Mem : 16278768 total, 11928716 free,  1399628 used,  2950424 buff/cache
KiB Swap: 16630780 total, 16630780 free,        0 used. 14428808 avail Mem 

  PID USER      PR  NI    VIRT    RES    SHR S  %CPU %MEM     TIME+ COMMAND
 1985 kenenth   20   0 3540348 243700  96104 S   2.0  1.5   5:08.89 gnome-shell
14639 kenenth   20   0   41900   3868   3136 R   1.0  0.0   0:00.14 top

top - 23:20:05 up  2:36,  1 user,  load average: 0.00, 1.15, 1.89
Tasks: 286 total,   1 running, 224 sleeping,   0 stopped,   0 zombie
%Cpu(s):  0.2 us,  0.1 sy,  0.0 ni, 99.6 id,  0.0 wa,  0.0 hi,  0.0 si,  0.0 st
KiB Mem : 16278768 total, 11928716 free,  1399628 used,  2950424 buff/cache
KiB Swap: 16630780 total, 16630780 free,        0 used. 14428808 avail Mem 

  PID USER      PR  NI    VIRT    RES    SHR S  %CPU %MEM     TIME+ COMMAND
 1780 root      20   0  433932  94760  61668 S   1.0  0.6   1:50.68 Xorg
14639 kenenth   20   0   41900   3868   3136 R   1.0  0.0   0:00.15 top

top - 23:20:06 up  2:36,  1 user,  load average: 0.00, 1.15, 1.89
Tasks: 286 total,   1 running, 224 sleeping,   0 stopped,   0 zombie
%Cpu(s):  0.2 us,  0.2 sy,  0.0 ni, 99.5 id,  0.0 wa,  0.0 hi,  0.0 si,  0.0 st
KiB Mem : 16278768 total, 11928716 free,  1399628 used,  2950424 buff/cache
KiB Swap: 16630780 total, 16630780 free,        0 used. 14428808 avail Mem 

  PID USER      PR  NI    VIRT    RES    SHR S  %CPU %MEM     TIME+ COMMAND
 1129 root      20   0 5005772  38488  25972 S   1.0  0.2   0:44.93 containerd
 1780 root      20   0  433932  94760  61668 S   1.0  0.6   1:50.69 Xorg
 1985 kenenth   20   0 3540348 243700  96104 S   1.0  1.5   5:08.90 gnome-shell
14639 kenenth   20   0   41900   3868   3136 R   1.0  0.0   0:00.16 top

top - 23:20:07 up  2:36,  1 user,  load average: 0.00, 1.15, 1.89
Tasks: 286 total,   1 running, 224 sleeping,   0 stopped,   0 zombie
%Cpu(s):  0.0 us,  0.1 sy,  0.0 ni, 99.9 id,  0.0 wa,  0.0 hi,  0.0 si,  0.0 st
KiB Mem : 16278768 total, 11928708 free,  1399628 used,  2950432 buff/cache
KiB Swap: 16630780 total, 16630780 free,        0 used. 14428800 avail Mem 

  PID USER      PR  NI    VIRT    RES    SHR S  %CPU %MEM     TIME+ COMMAND
14639 kenenth   20   0   41900   3868   3136 R   1.0  0.0   0:00.17 top

top - 23:20:08 up  2:36,  1 user,  load average: 0.00, 1.15, 1.89
Tasks: 286 total,   1 running, 224 sleeping,   0 stopped,   0 zombie
%Cpu(s):  0.2 us,  0.2 sy,  0.0 ni, 99.5 id,  0.0 wa,  0.0 hi,  0.0 si,  0.0 st
KiB Mem : 16278768 total, 11928708 free,  1399628 used,  2950432 buff/cache
KiB Swap: 16630780 total, 16630780 free,        0 used. 14428800 avail Mem 

  PID USER      PR  NI    VIRT    RES    SHR S  %CPU %MEM     TIME+ COMMAND
14639 kenenth   20   0   41900   3868   3136 R   1.0  0.0   0:00.18 top

top - 23:20:09 up  2:36,  1 user,  load average: 0.00, 1.15, 1.89
Tasks: 286 total,   1 running, 224 sleeping,   0 stopped,   0 zombie
%Cpu(s):  0.5 us,  0.1 sy,  0.0 ni, 99.4 id,  0.0 wa,  0.0 hi,  0.0 si,  0.0 st
KiB Mem : 16278768 total, 11928708 free,  1399628 used,  2950432 buff/cache
KiB Swap: 16630780 total, 16630780 free,        0 used. 14428800 avail Mem 

  PID USER      PR  NI    VIRT    RES    SHR S  %CPU %MEM     TIME+ COMMAND
 1985 kenenth   20   0 3540348 243700  96104 S   4.0  1.5   5:08.94 gnome-shell
14639 kenenth   20   0   41900   3868   3136 R   2.0  0.0   0:00.20 top
 1780 root      20   0  433932  94760  61668 S   1.0  0.6   1:50.70 Xorg

top - 23:20:10 up  2:36,  1 user,  load average: 0.00, 1.13, 1.88
Tasks: 286 total,   1 running, 224 sleeping,   0 stopped,   0 zombie
%Cpu(s):  0.4 us,  0.1 sy,  0.0 ni, 99.4 id,  0.1 wa,  0.0 hi,  0.0 si,  0.0 st
KiB Mem : 16278768 total, 11928700 free,  1399628 used,  2950440 buff/cache
KiB Swap: 16630780 total, 16630780 free,        0 used. 14428792 avail Mem 

  PID USER      PR  NI    VIRT    RES    SHR S  %CPU %MEM     TIME+ COMMAND
14639 kenenth   20   0   41900   3868   3136 R   2.0  0.0   0:00.22 top
 1302 gdm       20   0 3332456 122260  66292 S   1.0  0.8   1:46.02 gnome-shell
 1781 root     -51   0       0      0      0 S   1.0  0.0   0:13.42 irq/135-nv+

top - 23:20:11 up  2:36,  1 user,  load average: 0.00, 1.13, 1.88
Tasks: 286 total,   1 running, 224 sleeping,   0 stopped,   0 zombie
%Cpu(s):  0.1 us,  0.1 sy,  0.0 ni, 99.8 id,  0.0 wa,  0.0 hi,  0.0 si,  0.0 st
KiB Mem : 16278768 total, 11928700 free,  1399628 used,  2950440 buff/cache
KiB Swap: 16630780 total, 16630780 free,        0 used. 14428792 avail Mem 

  PID USER      PR  NI    VIRT    RES    SHR S  %CPU %MEM     TIME+ COMMAND
 1780 root      20   0  433932  94760  61668 S   1.0  0.6   1:50.71 Xorg

top - 23:20:12 up  2:36,  1 user,  load average: 0.00, 1.13, 1.88
Tasks: 286 total,   1 running, 224 sleeping,   0 stopped,   0 zombie
%Cpu(s):  0.1 us,  0.2 sy,  0.0 ni, 99.6 id,  0.0 wa,  0.0 hi,  0.0 si,  0.0 st
KiB Mem : 16278768 total, 11928700 free,  1399628 used,  2950440 buff/cache
KiB Swap: 16630780 total, 16630780 free,        0 used. 14428792 avail Mem 

  PID USER      PR  NI    VIRT    RES    SHR S  %CPU %MEM     TIME+ COMMAND
14639 kenenth   20   0   41900   3868   3136 R   2.0  0.0   0:00.24 top

top - 23:20:13 up  2:36,  1 user,  load average: 0.00, 1.13, 1.88
Tasks: 286 total,   1 running, 224 sleeping,   0 stopped,   0 zombie
%Cpu(s):  0.1 us,  0.1 sy,  0.0 ni, 99.8 id,  0.0 wa,  0.0 hi,  0.0 si,  0.0 st
KiB Mem : 16278768 total, 11928676 free,  1399652 used,  2950440 buff/cache
KiB Swap: 16630780 total, 16630780 free,        0 used. 14428768 avail Mem 

  PID USER      PR  NI    VIRT    RES    SHR S  %CPU %MEM     TIME+ COMMAND
14639 kenenth   20   0   41900   3868   3136 R   2.0  0.0   0:00.26 top
  972 root      20   0  565028  23704  13716 S   1.0  0.1   1:13.22 NetworkMan+
 1129 root      20   0 5005772  38488  25972 S   1.0  0.2   0:44.94 containerd
 1780 root      20   0  433932  94760  61668 S   1.0  0.6   1:50.72 Xorg

top - 23:20:14 up  2:36,  1 user,  load average: 0.00, 1.13, 1.88
Tasks: 286 total,   1 running, 224 sleeping,   0 stopped,   0 zombie
%Cpu(s):  0.2 us,  0.2 sy,  0.0 ni, 99.5 id,  0.0 wa,  0.0 hi,  0.0 si,  0.0 st
KiB Mem : 16278768 total, 11928676 free,  1399652 used,  2950440 buff/cache
KiB Swap: 16630780 total, 16630780 free,        0 used. 14428768 avail Mem 

  PID USER      PR  NI    VIRT    RES    SHR S  %CPU %MEM     TIME+ COMMAND

top - 23:20:15 up  2:36,  1 user,  load average: 0.00, 1.11, 1.87
Tasks: 286 total,   1 running, 224 sleeping,   0 stopped,   0 zombie
%Cpu(s):  0.0 us,  0.2 sy,  0.0 ni, 99.8 id,  0.0 wa,  0.0 hi,  0.0 si,  0.0 st
KiB Mem : 16278768 total, 11928676 free,  1399652 used,  2950440 buff/cache
KiB Swap: 16630780 total, 16630780 free,        0 used. 14428768 avail Mem 

  PID USER      PR  NI    VIRT    RES    SHR S  %CPU %MEM     TIME+ COMMAND
 1129 root      20   0 5005772  38488  25972 S   1.0  0.2   0:44.95 containerd
 1780 root      20   0  433932  94760  61668 S   1.0  0.6   1:50.73 Xorg
 2137 kenenth   20   0  661116  23020  17816 S   1.0  0.1   0:01.10 gsd-color
14639 kenenth   20   0   41900   3868   3136 R   1.0  0.0   0:00.27 top

top - 23:20:16 up  2:36,  1 user,  load average: 0.00, 1.11, 1.87
Tasks: 286 total,   1 running, 224 sleeping,   0 stopped,   0 zombie
%Cpu(s):  0.1 us,  0.1 sy,  0.0 ni, 99.8 id,  0.0 wa,  0.0 hi,  0.0 si,  0.0 st
KiB Mem : 16278768 total, 11928668 free,  1399652 used,  2950448 buff/cache
KiB Swap: 16630780 total, 16630780 free,        0 used. 14428760 avail Mem 

  PID USER      PR  NI    VIRT    RES    SHR S  %CPU %MEM     TIME+ COMMAND
14639 kenenth   20   0   41900   3868   3136 R   2.0  0.0   0:00.29 top

top - 23:20:17 up  2:36,  1 user,  load average: 0.00, 1.11, 1.87
Tasks: 286 total,   1 running, 224 sleeping,   0 stopped,   0 zombie
%Cpu(s):  0.1 us,  0.1 sy,  0.0 ni, 99.8 id,  0.0 wa,  0.0 hi,  0.0 si,  0.0 st
KiB Mem : 16278768 total, 11928668 free,  1399652 used,  2950448 buff/cache
KiB Swap: 16630780 total, 16630780 free,        0 used. 14428760 avail Mem 

  PID USER      PR  NI    VIRT    RES    SHR S  %CPU %MEM     TIME+ COMMAND
 1780 root      20   0  433932  94760  61668 S   1.0  0.6   1:50.74 Xorg
14639 kenenth   20   0   41900   3868   3136 R   1.0  0.0   0:00.30 top

top - 23:20:18 up  2:36,  1 user,  load average: 0.00, 1.11, 1.87
Tasks: 286 total,   1 running, 224 sleeping,   0 stopped,   0 zombie
%Cpu(s):  0.1 us,  0.2 sy,  0.0 ni, 99.6 id,  0.0 wa,  0.0 hi,  0.0 si,  0.0 st
KiB Mem : 16278768 total, 11928668 free,  1399652 used,  2950448 buff/cache
KiB Swap: 16630780 total, 16630780 free,        0 used. 14428760 avail Mem 

  PID USER      PR  NI    VIRT    RES    SHR S  %CPU %MEM     TIME+ COMMAND
14639 kenenth   20   0   41900   3868   3136 R   2.0  0.0   0:00.32 top

top - 23:20:19 up  2:36,  1 user,  load average: 0.00, 1.11, 1.87
Tasks: 286 total,   1 running, 224 sleeping,   0 stopped,   0 zombie
%Cpu(s):  0.1 us,  0.0 sy,  0.0 ni, 99.9 id,  0.0 wa,  0.0 hi,  0.0 si,  0.0 st
KiB Mem : 16278768 total, 11928612 free,  1399708 used,  2950448 buff/cache
KiB Swap: 16630780 total, 16630780 free,        0 used. 14428704 avail Mem 

  PID USER      PR  NI    VIRT    RES    SHR S  %CPU %MEM     TIME+ COMMAND
 1780 root      20   0  433932  94760  61668 S   1.0  0.6   1:50.75 Xorg

top - 23:20:20 up  2:36,  1 user,  load average: 0.00, 1.09, 1.86
Tasks: 286 total,   1 running, 224 sleeping,   0 stopped,   0 zombie
%Cpu(s):  0.0 us,  0.2 sy,  0.0 ni, 99.8 id,  0.0 wa,  0.0 hi,  0.0 si,  0.0 st
KiB Mem : 16278768 total, 11928612 free,  1399708 used,  2950448 buff/cache
KiB Swap: 16630780 total, 16630780 free,        0 used. 14428704 avail Mem 

  PID USER      PR  NI    VIRT    RES    SHR S  %CPU %MEM     TIME+ COMMAND
14639 kenenth   20   0   41900   3868   3136 R   1.0  0.0   0:00.33 top

top - 23:20:21 up  2:36,  1 user,  load average: 0.00, 1.09, 1.86
Tasks: 286 total,   1 running, 224 sleeping,   0 stopped,   0 zombie
%Cpu(s):  0.0 us,  0.2 sy,  0.0 ni, 99.8 id,  0.0 wa,  0.0 hi,  0.0 si,  0.0 st
KiB Mem : 16278768 total, 11928612 free,  1399708 used,  2950448 buff/cache
KiB Swap: 16630780 total, 16630780 free,        0 used. 14428704 avail Mem 

  PID USER      PR  NI    VIRT    RES    SHR S  %CPU %MEM     TIME+ COMMAND
14639 kenenth   20   0   41900   3868   3136 R   2.0  0.0   0:00.35 top
  703 systemd+  20   0   71176   6764   5524 S   1.0  0.0   0:06.72 systemd-re+
 1129 root      20   0 5005772  38488  25972 S   1.0  0.2   0:44.96 containerd

top - 23:20:22 up  2:36,  1 user,  load average: 0.00, 1.09, 1.86
Tasks: 286 total,   1 running, 224 sleeping,   0 stopped,   0 zombie
%Cpu(s):  0.1 us,  0.2 sy,  0.0 ni, 99.6 id,  0.0 wa,  0.0 hi,  0.0 si,  0.0 st
KiB Mem : 16278768 total, 11928604 free,  1399708 used,  2950456 buff/cache
KiB Swap: 16630780 total, 16630780 free,        0 used. 14428700 avail Mem 

  PID USER      PR  NI    VIRT    RES    SHR S  %CPU %MEM     TIME+ COMMAND
    8 root      20   0       0      0      0 I   1.0  0.0   0:05.97 rcu_sched
 1780 root      20   0  433932  94760  61668 S   1.0  0.6   1:50.76 Xorg
14639 kenenth   20   0   41900   3868   3136 R   1.0  0.0   0:00.36 top

top - 23:20:23 up  2:36,  1 user,  load average: 0.00, 1.09, 1.86
Tasks: 286 total,   1 running, 224 sleeping,   0 stopped,   0 zombie
%Cpu(s):  0.0 us,  0.1 sy,  0.0 ni, 99.9 id,  0.0 wa,  0.0 hi,  0.0 si,  0.0 st
KiB Mem : 16278768 total, 11928604 free,  1399708 used,  2950456 buff/cache
KiB Swap: 16630780 total, 16630780 free,        0 used. 14428700 avail Mem 

  PID USER      PR  NI    VIRT    RES    SHR S  %CPU %MEM     TIME+ COMMAND
14639 kenenth   20   0   41900   3868   3136 R   1.0  0.0   0:00.37 top

top - 23:20:24 up  2:36,  1 user,  load average: 0.00, 1.09, 1.86
Tasks: 286 total,   1 running, 224 sleeping,   0 stopped,   0 zombie
%Cpu(s):  0.1 us,  0.1 sy,  0.0 ni, 99.8 id,  0.0 wa,  0.0 hi,  0.0 si,  0.0 st
KiB Mem : 16278768 total, 11928604 free,  1399708 used,  2950456 buff/cache
KiB Swap: 16630780 total, 16630780 free,        0 used. 14428700 avail Mem 

  PID USER      PR  NI    VIRT    RES    SHR S  %CPU %MEM     TIME+ COMMAND
14639 kenenth   20   0   41900   3868   3136 R   1.0  0.0   0:00.38 top

top - 23:20:25 up  2:36,  1 user,  load average: 0.00, 1.07, 1.85
Tasks: 286 total,   1 running, 224 sleeping,   0 stopped,   0 zombie
%Cpu(s):  0.1 us,  0.4 sy,  0.0 ni, 99.5 id,  0.0 wa,  0.0 hi,  0.0 si,  0.0 st
KiB Mem : 16278768 total, 11928580 free,  1399732 used,  2950456 buff/cache
KiB Swap: 16630780 total, 16630780 free,        0 used. 14428676 avail Mem 

  PID USER      PR  NI    VIRT    RES    SHR S  %CPU %MEM     TIME+ COMMAND
 1780 root      20   0  433932  94760  61668 S   1.0  0.6   1:50.77 Xorg
 2332 root      20   0 6056052 105520  39168 S   1.0  0.6   2:35.58 dockerd
14639 kenenth   20   0   41900   3868   3136 R   1.0  0.0   0:00.39 top

top - 23:20:26 up  2:36,  1 user,  load average: 0.00, 1.07, 1.85
Tasks: 286 total,   1 running, 224 sleeping,   0 stopped,   0 zombie
%Cpu(s):  0.1 us,  0.1 sy,  0.0 ni, 99.8 id,  0.0 wa,  0.0 hi,  0.0 si,  0.0 st
KiB Mem : 16278768 total, 11928580 free,  1399732 used,  2950456 buff/cache
KiB Swap: 16630780 total, 16630780 free,        0 used. 14428676 avail Mem 

  PID USER      PR  NI    VIRT    RES    SHR S  %CPU %MEM     TIME+ COMMAND
14639 kenenth   20   0   41900   3868   3136 R   1.0  0.0   0:00.40 top
30100 root      20   0       0      0      0 I   1.0  0.0   0:01.52 kworker/u1+

top - 23:20:27 up  2:36,  1 user,  load average: 0.00, 1.07, 1.85
Tasks: 286 total,   1 running, 224 sleeping,   0 stopped,   0 zombie
%Cpu(s):  0.0 us,  0.5 sy,  0.0 ni, 99.5 id,  0.0 wa,  0.0 hi,  0.0 si,  0.0 st
KiB Mem : 16278768 total, 11928580 free,  1399732 used,  2950456 buff/cache
KiB Swap: 16630780 total, 16630780 free,        0 used. 14428676 avail Mem 

  PID USER      PR  NI    VIRT    RES    SHR S  %CPU %MEM     TIME+ COMMAND
14639 kenenth   20   0   41900   3868   3136 R   2.0  0.0   0:00.42 top
 1780 root      20   0  433932  94760  61668 S   1.0  0.6   1:50.78 Xorg

top - 23:20:28 up  2:36,  1 user,  load average: 0.00, 1.07, 1.85
Tasks: 286 total,   1 running, 224 sleeping,   0 stopped,   0 zombie
%Cpu(s):  0.1 us,  0.2 sy,  0.0 ni, 99.6 id,  0.0 wa,  0.0 hi,  0.0 si,  0.0 st
KiB Mem : 16278768 total, 11928572 free,  1399736 used,  2950460 buff/cache
KiB Swap: 16630780 total, 16630780 free,        0 used. 14428668 avail Mem 

  PID USER      PR  NI    VIRT    RES    SHR S  %CPU %MEM     TIME+ COMMAND
14639 kenenth   20   0   41900   3868   3136 R   1.0  0.0   0:00.43 top
14650 kenenth   20   0   29024   3048   2804 S   1.0  0.0   0:00.01 ping

top - 23:20:29 up  2:36,  1 user,  load average: 0.00, 1.07, 1.85
Tasks: 286 total,   1 running, 224 sleeping,   0 stopped,   0 zombie
%Cpu(s):  0.1 us,  0.1 sy,  0.0 ni, 99.8 id,  0.0 wa,  0.0 hi,  0.0 si,  0.0 st
KiB Mem : 16278768 total, 11928572 free,  1399736 used,  2950460 buff/cache
KiB Swap: 16630780 total, 16630780 free,        0 used. 14428668 avail Mem 

  PID USER      PR  NI    VIRT    RES    SHR S  %CPU %MEM     TIME+ COMMAND
14639 kenenth   20   0   41900   3868   3136 R   2.0  0.0   0:00.45 top
 1129 root      20   0 5005772  38488  25972 S   1.0  0.2   0:44.97 containerd

top - 23:20:30 up  2:36,  1 user,  load average: 0.00, 1.06, 1.84
Tasks: 286 total,   1 running, 224 sleeping,   0 stopped,   0 zombie
%Cpu(s):  0.0 us,  0.1 sy,  0.0 ni, 99.9 id,  0.0 wa,  0.0 hi,  0.0 si,  0.0 st
KiB Mem : 16278768 total, 11928572 free,  1399736 used,  2950460 buff/cache
KiB Swap: 16630780 total, 16630780 free,        0 used. 14428668 avail Mem 

  PID USER      PR  NI    VIRT    RES    SHR S  %CPU %MEM     TIME+ COMMAND
 1780 root      20   0  433932  94760  61668 S   1.0  0.6   1:50.79 Xorg
14639 kenenth   20   0   41900   3868   3136 R   1.0  0.0   0:00.46 top
14651 kenenth   20   0   29024   2960   2716 S   1.0  0.0   0:00.01 ping

top - 23:20:31 up  2:36,  1 user,  load average: 0.00, 1.06, 1.84
Tasks: 286 total,   1 running, 224 sleeping,   0 stopped,   0 zombie
%Cpu(s):  0.0 us,  0.2 sy,  0.0 ni, 99.8 id,  0.0 wa,  0.0 hi,  0.0 si,  0.0 st
KiB Mem : 16278768 total, 11928548 free,  1399752 used,  2950468 buff/cache
KiB Swap: 16630780 total, 16630780 free,        0 used. 14428644 avail Mem 

  PID USER      PR  NI    VIRT    RES    SHR S  %CPU %MEM     TIME+ COMMAND
 1780 root      20   0  433932  94760  61668 S   1.0  0.6   1:50.80 Xorg
14639 kenenth   20   0   41900   3868   3136 R   1.0  0.0   0:00.47 top

top - 23:20:33 up  2:37,  1 user,  load average: 0.00, 1.06, 1.84
Tasks: 286 total,   1 running, 224 sleeping,   0 stopped,   0 zombie
%Cpu(s):  0.2 us,  0.5 sy,  0.0 ni, 99.3 id,  0.0 wa,  0.0 hi,  0.0 si,  0.0 st
KiB Mem : 16278768 total, 11928548 free,  1399752 used,  2950468 buff/cache
KiB Swap: 16630780 total, 16630780 free,        0 used. 14428644 avail Mem 

  PID USER      PR  NI    VIRT    RES    SHR S  %CPU %MEM     TIME+ COMMAND
14639 kenenth   20   0   41900   3868   3136 R   1.0  0.0   0:00.48 top

top - 23:20:34 up  2:37,  1 user,  load average: 0.00, 1.06, 1.84
Tasks: 286 total,   1 running, 224 sleeping,   0 stopped,   0 zombie
%Cpu(s):  0.1 us,  0.2 sy,  0.0 ni, 99.6 id,  0.0 wa,  0.0 hi,  0.0 si,  0.0 st
KiB Mem : 16278768 total, 11928548 free,  1399752 used,  2950468 buff/cache
KiB Swap: 16630780 total, 16630780 free,        0 used. 14428644 avail Mem 

  PID USER      PR  NI    VIRT    RES    SHR S  %CPU %MEM     TIME+ COMMAND
14639 kenenth   20   0   41900   3868   3136 R   2.0  0.0   0:00.50 top

top - 23:20:35 up  2:37,  1 user,  load average: 0.00, 1.06, 1.84
Tasks: 286 total,   1 running, 224 sleeping,   0 stopped,   0 zombie
%Cpu(s):  0.9 us,  0.1 sy,  0.0 ni, 99.0 id,  0.0 wa,  0.0 hi,  0.0 si,  0.0 st
KiB Mem : 16278768 total, 11928548 free,  1399752 used,  2950468 buff/cache
KiB Swap: 16630780 total, 16630780 free,        0 used. 14428644 avail Mem 

  PID USER      PR  NI    VIRT    RES    SHR S  %CPU %MEM     TIME+ COMMAND
 2332 root      20   0 6056052 105520  39168 S   5.0  0.6   2:35.63 dockerd
 1780 root      20   0  433932  94760  61668 S   1.0  0.6   1:50.81 Xorg
14639 kenenth   20   0   41900   3868   3136 R   1.0  0.0   0:00.51 top
14643 kenenth   20   0   29024   3016   2776 S   1.0  0.0   0:00.01 ping

top - 23:20:36 up  2:37,  1 user,  load average: 0.00, 1.04, 1.83
Tasks: 286 total,   1 running, 224 sleeping,   0 stopped,   0 zombie
%Cpu(s):  0.1 us,  0.1 sy,  0.0 ni, 99.6 id,  0.1 wa,  0.0 hi,  0.0 si,  0.0 st
KiB Mem : 16278768 total, 11928548 free,  1399752 used,  2950468 buff/cache
KiB Swap: 16630780 total, 16630780 free,        0 used. 14428644 avail Mem 

  PID USER      PR  NI    VIRT    RES    SHR S  %CPU %MEM     TIME+ COMMAND
14639 kenenth   20   0   41900   3868   3136 R   1.0  0.0   0:00.52 top
14642 kenenth   20   0   29024   3036   2792 S   1.0  0.0   0:00.01 ping

top - 23:20:37 up  2:37,  1 user,  load average: 0.00, 1.04, 1.83
Tasks: 286 total,   1 running, 224 sleeping,   0 stopped,   0 zombie
%Cpu(s):  0.5 us,  0.2 sy,  0.0 ni, 99.3 id,  0.0 wa,  0.0 hi,  0.0 si,  0.0 st
KiB Mem : 16278768 total, 11928532 free,  1399760 used,  2950476 buff/cache
KiB Swap: 16630780 total, 16630780 free,        0 used. 14428628 avail Mem 

  PID USER      PR  NI    VIRT    RES    SHR S  %CPU %MEM     TIME+ COMMAND
 1129 root      20   0 5005772  38488  25972 S   1.0  0.2   0:44.98 containerd
 1780 root      20   0  433932  94760  61668 S   1.0  0.6   1:50.82 Xorg
14639 kenenth   20   0   41900   3868   3136 R   1.0  0.0   0:00.53 top

top - 23:20:38 up  2:37,  1 user,  load average: 0.00, 1.04, 1.83
Tasks: 286 total,   1 running, 224 sleeping,   0 stopped,   0 zombie
%Cpu(s):  0.6 us,  0.0 sy,  0.0 ni, 99.4 id,  0.0 wa,  0.0 hi,  0.0 si,  0.0 st
KiB Mem : 16278768 total, 11928532 free,  1399760 used,  2950476 buff/cache
KiB Swap: 16630780 total, 16630780 free,        0 used. 14428628 avail Mem 

  PID USER      PR  NI    VIRT    RES    SHR S  %CPU %MEM     TIME+ COMMAND
  997 root      20   0 1091132  31268  18128 S   3.0  0.2   0:21.17 snapd
14639 kenenth   20   0   41900   3868   3136 R   2.0  0.0   0:00.55 top
  972 root      20   0  565028  23704  13716 S   1.0  0.1   1:13.23 NetworkMan+

top - 23:20:39 up  2:37,  1 user,  load average: 0.00, 1.04, 1.83
Tasks: 285 total,   1 running, 224 sleeping,   0 stopped,   0 zombie
%Cpu(s):  0.0 us,  0.4 sy,  0.0 ni, 99.6 id,  0.0 wa,  0.0 hi,  0.0 si,  0.0 st
KiB Mem : 16278768 total, 11928532 free,  1399760 used,  2950476 buff/cache
KiB Swap: 16630780 total, 16630780 free,        0 used. 14428628 avail Mem 

  PID USER      PR  NI    VIRT    RES    SHR S  %CPU %MEM     TIME+ COMMAND
14639 kenenth   20   0   41900   3868   3136 R   1.0  0.0   0:00.56 top

top - 23:20:40 up  2:37,  1 user,  load average: 0.00, 1.04, 1.83
Tasks: 285 total,   1 running, 224 sleeping,   0 stopped,   0 zombie
%Cpu(s):  0.1 us,  0.2 sy,  0.0 ni, 99.6 id,  0.0 wa,  0.0 hi,  0.0 si,  0.0 st
KiB Mem : 16278768 total, 11928476 free,  1399812 used,  2950480 buff/cache
KiB Swap: 16630780 total, 16630780 free,        0 used. 14428584 avail Mem 

  PID USER      PR  NI    VIRT    RES    SHR S  %CPU %MEM     TIME+ COMMAND
14639 kenenth   20   0   41900   3868   3136 R   2.0  0.0   0:00.58 top
 1780 root      20   0  433932  94760  61668 S   1.0  0.6   1:50.83 Xorg

top - 23:20:41 up  2:37,  1 user,  load average: 0.00, 1.02, 1.82
Tasks: 285 total,   1 running, 224 sleeping,   0 stopped,   0 zombie
%Cpu(s):  0.1 us,  0.1 sy,  0.0 ni, 99.8 id,  0.0 wa,  0.0 hi,  0.0 si,  0.0 st
KiB Mem : 16278768 total, 11928476 free,  1399812 used,  2950480 buff/cache
KiB Swap: 16630780 total, 16630780 free,        0 used. 14428584 avail Mem 

  PID USER      PR  NI    VIRT    RES    SHR S  %CPU %MEM     TIME+ COMMAND
 1129 root      20   0 5005772  38488  25972 S   1.0  0.2   0:44.99 containerd
14639 kenenth   20   0   41900   3868   3136 R   1.0  0.0   0:00.59 top

top - 23:20:42 up  2:37,  1 user,  load average: 0.00, 1.02, 1.82
Tasks: 285 total,   1 running, 224 sleeping,   0 stopped,   0 zombie
%Cpu(s):  0.2 us,  0.2 sy,  0.0 ni, 99.5 id,  0.0 wa,  0.0 hi,  0.0 si,  0.0 st
KiB Mem : 16278768 total, 11928476 free,  1399812 used,  2950480 buff/cache
KiB Swap: 16630780 total, 16630780 free,        0 used. 14428584 avail Mem 

  PID USER      PR  NI    VIRT    RES    SHR S  %CPU %MEM     TIME+ COMMAND
 1780 root      20   0  433932  94760  61668 S   1.0  0.6   1:50.84 Xorg
 1781 root     -51   0       0      0      0 S   1.0  0.0   0:13.43 irq/135-nv+
14639 kenenth   20   0   41900   3868   3136 R   1.0  0.0   0:00.60 top
14649 kenenth   20   0   29024   2928   2684 S   1.0  0.0   0:00.01 ping

top - 23:20:43 up  2:37,  1 user,  load average: 0.00, 1.02, 1.82
Tasks: 285 total,   1 running, 224 sleeping,   0 stopped,   0 zombie
%Cpu(s):  0.2 us,  0.1 sy,  0.0 ni, 99.6 id,  0.0 wa,  0.0 hi,  0.0 si,  0.0 st
KiB Mem : 16278768 total, 11928500 free,  1399784 used,  2950484 buff/cache
KiB Swap: 16630780 total, 16630780 free,        0 used. 14428640 avail Mem 

  PID USER      PR  NI    VIRT    RES    SHR S  %CPU %MEM     TIME+ COMMAND
  995 avahi     20   0   48332   4912   3344 S   1.0  0.0   0:11.36 avahi-daem+
 2098 kenenth   20   0  448120  13192   8100 S   1.0  0.1   0:44.42 gsd-sharing
14639 kenenth   20   0   41900   3868   3136 R   1.0  0.0   0:00.61 top
20059 root      20   0       0      0      0 I   1.0  0.0   0:00.84 kworker/u1+

top - 23:20:44 up  2:37,  1 user,  load average: 0.00, 1.02, 1.82
Tasks: 285 total,   1 running, 224 sleeping,   0 stopped,   0 zombie
%Cpu(s):  0.0 us,  0.1 sy,  0.0 ni, 99.9 id,  0.0 wa,  0.0 hi,  0.0 si,  0.0 st
KiB Mem : 16278768 total, 11928500 free,  1399784 used,  2950484 buff/cache
KiB Swap: 16630780 total, 16630780 free,        0 used. 14428640 avail Mem 

  PID USER      PR  NI    VIRT    RES    SHR S  %CPU %MEM     TIME+ COMMAND
 1780 root      20   0  433932  94760  61668 S   1.0  0.6   1:50.85 Xorg
14639 kenenth   20   0   41900   3868   3136 R   1.0  0.0   0:00.62 top

top - 23:20:45 up  2:37,  1 user,  load average: 0.00, 1.02, 1.82
Tasks: 285 total,   1 running, 224 sleeping,   0 stopped,   0 zombie
%Cpu(s):  0.0 us,  0.1 sy,  0.0 ni, 99.9 id,  0.0 wa,  0.0 hi,  0.0 si,  0.0 st
KiB Mem : 16278768 total, 11928500 free,  1399784 used,  2950484 buff/cache
KiB Swap: 16630780 total, 16630780 free,        0 used. 14428640 avail Mem 

  PID USER      PR  NI    VIRT    RES    SHR S  %CPU %MEM     TIME+ COMMAND
14639 kenenth   20   0   41900   3868   3136 R   1.0  0.0   0:00.63 top

top - 23:20:46 up  2:37,  1 user,  load average: 0.00, 1.00, 1.81
Tasks: 285 total,   1 running, 224 sleeping,   0 stopped,   0 zombie
%Cpu(s):  0.1 us,  0.1 sy,  0.0 ni, 99.8 id,  0.0 wa,  0.0 hi,  0.0 si,  0.0 st
KiB Mem : 16278768 total, 11928444 free,  1399836 used,  2950488 buff/cache
KiB Swap: 16630780 total, 16630780 free,        0 used. 14428584 avail Mem 

  PID USER      PR  NI    VIRT    RES    SHR S  %CPU %MEM     TIME+ COMMAND
14639 kenenth   20   0   41900   3868   3136 R   2.0  0.0   0:00.65 top
 1780 root      20   0  433932  94760  61668 S   1.0  0.6   1:50.86 Xorg

top - 23:20:47 up  2:37,  1 user,  load average: 0.00, 1.00, 1.81
Tasks: 285 total,   1 running, 224 sleeping,   0 stopped,   0 zombie
%Cpu(s):  0.1 us,  0.1 sy,  0.0 ni, 99.8 id,  0.0 wa,  0.0 hi,  0.0 si,  0.0 st
KiB Mem : 16278768 total, 11928444 free,  1399836 used,  2950488 buff/cache
KiB Swap: 16630780 total, 16630780 free,        0 used. 14428584 avail Mem 

  PID USER      PR  NI    VIRT    RES    SHR S  %CPU %MEM     TIME+ COMMAND
 1129 root      20   0 5005772  38488  25972 S   1.0  0.2   0:45.00 containerd
 1514 gdm       20   0  803904  30996  23380 S   1.0  0.2   0:01.12 gsd-color
14639 kenenth   20   0   41900   3868   3136 R   1.0  0.0   0:00.66 top
14644 kenenth   20   0   29024   2924   2684 S   1.0  0.0   0:00.01 ping
14645 kenenth   20   0   29024   2888   2648 S   1.0  0.0   0:00.01 ping
21575 root      20   0       0      0      0 I   1.0  0.0   0:00.25 kworker/5:2

top - 23:20:48 up  2:37,  1 user,  load average: 0.00, 1.00, 1.81
Tasks: 285 total,   1 running, 224 sleeping,   0 stopped,   0 zombie
%Cpu(s):  0.2 us,  0.1 sy,  0.0 ni, 99.6 id,  0.0 wa,  0.0 hi,  0.0 si,  0.0 st
KiB Mem : 16278768 total, 11928444 free,  1399836 used,  2950488 buff/cache
KiB Swap: 16630780 total, 16630780 free,        0 used. 14428584 avail Mem 

  PID USER      PR  NI    VIRT    RES    SHR S  %CPU %MEM     TIME+ COMMAND
14639 kenenth   20   0   41900   3868   3136 R   2.0  0.0   0:00.68 top
 1780 root      20   0  433932  94760  61668 S   1.0  0.6   1:50.87 Xorg

top - 23:20:49 up  2:37,  1 user,  load average: 0.00, 1.00, 1.81
Tasks: 285 total,   1 running, 224 sleeping,   0 stopped,   0 zombie
%Cpu(s):  0.2 us,  0.2 sy,  0.0 ni, 99.5 id,  0.0 wa,  0.0 hi,  0.0 si,  0.0 st
KiB Mem : 16278768 total, 11928468 free,  1399812 used,  2950488 buff/cache
KiB Swap: 16630780 total, 16630780 free,        0 used. 14428616 avail Mem 

  PID USER      PR  NI    VIRT    RES    SHR S  %CPU %MEM     TIME+ COMMAND
 1985 kenenth   20   0 3540348 243700  96104 S   1.0  1.5   5:08.95 gnome-shell
14639 kenenth   20   0   41900   3868   3136 R   1.0  0.0   0:00.69 top

top - 23:20:50 up  2:37,  1 user,  load average: 0.00, 1.00, 1.81
Tasks: 285 total,   1 running, 224 sleeping,   0 stopped,   0 zombie
%Cpu(s):  0.0 us,  0.2 sy,  0.0 ni, 99.8 id,  0.0 wa,  0.0 hi,  0.0 si,  0.0 st
KiB Mem : 16278768 total, 11928468 free,  1399812 used,  2950488 buff/cache
KiB Swap: 16630780 total, 16630780 free,        0 used. 14428616 avail Mem 

  PID USER      PR  NI    VIRT    RES    SHR S  %CPU %MEM     TIME+ COMMAND
14639 kenenth   20   0   41900   3868   3136 R   1.0  0.0   0:00.70 top

top - 23:20:51 up  2:37,  1 user,  load average: 0.00, 0.99, 1.80
Tasks: 285 total,   1 running, 224 sleeping,   0 stopped,   0 zombie
%Cpu(s):  0.0 us,  0.2 sy,  0.0 ni, 99.8 id,  0.0 wa,  0.0 hi,  0.0 si,  0.0 st
KiB Mem : 16278768 total, 11928468 free,  1399812 used,  2950488 buff/cache
KiB Swap: 16630780 total, 16630780 free,        0 used. 14428616 avail Mem 

  PID USER      PR  NI    VIRT    RES    SHR S  %CPU %MEM     TIME+ COMMAND
  945 root      20   0  269688   5956   5196 S   1.0  0.0   0:01.69 iio-sensor+
 1780 root      20   0  433932  94760  61668 S   1.0  0.6   1:50.88 Xorg
14639 kenenth   20   0   41900   3868   3136 R   1.0  0.0   0:00.71 top

top - 23:20:52 up  2:37,  1 user,  load average: 0.00, 0.99, 1.80
Tasks: 285 total,   1 running, 224 sleeping,   0 stopped,   0 zombie
%Cpu(s):  0.1 us,  0.2 sy,  0.0 ni, 99.6 id,  0.0 wa,  0.0 hi,  0.0 si,  0.0 st
KiB Mem : 16278768 total, 11928412 free,  1399860 used,  2950496 buff/cache
KiB Swap: 16630780 total, 16630780 free,        0 used. 14428560 avail Mem 

  PID USER      PR  NI    VIRT    RES    SHR S  %CPU %MEM     TIME+ COMMAND
14639 kenenth   20   0   41900   3868   3136 R   1.0  0.0   0:00.72 top

top - 23:20:53 up  2:37,  1 user,  load average: 0.00, 0.99, 1.80
Tasks: 285 total,   1 running, 224 sleeping,   0 stopped,   0 zombie
%Cpu(s):  0.1 us,  0.1 sy,  0.0 ni, 99.8 id,  0.0 wa,  0.0 hi,  0.0 si,  0.0 st
KiB Mem : 16278768 total, 11928412 free,  1399860 used,  2950496 buff/cache
KiB Swap: 16630780 total, 16630780 free,        0 used. 14428560 avail Mem 

  PID USER      PR  NI    VIRT    RES    SHR S  %CPU %MEM     TIME+ COMMAND
 1780 root      20   0  433932  94760  61668 S   1.0  0.6   1:50.89 Xorg
14639 kenenth   20   0   41900   3868   3136 R   1.0  0.0   0:00.73 top

top - 23:20:54 up  2:37,  1 user,  load average: 0.00, 0.99, 1.80
Tasks: 285 total,   1 running, 224 sleeping,   0 stopped,   0 zombie
%Cpu(s):  0.1 us,  0.5 sy,  0.0 ni, 99.4 id,  0.0 wa,  0.0 hi,  0.0 si,  0.0 st
KiB Mem : 16278768 total, 11928412 free,  1399860 used,  2950496 buff/cache
KiB Swap: 16630780 total, 16630780 free,        0 used. 14428560 avail Mem 

  PID USER      PR  NI    VIRT    RES    SHR S  %CPU %MEM     TIME+ COMMAND
    8 root      20   0       0      0      0 I   1.0  0.0   0:05.98 rcu_sched
 1780 root      20   0  433932  94760  61668 S   1.0  0.6   1:50.90 Xorg
14639 kenenth   20   0   41900   3868   3136 R   1.0  0.0   0:00.74 top
14647 kenenth   20   0   29024   3016   2776 S   1.0  0.0   0:00.01 ping

top - 23:20:55 up  2:37,  1 user,  load average: 0.00, 0.99, 1.80
Tasks: 285 total,   1 running, 224 sleeping,   0 stopped,   0 zombie
%Cpu(s):  0.0 us,  0.1 sy,  0.0 ni, 99.9 id,  0.0 wa,  0.0 hi,  0.0 si,  0.0 st
KiB Mem : 16278768 total, 11928404 free,  1399864 used,  2950500 buff/cache
KiB Swap: 16630780 total, 16630780 free,        0 used. 14428552 avail Mem 

  PID USER      PR  NI    VIRT    RES    SHR S  %CPU %MEM     TIME+ COMMAND
 1129 root      20   0 5005772  38488  25972 S   2.0  0.2   0:45.02 containerd
14639 kenenth   20   0   41900   3868   3136 R   2.0  0.0   0:00.76 top
14646 kenenth   20   0   29024   3040   2800 S   1.0  0.0   0:00.01 ping

top - 23:20:56 up  2:37,  1 user,  load average: 0.00, 0.97, 1.79
Tasks: 285 total,   1 running, 224 sleeping,   0 stopped,   0 zombie
%Cpu(s):  0.1 us,  0.1 sy,  0.0 ni, 99.6 id,  0.1 wa,  0.0 hi,  0.0 si,  0.0 st
KiB Mem : 16278768 total, 11928404 free,  1399864 used,  2950500 buff/cache
KiB Swap: 16630780 total, 16630780 free,        0 used. 14428552 avail Mem 

  PID USER      PR  NI    VIRT    RES    SHR S  %CPU %MEM     TIME+ COMMAND
 1780 root      20   0  433932  94760  61668 S   1.0  0.6   1:50.91 Xorg
 2137 kenenth   20   0  661116  23020  17816 S   1.0  0.1   0:01.11 gsd-color
14639 kenenth   20   0   41900   3868   3136 R   1.0  0.0   0:00.77 top

top - 23:20:57 up  2:37,  1 user,  load average: 0.00, 0.97, 1.79
Tasks: 285 total,   1 running, 224 sleeping,   0 stopped,   0 zombie
%Cpu(s):  0.1 us,  0.2 sy,  0.0 ni, 99.6 id,  0.0 wa,  0.0 hi,  0.0 si,  0.0 st
KiB Mem : 16278768 total, 11928404 free,  1399864 used,  2950500 buff/cache
KiB Swap: 16630780 total, 16630780 free,        0 used. 14428552 avail Mem 

  PID USER      PR  NI    VIRT    RES    SHR S  %CPU %MEM     TIME+ COMMAND
  972 root      20   0  565028  23704  13716 S   1.0  0.1   1:13.24 NetworkMan+
14639 kenenth   20   0   41900   3868   3136 R   1.0  0.0   0:00.78 top

top - 23:20:58 up  2:37,  1 user,  load average: 0.00, 0.97, 1.79
Tasks: 285 total,   1 running, 224 sleeping,   0 stopped,   0 zombie
%Cpu(s):  0.2 us,  0.2 sy,  0.0 ni, 99.5 id,  0.0 wa,  0.0 hi,  0.0 si,  0.0 st
KiB Mem : 16278768 total, 11928216 free,  1400048 used,  2950504 buff/cache
KiB Swap: 16630780 total, 16630780 free,        0 used. 14428364 avail Mem 

  PID USER      PR  NI    VIRT    RES    SHR S  %CPU %MEM     TIME+ COMMAND
  995 avahi     20   0   48332   4912   3344 S   1.0  0.0   0:11.37 avahi-daem+
 1780 root      20   0  433932  94760  61668 S   1.0  0.6   1:50.92 Xorg
14639 kenenth   20   0   41900   3868   3136 R   1.0  0.0   0:00.79 top

top - 23:20:59 up  2:37,  1 user,  load average: 0.00, 0.97, 1.79
Tasks: 285 total,   1 running, 224 sleeping,   0 stopped,   0 zombie
%Cpu(s):  0.1 us,  0.1 sy,  0.0 ni, 99.8 id,  0.0 wa,  0.0 hi,  0.0 si,  0.0 st
KiB Mem : 16278768 total, 11928216 free,  1400048 used,  2950504 buff/cache
KiB Swap: 16630780 total, 16630780 free,        0 used. 14428364 avail Mem 

  PID USER      PR  NI    VIRT    RES    SHR S  %CPU %MEM     TIME+ COMMAND
14639 kenenth   20   0   41900   3868   3136 R   2.0  0.0   0:00.81 top
 2332 root      20   0 6056052 105520  39168 S   1.0  0.6   2:35.64 dockerd
 3825 root      20   0  547576  20732  14028 S   1.0  0.1   0:00.42 fwupd

top - 23:21:00 up  2:37,  1 user,  load average: 0.00, 0.95, 1.78
Tasks: 285 total,   1 running, 224 sleeping,   0 stopped,   0 zombie
%Cpu(s):  0.2 us,  0.2 sy,  0.0 ni, 99.5 id,  0.0 wa,  0.0 hi,  0.0 si,  0.0 st
KiB Mem : 16278768 total, 11928216 free,  1400048 used,  2950504 buff/cache
KiB Swap: 16630780 total, 16630780 free,        0 used. 14428364 avail Mem 

  PID USER      PR  NI    VIRT    RES    SHR S  %CPU %MEM     TIME+ COMMAND
 1780 root      20   0  433932  94760  61668 S   1.0  0.6   1:50.93 Xorg
14639 kenenth   20   0   41900   3868   3136 R   1.0  0.0   0:00.82 top

top - 23:21:01 up  2:37,  1 user,  load average: 0.00, 0.95, 1.78
Tasks: 285 total,   1 running, 224 sleeping,   0 stopped,   0 zombie
%Cpu(s):  0.1 us,  0.2 sy,  0.0 ni, 99.6 id,  0.0 wa,  0.0 hi,  0.0 si,  0.0 st
KiB Mem : 16278768 total, 11928216 free,  1400044 used,  2950508 buff/cache
KiB Swap: 16630780 total, 16630780 free,        0 used. 14428364 avail Mem 

  PID USER      PR  NI    VIRT    RES    SHR S  %CPU %MEM     TIME+ COMMAND
14639 kenenth   20   0   41900   3868   3136 R   1.0  0.0   0:00.83 top
14648 kenenth   20   0   29024   2912   2668 S   1.0  0.0   0:00.01 ping

top - 23:21:02 up  2:37,  1 user,  load average: 0.00, 0.95, 1.78
Tasks: 285 total,   1 running, 224 sleeping,   0 stopped,   0 zombie
%Cpu(s):  0.1 us,  0.1 sy,  0.0 ni, 99.8 id,  0.0 wa,  0.0 hi,  0.0 si,  0.0 st
KiB Mem : 16278768 total, 11928216 free,  1400044 used,  2950508 buff/cache
KiB Swap: 16630780 total, 16630780 free,        0 used. 14428364 avail Mem 

  PID USER      PR  NI    VIRT    RES    SHR S  %CPU %MEM     TIME+ COMMAND
14639 kenenth   20   0   41900   3868   3136 R   2.0  0.0   0:00.85 top

top - 23:21:03 up  2:37,  1 user,  load average: 0.00, 0.95, 1.78
Tasks: 285 total,   2 running, 224 sleeping,   0 stopped,   0 zombie
%Cpu(s):  0.0 us,  0.1 sy,  0.0 ni, 99.9 id,  0.0 wa,  0.0 hi,  0.0 si,  0.0 st
KiB Mem : 16278768 total, 11928216 free,  1400044 used,  2950508 buff/cache
KiB Swap: 16630780 total, 16630780 free,        0 used. 14428364 avail Mem 

  PID USER      PR  NI    VIRT    RES    SHR S  %CPU %MEM     TIME+ COMMAND
 1780 root      20   0  433932  94760  61668 S   1.0  0.6   1:50.94 Xorg
14639 kenenth   20   0   41900   3868   3136 R   1.0  0.0   0:00.86 top

top - 23:21:04 up  2:37,  1 user,  load average: 0.00, 0.95, 1.78
Tasks: 285 total,   1 running, 224 sleeping,   0 stopped,   0 zombie
%Cpu(s):  0.0 us,  0.2 sy,  0.0 ni, 99.8 id,  0.0 wa,  0.0 hi,  0.0 si,  0.0 st
KiB Mem : 16278768 total, 11928160 free,  1400096 used,  2950512 buff/cache
KiB Swap: 16630780 total, 16630780 free,        0 used. 14428308 avail Mem 

  PID USER      PR  NI    VIRT    RES    SHR S  %CPU %MEM     TIME+ COMMAND
14639 kenenth   20   0   41900   3868   3136 R   1.0  0.0   0:00.87 top

top - 23:21:05 up  2:37,  1 user,  load average: 0.00, 0.94, 1.77
Tasks: 285 total,   1 running, 224 sleeping,   0 stopped,   0 zombie
%Cpu(s):  0.0 us,  0.2 sy,  0.0 ni, 99.8 id,  0.0 wa,  0.0 hi,  0.0 si,  0.0 st
KiB Mem : 16278768 total, 11928160 free,  1400096 used,  2950512 buff/cache
KiB Swap: 16630780 total, 16630780 free,        0 used. 14428308 avail Mem 

  PID USER      PR  NI    VIRT    RES    SHR S  %CPU %MEM     TIME+ COMMAND
  995 avahi     20   0   48332   4912   3344 S   1.0  0.0   0:11.38 avahi-daem+
 1780 root      20   0  433932  94760  61668 S   1.0  0.6   1:50.95 Xorg
14639 kenenth   20   0   41900   3868   3136 R   1.0  0.0   0:00.88 top

top - 23:21:06 up  2:37,  1 user,  load average: 0.00, 0.94, 1.77
Tasks: 285 total,   1 running, 224 sleeping,   0 stopped,   0 zombie
%Cpu(s):  0.1 us,  0.1 sy,  0.0 ni, 99.8 id,  0.0 wa,  0.0 hi,  0.0 si,  0.0 st
KiB Mem : 16278768 total, 11928160 free,  1400096 used,  2950512 buff/cache
KiB Swap: 16630780 total, 16630780 free,        0 used. 14428308 avail Mem 

  PID USER      PR  NI    VIRT    RES    SHR S  %CPU %MEM     TIME+ COMMAND
 1129 root      20   0 5005772  38488  25972 S   1.0  0.2   0:45.03 containerd
14639 kenenth   20   0   41900   3868   3136 R   1.0  0.0   0:00.89 top

top - 23:21:07 up  2:37,  1 user,  load average: 0.00, 0.94, 1.77
Tasks: 285 total,   1 running, 224 sleeping,   0 stopped,   0 zombie
%Cpu(s):  0.4 us,  0.1 sy,  0.0 ni, 99.5 id,  0.0 wa,  0.0 hi,  0.0 si,  0.0 st
KiB Mem : 16278768 total, 11928112 free,  1400140 used,  2950516 buff/cache
KiB Swap: 16630780 total, 16630780 free,        0 used. 14428260 avail Mem 

  PID USER      PR  NI    VIRT    RES    SHR S  %CPU %MEM     TIME+ COMMAND
14639 kenenth   20   0   41900   3868   3136 R   1.0  0.0   0:00.90 top

top - 23:21:08 up  2:37,  1 user,  load average: 0.00, 0.94, 1.77
Tasks: 285 total,   1 running, 224 sleeping,   0 stopped,   0 zombie
%Cpu(s):  0.1 us,  0.1 sy,  0.0 ni, 99.8 id,  0.0 wa,  0.0 hi,  0.0 si,  0.0 st
KiB Mem : 16278768 total, 11928112 free,  1400140 used,  2950516 buff/cache
KiB Swap: 16630780 total, 16630780 free,        0 used. 14428260 avail Mem 

  PID USER      PR  NI    VIRT    RES    SHR S  %CPU %MEM     TIME+ COMMAND
14639 kenenth   20   0   41900   3868   3136 R   2.0  0.0   0:00.92 top
  944 root      20   0  110512   3520   3184 S   1.0  0.0   0:01.57 irqbalance
 1780 root      20   0  433932  94760  61668 S   1.0  0.6   1:50.96 Xorg

top - 23:21:09 up  2:37,  1 user,  load average: 0.00, 0.94, 1.77
Tasks: 285 total,   1 running, 224 sleeping,   0 stopped,   0 zombie
%Cpu(s):  0.4 us,  0.4 sy,  0.0 ni, 99.1 id,  0.0 wa,  0.0 hi,  0.1 si,  0.0 st
KiB Mem : 16278768 total, 11928112 free,  1400140 used,  2950516 buff/cache
KiB Swap: 16630780 total, 16630780 free,        0 used. 14428260 avail Mem 

  PID USER      PR  NI    VIRT    RES    SHR S  %CPU %MEM     TIME+ COMMAND
 1985 kenenth   20   0 3540348 243700  96104 S   2.0  1.5   5:08.97 gnome-shell
 1129 root      20   0 5005772  38064  25972 S   1.0  0.2   0:45.04 containerd
14639 kenenth   20   0   41900   3868   3136 R   1.0  0.0   0:00.93 top

top - 23:21:10 up  2:37,  1 user,  load average: 0.00, 0.92, 1.76
Tasks: 285 total,   1 running, 224 sleeping,   0 stopped,   0 zombie
%Cpu(s):  0.2 us,  0.2 sy,  0.0 ni, 99.5 id,  0.0 wa,  0.0 hi,  0.0 si,  0.0 st
KiB Mem : 16278768 total, 11928304 free,  1399944 used,  2950520 buff/cache
KiB Swap: 16630780 total, 16630780 free,        0 used. 14428464 avail Mem 

  PID USER      PR  NI    VIRT    RES    SHR S  %CPU %MEM     TIME+ COMMAND
 1302 gdm       20   0 3332456 122260  66292 S   1.0  0.8   1:46.03 gnome-shell
 1780 root      20   0  433932  94760  61668 S   1.0  0.6   1:50.97 Xorg
14639 kenenth   20   0   41900   3868   3136 R   1.0  0.0   0:00.94 top

top - 23:21:11 up  2:37,  1 user,  load average: 0.00, 0.92, 1.76
Tasks: 285 total,   1 running, 224 sleeping,   0 stopped,   0 zombie
%Cpu(s):  0.1 us,  0.2 sy,  0.0 ni, 99.6 id,  0.0 wa,  0.0 hi,  0.0 si,  0.0 st
KiB Mem : 16278768 total, 11928304 free,  1399944 used,  2950520 buff/cache
KiB Swap: 16630780 total, 16630780 free,        0 used. 14428464 avail Mem 

  PID USER      PR  NI    VIRT    RES    SHR S  %CPU %MEM     TIME+ COMMAND
 1781 root     -51   0       0      0      0 S   1.0  0.0   0:13.44 irq/135-nv+
14639 kenenth   20   0   41900   3868   3136 R   1.0  0.0   0:00.95 top

top - 23:21:12 up  2:37,  1 user,  load average: 0.00, 0.92, 1.76
Tasks: 285 total,   1 running, 224 sleeping,   0 stopped,   0 zombie
%Cpu(s):  0.2 us,  0.0 sy,  0.0 ni, 99.8 id,  0.0 wa,  0.0 hi,  0.0 si,  0.0 st
KiB Mem : 16278768 total, 11928304 free,  1399944 used,  2950520 buff/cache
KiB Swap: 16630780 total, 16630780 free,        0 used. 14428464 avail Mem 

  PID USER      PR  NI    VIRT    RES    SHR S  %CPU %MEM     TIME+ COMMAND
 1302 gdm       20   0 3332456 122260  66292 S   1.0  0.8   1:46.04 gnome-shell
 1780 root      20   0  433932  94760  61668 S   1.0  0.6   1:50.98 Xorg
 1985 kenenth   20   0 3540348 243700  96104 S   1.0  1.5   5:08.98 gnome-shell
14639 kenenth   20   0   41900   3868   3136 R   1.0  0.0   0:00.96 top

top - 23:21:13 up  2:37,  1 user,  load average: 0.00, 0.92, 1.76
Tasks: 285 total,   1 running, 224 sleeping,   0 stopped,   0 zombie
%Cpu(s):  0.1 us,  0.2 sy,  0.0 ni, 99.6 id,  0.0 wa,  0.0 hi,  0.0 si,  0.0 st
KiB Mem : 16278768 total, 11928296 free,  1399948 used,  2950524 buff/cache
KiB Swap: 16630780 total, 16630780 free,        0 used. 14428456 avail Mem 

  PID USER      PR  NI    VIRT    RES    SHR S  %CPU %MEM     TIME+ COMMAND
14639 kenenth   20   0   41900   3868   3136 R   2.0  0.0   0:00.98 top

top - 23:21:14 up  2:37,  1 user,  load average: 0.00, 0.92, 1.76
Tasks: 285 total,   1 running, 224 sleeping,   0 stopped,   0 zombie
%Cpu(s):  0.0 us,  0.1 sy,  0.0 ni, 99.9 id,  0.0 wa,  0.0 hi,  0.0 si,  0.0 st
KiB Mem : 16278768 total, 11928296 free,  1399948 used,  2950524 buff/cache
KiB Swap: 16630780 total, 16630780 free,        0 used. 14428456 avail Mem 

  PID USER      PR  NI    VIRT    RES    SHR S  %CPU %MEM     TIME+ COMMAND
 1780 root      20   0  433932  94760  61668 S   1.0  0.6   1:50.99 Xorg
 2354 kernoops  20   0   56936    424      0 S   1.0  0.0   0:00.42 kerneloops
14639 kenenth   20   0   41900   3868   3136 R   1.0  0.0   0:00.99 top
14650 kenenth   20   0   29024   3048   2804 S   1.0  0.0   0:00.02 ping

top - 23:21:15 up  2:37,  1 user,  load average: 0.00, 0.91, 1.75
Tasks: 285 total,   1 running, 224 sleeping,   0 stopped,   0 zombie
%Cpu(s):  0.0 us,  0.2 sy,  0.0 ni, 99.6 id,  0.1 wa,  0.0 hi,  0.0 si,  0.0 st
KiB Mem : 16278768 total, 11928296 free,  1399948 used,  2950524 buff/cache
KiB Swap: 16630780 total, 16630780 free,        0 used. 14428456 avail Mem 

  PID USER      PR  NI    VIRT    RES    SHR S  %CPU %MEM     TIME+ COMMAND
14639 kenenth   20   0   41900   3868   3136 R   1.0  0.0   0:01.00 top
14651 kenenth   20   0   29024   2960   2716 S   1.0  0.0   0:00.02 ping

top - 23:21:16 up  2:37,  1 user,  load average: 0.00, 0.91, 1.75
Tasks: 285 total,   1 running, 224 sleeping,   0 stopped,   0 zombie
%Cpu(s):  0.1 us,  0.1 sy,  0.0 ni, 99.8 id,  0.0 wa,  0.0 hi,  0.0 si,  0.0 st
KiB Mem : 16278768 total, 11928272 free,  1399964 used,  2950532 buff/cache
KiB Swap: 16630780 total, 16630780 free,        0 used. 14428432 avail Mem 

  PID USER      PR  NI    VIRT    RES    SHR S  %CPU %MEM     TIME+ COMMAND
14639 kenenth   20   0   41900   3868   3136 R   1.0  0.0   0:01.01 top

top - 23:21:17 up  2:37,  1 user,  load average: 0.00, 0.91, 1.75
Tasks: 285 total,   2 running, 224 sleeping,   0 stopped,   0 zombie
%Cpu(s):  0.1 us,  0.1 sy,  0.0 ni, 99.8 id,  0.0 wa,  0.0 hi,  0.0 si,  0.0 st
KiB Mem : 16278768 total, 11928272 free,  1399964 used,  2950532 buff/cache
KiB Swap: 16630780 total, 16630780 free,        0 used. 14428432 avail Mem 

  PID USER      PR  NI    VIRT    RES    SHR S  %CPU %MEM     TIME+ COMMAND
    1 root      20   0  227104  10944   6764 S   1.0  0.1   1:44.45 systemd
  320 root      20   0   46624   4912   3172 S   1.0  0.0   0:40.08 systemd-ud+
  972 root      20   0  565028  23704  13716 S   1.0  0.1   1:13.25 NetworkMan+
14639 kenenth   20   0   41900   3868   3136 R   1.0  0.0   0:01.02 top

top - 23:21:18 up  2:37,  1 user,  load average: 0.00, 0.91, 1.75
Tasks: 285 total,   1 running, 224 sleeping,   0 stopped,   0 zombie
%Cpu(s):  0.0 us,  0.1 sy,  0.0 ni, 99.9 id,  0.0 wa,  0.0 hi,  0.0 si,  0.0 st
KiB Mem : 16278768 total, 11928272 free,  1399964 used,  2950532 buff/cache
KiB Swap: 16630780 total, 16630780 free,        0 used. 14428432 avail Mem 

  PID USER      PR  NI    VIRT    RES    SHR S  %CPU %MEM     TIME+ COMMAND
  944 root      20   0  110512   3520   3184 S   1.0  0.0   0:01.58 irqbalance
 1780 root      20   0  433932  94760  61668 S   1.0  0.6   1:51.00 Xorg
14639 kenenth   20   0   41900   3868   3136 R   1.0  0.0   0:01.03 top
14643 kenenth   20   0   29024   3016   2776 S   1.0  0.0   0:00.02 ping
14649 kenenth   20   0   29024   2928   2684 S   1.0  0.0   0:00.02 ping

top - 23:21:19 up  2:37,  1 user,  load average: 0.00, 0.91, 1.75
Tasks: 285 total,   1 running, 224 sleeping,   0 stopped,   0 zombie
%Cpu(s):  0.1 us,  0.2 sy,  0.0 ni, 99.6 id,  0.0 wa,  0.0 hi,  0.0 si,  0.0 st
KiB Mem : 16278768 total, 11928264 free,  1399972 used,  2950532 buff/cache
KiB Swap: 16630780 total, 16630780 free,        0 used. 14428424 avail Mem 

  PID USER      PR  NI    VIRT    RES    SHR S  %CPU %MEM     TIME+ COMMAND
14639 kenenth   20   0   41900   3868   3136 R   1.0  0.0   0:01.04 top

top - 23:21:20 up  2:37,  1 user,  load average: 0.00, 0.89, 1.74
Tasks: 285 total,   1 running, 224 sleeping,   0 stopped,   0 zombie
%Cpu(s):  0.1 us,  0.2 sy,  0.0 ni, 99.6 id,  0.0 wa,  0.0 hi,  0.0 si,  0.0 st
KiB Mem : 16278768 total, 11928264 free,  1399972 used,  2950532 buff/cache
KiB Swap: 16630780 total, 16630780 free,        0 used. 14428424 avail Mem 

  PID USER      PR  NI    VIRT    RES    SHR S  %CPU %MEM     TIME+ COMMAND
14639 kenenth   20   0   41900   3868   3136 R   2.0  0.0   0:01.06 top
 1129 root      20   0 5005772  38064  25972 S   1.0  0.2   0:45.05 containerd
 1780 root      20   0  433932  94760  61668 S   1.0  0.6   1:51.01 Xorg

top - 23:21:21 up  2:37,  1 user,  load average: 0.00, 0.89, 1.74
Tasks: 285 total,   1 running, 224 sleeping,   0 stopped,   0 zombie
%Cpu(s):  0.0 us,  0.1 sy,  0.0 ni, 99.9 id,  0.0 wa,  0.0 hi,  0.0 si,  0.0 st
KiB Mem : 16278768 total, 11928264 free,  1399972 used,  2950532 buff/cache
KiB Swap: 16630780 total, 16630780 free,        0 used. 14428424 avail Mem 

  PID USER      PR  NI    VIRT    RES    SHR S  %CPU %MEM     TIME+ COMMAND
 1129 root      20   0 5005772  38064  25972 S   1.0  0.2   0:45.06 containerd
 1780 root      20   0  433932  94760  61668 S   1.0  0.6   1:51.02 Xorg
14639 kenenth   20   0   41900   3868   3136 R   1.0  0.0   0:01.07 top

top - 23:21:22 up  2:37,  1 user,  load average: 0.00, 0.89, 1.74
Tasks: 285 total,   1 running, 224 sleeping,   0 stopped,   0 zombie
%Cpu(s):  0.1 us,  0.2 sy,  0.0 ni, 99.6 id,  0.0 wa,  0.0 hi,  0.0 si,  0.0 st
KiB Mem : 16278768 total, 11928240 free,  1399984 used,  2950544 buff/cache
KiB Swap: 16630780 total, 16630780 free,        0 used. 14428400 avail Mem 

  PID USER      PR  NI    VIRT    RES    SHR S  %CPU %MEM     TIME+ COMMAND
  950 message+  20   0   51840   6208   3852 S   1.0  0.0   2:13.59 dbus-daemon
14639 kenenth   20   0   41900   3868   3136 R   1.0  0.0   0:01.08 top

top - 23:21:23 up  2:37,  1 user,  load average: 0.00, 0.89, 1.74
Tasks: 285 total,   1 running, 224 sleeping,   0 stopped,   0 zombie
%Cpu(s):  0.1 us,  0.1 sy,  0.0 ni, 99.8 id,  0.0 wa,  0.0 hi,  0.0 si,  0.0 st
KiB Mem : 16278768 total, 11928240 free,  1399984 used,  2950544 buff/cache
KiB Swap: 16630780 total, 16630780 free,        0 used. 14428400 avail Mem 

  PID USER      PR  NI    VIRT    RES    SHR S  %CPU %MEM     TIME+ COMMAND
14639 kenenth   20   0   41900   3868   3136 R   1.0  0.0   0:01.09 top

top - 23:21:24 up  2:37,  1 user,  load average: 0.00, 0.89, 1.74
Tasks: 285 total,   1 running, 224 sleeping,   0 stopped,   0 zombie
%Cpu(s):  0.4 us,  0.0 sy,  0.0 ni, 99.6 id,  0.0 wa,  0.0 hi,  0.0 si,  0.0 st
KiB Mem : 16278768 total, 11928240 free,  1399984 used,  2950544 buff/cache
KiB Swap: 16630780 total, 16630780 free,        0 used. 14428400 avail Mem 

  PID USER      PR  NI    VIRT    RES    SHR S  %CPU %MEM     TIME+ COMMAND
    8 root      20   0       0      0      0 I   1.0  0.0   0:05.99 rcu_sched
 1780 root      20   0  433932  94760  61668 S   1.0  0.6   1:51.03 Xorg
14639 kenenth   20   0   41900   3868   3136 R   1.0  0.0   0:01.10 top

top - 23:21:25 up  2:37,  1 user,  load average: 0.00, 0.88, 1.73
Tasks: 285 total,   1 running, 224 sleeping,   0 stopped,   0 zombie
%Cpu(s):  0.1 us,  0.2 sy,  0.0 ni, 99.6 id,  0.0 wa,  0.0 hi,  0.0 si,  0.0 st
KiB Mem : 16278768 total, 11928232 free,  1399992 used,  2950544 buff/cache
KiB Swap: 16630780 total, 16630780 free,        0 used. 14428392 avail Mem 

  PID USER      PR  NI    VIRT    RES    SHR S  %CPU %MEM     TIME+ COMMAND
14639 kenenth   20   0   41900   3868   3136 R   1.0  0.0   0:01.11 top

top - 23:21:26 up  2:37,  1 user,  load average: 0.00, 0.88, 1.73
Tasks: 285 total,   1 running, 224 sleeping,   0 stopped,   0 zombie
%Cpu(s):  0.1 us,  0.1 sy,  0.0 ni, 99.8 id,  0.0 wa,  0.0 hi,  0.0 si,  0.0 st
KiB Mem : 16278768 total, 11928232 free,  1399992 used,  2950544 buff/cache
KiB Swap: 16630780 total, 16630780 free,        0 used. 14428392 avail Mem 

  PID USER      PR  NI    VIRT    RES    SHR S  %CPU %MEM     TIME+ COMMAND
14639 kenenth   20   0   41900   3868   3136 R   2.0  0.0   0:01.13 top
14642 kenenth   20   0   29024   3036   2792 S   1.0  0.0   0:00.02 ping

top - 23:21:27 up  2:37,  1 user,  load average: 0.00, 0.88, 1.73
Tasks: 285 total,   1 running, 224 sleeping,   0 stopped,   0 zombie
%Cpu(s):  0.0 us,  0.1 sy,  0.0 ni, 99.9 id,  0.0 wa,  0.0 hi,  0.0 si,  0.0 st
KiB Mem : 16278768 total, 11928232 free,  1399992 used,  2950544 buff/cache
KiB Swap: 16630780 total, 16630780 free,        0 used. 14428392 avail Mem 

  PID USER      PR  NI    VIRT    RES    SHR S  %CPU %MEM     TIME+ COMMAND
 1780 root      20   0  433932  94760  61668 S   1.0  0.6   1:51.04 Xorg
14639 kenenth   20   0   41900   3868   3136 R   1.0  0.0   0:01.14 top

top - 23:21:28 up  2:37,  1 user,  load average: 0.00, 0.88, 1.73
Tasks: 285 total,   1 running, 224 sleeping,   0 stopped,   0 zombie
%Cpu(s):  0.1 us,  0.4 sy,  0.0 ni, 99.5 id,  0.0 wa,  0.0 hi,  0.0 si,  0.0 st
KiB Mem : 16278768 total, 11928176 free,  1400044 used,  2950548 buff/cache
KiB Swap: 16630780 total, 16630780 free,        0 used. 14428336 avail Mem 

  PID USER      PR  NI    VIRT    RES    SHR S  %CPU %MEM     TIME+ COMMAND
14639 kenenth   20   0   41900   3868   3136 R   1.0  0.0   0:01.15 top

top - 23:21:29 up  2:37,  1 user,  load average: 0.00, 0.88, 1.73
Tasks: 285 total,   1 running, 224 sleeping,   0 stopped,   0 zombie
%Cpu(s):  0.1 us,  0.1 sy,  0.0 ni, 99.8 id,  0.0 wa,  0.0 hi,  0.0 si,  0.0 st
KiB Mem : 16278768 total, 11928176 free,  1400044 used,  2950548 buff/cache
KiB Swap: 16630780 total, 16630780 free,        0 used. 14428336 avail Mem 

  PID USER      PR  NI    VIRT    RES    SHR S  %CPU %MEM     TIME+ COMMAND
14639 kenenth   20   0   41900   3868   3136 R   1.0  0.0   0:01.16 top

top - 23:21:30 up  2:37,  1 user,  load average: 0.00, 0.86, 1.72
Tasks: 285 total,   1 running, 224 sleeping,   0 stopped,   0 zombie
%Cpu(s):  0.1 us,  0.2 sy,  0.0 ni, 99.6 id,  0.0 wa,  0.0 hi,  0.0 si,  0.0 st
KiB Mem : 16278768 total, 11928176 free,  1400044 used,  2950548 buff/cache
KiB Swap: 16630780 total, 16630780 free,        0 used. 14428336 avail Mem 

  PID USER      PR  NI    VIRT    RES    SHR S  %CPU %MEM     TIME+ COMMAND
14639 kenenth   20   0   41900   3868   3136 R   2.0  0.0   0:01.18 top
 1129 root      20   0 5005772  38064  25972 S   1.0  0.2   0:45.07 containerd
 1780 root      20   0  433932  94760  61668 S   1.0  0.6   1:51.05 Xorg

top - 23:21:31 up  2:37,  1 user,  load average: 0.00, 0.86, 1.72
Tasks: 285 total,   1 running, 224 sleeping,   0 stopped,   0 zombie
%Cpu(s):  0.1 us,  0.2 sy,  0.0 ni, 99.6 id,  0.0 wa,  0.0 hi,  0.0 si,  0.0 st
KiB Mem : 16278768 total, 11928200 free,  1400016 used,  2950552 buff/cache
KiB Swap: 16630780 total, 16630780 free,        0 used. 14428360 avail Mem 

  PID USER      PR  NI    VIRT    RES    SHR S  %CPU %MEM     TIME+ COMMAND
14639 kenenth   20   0   41900   3868   3136 R   1.0  0.0   0:01.19 top

top - 23:21:32 up  2:38,  1 user,  load average: 0.00, 0.86, 1.72
Tasks: 285 total,   1 running, 224 sleeping,   0 stopped,   0 zombie
%Cpu(s):  0.1 us,  0.1 sy,  0.0 ni, 99.8 id,  0.0 wa,  0.0 hi,  0.0 si,  0.0 st
KiB Mem : 16278768 total, 11928200 free,  1400016 used,  2950552 buff/cache
KiB Swap: 16630780 total, 16630780 free,        0 used. 14428360 avail Mem 

  PID USER      PR  NI    VIRT    RES    SHR S  %CPU %MEM     TIME+ COMMAND
  972 root      20   0  565028  23704  13716 S   1.0  0.1   1:13.26 NetworkMan+
 1780 root      20   0  433932  94760  61668 S   1.0  0.6   1:51.06 Xorg
14639 kenenth   20   0   41900   3868   3136 R   1.0  0.0   0:01.20 top
14645 kenenth   20   0   29024   2888   2648 S   1.0  0.0   0:00.02 ping
14647 kenenth   20   0   29024   3016   2776 S   1.0  0.0   0:00.02 ping

top - 23:21:33 up  2:38,  1 user,  load average: 0.00, 0.86, 1.72
Tasks: 285 total,   1 running, 224 sleeping,   0 stopped,   0 zombie
%Cpu(s):  0.0 us,  0.1 sy,  0.0 ni, 99.9 id,  0.0 wa,  0.0 hi,  0.0 si,  0.0 st
KiB Mem : 16278768 total, 11928200 free,  1400016 used,  2950552 buff/cache
KiB Swap: 16630780 total, 16630780 free,        0 used. 14428360 avail Mem 

  PID USER      PR  NI    VIRT    RES    SHR S  %CPU %MEM     TIME+ COMMAND
14639 kenenth   20   0   41900   3868   3136 R   1.0  0.0   0:01.21 top