PING speedtest.xsmedia.com (199.66.198.2) 56(84) bytes of data.
64 bytes from 199.66.198.2 (199.66.198.2): icmp_seq=1 ttl=56 time=21.7 ms
PING speedtest.xsmedia.com (199.66.198.2) 56(84) bytes of data.
64 bytes from 199.66.198.2 (199.66.198.2): icmp_seq=1 ttl=56 time=21.8 ms
PING speedtest.xsmedia.com (199.66.198.2) 56(84) bytes of data.
64 bytes from 199.66.198.2 (199.66.198.2): icmp_seq=1 ttl=56 time=21.4 ms
PING speedtest.xsmedia.com (199.66.198.2) 56(84) bytes of data.
64 bytes from 199.66.198.2 (199.66.198.2): icmp_seq=1 ttl=56 time=21.5 ms
PING speedtest.xsmedia.com (199.66.198.2) 56(84) bytes of data.
64 bytes from 199.66.198.2 (199.66.198.2): icmp_seq=1 ttl=56 time=21.7 ms
PING speedtest.xsmedia.com (199.66.198.2) 56(84) bytes of data.
64 bytes from 199.66.198.2 (199.66.198.2): icmp_seq=1 ttl=56 time=21.7 ms
PING speedtest.xsmedia.com (199.66.198.2) 56(84) bytes of data.
64 bytes from 199.66.198.2 (199.66.198.2): icmp_seq=1 ttl=56 time=21.7 ms
PING speedtest.xsmedia.com (199.66.198.2) 56(84) bytes of data.
64 bytes from 199.66.198.2 (199.66.198.2): icmp_seq=1 ttl=56 time=21.5 ms
PING speedtest.xsmedia.com (199.66.198.2) 56(84) bytes of data.
64 bytes from 199.66.198.2 (199.66.198.2): icmp_seq=1 ttl=56 time=21.6 ms
PING speedtest.xsmedia.com (199.66.198.2) 56(84) bytes of data.
64 bytes from 199.66.198.2 (199.66.198.2): icmp_seq=1 ttl=56 time=21.6 ms
64 bytes from 199.66.198.2 (199.66.198.2): icmp_seq=2 ttl=56 time=21.7 ms
64 bytes from 199.66.198.2 (199.66.198.2): icmp_seq=2 ttl=56 time=21.7 ms
64 bytes from 199.66.198.2 (199.66.198.2): icmp_seq=2 ttl=56 time=21.8 ms
64 bytes from 199.66.198.2 (199.66.198.2): icmp_seq=2 ttl=56 time=21.8 ms
64 bytes from 199.66.198.2 (199.66.198.2): icmp_seq=2 ttl=56 time=21.8 ms
64 bytes from 199.66.198.2 (199.66.198.2): icmp_seq=2 ttl=56 time=21.8 ms
64 bytes from 199.66.198.2 (199.66.198.2): icmp_seq=2 ttl=56 time=21.7 ms
64 bytes from 199.66.198.2 (199.66.198.2): icmp_seq=2 ttl=56 time=21.4 ms
64 bytes from 199.66.198.2 (199.66.198.2): icmp_seq=2 ttl=56 time=21.4 ms
64 bytes from 199.66.198.2 (199.66.198.2): icmp_seq=2 ttl=56 time=21.6 ms
64 bytes from 199.66.198.2 (199.66.198.2): icmp_seq=3 ttl=56 time=21.9 ms
64 bytes from 199.66.198.2 (199.66.198.2): icmp_seq=3 ttl=56 time=21.5 ms
64 bytes from 199.66.198.2 (199.66.198.2): icmp_seq=3 ttl=56 time=22.0 ms
64 bytes from 199.66.198.2 (199.66.198.2): icmp_seq=3 ttl=56 time=21.6 ms
64 bytes from 199.66.198.2 (199.66.198.2): icmp_seq=3 ttl=56 time=21.6 ms
64 bytes from 199.66.198.2 (199.66.198.2): icmp_seq=3 ttl=56 time=21.6 ms
64 bytes from 199.66.198.2 (199.66.198.2): icmp_seq=3 ttl=56 time=21.6 ms
64 bytes from 199.66.198.2 (199.66.198.2): icmp_seq=3 ttl=56 time=21.6 ms
64 bytes from 199.66.198.2 (199.66.198.2): icmp_seq=3 ttl=56 time=21.6 ms
64 bytes from 199.66.198.2 (199.66.198.2): icmp_seq=3 ttl=56 time=21.9 ms
64 bytes from 199.66.198.2 (199.66.198.2): icmp_seq=4 ttl=56 time=22.0 ms
64 bytes from 199.66.198.2 (199.66.198.2): icmp_seq=4 ttl=56 time=22.0 ms
64 bytes from 199.66.198.2 (199.66.198.2): icmp_seq=4 ttl=56 time=22.0 ms
64 bytes from 199.66.198.2 (199.66.198.2): icmp_seq=4 ttl=56 time=22.0 ms
64 bytes from 199.66.198.2 (199.66.198.2): icmp_seq=4 ttl=56 time=22.0 ms
64 bytes from 199.66.198.2 (199.66.198.2): icmp_seq=4 ttl=56 time=21.4 ms
64 bytes from 199.66.198.2 (199.66.198.2): icmp_seq=4 ttl=56 time=21.3 ms
64 bytes from 199.66.198.2 (199.66.198.2): icmp_seq=4 ttl=56 time=21.9 ms
64 bytes from 199.66.198.2 (199.66.198.2): icmp_seq=4 ttl=56 time=21.3 ms
64 bytes from 199.66.198.2 (199.66.198.2): icmp_seq=4 ttl=56 time=21.3 ms
64 bytes from 199.66.198.2 (199.66.198.2): icmp_seq=5 ttl=56 time=21.6 ms
64 bytes from 199.66.198.2 (199.66.198.2): icmp_seq=5 ttl=56 time=21.6 ms
64 bytes from 199.66.198.2 (199.66.198.2): icmp_seq=5 ttl=56 time=21.6 ms
64 bytes from 199.66.198.2 (199.66.198.2): icmp_seq=5 ttl=56 time=21.6 ms
64 bytes from 199.66.198.2 (199.66.198.2): icmp_seq=5 ttl=56 time=21.6 ms
64 bytes from 199.66.198.2 (199.66.198.2): icmp_seq=5 ttl=56 time=21.5 ms
64 bytes from 199.66.198.2 (199.66.198.2): icmp_seq=5 ttl=56 time=21.6 ms
64 bytes from 199.66.198.2 (199.66.198.2): icmp_seq=5 ttl=56 time=21.6 ms
64 bytes from 199.66.198.2 (199.66.198.2): icmp_seq=5 ttl=56 time=21.5 ms
64 bytes from 199.66.198.2 (199.66.198.2): icmp_seq=5 ttl=56 time=21.5 ms
64 bytes from 199.66.198.2 (199.66.198.2): icmp_seq=6 ttl=56 time=21.7 ms
64 bytes from 199.66.198.2 (199.66.198.2): icmp_seq=6 ttl=56 time=21.8 ms
64 bytes from 199.66.198.2 (199.66.198.2): icmp_seq=6 ttl=56 time=21.8 ms
64 bytes from 199.66.198.2 (199.66.198.2): icmp_seq=6 ttl=56 time=21.8 ms
64 bytes from 199.66.198.2 (199.66.198.2): icmp_seq=6 ttl=56 time=21.9 ms
64 bytes from 199.66.198.2 (199.66.198.2): icmp_seq=6 ttl=56 time=21.8 ms
64 bytes from 199.66.198.2 (199.66.198.2): icmp_seq=6 ttl=56 time=21.8 ms
64 bytes from 199.66.198.2 (199.66.198.2): icmp_seq=6 ttl=56 time=21.7 ms
64 bytes from 199.66.198.2 (199.66.198.2): icmp_seq=6 ttl=56 time=21.8 ms
64 bytes from 199.66.198.2 (199.66.198.2): icmp_seq=6 ttl=56 time=21.8 ms
64 bytes from 199.66.198.2 (199.66.198.2): icmp_seq=7 ttl=56 time=21.8 ms
64 bytes from 199.66.198.2 (199.66.198.2): icmp_seq=7 ttl=56 time=21.8 ms
64 bytes from 199.66.198.2 (199.66.198.2): icmp_seq=7 ttl=56 time=21.9 ms
64 bytes from 199.66.198.2 (199.66.198.2): icmp_seq=7 ttl=56 time=21.8 ms
64 bytes from 199.66.198.2 (199.66.198.2): icmp_seq=7 ttl=56 time=21.9 ms
64 bytes from 199.66.198.2 (199.66.198.2): icmp_seq=7 ttl=56 time=21.8 ms
64 bytes from 199.66.198.2 (199.66.198.2): icmp_seq=7 ttl=56 time=21.9 ms
64 bytes from 199.66.198.2 (199.66.198.2): icmp_seq=7 ttl=56 time=21.7 ms
64 bytes from 199.66.198.2 (199.66.198.2): icmp_seq=7 ttl=56 time=21.8 ms
64 bytes from 199.66.198.2 (199.66.198.2): icmp_seq=7 ttl=56 time=21.5 ms
64 bytes from 199.66.198.2 (199.66.198.2): icmp_seq=8 ttl=56 time=21.9 ms
64 bytes from 199.66.198.2 (199.66.198.2): icmp_seq=8 ttl=56 time=22.0 ms
64 bytes from 199.66.198.2 (199.66.198.2): icmp_seq=8 ttl=56 time=21.9 ms
64 bytes from 199.66.198.2 (199.66.198.2): icmp_seq=8 ttl=56 time=22.0 ms
64 bytes from 199.66.198.2 (199.66.198.2): icmp_seq=8 ttl=56 time=22.0 ms
64 bytes from 199.66.198.2 (199.66.198.2): icmp_seq=8 ttl=56 time=22.0 ms
64 bytes from 199.66.198.2 (199.66.198.2): icmp_seq=8 ttl=56 time=22.0 ms
64 bytes from 199.66.198.2 (199.66.198.2): icmp_seq=8 ttl=56 time=21.8 ms
64 bytes from 199.66.198.2 (199.66.198.2): icmp_seq=8 ttl=56 time=21.9 ms
64 bytes from 199.66.198.2 (199.66.198.2): icmp_seq=8 ttl=56 time=21.9 ms
64 bytes from 199.66.198.2 (199.66.198.2): icmp_seq=9 ttl=56 time=21.6 ms
64 bytes from 199.66.198.2 (199.66.198.2): icmp_seq=9 ttl=56 time=21.5 ms
64 bytes from 199.66.198.2 (199.66.198.2): icmp_seq=9 ttl=56 time=21.6 ms
64 bytes from 199.66.198.2 (199.66.198.2): icmp_seq=9 ttl=56 time=21.6 ms
64 bytes from 199.66.198.2 (199.66.198.2): icmp_seq=9 ttl=56 time=21.6 ms
64 bytes from 199.66.198.2 (199.66.198.2): icmp_seq=9 ttl=56 time=21.6 ms
64 bytes from 199.66.198.2 (199.66.198.2): icmp_seq=9 ttl=56 time=21.6 ms
64 bytes from 199.66.198.2 (199.66.198.2): icmp_seq=9 ttl=56 time=21.5 ms
64 bytes from 199.66.198.2 (199.66.198.2): icmp_seq=9 ttl=56 time=21.6 ms
64 bytes from 199.66.198.2 (199.66.198.2): icmp_seq=9 ttl=56 time=21.5 ms
64 bytes from 199.66.198.2 (199.66.198.2): icmp_seq=10 ttl=56 time=21.9 ms
64 bytes from 199.66.198.2 (199.66.198.2): icmp_seq=10 ttl=56 time=21.9 ms
64 bytes from 199.66.198.2 (199.66.198.2): icmp_seq=10 ttl=56 time=22.0 ms
64 bytes from 199.66.198.2 (199.66.198.2): icmp_seq=10 ttl=56 time=22.0 ms
64 bytes from 199.66.198.2 (199.66.198.2): icmp_seq=10 ttl=56 time=22.0 ms
64 bytes from 199.66.198.2 (199.66.198.2): icmp_seq=10 ttl=56 time=22.0 ms
64 bytes from 199.66.198.2 (199.66.198.2): icmp_seq=10 ttl=56 time=22.0 ms
64 bytes from 199.66.198.2 (199.66.198.2): icmp_seq=10 ttl=56 time=22.0 ms
64 bytes from 199.66.198.2 (199.66.198.2): icmp_seq=10 ttl=56 time=22.0 ms
64 bytes from 199.66.198.2 (199.66.198.2): icmp_seq=10 ttl=56 time=21.9 ms
64 bytes from 199.66.198.2 (199.66.198.2): icmp_seq=11 ttl=56 time=21.7 ms
64 bytes from 199.66.198.2 (199.66.198.2): icmp_seq=11 ttl=56 time=21.7 ms
64 bytes from 199.66.198.2 (199.66.198.2): icmp_seq=11 ttl=56 time=21.7 ms
64 bytes from 199.66.198.2 (199.66.198.2): icmp_seq=11 ttl=56 time=21.7 ms
64 bytes from 199.66.198.2 (199.66.198.2): icmp_seq=11 ttl=56 time=21.7 ms
64 bytes from 199.66.198.2 (199.66.198.2): icmp_seq=11 ttl=56 time=21.8 ms
64 bytes from 199.66.198.2 (199.66.198.2): icmp_seq=11 ttl=56 time=21.7 ms
64 bytes from 199.66.198.2 (199.66.198.2): icmp_seq=11 ttl=56 time=21.6 ms
64 bytes from 199.66.198.2 (199.66.198.2): icmp_seq=11 ttl=56 time=21.7 ms
64 bytes from 199.66.198.2 (199.66.198.2): icmp_seq=11 ttl=56 time=21.7 ms
64 bytes from 199.66.198.2 (199.66.198.2): icmp_seq=12 ttl=56 time=21.9 ms
64 bytes from 199.66.198.2 (199.66.198.2): icmp_seq=12 ttl=56 time=21.9 ms
64 bytes from 199.66.198.2 (199.66.198.2): icmp_seq=12 ttl=56 time=21.9 ms
64 bytes from 199.66.198.2 (199.66.198.2): icmp_seq=12 ttl=56 time=21.9 ms
64 bytes from 199.66.198.2 (199.66.198.2): icmp_seq=12 ttl=56 time=21.9 ms
64 bytes from 199.66.198.2 (199.66.198.2): icmp_seq=12 ttl=56 time=21.8 ms
64 bytes from 199.66.198.2 (199.66.198.2): icmp_seq=12 ttl=56 time=21.4 ms
64 bytes from 199.66.198.2 (199.66.198.2): icmp_seq=12 ttl=56 time=21.4 ms
64 bytes from 199.66.198.2 (199.66.198.2): icmp_seq=12 ttl=56 time=21.3 ms
64 bytes from 199.66.198.2 (199.66.198.2): icmp_seq=12 ttl=56 time=21.4 ms
64 bytes from 199.66.198.2 (199.66.198.2): icmp_seq=13 ttl=56 time=21.4 ms
64 bytes from 199.66.198.2 (199.66.198.2): icmp_seq=13 ttl=56 time=21.4 ms
64 bytes from 199.66.198.2 (199.66.198.2): icmp_seq=13 ttl=56 time=21.4 ms
64 bytes from 199.66.198.2 (199.66.198.2): icmp_seq=13 ttl=56 time=21.4 ms
64 bytes from 199.66.198.2 (199.66.198.2): icmp_seq=13 ttl=56 time=21.4 ms
64 bytes from 199.66.198.2 (199.66.198.2): icmp_seq=13 ttl=56 time=21.4 ms
64 bytes from 199.66.198.2 (199.66.198.2): icmp_seq=13 ttl=56 time=21.6 ms
64 bytes from 199.66.198.2 (199.66.198.2): icmp_seq=13 ttl=56 time=21.7 ms
64 bytes from 199.66.198.2 (199.66.198.2): icmp_seq=13 ttl=56 time=21.6 ms
64 bytes from 199.66.198.2 (199.66.198.2): icmp_seq=13 ttl=56 time=21.7 ms
64 bytes from 199.66.198.2 (199.66.198.2): icmp_seq=14 ttl=56 time=21.9 ms
64 bytes from 199.66.198.2 (199.66.198.2): icmp_seq=14 ttl=56 time=21.9 ms
64 bytes from 199.66.198.2 (199.66.198.2): icmp_seq=14 ttl=56 time=21.9 ms
64 bytes from 199.66.198.2 (199.66.198.2): icmp_seq=14 ttl=56 time=21.9 ms
64 bytes from 199.66.198.2 (199.66.198.2): icmp_seq=14 ttl=56 time=21.9 ms
64 bytes from 199.66.198.2 (199.66.198.2): icmp_seq=14 ttl=56 time=21.9 ms
64 bytes from 199.66.198.2 (199.66.198.2): icmp_seq=14 ttl=56 time=21.7 ms
64 bytes from 199.66.198.2 (199.66.198.2): icmp_seq=14 ttl=56 time=21.8 ms
64 bytes from 199.66.198.2 (199.66.198.2): icmp_seq=14 ttl=56 time=21.7 ms
64 bytes from 199.66.198.2 (199.66.198.2): icmp_seq=14 ttl=56 time=21.8 ms
64 bytes from 199.66.198.2 (199.66.198.2): icmp_seq=15 ttl=56 time=21.8 ms
64 bytes from 199.66.198.2 (199.66.198.2): icmp_seq=15 ttl=56 time=21.8 ms
64 bytes from 199.66.198.2 (199.66.198.2): icmp_seq=15 ttl=56 time=21.9 ms
64 bytes from 199.66.198.2 (199.66.198.2): icmp_seq=15 ttl=56 time=21.8 ms
64 bytes from 199.66.198.2 (199.66.198.2): icmp_seq=15 ttl=56 time=21.7 ms
64 bytes from 199.66.198.2 (199.66.198.2): icmp_seq=15 ttl=56 time=21.9 ms
64 bytes from 199.66.198.2 (199.66.198.2): icmp_seq=15 ttl=56 time=21.8 ms
64 bytes from 199.66.198.2 (199.66.198.2): icmp_seq=15 ttl=56 time=21.8 ms
64 bytes from 199.66.198.2 (199.66.198.2): icmp_seq=15 ttl=56 time=21.7 ms
64 bytes from 199.66.198.2 (199.66.198.2): icmp_seq=15 ttl=56 time=21.8 ms
64 bytes from 199.66.198.2 (199.66.198.2): icmp_seq=16 ttl=56 time=21.5 ms
64 bytes from 199.66.198.2 (199.66.198.2): icmp_seq=16 ttl=56 time=21.5 ms
64 bytes from 199.66.198.2 (199.66.198.2): icmp_seq=16 ttl=56 time=21.6 ms
64 bytes from 199.66.198.2 (199.66.198.2): icmp_seq=16 ttl=56 time=21.5 ms
64 bytes from 199.66.198.2 (199.66.198.2): icmp_seq=16 ttl=56 time=21.4 ms
64 bytes from 199.66.198.2 (199.66.198.2): icmp_seq=16 ttl=56 time=21.6 ms
64 bytes from 199.66.198.2 (199.66.198.2): icmp_seq=16 ttl=56 time=21.4 ms
64 bytes from 199.66.198.2 (199.66.198.2): icmp_seq=16 ttl=56 time=21.4 ms
64 bytes from 199.66.198.2 (199.66.198.2): icmp_seq=16 ttl=56 time=21.4 ms
64 bytes from 199.66.198.2 (199.66.198.2): icmp_seq=16 ttl=56 time=21.4 ms
64 bytes from 199.66.198.2 (199.66.198.2): icmp_seq=17 ttl=56 time=22.0 ms
64 bytes from 199.66.198.2 (199.66.198.2): icmp_seq=17 ttl=56 time=22.0 ms
64 bytes from 199.66.198.2 (199.66.198.2): icmp_seq=17 ttl=56 time=22.0 ms
64 bytes from 199.66.198.2 (199.66.198.2): icmp_seq=17 ttl=56 time=22.1 ms
64 bytes from 199.66.198.2 (199.66.198.2): icmp_seq=17 ttl=56 time=22.0 ms
64 bytes from 199.66.198.2 (199.66.198.2): icmp_seq=17 ttl=56 time=21.9 ms
64 bytes from 199.66.198.2 (199.66.198.2): icmp_seq=17 ttl=56 time=21.4 ms
64 bytes from 199.66.198.2 (199.66.198.2): icmp_seq=17 ttl=56 time=21.4 ms
64 bytes from 199.66.198.2 (199.66.198.2): icmp_seq=17 ttl=56 time=21.6 ms
64 bytes from 199.66.198.2 (199.66.198.2): icmp_seq=17 ttl=56 time=21.7 ms
64 bytes from 199.66.198.2 (199.66.198.2): icmp_seq=18 ttl=56 time=22.1 ms
64 bytes from 199.66.198.2 (199.66.198.2): icmp_seq=18 ttl=56 time=22.0 ms
64 bytes from 199.66.198.2 (199.66.198.2): icmp_seq=18 ttl=56 time=22.1 ms
64 bytes from 199.66.198.2 (199.66.198.2): icmp_seq=18 ttl=56 time=22.1 ms
64 bytes from 199.66.198.2 (199.66.198.2): icmp_seq=18 ttl=56 time=22.0 ms
64 bytes from 199.66.198.2 (199.66.198.2): icmp_seq=18 ttl=56 time=22.1 ms
64 bytes from 199.66.198.2 (199.66.198.2): icmp_seq=18 ttl=56 time=21.4 ms
64 bytes from 199.66.198.2 (199.66.198.2): icmp_seq=18 ttl=56 time=21.5 ms
64 bytes from 199.66.198.2 (199.66.198.2): icmp_seq=18 ttl=56 time=21.5 ms
64 bytes from 199.66.198.2 (199.66.198.2): icmp_seq=18 ttl=56 time=21.6 ms
64 bytes from 199.66.198.2 (199.66.198.2): icmp_seq=19 ttl=56 time=21.7 ms
64 bytes from 199.66.198.2 (199.66.198.2): icmp_seq=19 ttl=56 time=21.4 ms
64 bytes from 199.66.198.2 (199.66.198.2): icmp_seq=19 ttl=56 time=21.3 ms
64 bytes from 199.66.198.2 (199.66.198.2): icmp_seq=19 ttl=56 time=21.4 ms
64 bytes from 199.66.198.2 (199.66.198.2): icmp_seq=19 ttl=56 time=21.3 ms
64 bytes from 199.66.198.2 (199.66.198.2): icmp_seq=19 ttl=56 time=21.4 ms
64 bytes from 199.66.198.2 (199.66.198.2): icmp_seq=19 ttl=56 time=21.8 ms
64 bytes from 199.66.198.2 (199.66.198.2): icmp_seq=19 ttl=56 time=21.7 ms
64 bytes from 199.66.198.2 (199.66.198.2): icmp_seq=19 ttl=56 time=21.8 ms
64 bytes from 199.66.198.2 (199.66.198.2): icmp_seq=19 ttl=56 time=21.8 ms
64 bytes from 199.66.198.2 (199.66.198.2): icmp_seq=20 ttl=56 time=21.4 ms
64 bytes from 199.66.198.2 (199.66.198.2): icmp_seq=20 ttl=56 time=21.4 ms
64 bytes from 199.66.198.2 (199.66.198.2): icmp_seq=20 ttl=56 time=21.3 ms
64 bytes from 199.66.198.2 (199.66.198.2): icmp_seq=20 ttl=56 time=21.3 ms
64 bytes from 199.66.198.2 (199.66.198.2): icmp_seq=20 ttl=56 time=21.3 ms
64 bytes from 199.66.198.2 (199.66.198.2): icmp_seq=20 ttl=56 time=21.3 ms
64 bytes from 199.66.198.2 (199.66.198.2): icmp_seq=20 ttl=56 time=21.4 ms
64 bytes from 199.66.198.2 (199.66.198.2): icmp_seq=20 ttl=56 time=21.3 ms
64 bytes from 199.66.198.2 (199.66.198.2): icmp_seq=20 ttl=56 time=21.4 ms
64 bytes from 199.66.198.2 (199.66.198.2): icmp_seq=20 ttl=56 time=21.3 ms
64 bytes from 199.66.198.2 (199.66.198.2): icmp_seq=21 ttl=56 time=21.3 ms
64 bytes from 199.66.198.2 (199.66.198.2): icmp_seq=21 ttl=56 time=21.3 ms
64 bytes from 199.66.198.2 (199.66.198.2): icmp_seq=21 ttl=56 time=21.3 ms
64 bytes from 199.66.198.2 (199.66.198.2): icmp_seq=21 ttl=56 time=21.3 ms
64 bytes from 199.66.198.2 (199.66.198.2): icmp_seq=21 ttl=56 time=21.3 ms
64 bytes from 199.66.198.2 (199.66.198.2): icmp_seq=21 ttl=56 time=21.2 ms
64 bytes from 199.66.198.2 (199.66.198.2): icmp_seq=21 ttl=56 time=21.3 ms
64 bytes from 199.66.198.2 (199.66.198.2): icmp_seq=21 ttl=56 time=21.3 ms
64 bytes from 199.66.198.2 (199.66.198.2): icmp_seq=21 ttl=56 time=21.3 ms
64 bytes from 199.66.198.2 (199.66.198.2): icmp_seq=21 ttl=56 time=21.3 ms
64 bytes from 199.66.198.2 (199.66.198.2): icmp_seq=22 ttl=56 time=21.3 ms
64 bytes from 199.66.198.2 (199.66.198.2): icmp_seq=22 ttl=56 time=21.3 ms
64 bytes from 199.66.198.2 (199.66.198.2): icmp_seq=22 ttl=56 time=21.2 ms
64 bytes from 199.66.198.2 (199.66.198.2): icmp_seq=22 ttl=56 time=21.3 ms
64 bytes from 199.66.198.2 (199.66.198.2): icmp_seq=22 ttl=56 time=21.2 ms
64 bytes from 199.66.198.2 (199.66.198.2): icmp_seq=22 ttl=56 time=21.3 ms
64 bytes from 199.66.198.2 (199.66.198.2): icmp_seq=22 ttl=56 time=21.3 ms
64 bytes from 199.66.198.2 (199.66.198.2): icmp_seq=22 ttl=56 time=21.3 ms
64 bytes from 199.66.198.2 (199.66.198.2): icmp_seq=22 ttl=56 time=21.2 ms
64 bytes from 199.66.198.2 (199.66.198.2): icmp_seq=22 ttl=56 time=21.2 ms
64 bytes from 199.66.198.2 (199.66.198.2): icmp_seq=23 ttl=56 time=22.3 ms
64 bytes from 199.66.198.2 (199.66.198.2): icmp_seq=23 ttl=56 time=22.3 ms
64 bytes from 199.66.198.2 (199.66.198.2): icmp_seq=23 ttl=56 time=22.3 ms
64 bytes from 199.66.198.2 (199.66.198.2): icmp_seq=23 ttl=56 time=22.3 ms
64 bytes from 199.66.198.2 (199.66.198.2): icmp_seq=23 ttl=56 time=22.3 ms
64 bytes from 199.66.198.2 (199.66.198.2): icmp_seq=23 ttl=56 time=22.2 ms
64 bytes from 199.66.198.2 (199.66.198.2): icmp_seq=23 ttl=56 time=22.9 ms
64 bytes from 199.66.198.2 (199.66.198.2): icmp_seq=23 ttl=56 time=22.8 ms
64 bytes from 199.66.198.2 (199.66.198.2): icmp_seq=23 ttl=56 time=22.8 ms
64 bytes from 199.66.198.2 (199.66.198.2): icmp_seq=23 ttl=56 time=22.2 ms
64 bytes from 199.66.198.2 (199.66.198.2): icmp_seq=24 ttl=56 time=21.8 ms
64 bytes from 199.66.198.2 (199.66.198.2): icmp_seq=24 ttl=56 time=21.8 ms
64 bytes from 199.66.198.2 (199.66.198.2): icmp_seq=24 ttl=56 time=21.8 ms
64 bytes from 199.66.198.2 (199.66.198.2): icmp_seq=24 ttl=56 time=21.9 ms
64 bytes from 199.66.198.2 (199.66.198.2): icmp_seq=24 ttl=56 time=21.7 ms
64 bytes from 199.66.198.2 (199.66.198.2): icmp_seq=24 ttl=56 time=21.8 ms
64 bytes from 199.66.198.2 (199.66.198.2): icmp_seq=24 ttl=56 time=21.6 ms
64 bytes from 199.66.198.2 (199.66.198.2): icmp_seq=24 ttl=56 time=21.7 ms
64 bytes from 199.66.198.2 (199.66.198.2): icmp_seq=24 ttl=56 time=21.7 ms
64 bytes from 199.66.198.2 (199.66.198.2): icmp_seq=24 ttl=56 time=21.7 ms
64 bytes from 199.66.198.2 (199.66.198.2): icmp_seq=25 ttl=56 time=21.4 ms
64 bytes from 199.66.198.2 (199.66.198.2): icmp_seq=25 ttl=56 time=21.4 ms
64 bytes from 199.66.198.2 (199.66.198.2): icmp_seq=25 ttl=56 time=21.4 ms
64 bytes from 199.66.198.2 (199.66.198.2): icmp_seq=25 ttl=56 time=21.3 ms
64 bytes from 199.66.198.2 (199.66.198.2): icmp_seq=25 ttl=56 time=21.3 ms
64 bytes from 199.66.198.2 (199.66.198.2): icmp_seq=25 ttl=56 time=21.3 ms
64 bytes from 199.66.198.2 (199.66.198.2): icmp_seq=25 ttl=56 time=21.3 ms
64 bytes from 199.66.198.2 (199.66.198.2): icmp_seq=25 ttl=56 time=21.3 ms
64 bytes from 199.66.198.2 (199.66.198.2): icmp_seq=25 ttl=56 time=21.3 ms
64 bytes from 199.66.198.2 (199.66.198.2): icmp_seq=25 ttl=56 time=21.3 ms
64 bytes from 199.66.198.2 (199.66.198.2): icmp_seq=26 ttl=56 time=21.3 ms
64 bytes from 199.66.198.2 (199.66.198.2): icmp_seq=26 ttl=56 time=21.3 ms
64 bytes from 199.66.198.2 (199.66.198.2): icmp_seq=26 ttl=56 time=21.3 ms
64 bytes from 199.66.198.2 (199.66.198.2): icmp_seq=26 ttl=56 time=21.3 ms
64 bytes from 199.66.198.2 (199.66.198.2): icmp_seq=26 ttl=56 time=21.3 ms
64 bytes from 199.66.198.2 (199.66.198.2): icmp_seq=26 ttl=56 time=21.3 ms
64 bytes from 199.66.198.2 (199.66.198.2): icmp_seq=26 ttl=56 time=21.2 ms
64 bytes from 199.66.198.2 (199.66.198.2): icmp_seq=26 ttl=56 time=21.3 ms
64 bytes from 199.66.198.2 (199.66.198.2): icmp_seq=26 ttl=56 time=21.2 ms
64 bytes from 199.66.198.2 (199.66.198.2): icmp_seq=26 ttl=56 time=21.2 ms
64 bytes from 199.66.198.2 (199.66.198.2): icmp_seq=27 ttl=56 time=22.0 ms
64 bytes from 199.66.198.2 (199.66.198.2): icmp_seq=27 ttl=56 time=22.0 ms
64 bytes from 199.66.198.2 (199.66.198.2): icmp_seq=27 ttl=56 time=21.9 ms
64 bytes from 199.66.198.2 (199.66.198.2): icmp_seq=27 ttl=56 time=21.9 ms
64 bytes from 199.66.198.2 (199.66.198.2): icmp_seq=27 ttl=56 time=21.9 ms
64 bytes from 199.66.198.2 (199.66.198.2): icmp_seq=27 ttl=56 time=22.0 ms
64 bytes from 199.66.198.2 (199.66.198.2): icmp_seq=27 ttl=56 time=21.6 ms
64 bytes from 199.66.198.2 (199.66.198.2): icmp_seq=27 ttl=56 time=21.7 ms
64 bytes from 199.66.198.2 (199.66.198.2): icmp_seq=27 ttl=56 time=21.7 ms
64 bytes from 199.66.198.2 (199.66.198.2): icmp_seq=27 ttl=56 time=21.7 ms
64 bytes from 199.66.198.2 (199.66.198.2): icmp_seq=28 ttl=56 time=21.9 ms
64 bytes from 199.66.198.2 (199.66.198.2): icmp_seq=28 ttl=56 time=21.9 ms
64 bytes from 199.66.198.2 (199.66.198.2): icmp_seq=28 ttl=56 time=21.9 ms
64 bytes from 199.66.198.2 (199.66.198.2): icmp_seq=28 ttl=56 time=21.9 ms
64 bytes from 199.66.198.2 (199.66.198.2): icmp_seq=28 ttl=56 time=21.9 ms
64 bytes from 199.66.198.2 (199.66.198.2): icmp_seq=28 ttl=56 time=21.9 ms
64 bytes from 199.66.198.2 (199.66.198.2): icmp_seq=28 ttl=56 time=21.7 ms
64 bytes from 199.66.198.2 (199.66.198.2): icmp_seq=28 ttl=56 time=21.6 ms
64 bytes from 199.66.198.2 (199.66.198.2): icmp_seq=28 ttl=56 time=21.7 ms
64 bytes from 199.66.198.2 (199.66.198.2): icmp_seq=28 ttl=56 time=21.7 ms
64 bytes from 199.66.198.2 (199.66.198.2): icmp_seq=29 ttl=56 time=21.9 ms
64 bytes from 199.66.198.2 (199.66.198.2): icmp_seq=29 ttl=56 time=21.9 ms
64 bytes from 199.66.198.2 (199.66.198.2): icmp_seq=29 ttl=56 time=21.9 ms
64 bytes from 199.66.198.2 (199.66.198.2): icmp_seq=29 ttl=56 time=21.9 ms
64 bytes from 199.66.198.2 (199.66.198.2): icmp_seq=29 ttl=56 time=21.8 ms
64 bytes from 199.66.198.2 (199.66.198.2): icmp_seq=29 ttl=56 time=21.9 ms
64 bytes from 199.66.198.2 (199.66.198.2): icmp_seq=29 ttl=56 time=21.6 ms
64 bytes from 199.66.198.2 (199.66.198.2): icmp_seq=29 ttl=56 time=21.7 ms
64 bytes from 199.66.198.2 (199.66.198.2): icmp_seq=29 ttl=56 time=21.7 ms
64 bytes from 199.66.198.2 (199.66.198.2): icmp_seq=29 ttl=56 time=21.7 ms
64 bytes from 199.66.198.2 (199.66.198.2): icmp_seq=30 ttl=56 time=22.0 ms
64 bytes from 199.66.198.2 (199.66.198.2): icmp_seq=30 ttl=56 time=22.0 ms
64 bytes from 199.66.198.2 (199.66.198.2): icmp_seq=30 ttl=56 time=22.0 ms
64 bytes from 199.66.198.2 (199.66.198.2): icmp_seq=30 ttl=56 time=22.0 ms
64 bytes from 199.66.198.2 (199.66.198.2): icmp_seq=30 ttl=56 time=21.9 ms
64 bytes from 199.66.198.2 (199.66.198.2): icmp_seq=30 ttl=56 time=22.0 ms
64 bytes from 199.66.198.2 (199.66.198.2): icmp_seq=30 ttl=56 time=21.8 ms
64 bytes from 199.66.198.2 (199.66.198.2): icmp_seq=30 ttl=56 time=21.9 ms
64 bytes from 199.66.198.2 (199.66.198.2): icmp_seq=30 ttl=56 time=21.9 ms
64 bytes from 199.66.198.2 (199.66.198.2): icmp_seq=30 ttl=56 time=21.9 ms
64 bytes from 199.66.198.2 (199.66.198.2): icmp_seq=31 ttl=56 time=21.8 ms
64 bytes from 199.66.198.2 (199.66.198.2): icmp_seq=31 ttl=56 time=21.8 ms
64 bytes from 199.66.198.2 (199.66.198.2): icmp_seq=31 ttl=56 time=21.8 ms
64 bytes from 199.66.198.2 (199.66.198.2): icmp_seq=31 ttl=56 time=21.8 ms
64 bytes from 199.66.198.2 (199.66.198.2): icmp_seq=31 ttl=56 time=21.8 ms
64 bytes from 199.66.198.2 (199.66.198.2): icmp_seq=31 ttl=56 time=21.8 ms
64 bytes from 199.66.198.2 (199.66.198.2): icmp_seq=31 ttl=56 time=21.6 ms
64 bytes from 199.66.198.2 (199.66.198.2): icmp_seq=31 ttl=56 time=21.5 ms
64 bytes from 199.66.198.2 (199.66.198.2): icmp_seq=31 ttl=56 time=21.6 ms
64 bytes from 199.66.198.2 (199.66.198.2): icmp_seq=31 ttl=56 time=21.6 ms
64 bytes from 199.66.198.2 (199.66.198.2): icmp_seq=32 ttl=56 time=21.5 ms
64 bytes from 199.66.198.2 (199.66.198.2): icmp_seq=32 ttl=56 time=21.6 ms
64 bytes from 199.66.198.2 (199.66.198.2): icmp_seq=32 ttl=56 time=21.6 ms
64 bytes from 199.66.198.2 (199.66.198.2): icmp_seq=32 ttl=56 time=21.7 ms
64 bytes from 199.66.198.2 (199.66.198.2): icmp_seq=32 ttl=56 time=21.6 ms
64 bytes from 199.66.198.2 (199.66.198.2): icmp_seq=32 ttl=56 time=21.7 ms
64 bytes from 199.66.198.2 (199.66.198.2): icmp_seq=32 ttl=56 time=21.9 ms
64 bytes from 199.66.198.2 (199.66.198.2): icmp_seq=32 ttl=56 time=21.9 ms
64 bytes from 199.66.198.2 (199.66.198.2): icmp_seq=32 ttl=56 time=22.0 ms
64 bytes from 199.66.198.2 (199.66.198.2): icmp_seq=32 ttl=56 time=22.0 ms
64 bytes from 199.66.198.2 (199.66.198.2): icmp_seq=33 ttl=56 time=22.0 ms
64 bytes from 199.66.198.2 (199.66.198.2): icmp_seq=33 ttl=56 time=22.0 ms
64 bytes from 199.66.198.2 (199.66.198.2): icmp_seq=33 ttl=56 time=21.4 ms
64 bytes from 199.66.198.2 (199.66.198.2): icmp_seq=33 ttl=56 time=21.4 ms
64 bytes from 199.66.198.2 (199.66.198.2): icmp_seq=33 ttl=56 time=21.9 ms
64 bytes from 199.66.198.2 (199.66.198.2): icmp_seq=33 ttl=56 time=21.4 ms
64 bytes from 199.66.198.2 (199.66.198.2): icmp_seq=33 ttl=56 time=21.7 ms
64 bytes from 199.66.198.2 (199.66.198.2): icmp_seq=33 ttl=56 time=21.8 ms
64 bytes from 199.66.198.2 (199.66.198.2): icmp_seq=33 ttl=56 time=21.8 ms
64 bytes from 199.66.198.2 (199.66.198.2): icmp_seq=33 ttl=56 time=21.9 ms
64 bytes from 199.66.198.2 (199.66.198.2): icmp_seq=34 ttl=56 time=21.4 ms
64 bytes from 199.66.198.2 (199.66.198.2): icmp_seq=34 ttl=56 time=21.4 ms
64 bytes from 199.66.198.2 (199.66.198.2): icmp_seq=34 ttl=56 time=21.4 ms
64 bytes from 199.66.198.2 (199.66.198.2): icmp_seq=34 ttl=56 time=21.4 ms
64 bytes from 199.66.198.2 (199.66.198.2): icmp_seq=34 ttl=56 time=21.4 ms
64 bytes from 199.66.198.2 (199.66.198.2): icmp_seq=34 ttl=56 time=21.4 ms
64 bytes from 199.66.198.2 (199.66.198.2): icmp_seq=34 ttl=56 time=21.4 ms
64 bytes from 199.66.198.2 (199.66.198.2): icmp_seq=34 ttl=56 time=21.4 ms
64 bytes from 199.66.198.2 (199.66.198.2): icmp_seq=34 ttl=56 time=21.4 ms
64 bytes from 199.66.198.2 (199.66.198.2): icmp_seq=34 ttl=56 time=21.4 ms
64 bytes from 199.66.198.2 (199.66.198.2): icmp_seq=35 ttl=56 time=22.0 ms
64 bytes from 199.66.198.2 (199.66.198.2): icmp_seq=35 ttl=56 time=22.0 ms
64 bytes from 199.66.198.2 (199.66.198.2): icmp_seq=35 ttl=56 time=21.9 ms
64 bytes from 199.66.198.2 (199.66.198.2): icmp_seq=35 ttl=56 time=21.9 ms
64 bytes from 199.66.198.2 (199.66.198.2): icmp_seq=35 ttl=56 time=21.4 ms
64 bytes from 199.66.198.2 (199.66.198.2): icmp_seq=35 ttl=56 time=21.4 ms
64 bytes from 199.66.198.2 (199.66.198.2): icmp_seq=35 ttl=56 time=21.5 ms
64 bytes from 199.66.198.2 (199.66.198.2): icmp_seq=35 ttl=56 time=21.5 ms
64 bytes from 199.66.198.2 (199.66.198.2): icmp_seq=35 ttl=56 time=21.5 ms
64 bytes from 199.66.198.2 (199.66.198.2): icmp_seq=35 ttl=56 time=21.6 ms
64 bytes from 199.66.198.2 (199.66.198.2): icmp_seq=36 ttl=56 time=21.8 ms
64 bytes from 199.66.198.2 (199.66.198.2): icmp_seq=36 ttl=56 time=21.9 ms
64 bytes from 199.66.198.2 (199.66.198.2): icmp_seq=36 ttl=56 time=21.9 ms
64 bytes from 199.66.198.2 (199.66.198.2): icmp_seq=36 ttl=56 time=22.0 ms
64 bytes from 199.66.198.2 (199.66.198.2): icmp_seq=36 ttl=56 time=21.3 ms
64 bytes from 199.66.198.2 (199.66.198.2): icmp_seq=36 ttl=56 time=21.4 ms
64 bytes from 199.66.198.2 (199.66.198.2): icmp_seq=36 ttl=56 time=21.7 ms
64 bytes from 199.66.198.2 (199.66.198.2): icmp_seq=36 ttl=56 time=21.8 ms
64 bytes from 199.66.198.2 (199.66.198.2): icmp_seq=36 ttl=56 time=21.8 ms
64 bytes from 199.66.198.2 (199.66.198.2): icmp_seq=36 ttl=56 time=21.9 ms
64 bytes from 199.66.198.2 (199.66.198.2): icmp_seq=37 ttl=56 time=21.8 ms
64 bytes from 199.66.198.2 (199.66.198.2): icmp_seq=37 ttl=56 time=21.9 ms
64 bytes from 199.66.198.2 (199.66.198.2): icmp_seq=37 ttl=56 time=21.8 ms
64 bytes from 199.66.198.2 (199.66.198.2): icmp_seq=37 ttl=56 time=21.8 ms
64 bytes from 199.66.198.2 (199.66.198.2): icmp_seq=37 ttl=56 time=21.9 ms
64 bytes from 199.66.198.2 (199.66.198.2): icmp_seq=37 ttl=56 time=21.7 ms
64 bytes from 199.66.198.2 (199.66.198.2): icmp_seq=37 ttl=56 time=21.7 ms
64 bytes from 199.66.198.2 (199.66.198.2): icmp_seq=37 ttl=56 time=21.8 ms
64 bytes from 199.66.198.2 (199.66.198.2): icmp_seq=37 ttl=56 time=21.8 ms
64 bytes from 199.66.198.2 (199.66.198.2): icmp_seq=37 ttl=56 time=21.8 ms
64 bytes from 199.66.198.2 (199.66.198.2): icmp_seq=38 ttl=56 time=21.8 ms
64 bytes from 199.66.198.2 (199.66.198.2): icmp_seq=38 ttl=56 time=21.9 ms
64 bytes from 199.66.198.2 (199.66.198.2): icmp_seq=38 ttl=56 time=21.8 ms
64 bytes from 199.66.198.2 (199.66.198.2): icmp_seq=38 ttl=56 time=21.7 ms
64 bytes from 199.66.198.2 (199.66.198.2): icmp_seq=38 ttl=56 time=21.9 ms
64 bytes from 199.66.198.2 (199.66.198.2): icmp_seq=38 ttl=56 time=21.6 ms
64 bytes from 199.66.198.2 (199.66.198.2): icmp_seq=38 ttl=56 time=21.8 ms
64 bytes from 199.66.198.2 (199.66.198.2): icmp_seq=38 ttl=56 time=21.7 ms
64 bytes from 199.66.198.2 (199.66.198.2): icmp_seq=38 ttl=56 time=21.8 ms
64 bytes from 199.66.198.2 (199.66.198.2): icmp_seq=38 ttl=56 time=21.8 ms
64 bytes from 199.66.198.2 (199.66.198.2): icmp_seq=39 ttl=56 time=21.8 ms
64 bytes from 199.66.198.2 (199.66.198.2): icmp_seq=39 ttl=56 time=21.8 ms
64 bytes from 199.66.198.2 (199.66.198.2): icmp_seq=39 ttl=56 time=21.8 ms
64 bytes from 199.66.198.2 (199.66.198.2): icmp_seq=39 ttl=56 time=21.7 ms
64 bytes from 199.66.198.2 (199.66.198.2): icmp_seq=39 ttl=56 time=21.8 ms
64 bytes from 199.66.198.2 (199.66.198.2): icmp_seq=39 ttl=56 time=21.6 ms
64 bytes from 199.66.198.2 (199.66.198.2): icmp_seq=39 ttl=56 time=21.8 ms
64 bytes from 199.66.198.2 (199.66.198.2): icmp_seq=39 ttl=56 time=21.8 ms
64 bytes from 199.66.198.2 (199.66.198.2): icmp_seq=39 ttl=56 time=21.4 ms
64 bytes from 199.66.198.2 (199.66.198.2): icmp_seq=39 ttl=56 time=21.4 ms
64 bytes from 199.66.198.2 (199.66.198.2): icmp_seq=40 ttl=56 time=21.8 ms
64 bytes from 199.66.198.2 (199.66.198.2): icmp_seq=40 ttl=56 time=21.7 ms
64 bytes from 199.66.198.2 (199.66.198.2): icmp_seq=40 ttl=56 time=21.8 ms
64 bytes from 199.66.198.2 (199.66.198.2): icmp_seq=40 ttl=56 time=21.6 ms
64 bytes from 199.66.198.2 (199.66.198.2): icmp_seq=40 ttl=56 time=21.7 ms
64 bytes from 199.66.198.2 (199.66.198.2): icmp_seq=40 ttl=56 time=21.6 ms
64 bytes from 199.66.198.2 (199.66.198.2): icmp_seq=40 ttl=56 time=21.8 ms
64 bytes from 199.66.198.2 (199.66.198.2): icmp_seq=40 ttl=56 time=21.9 ms
64 bytes from 199.66.198.2 (199.66.198.2): icmp_seq=40 ttl=56 time=21.5 ms
64 bytes from 199.66.198.2 (199.66.198.2): icmp_seq=40 ttl=56 time=21.6 ms
64 bytes from 199.66.198.2 (199.66.198.2): icmp_seq=41 ttl=56 time=21.7 ms
64 bytes from 199.66.198.2 (199.66.198.2): icmp_seq=41 ttl=56 time=21.4 ms
64 bytes from 199.66.198.2 (199.66.198.2): icmp_seq=41 ttl=56 time=21.3 ms
64 bytes from 199.66.198.2 (199.66.198.2): icmp_seq=41 ttl=56 time=21.4 ms
64 bytes from 199.66.198.2 (199.66.198.2): icmp_seq=41 ttl=56 time=21.4 ms
64 bytes from 199.66.198.2 (199.66.198.2): icmp_seq=41 ttl=56 time=21.3 ms
64 bytes from 199.66.198.2 (199.66.198.2): icmp_seq=41 ttl=56 time=21.5 ms
64 bytes from 199.66.198.2 (199.66.198.2): icmp_seq=41 ttl=56 time=21.5 ms
64 bytes from 199.66.198.2 (199.66.198.2): icmp_seq=41 ttl=56 time=21.6 ms
64 bytes from 199.66.198.2 (199.66.198.2): icmp_seq=41 ttl=56 time=21.7 ms
64 bytes from 199.66.198.2 (199.66.198.2): icmp_seq=42 ttl=56 time=21.8 ms
64 bytes from 199.66.198.2 (199.66.198.2): icmp_seq=42 ttl=56 time=21.8 ms
64 bytes from 199.66.198.2 (199.66.198.2): icmp_seq=42 ttl=56 time=21.8 ms
64 bytes from 199.66.198.2 (199.66.198.2): icmp_seq=42 ttl=56 time=21.3 ms
64 bytes from 199.66.198.2 (199.66.198.2): icmp_seq=42 ttl=56 time=21.7 ms
64 bytes from 199.66.198.2 (199.66.198.2): icmp_seq=42 ttl=56 time=21.7 ms
64 bytes from 199.66.198.2 (199.66.198.2): icmp_seq=42 ttl=56 time=21.7 ms
64 bytes from 199.66.198.2 (199.66.198.2): icmp_seq=42 ttl=56 time=21.8 ms
64 bytes from 199.66.198.2 (199.66.198.2): icmp_seq=42 ttl=56 time=21.6 ms
64 bytes from 199.66.198.2 (199.66.198.2): icmp_seq=42 ttl=56 time=21.7 ms
64 bytes from 199.66.198.2 (199.66.198.2): icmp_seq=43 ttl=56 time=21.6 ms
64 bytes from 199.66.198.2 (199.66.198.2): icmp_seq=43 ttl=56 time=21.4 ms
64 bytes from 199.66.198.2 (199.66.198.2): icmp_seq=43 ttl=56 time=21.4 ms
64 bytes from 199.66.198.2 (199.66.198.2): icmp_seq=43 ttl=56 time=21.5 ms
64 bytes from 199.66.198.2 (199.66.198.2): icmp_seq=43 ttl=56 time=21.4 ms
64 bytes from 199.66.198.2 (199.66.198.2): icmp_seq=43 ttl=56 time=21.6 ms
64 bytes from 199.66.198.2 (199.66.198.2): icmp_seq=43 ttl=56 time=21.7 ms
64 bytes from 199.66.198.2 (199.66.198.2): icmp_seq=43 ttl=56 time=21.8 ms
64 bytes from 199.66.198.2 (199.66.198.2): icmp_seq=43 ttl=56 time=21.7 ms
64 bytes from 199.66.198.2 (199.66.198.2): icmp_seq=43 ttl=56 time=21.7 ms
64 bytes from 199.66.198.2 (199.66.198.2): icmp_seq=44 ttl=56 time=21.5 ms
64 bytes from 199.66.198.2 (199.66.198.2): icmp_seq=44 ttl=56 time=21.7 ms
64 bytes from 199.66.198.2 (199.66.198.2): icmp_seq=44 ttl=56 time=21.5 ms
64 bytes from 199.66.198.2 (199.66.198.2): icmp_seq=44 ttl=56 time=21.6 ms
64 bytes from 199.66.198.2 (199.66.198.2): icmp_seq=44 ttl=56 time=21.4 ms
64 bytes from 199.66.198.2 (199.66.198.2): icmp_seq=44 ttl=56 time=21.7 ms
64 bytes from 199.66.198.2 (199.66.198.2): icmp_seq=44 ttl=56 time=21.7 ms
64 bytes from 199.66.198.2 (199.66.198.2): icmp_seq=44 ttl=56 time=21.8 ms
64 bytes from 199.66.198.2 (199.66.198.2): icmp_seq=44 ttl=56 time=21.5 ms
64 bytes from 199.66.198.2 (199.66.198.2): icmp_seq=44 ttl=56 time=21.6 ms
64 bytes from 199.66.198.2 (199.66.198.2): icmp_seq=45 ttl=56 time=21.8 ms
64 bytes from 199.66.198.2 (199.66.198.2): icmp_seq=45 ttl=56 time=21.7 ms
64 bytes from 199.66.198.2 (199.66.198.2): icmp_seq=45 ttl=56 time=21.8 ms
64 bytes from 199.66.198.2 (199.66.198.2): icmp_seq=45 ttl=56 time=21.8 ms
64 bytes from 199.66.198.2 (199.66.198.2): icmp_seq=45 ttl=56 time=21.8 ms
64 bytes from 199.66.198.2 (199.66.198.2): icmp_seq=45 ttl=56 time=21.7 ms
64 bytes from 199.66.198.2 (199.66.198.2): icmp_seq=45 ttl=56 time=21.7 ms
64 bytes from 199.66.198.2 (199.66.198.2): icmp_seq=45 ttl=56 time=21.8 ms
64 bytes from 199.66.198.2 (199.66.198.2): icmp_seq=45 ttl=56 time=21.8 ms
64 bytes from 199.66.198.2 (199.66.198.2): icmp_seq=45 ttl=56 time=21.8 ms
64 bytes from 199.66.198.2 (199.66.198.2): icmp_seq=46 ttl=56 time=22.0 ms
64 bytes from 199.66.198.2 (199.66.198.2): icmp_seq=46 ttl=56 time=22.0 ms
64 bytes from 199.66.198.2 (199.66.198.2): icmp_seq=46 ttl=56 time=21.9 ms
64 bytes from 199.66.198.2 (199.66.198.2): icmp_seq=46 ttl=56 time=21.5 ms
64 bytes from 199.66.198.2 (199.66.198.2): icmp_seq=46 ttl=56 time=21.5 ms
64 bytes from 199.66.198.2 (199.66.198.2): icmp_seq=46 ttl=56 time=21.4 ms
64 bytes from 199.66.198.2 (199.66.198.2): icmp_seq=46 ttl=56 time=21.6 ms
64 bytes from 199.66.198.2 (199.66.198.2): icmp_seq=46 ttl=56 time=21.7 ms
64 bytes from 199.66.198.2 (199.66.198.2): icmp_seq=46 ttl=56 time=21.6 ms
64 bytes from 199.66.198.2 (199.66.198.2): icmp_seq=46 ttl=56 time=21.6 ms
64 bytes from 199.66.198.2 (199.66.198.2): icmp_seq=47 ttl=56 time=21.6 ms
64 bytes from 199.66.198.2 (199.66.198.2): icmp_seq=47 ttl=56 time=21.6 ms
64 bytes from 199.66.198.2 (199.66.198.2): icmp_seq=47 ttl=56 time=21.6 ms
64 bytes from 199.66.198.2 (199.66.198.2): icmp_seq=47 ttl=56 time=21.6 ms
64 bytes from 199.66.198.2 (199.66.198.2): icmp_seq=47 ttl=56 time=21.7 ms
64 bytes from 199.66.198.2 (199.66.198.2): icmp_seq=47 ttl=56 time=21.7 ms
64 bytes from 199.66.198.2 (199.66.198.2): icmp_seq=47 ttl=56 time=21.4 ms
64 bytes from 199.66.198.2 (199.66.198.2): icmp_seq=47 ttl=56 time=21.5 ms
64 bytes from 199.66.198.2 (199.66.198.2): icmp_seq=47 ttl=56 time=21.5 ms
64 bytes from 199.66.198.2 (199.66.198.2): icmp_seq=47 ttl=56 time=21.4 ms
64 bytes from 199.66.198.2 (199.66.198.2): icmp_seq=48 ttl=56 time=21.8 ms
64 bytes from 199.66.198.2 (199.66.198.2): icmp_seq=48 ttl=56 time=21.8 ms
64 bytes from 199.66.198.2 (199.66.198.2): icmp_seq=48 ttl=56 time=21.4 ms
64 bytes from 199.66.198.2 (199.66.198.2): icmp_seq=48 ttl=56 time=21.5 ms
64 bytes from 199.66.198.2 (199.66.198.2): icmp_seq=48 ttl=56 time=21.6 ms
64 bytes from 199.66.198.2 (199.66.198.2): icmp_seq=48 ttl=56 time=21.7 ms
64 bytes from 199.66.198.2 (199.66.198.2): icmp_seq=48 ttl=56 time=21.7 ms
64 bytes from 199.66.198.2 (199.66.198.2): icmp_seq=48 ttl=56 time=21.8 ms
64 bytes from 199.66.198.2 (199.66.198.2): icmp_seq=48 ttl=56 time=21.8 ms
64 bytes from 199.66.198.2 (199.66.198.2): icmp_seq=48 ttl=56 time=21.8 ms
64 bytes from 199.66.198.2 (199.66.198.2): icmp_seq=49 ttl=56 time=21.4 ms
64 bytes from 199.66.198.2 (199.66.198.2): icmp_seq=49 ttl=56 time=21.3 ms
64 bytes from 199.66.198.2 (199.66.198.2): icmp_seq=49 ttl=56 time=21.3 ms
64 bytes from 199.66.198.2 (199.66.198.2): icmp_seq=49 ttl=56 time=21.4 ms
64 bytes from 199.66.198.2 (199.66.198.2): icmp_seq=49 ttl=56 time=21.3 ms
64 bytes from 199.66.198.2 (199.66.198.2): icmp_seq=49 ttl=56 time=21.3 ms
64 bytes from 199.66.198.2 (199.66.198.2): icmp_seq=49 ttl=56 time=21.3 ms
64 bytes from 199.66.198.2 (199.66.198.2): icmp_seq=49 ttl=56 time=21.3 ms
64 bytes from 199.66.198.2 (199.66.198.2): icmp_seq=49 ttl=56 time=21.3 ms
64 bytes from 199.66.198.2 (199.66.198.2): icmp_seq=49 ttl=56 time=21.3 ms
64 bytes from 199.66.198.2 (199.66.198.2): icmp_seq=50 ttl=56 time=21.9 ms
64 bytes from 199.66.198.2 (199.66.198.2): icmp_seq=50 ttl=56 time=21.9 ms
64 bytes from 199.66.198.2 (199.66.198.2): icmp_seq=50 ttl=56 time=21.5 ms
64 bytes from 199.66.198.2 (199.66.198.2): icmp_seq=50 ttl=56 time=21.5 ms
64 bytes from 199.66.198.2 (199.66.198.2): icmp_seq=50 ttl=56 time=21.5 ms
64 bytes from 199.66.198.2 (199.66.198.2): icmp_seq=50 ttl=56 time=21.7 ms
64 bytes from 199.66.198.2 (199.66.198.2): icmp_seq=50 ttl=56 time=21.6 ms
64 bytes from 199.66.198.2 (199.66.198.2): icmp_seq=50 ttl=56 time=21.7 ms
64 bytes from 199.66.198.2 (199.66.198.2): icmp_seq=50 ttl=56 time=21.6 ms
64 bytes from 199.66.198.2 (199.66.198.2): icmp_seq=50 ttl=56 time=21.6 ms
64 bytes from 199.66.198.2 (199.66.198.2): icmp_seq=51 ttl=56 time=21.7 ms
64 bytes from 199.66.198.2 (199.66.198.2): icmp_seq=51 ttl=56 time=21.8 ms
64 bytes from 199.66.198.2 (199.66.198.2): icmp_seq=51 ttl=56 time=21.4 ms
64 bytes from 199.66.198.2 (199.66.198.2): icmp_seq=51 ttl=56 time=21.5 ms
64 bytes from 199.66.198.2 (199.66.198.2): icmp_seq=51 ttl=56 time=21.3 ms
64 bytes from 199.66.198.2 (199.66.198.2): icmp_seq=51 ttl=56 time=21.7 ms
64 bytes from 199.66.198.2 (199.66.198.2): icmp_seq=51 ttl=56 time=21.7 ms
64 bytes from 199.66.198.2 (199.66.198.2): icmp_seq=51 ttl=56 time=21.6 ms
64 bytes from 199.66.198.2 (199.66.198.2): icmp_seq=51 ttl=56 time=21.5 ms
64 bytes from 199.66.198.2 (199.66.198.2): icmp_seq=51 ttl=56 time=21.6 ms
64 bytes from 199.66.198.2 (199.66.198.2): icmp_seq=52 ttl=56 time=21.7 ms
64 bytes from 199.66.198.2 (199.66.198.2): icmp_seq=52 ttl=56 time=21.3 ms
64 bytes from 199.66.198.2 (199.66.198.2): icmp_seq=52 ttl=56 time=21.7 ms
64 bytes from 199.66.198.2 (199.66.198.2): icmp_seq=52 ttl=56 time=21.7 ms
64 bytes from 199.66.198.2 (199.66.198.2): icmp_seq=52 ttl=56 time=21.6 ms
64 bytes from 199.66.198.2 (199.66.198.2): icmp_seq=52 ttl=56 time=21.6 ms
64 bytes from 199.66.198.2 (199.66.198.2): icmp_seq=52 ttl=56 time=21.7 ms
64 bytes from 199.66.198.2 (199.66.198.2): icmp_seq=52 ttl=56 time=21.7 ms
64 bytes from 199.66.198.2 (199.66.198.2): icmp_seq=52 ttl=56 time=21.6 ms
64 bytes from 199.66.198.2 (199.66.198.2): icmp_seq=52 ttl=56 time=21.6 ms
64 bytes from 199.66.198.2 (199.66.198.2): icmp_seq=53 ttl=56 time=21.9 ms
64 bytes from 199.66.198.2 (199.66.198.2): icmp_seq=53 ttl=56 time=21.4 ms
64 bytes from 199.66.198.2 (199.66.198.2): icmp_seq=53 ttl=56 time=21.6 ms
64 bytes from 199.66.198.2 (199.66.198.2): icmp_seq=53 ttl=56 time=21.7 ms
64 bytes from 199.66.198.2 (199.66.198.2): icmp_seq=53 ttl=56 time=21.6 ms
64 bytes from 199.66.198.2 (199.66.198.2): icmp_seq=53 ttl=56 time=21.8 ms
64 bytes from 199.66.198.2 (199.66.198.2): icmp_seq=53 ttl=56 time=21.8 ms
64 bytes from 199.66.198.2 (199.66.198.2): icmp_seq=53 ttl=56 time=21.8 ms
64 bytes from 199.66.198.2 (199.66.198.2): icmp_seq=53 ttl=56 time=21.8 ms
64 bytes from 199.66.198.2 (199.66.198.2): icmp_seq=53 ttl=56 time=21.6 ms
64 bytes from 199.66.198.2 (199.66.198.2): icmp_seq=54 ttl=56 time=21.8 ms
64 bytes from 199.66.198.2 (199.66.198.2): icmp_seq=54 ttl=56 time=21.7 ms
64 bytes from 199.66.198.2 (199.66.198.2): icmp_seq=54 ttl=56 time=21.7 ms
64 bytes from 199.66.198.2 (199.66.198.2): icmp_seq=54 ttl=56 time=21.7 ms
64 bytes from 199.66.198.2 (199.66.198.2): icmp_seq=54 ttl=56 time=21.7 ms
64 bytes from 199.66.198.2 (199.66.198.2): icmp_seq=54 ttl=56 time=21.8 ms
64 bytes from 199.66.198.2 (199.66.198.2): icmp_seq=54 ttl=56 time=21.7 ms
64 bytes from 199.66.198.2 (199.66.198.2): icmp_seq=54 ttl=56 time=21.8 ms
64 bytes from 199.66.198.2 (199.66.198.2): icmp_seq=54 ttl=56 time=21.8 ms
64 bytes from 199.66.198.2 (199.66.198.2): icmp_seq=54 ttl=56 time=21.7 ms
64 bytes from 199.66.198.2 (199.66.198.2): icmp_seq=55 ttl=56 time=21.4 ms
64 bytes from 199.66.198.2 (199.66.198.2): icmp_seq=55 ttl=56 time=21.5 ms
64 bytes from 199.66.198.2 (199.66.198.2): icmp_seq=55 ttl=56 time=21.8 ms
64 bytes from 199.66.198.2 (199.66.198.2): icmp_seq=55 ttl=56 time=21.7 ms
64 bytes from 199.66.198.2 (199.66.198.2): icmp_seq=55 ttl=56 time=21.8 ms
64 bytes from 199.66.198.2 (199.66.198.2): icmp_seq=55 ttl=56 time=21.7 ms
64 bytes from 199.66.198.2 (199.66.198.2): icmp_seq=55 ttl=56 time=21.7 ms
64 bytes from 199.66.198.2 (199.66.198.2): icmp_seq=55 ttl=56 time=21.8 ms
64 bytes from 199.66.198.2 (199.66.198.2): icmp_seq=55 ttl=56 time=21.6 ms
64 bytes from 199.66.198.2 (199.66.198.2): icmp_seq=55 ttl=56 time=21.6 ms
64 bytes from 199.66.198.2 (199.66.198.2): icmp_seq=56 ttl=56 time=21.7 ms
64 bytes from 199.66.198.2 (199.66.198.2): icmp_seq=56 ttl=56 time=21.8 ms
64 bytes from 199.66.198.2 (199.66.198.2): icmp_seq=56 ttl=56 time=21.4 ms
64 bytes from 199.66.198.2 (199.66.198.2): icmp_seq=56 ttl=56 time=21.4 ms
64 bytes from 199.66.198.2 (199.66.198.2): icmp_seq=56 ttl=56 time=21.4 ms
64 bytes from 199.66.198.2 (199.66.198.2): icmp_seq=56 ttl=56 time=21.4 ms
64 bytes from 199.66.198.2 (199.66.198.2): icmp_seq=56 ttl=56 time=21.5 ms
64 bytes from 199.66.198.2 (199.66.198.2): icmp_seq=56 ttl=56 time=21.5 ms
64 bytes from 199.66.198.2 (199.66.198.2): icmp_seq=56 ttl=56 time=21.5 ms
64 bytes from 199.66.198.2 (199.66.198.2): icmp_seq=56 ttl=56 time=21.8 ms
64 bytes from 199.66.198.2 (199.66.198.2): icmp_seq=57 ttl=56 time=21.8 ms
64 bytes from 199.66.198.2 (199.66.198.2): icmp_seq=57 ttl=56 time=21.4 ms
64 bytes from 199.66.198.2 (199.66.198.2): icmp_seq=57 ttl=56 time=21.8 ms
64 bytes from 199.66.198.2 (199.66.198.2): icmp_seq=57 ttl=56 time=21.7 ms
64 bytes from 199.66.198.2 (199.66.198.2): icmp_seq=57 ttl=56 time=21.8 ms
64 bytes from 199.66.198.2 (199.66.198.2): icmp_seq=57 ttl=56 time=21.8 ms
64 bytes from 199.66.198.2 (199.66.198.2): icmp_seq=57 ttl=56 time=21.7 ms
64 bytes from 199.66.198.2 (199.66.198.2): icmp_seq=57 ttl=56 time=21.8 ms
64 bytes from 199.66.198.2 (199.66.198.2): icmp_seq=57 ttl=56 time=21.9 ms
64 bytes from 199.66.198.2 (199.66.198.2): icmp_seq=57 ttl=56 time=21.7 ms
64 bytes from 199.66.198.2 (199.66.198.2): icmp_seq=58 ttl=56 time=21.8 ms
64 bytes from 199.66.198.2 (199.66.198.2): icmp_seq=58 ttl=56 time=21.8 ms
64 bytes from 199.66.198.2 (199.66.198.2): icmp_seq=58 ttl=56 time=21.4 ms
64 bytes from 199.66.198.2 (199.66.198.2): icmp_seq=58 ttl=56 time=21.5 ms
64 bytes from 199.66.198.2 (199.66.198.2): icmp_seq=58 ttl=56 time=21.6 ms
64 bytes from 199.66.198.2 (199.66.198.2): icmp_seq=58 ttl=56 time=21.8 ms
64 bytes from 199.66.198.2 (199.66.198.2): icmp_seq=58 ttl=56 time=21.7 ms
64 bytes from 199.66.198.2 (199.66.198.2): icmp_seq=58 ttl=56 time=21.8 ms
64 bytes from 199.66.198.2 (199.66.198.2): icmp_seq=58 ttl=56 time=21.9 ms
64 bytes from 199.66.198.2 (199.66.198.2): icmp_seq=58 ttl=56 time=21.7 ms
64 bytes from 199.66.198.2 (199.66.198.2): icmp_seq=59 ttl=56 time=21.8 ms
64 bytes from 199.66.198.2 (199.66.198.2): icmp_seq=59 ttl=56 time=21.9 ms
64 bytes from 199.66.198.2 (199.66.198.2): icmp_seq=59 ttl=56 time=21.8 ms
64 bytes from 199.66.198.2 (199.66.198.2): icmp_seq=59 ttl=56 time=21.7 ms
64 bytes from 199.66.198.2 (199.66.198.2): icmp_seq=59 ttl=56 time=21.8 ms
64 bytes from 199.66.198.2 (199.66.198.2): icmp_seq=59 ttl=56 time=22.9 ms
64 bytes from 199.66.198.2 (199.66.198.2): icmp_seq=59 ttl=56 time=23.0 ms
64 bytes from 199.66.198.2 (199.66.198.2): icmp_seq=59 ttl=56 time=23.0 ms
64 bytes from 199.66.198.2 (199.66.198.2): icmp_seq=59 ttl=56 time=23.1 ms
64 bytes from 199.66.198.2 (199.66.198.2): icmp_seq=59 ttl=56 time=21.8 ms
64 bytes from 199.66.198.2 (199.66.198.2): icmp_seq=60 ttl=56 time=21.9 ms
64 bytes from 199.66.198.2 (199.66.198.2): icmp_seq=60 ttl=56 time=22.0 ms
64 bytes from 199.66.198.2 (199.66.198.2): icmp_seq=60 ttl=56 time=21.6 ms
64 bytes from 199.66.198.2 (199.66.198.2): icmp_seq=60 ttl=56 time=21.6 ms
64 bytes from 199.66.198.2 (199.66.198.2): icmp_seq=60 ttl=56 time=21.7 ms
64 bytes from 199.66.198.2 (199.66.198.2): icmp_seq=60 ttl=56 time=21.8 ms
64 bytes from 199.66.198.2 (199.66.198.2): icmp_seq=60 ttl=56 time=21.7 ms
64 bytes from 199.66.198.2 (199.66.198.2): icmp_seq=60 ttl=56 time=21.8 ms
64 bytes from 199.66.198.2 (199.66.198.2): icmp_seq=60 ttl=56 time=21.8 ms
64 bytes from 199.66.198.2 (199.66.198.2): icmp_seq=60 ttl=56 time=21.7 ms
64 bytes from 199.66.198.2 (199.66.198.2): icmp_seq=61 ttl=56 time=21.9 ms
64 bytes from 199.66.198.2 (199.66.198.2): icmp_seq=61 ttl=56 time=22.0 ms
64 bytes from 199.66.198.2 (199.66.198.2): icmp_seq=61 ttl=56 time=21.5 ms
64 bytes from 199.66.198.2 (199.66.198.2): icmp_seq=61 ttl=56 time=21.5 ms
64 bytes from 199.66.198.2 (199.66.198.2): icmp_seq=61 ttl=56 time=21.3 ms
64 bytes from 199.66.198.2 (199.66.198.2): icmp_seq=61 ttl=56 time=21.5 ms
64 bytes from 199.66.198.2 (199.66.198.2): icmp_seq=61 ttl=56 time=21.4 ms
64 bytes from 199.66.198.2 (199.66.198.2): icmp_seq=61 ttl=56 time=21.5 ms
64 bytes from 199.66.198.2 (199.66.198.2): icmp_seq=61 ttl=56 time=21.5 ms
64 bytes from 199.66.198.2 (199.66.198.2): icmp_seq=61 ttl=56 time=21.7 ms
64 bytes from 199.66.198.2 (199.66.198.2): icmp_seq=62 ttl=56 time=21.8 ms
64 bytes from 199.66.198.2 (199.66.198.2): icmp_seq=62 ttl=56 time=21.8 ms
64 bytes from 199.66.198.2 (199.66.198.2): icmp_seq=62 ttl=56 time=21.6 ms
64 bytes from 199.66.198.2 (199.66.198.2): icmp_seq=62 ttl=56 time=21.7 ms
64 bytes from 199.66.198.2 (199.66.198.2): icmp_seq=62 ttl=56 time=21.4 ms
64 bytes from 199.66.198.2 (199.66.198.2): icmp_seq=62 ttl=56 time=21.7 ms
64 bytes from 199.66.198.2 (199.66.198.2): icmp_seq=62 ttl=56 time=21.7 ms
64 bytes from 199.66.198.2 (199.66.198.2): icmp_seq=62 ttl=56 time=21.6 ms
64 bytes from 199.66.198.2 (199.66.198.2): icmp_seq=62 ttl=56 time=21.7 ms
64 bytes from 199.66.198.2 (199.66.198.2): icmp_seq=62 ttl=56 time=21.8 ms
64 bytes from 199.66.198.2 (199.66.198.2): icmp_seq=63 ttl=56 time=22.0 ms
64 bytes from 199.66.198.2 (199.66.198.2): icmp_seq=63 ttl=56 time=22.0 ms
64 bytes from 199.66.198.2 (199.66.198.2): icmp_seq=63 ttl=56 time=21.8 ms
64 bytes from 199.66.198.2 (199.66.198.2): icmp_seq=63 ttl=56 time=21.7 ms
64 bytes from 199.66.198.2 (199.66.198.2): icmp_seq=63 ttl=56 time=21.7 ms
64 bytes from 199.66.198.2 (199.66.198.2): icmp_seq=63 ttl=56 time=21.8 ms
64 bytes from 199.66.198.2 (199.66.198.2): icmp_seq=63 ttl=56 time=21.8 ms
64 bytes from 199.66.198.2 (199.66.198.2): icmp_seq=63 ttl=56 time=21.8 ms
64 bytes from 199.66.198.2 (199.66.198.2): icmp_seq=63 ttl=56 time=21.4 ms
64 bytes from 199.66.198.2 (199.66.198.2): icmp_seq=63 ttl=56 time=21.7 ms
64 bytes from 199.66.198.2 (199.66.198.2): icmp_seq=64 ttl=56 time=21.8 ms
64 bytes from 199.66.198.2 (199.66.198.2): icmp_seq=64 ttl=56 time=21.8 ms
64 bytes from 199.66.198.2 (199.66.198.2): icmp_seq=64 ttl=56 time=21.7 ms
64 bytes from 199.66.198.2 (199.66.198.2): icmp_seq=64 ttl=56 time=21.8 ms
64 bytes from 199.66.198.2 (199.66.198.2): icmp_seq=64 ttl=56 time=21.8 ms
64 bytes from 199.66.198.2 (199.66.198.2): icmp_seq=64 ttl=56 time=21.7 ms
64 bytes from 199.66.198.2 (199.66.198.2): icmp_seq=64 ttl=56 time=21.7 ms
64 bytes from 199.66.198.2 (199.66.198.2): icmp_seq=64 ttl=56 time=21.7 ms
64 bytes from 199.66.198.2 (199.66.198.2): icmp_seq=64 ttl=56 time=21.6 ms
64 bytes from 199.66.198.2 (199.66.198.2): icmp_seq=64 ttl=56 time=21.7 ms
64 bytes from 199.66.198.2 (199.66.198.2): icmp_seq=65 ttl=56 time=21.7 ms
64 bytes from 199.66.198.2 (199.66.198.2): icmp_seq=65 ttl=56 time=21.7 ms
64 bytes from 199.66.198.2 (199.66.198.2): icmp_seq=65 ttl=56 time=21.7 ms
64 bytes from 199.66.198.2 (199.66.198.2): icmp_seq=65 ttl=56 time=21.7 ms
64 bytes from 199.66.198.2 (199.66.198.2): icmp_seq=65 ttl=56 time=21.8 ms
64 bytes from 199.66.198.2 (199.66.198.2): icmp_seq=65 ttl=56 time=21.7 ms
64 bytes from 199.66.198.2 (199.66.198.2): icmp_seq=65 ttl=56 time=21.6 ms
64 bytes from 199.66.198.2 (199.66.198.2): icmp_seq=65 ttl=56 time=21.7 ms
64 bytes from 199.66.198.2 (199.66.198.2): icmp_seq=65 ttl=56 time=21.7 ms
64 bytes from 199.66.198.2 (199.66.198.2): icmp_seq=65 ttl=56 time=21.6 ms
64 bytes from 199.66.198.2 (199.66.198.2): icmp_seq=66 ttl=56 time=21.7 ms
64 bytes from 199.66.198.2 (199.66.198.2): icmp_seq=66 ttl=56 time=21.8 ms
64 bytes from 199.66.198.2 (199.66.198.2): icmp_seq=66 ttl=56 time=21.6 ms
64 bytes from 199.66.198.2 (199.66.198.2): icmp_seq=66 ttl=56 time=21.6 ms
64 bytes from 199.66.198.2 (199.66.198.2): icmp_seq=66 ttl=56 time=21.6 ms
64 bytes from 199.66.198.2 (199.66.198.2): icmp_seq=66 ttl=56 time=21.7 ms
64 bytes from 199.66.198.2 (199.66.198.2): icmp_seq=66 ttl=56 time=21.8 ms
64 bytes from 199.66.198.2 (199.66.198.2): icmp_seq=66 ttl=56 time=21.8 ms
64 bytes from 199.66.198.2 (199.66.198.2): icmp_seq=66 ttl=56 time=21.8 ms
64 bytes from 199.66.198.2 (199.66.198.2): icmp_seq=66 ttl=56 time=21.8 ms
64 bytes from 199.66.198.2 (199.66.198.2): icmp_seq=67 ttl=56 time=21.5 ms
64 bytes from 199.66.198.2 (199.66.198.2): icmp_seq=67 ttl=56 time=21.6 ms
64 bytes from 199.66.198.2 (199.66.198.2): icmp_seq=67 ttl=56 time=21.8 ms
64 bytes from 199.66.198.2 (199.66.198.2): icmp_seq=67 ttl=56 time=21.7 ms
64 bytes from 199.66.198.2 (199.66.198.2): icmp_seq=67 ttl=56 time=21.8 ms
64 bytes from 199.66.198.2 (199.66.198.2): icmp_seq=67 ttl=56 time=21.7 ms
64 bytes from 199.66.198.2 (199.66.198.2): icmp_seq=67 ttl=56 time=21.7 ms
64 bytes from 199.66.198.2 (199.66.198.2): icmp_seq=67 ttl=56 time=21.8 ms
64 bytes from 199.66.198.2 (199.66.198.2): icmp_seq=67 ttl=56 time=21.8 ms
64 bytes from 199.66.198.2 (199.66.198.2): icmp_seq=67 ttl=56 time=21.7 ms
64 bytes from 199.66.198.2 (199.66.198.2): icmp_seq=68 ttl=56 time=21.7 ms
64 bytes from 199.66.198.2 (199.66.198.2): icmp_seq=68 ttl=56 time=21.8 ms
64 bytes from 199.66.198.2 (199.66.198.2): icmp_seq=68 ttl=56 time=21.6 ms
64 bytes from 199.66.198.2 (199.66.198.2): icmp_seq=68 ttl=56 time=21.5 ms
64 bytes from 199.66.198.2 (199.66.198.2): icmp_seq=68 ttl=56 time=21.6 ms
64 bytes from 199.66.198.2 (199.66.198.2): icmp_seq=68 ttl=56 time=21.7 ms
64 bytes from 199.66.198.2 (199.66.198.2): icmp_seq=68 ttl=56 time=21.7 ms
64 bytes from 199.66.198.2 (199.66.198.2): icmp_seq=68 ttl=56 time=21.7 ms
64 bytes from 199.66.198.2 (199.66.198.2): icmp_seq=68 ttl=56 time=21.8 ms
64 bytes from 199.66.198.2 (199.66.198.2): icmp_seq=68 ttl=56 time=21.8 ms
64 bytes from 199.66.198.2 (199.66.198.2): icmp_seq=69 ttl=56 time=21.9 ms
64 bytes from 199.66.198.2 (199.66.198.2): icmp_seq=69 ttl=56 time=22.0 ms
64 bytes from 199.66.198.2 (199.66.198.2): icmp_seq=69 ttl=56 time=21.7 ms
64 bytes from 199.66.198.2 (199.66.198.2): icmp_seq=69 ttl=56 time=21.7 ms
64 bytes from 199.66.198.2 (199.66.198.2): icmp_seq=69 ttl=56 time=21.4 ms
64 bytes from 199.66.198.2 (199.66.198.2): icmp_seq=69 ttl=56 time=21.7 ms
64 bytes from 199.66.198.2 (199.66.198.2): icmp_seq=69 ttl=56 time=21.8 ms
64 bytes from 199.66.198.2 (199.66.198.2): icmp_seq=69 ttl=56 time=21.7 ms
64 bytes from 199.66.198.2 (199.66.198.2): icmp_seq=69 ttl=56 time=21.8 ms
64 bytes from 199.66.198.2 (199.66.198.2): icmp_seq=69 ttl=56 time=21.7 ms
64 bytes from 199.66.198.2 (199.66.198.2): icmp_seq=70 ttl=56 time=21.9 ms
64 bytes from 199.66.198.2 (199.66.198.2): icmp_seq=70 ttl=56 time=21.9 ms
64 bytes from 199.66.198.2 (199.66.198.2): icmp_seq=70 ttl=56 time=21.5 ms
64 bytes from 199.66.198.2 (199.66.198.2): icmp_seq=70 ttl=56 time=21.5 ms
64 bytes from 199.66.198.2 (199.66.198.2): icmp_seq=70 ttl=56 time=21.5 ms
64 bytes from 199.66.198.2 (199.66.198.2): icmp_seq=70 ttl=56 time=21.7 ms
64 bytes from 199.66.198.2 (199.66.198.2): icmp_seq=70 ttl=56 time=21.8 ms
64 bytes from 199.66.198.2 (199.66.198.2): icmp_seq=70 ttl=56 time=21.8 ms
64 bytes from 199.66.198.2 (199.66.198.2): icmp_seq=70 ttl=56 time=21.8 ms
64 bytes from 199.66.198.2 (199.66.198.2): icmp_seq=70 ttl=56 time=21.8 ms
64 bytes from 199.66.198.2 (199.66.198.2): icmp_seq=71 ttl=56 time=21.7 ms
64 bytes from 199.66.198.2 (199.66.198.2): icmp_seq=71 ttl=56 time=21.7 ms
64 bytes from 199.66.198.2 (199.66.198.2): icmp_seq=71 ttl=56 time=21.4 ms
64 bytes from 199.66.198.2 (199.66.198.2): icmp_seq=71 ttl=56 time=21.4 ms
64 bytes from 199.66.198.2 (199.66.198.2): icmp_seq=71 ttl=56 time=21.4 ms
64 bytes from 199.66.198.2 (199.66.198.2): icmp_seq=71 ttl=56 time=21.7 ms
64 bytes from 199.66.198.2 (199.66.198.2): icmp_seq=71 ttl=56 time=21.8 ms
64 bytes from 199.66.198.2 (199.66.198.2): icmp_seq=71 ttl=56 time=21.8 ms
64 bytes from 199.66.198.2 (199.66.198.2): icmp_seq=71 ttl=56 time=21.3 ms
64 bytes from 199.66.198.2 (199.66.198.2): icmp_seq=71 ttl=56 time=21.7 ms
64 bytes from 199.66.198.2 (199.66.198.2): icmp_seq=72 ttl=56 time=21.7 ms
64 bytes from 199.66.198.2 (199.66.198.2): icmp_seq=72 ttl=56 time=21.7 ms
64 bytes from 199.66.198.2 (199.66.198.2): icmp_seq=72 ttl=56 time=21.6 ms
64 bytes from 199.66.198.2 (199.66.198.2): icmp_seq=72 ttl=56 time=21.7 ms
64 bytes from 199.66.198.2 (199.66.198.2): icmp_seq=72 ttl=56 time=21.7 ms
64 bytes from 199.66.198.2 (199.66.198.2): icmp_seq=72 ttl=56 time=21.6 ms
64 bytes from 199.66.198.2 (199.66.198.2): icmp_seq=72 ttl=56 time=21.7 ms
64 bytes from 199.66.198.2 (199.66.198.2): icmp_seq=72 ttl=56 time=21.7 ms
64 bytes from 199.66.198.2 (199.66.198.2): icmp_seq=72 ttl=56 time=21.7 ms
64 bytes from 199.66.198.2 (199.66.198.2): icmp_seq=72 ttl=56 time=21.8 ms
64 bytes from 199.66.198.2 (199.66.198.2): icmp_seq=73 ttl=56 time=21.8 ms
64 bytes from 199.66.198.2 (199.66.198.2): icmp_seq=73 ttl=56 time=21.9 ms
64 bytes from 199.66.198.2 (199.66.198.2): icmp_seq=73 ttl=56 time=21.8 ms
64 bytes from 199.66.198.2 (199.66.198.2): icmp_seq=73 ttl=56 time=21.7 ms
64 bytes from 199.66.198.2 (199.66.198.2): icmp_seq=73 ttl=56 time=21.8 ms
64 bytes from 199.66.198.2 (199.66.198.2): icmp_seq=73 ttl=56 time=21.7 ms
64 bytes from 199.66.198.2 (199.66.198.2): icmp_seq=73 ttl=56 time=21.8 ms
64 bytes from 199.66.198.2 (199.66.198.2): icmp_seq=73 ttl=56 time=21.8 ms
64 bytes from 199.66.198.2 (199.66.198.2): icmp_seq=73 ttl=56 time=21.8 ms
64 bytes from 199.66.198.2 (199.66.198.2): icmp_seq=73 ttl=56 time=21.7 ms
64 bytes from 199.66.198.2 (199.66.198.2): icmp_seq=74 ttl=56 time=21.9 ms
64 bytes from 199.66.198.2 (199.66.198.2): icmp_seq=74 ttl=56 time=21.9 ms
64 bytes from 199.66.198.2 (199.66.198.2): icmp_seq=74 ttl=56 time=21.8 ms
64 bytes from 199.66.198.2 (199.66.198.2): icmp_seq=74 ttl=56 time=21.8 ms
64 bytes from 199.66.198.2 (199.66.198.2): icmp_seq=74 ttl=56 time=21.9 ms
64 bytes from 199.66.198.2 (199.66.198.2): icmp_seq=74 ttl=56 time=21.6 ms
64 bytes from 199.66.198.2 (199.66.198.2): icmp_seq=74 ttl=56 time=21.6 ms
64 bytes from 199.66.198.2 (199.66.198.2): icmp_seq=74 ttl=56 time=21.7 ms
64 bytes from 199.66.198.2 (199.66.198.2): icmp_seq=74 ttl=56 time=21.5 ms
64 bytes from 199.66.198.2 (199.66.198.2): icmp_seq=74 ttl=56 time=21.7 ms
64 bytes from 199.66.198.2 (199.66.198.2): icmp_seq=75 ttl=56 time=21.7 ms
64 bytes from 199.66.198.2 (199.66.198.2): icmp_seq=75 ttl=56 time=21.7 ms
64 bytes from 199.66.198.2 (199.66.198.2): icmp_seq=75 ttl=56 time=21.9 ms
64 bytes from 199.66.198.2 (199.66.198.2): icmp_seq=75 ttl=56 time=21.8 ms
64 bytes from 199.66.198.2 (199.66.198.2): icmp_seq=75 ttl=56 time=21.9 ms
64 bytes from 199.66.198.2 (199.66.198.2): icmp_seq=75 ttl=56 time=21.9 ms
64 bytes from 199.66.198.2 (199.66.198.2): icmp_seq=75 ttl=56 time=21.8 ms
64 bytes from 199.66.198.2 (199.66.198.2): icmp_seq=75 ttl=56 time=21.8 ms
64 bytes from 199.66.198.2 (199.66.198.2): icmp_seq=75 ttl=56 time=21.8 ms
64 bytes from 199.66.198.2 (199.66.198.2): icmp_seq=75 ttl=56 time=21.8 ms
64 bytes from 199.66.198.2 (199.66.198.2): icmp_seq=76 ttl=56 time=21.9 ms
64 bytes from 199.66.198.2 (199.66.198.2): icmp_seq=76 ttl=56 time=21.9 ms
64 bytes from 199.66.198.2 (199.66.198.2): icmp_seq=76 ttl=56 time=21.4 ms
64 bytes from 199.66.198.2 (199.66.198.2): icmp_seq=76 ttl=56 time=21.4 ms
64 bytes from 199.66.198.2 (199.66.198.2): icmp_seq=76 ttl=56 time=21.4 ms
64 bytes from 199.66.198.2 (199.66.198.2): icmp_seq=76 ttl=56 time=21.5 ms
64 bytes from 199.66.198.2 (199.66.198.2): icmp_seq=76 ttl=56 time=21.5 ms
64 bytes from 199.66.198.2 (199.66.198.2): icmp_seq=76 ttl=56 time=21.5 ms
64 bytes from 199.66.198.2 (199.66.198.2): icmp_seq=76 ttl=56 time=21.6 ms
64 bytes from 199.66.198.2 (199.66.198.2): icmp_seq=76 ttl=56 time=21.4 ms
64 bytes from 199.66.198.2 (199.66.198.2): icmp_seq=77 ttl=56 time=21.6 ms
64 bytes from 199.66.198.2 (199.66.198.2): icmp_seq=77 ttl=56 time=21.6 ms
64 bytes from 199.66.198.2 (199.66.198.2): icmp_seq=77 ttl=56 time=21.7 ms
64 bytes from 199.66.198.2 (199.66.198.2): icmp_seq=77 ttl=56 time=21.7 ms
64 bytes from 199.66.198.2 (199.66.198.2): icmp_seq=77 ttl=56 time=21.7 ms
64 bytes from 199.66.198.2 (199.66.198.2): icmp_seq=77 ttl=56 time=21.8 ms
64 bytes from 199.66.198.2 (199.66.198.2): icmp_seq=77 ttl=56 time=21.7 ms
64 bytes from 199.66.198.2 (199.66.198.2): icmp_seq=77 ttl=56 time=21.8 ms
64 bytes from 199.66.198.2 (199.66.198.2): icmp_seq=77 ttl=56 time=21.8 ms
64 bytes from 199.66.198.2 (199.66.198.2): icmp_seq=77 ttl=56 time=21.5 ms
64 bytes from 199.66.198.2 (199.66.198.2): icmp_seq=78 ttl=56 time=21.4 ms
64 bytes from 199.66.198.2 (199.66.198.2): icmp_seq=78 ttl=56 time=21.4 ms
64 bytes from 199.66.198.2 (199.66.198.2): icmp_seq=78 ttl=56 time=21.6 ms
64 bytes from 199.66.198.2 (199.66.198.2): icmp_seq=78 ttl=56 time=21.7 ms
64 bytes from 199.66.198.2 (199.66.198.2): icmp_seq=78 ttl=56 time=21.7 ms
64 bytes from 199.66.198.2 (199.66.198.2): icmp_seq=78 ttl=56 time=21.4 ms
64 bytes from 199.66.198.2 (199.66.198.2): icmp_seq=78 ttl=56 time=21.5 ms
64 bytes from 199.66.198.2 (199.66.198.2): icmp_seq=78 ttl=56 time=21.5 ms
64 bytes from 199.66.198.2 (199.66.198.2): icmp_seq=78 ttl=56 time=21.5 ms
64 bytes from 199.66.198.2 (199.66.198.2): icmp_seq=78 ttl=56 time=21.7 ms
64 bytes from 199.66.198.2 (199.66.198.2): icmp_seq=79 ttl=56 time=21.6 ms
64 bytes from 199.66.198.2 (199.66.198.2): icmp_seq=79 ttl=56 time=21.6 ms
64 bytes from 199.66.198.2 (199.66.198.2): icmp_seq=79 ttl=56 time=21.7 ms
64 bytes from 199.66.198.2 (199.66.198.2): icmp_seq=79 ttl=56 time=21.7 ms
64 bytes from 199.66.198.2 (199.66.198.2): icmp_seq=79 ttl=56 time=21.7 ms
64 bytes from 199.66.198.2 (199.66.198.2): icmp_seq=79 ttl=56 time=21.5 ms
64 bytes from 199.66.198.2 (199.66.198.2): icmp_seq=79 ttl=56 time=21.4 ms
64 bytes from 199.66.198.2 (199.66.198.2): icmp_seq=79 ttl=56 time=21.3 ms
64 bytes from 199.66.198.2 (199.66.198.2): icmp_seq=79 ttl=56 time=21.3 ms
64 bytes from 199.66.198.2 (199.66.198.2): icmp_seq=79 ttl=56 time=21.6 ms
64 bytes from 199.66.198.2 (199.66.198.2): icmp_seq=80 ttl=56 time=21.8 ms
64 bytes from 199.66.198.2 (199.66.198.2): icmp_seq=80 ttl=56 time=21.8 ms
64 bytes from 199.66.198.2 (199.66.198.2): icmp_seq=80 ttl=56 time=21.8 ms
64 bytes from 199.66.198.2 (199.66.198.2): icmp_seq=80 ttl=56 time=21.8 ms
64 bytes from 199.66.198.2 (199.66.198.2): icmp_seq=80 ttl=56 time=21.8 ms
64 bytes from 199.66.198.2 (199.66.198.2): icmp_seq=80 ttl=56 time=21.7 ms
64 bytes from 199.66.198.2 (199.66.198.2): icmp_seq=80 ttl=56 time=21.7 ms
64 bytes from 199.66.198.2 (199.66.198.2): icmp_seq=80 ttl=56 time=21.6 ms
64 bytes from 199.66.198.2 (199.66.198.2): icmp_seq=80 ttl=56 time=21.6 ms
64 bytes from 199.66.198.2 (199.66.198.2): icmp_seq=80 ttl=56 time=21.7 ms
64 bytes from 199.66.198.2 (199.66.198.2): icmp_seq=81 ttl=56 time=21.4 ms
64 bytes from 199.66.198.2 (199.66.198.2): icmp_seq=81 ttl=56 time=21.5 ms
64 bytes from 199.66.198.2 (199.66.198.2): icmp_seq=81 ttl=56 time=21.4 ms
64 bytes from 199.66.198.2 (199.66.198.2): icmp_seq=81 ttl=56 time=21.4 ms
64 bytes from 199.66.198.2 (199.66.198.2): icmp_seq=81 ttl=56 time=21.4 ms
64 bytes from 199.66.198.2 (199.66.198.2): icmp_seq=81 ttl=56 time=21.3 ms
64 bytes from 199.66.198.2 (199.66.198.2): icmp_seq=81 ttl=56 time=21.4 ms
64 bytes from 199.66.198.2 (199.66.198.2): icmp_seq=81 ttl=56 time=21.4 ms
64 bytes from 199.66.198.2 (199.66.198.2): icmp_seq=81 ttl=56 time=21.4 ms
64 bytes from 199.66.198.2 (199.66.198.2): icmp_seq=81 ttl=56 time=21.8 ms
64 bytes from 199.66.198.2 (199.66.198.2): icmp_seq=82 ttl=56 time=21.7 ms
64 bytes from 199.66.198.2 (199.66.198.2): icmp_seq=82 ttl=56 time=21.7 ms
64 bytes from 199.66.198.2 (199.66.198.2): icmp_seq=82 ttl=56 time=21.8 ms
64 bytes from 199.66.198.2 (199.66.198.2): icmp_seq=82 ttl=56 time=21.7 ms
64 bytes from 199.66.198.2 (199.66.198.2): icmp_seq=82 ttl=56 time=21.8 ms
64 bytes from 199.66.198.2 (199.66.198.2): icmp_seq=82 ttl=56 time=21.6 ms
64 bytes from 199.66.198.2 (199.66.198.2): icmp_seq=82 ttl=56 time=21.7 ms
64 bytes from 199.66.198.2 (199.66.198.2): icmp_seq=82 ttl=56 time=21.6 ms
64 bytes from 199.66.198.2 (199.66.198.2): icmp_seq=82 ttl=56 time=21.7 ms
64 bytes from 199.66.198.2 (199.66.198.2): icmp_seq=82 ttl=56 time=21.3 ms
64 bytes from 199.66.198.2 (199.66.198.2): icmp_seq=83 ttl=56 time=21.7 ms
64 bytes from 199.66.198.2 (199.66.198.2): icmp_seq=83 ttl=56 time=21.7 ms
64 bytes from 199.66.198.2 (199.66.198.2): icmp_seq=83 ttl=56 time=21.8 ms
64 bytes from 199.66.198.2 (199.66.198.2): icmp_seq=83 ttl=56 time=21.8 ms
64 bytes from 199.66.198.2 (199.66.198.2): icmp_seq=83 ttl=56 time=21.8 ms
64 bytes from 199.66.198.2 (199.66.198.2): icmp_seq=83 ttl=56 time=21.8 ms
64 bytes from 199.66.198.2 (199.66.198.2): icmp_seq=83 ttl=56 time=21.8 ms
64 bytes from 199.66.198.2 (199.66.198.2): icmp_seq=83 ttl=56 time=21.8 ms
64 bytes from 199.66.198.2 (199.66.198.2): icmp_seq=83 ttl=56 time=21.9 ms
64 bytes from 199.66.198.2 (199.66.198.2): icmp_seq=83 ttl=56 time=21.5 ms
64 bytes from 199.66.198.2 (199.66.198.2): icmp_seq=84 ttl=56 time=21.9 ms
64 bytes from 199.66.198.2 (199.66.198.2): icmp_seq=84 ttl=56 time=22.0 ms
64 bytes from 199.66.198.2 (199.66.198.2): icmp_seq=84 ttl=56 time=21.6 ms
64 bytes from 199.66.198.2 (199.66.198.2): icmp_seq=84 ttl=56 time=21.7 ms
64 bytes from 199.66.198.2 (199.66.198.2): icmp_seq=84 ttl=56 time=21.7 ms
64 bytes from 199.66.198.2 (199.66.198.2): icmp_seq=84 ttl=56 time=21.8 ms
64 bytes from 199.66.198.2 (199.66.198.2): icmp_seq=84 ttl=56 time=21.7 ms
64 bytes from 199.66.198.2 (199.66.198.2): icmp_seq=84 ttl=56 time=21.8 ms
64 bytes from 199.66.198.2 (199.66.198.2): icmp_seq=84 ttl=56 time=21.8 ms
64 bytes from 199.66.198.2 (199.66.198.2): icmp_seq=84 ttl=56 time=21.8 ms
64 bytes from 199.66.198.2 (199.66.198.2): icmp_seq=85 ttl=56 time=21.7 ms
64 bytes from 199.66.198.2 (199.66.198.2): icmp_seq=85 ttl=56 time=21.8 ms
64 bytes from 199.66.198.2 (199.66.198.2): icmp_seq=85 ttl=56 time=21.8 ms
64 bytes from 199.66.198.2 (199.66.198.2): icmp_seq=85 ttl=56 time=21.7 ms
64 bytes from 199.66.198.2 (199.66.198.2): icmp_seq=85 ttl=56 time=21.8 ms
64 bytes from 199.66.198.2 (199.66.198.2): icmp_seq=85 ttl=56 time=21.4 ms
64 bytes from 199.66.198.2 (199.66.198.2): icmp_seq=85 ttl=56 time=21.6 ms
64 bytes from 199.66.198.2 (199.66.198.2): icmp_seq=85 ttl=56 time=21.6 ms
64 bytes from 199.66.198.2 (199.66.198.2): icmp_seq=85 ttl=56 time=21.6 ms
64 bytes from 199.66.198.2 (199.66.198.2): icmp_seq=85 ttl=56 time=21.8 ms
64 bytes from 199.66.198.2 (199.66.198.2): icmp_seq=86 ttl=56 time=21.4 ms
64 bytes from 199.66.198.2 (199.66.198.2): icmp_seq=86 ttl=56 time=21.5 ms
64 bytes from 199.66.198.2 (199.66.198.2): icmp_seq=86 ttl=56 time=21.5 ms
64 bytes from 199.66.198.2 (199.66.198.2): icmp_seq=86 ttl=56 time=21.5 ms
64 bytes from 199.66.198.2 (199.66.198.2): icmp_seq=86 ttl=56 time=21.5 ms
64 bytes from 199.66.198.2 (199.66.198.2): icmp_seq=86 ttl=56 time=21.7 ms
64 bytes from 199.66.198.2 (199.66.198.2): icmp_seq=86 ttl=56 time=21.7 ms
64 bytes from 199.66.198.2 (199.66.198.2): icmp_seq=86 ttl=56 time=21.5 ms
64 bytes from 199.66.198.2 (199.66.198.2): icmp_seq=86 ttl=56 time=21.6 ms
64 bytes from 199.66.198.2 (199.66.198.2): icmp_seq=86 ttl=56 time=21.8 ms
64 bytes from 199.66.198.2 (199.66.198.2): icmp_seq=87 ttl=56 time=21.7 ms
64 bytes from 199.66.198.2 (199.66.198.2): icmp_seq=87 ttl=56 time=21.7 ms
64 bytes from 199.66.198.2 (199.66.198.2): icmp_seq=87 ttl=56 time=21.7 ms
64 bytes from 199.66.198.2 (199.66.198.2): icmp_seq=87 ttl=56 time=21.8 ms
64 bytes from 199.66.198.2 (199.66.198.2): icmp_seq=87 ttl=56 time=21.8 ms
64 bytes from 199.66.198.2 (199.66.198.2): icmp_seq=87 ttl=56 time=21.9 ms
64 bytes from 199.66.198.2 (199.66.198.2): icmp_seq=87 ttl=56 time=22.0 ms
64 bytes from 199.66.198.2 (199.66.198.2): icmp_seq=87 ttl=56 time=22.0 ms
64 bytes from 199.66.198.2 (199.66.198.2): icmp_seq=87 ttl=56 time=21.5 ms
64 bytes from 199.66.198.2 (199.66.198.2): icmp_seq=87 ttl=56 time=21.7 ms
64 bytes from 199.66.198.2 (199.66.198.2): icmp_seq=88 ttl=56 time=21.7 ms
64 bytes from 199.66.198.2 (199.66.198.2): icmp_seq=88 ttl=56 time=21.7 ms
64 bytes from 199.66.198.2 (199.66.198.2): icmp_seq=88 ttl=56 time=21.6 ms
64 bytes from 199.66.198.2 (199.66.198.2): icmp_seq=88 ttl=56 time=21.6 ms
64 bytes from 199.66.198.2 (199.66.198.2): icmp_seq=88 ttl=56 time=21.5 ms
64 bytes from 199.66.198.2 (199.66.198.2): icmp_seq=88 ttl=56 time=21.8 ms
64 bytes from 199.66.198.2 (199.66.198.2): icmp_seq=88 ttl=56 time=21.8 ms
64 bytes from 199.66.198.2 (199.66.198.2): icmp_seq=88 ttl=56 time=21.8 ms
64 bytes from 199.66.198.2 (199.66.198.2): icmp_seq=88 ttl=56 time=21.6 ms
64 bytes from 199.66.198.2 (199.66.198.2): icmp_seq=88 ttl=56 time=21.6 ms
64 bytes from 199.66.198.2 (199.66.198.2): icmp_seq=89 ttl=56 time=21.8 ms
64 bytes from 199.66.198.2 (199.66.198.2): icmp_seq=89 ttl=56 time=21.9 ms
64 bytes from 199.66.198.2 (199.66.198.2): icmp_seq=89 ttl=56 time=21.7 ms
64 bytes from 199.66.198.2 (199.66.198.2): icmp_seq=89 ttl=56 time=21.7 ms
64 bytes from 199.66.198.2 (199.66.198.2): icmp_seq=89 ttl=56 time=21.7 ms
64 bytes from 199.66.198.2 (199.66.198.2): icmp_seq=89 ttl=56 time=21.7 ms
64 bytes from 199.66.198.2 (199.66.198.2): icmp_seq=89 ttl=56 time=21.8 ms
64 bytes from 199.66.198.2 (199.66.198.2): icmp_seq=89 ttl=56 time=21.8 ms
64 bytes from 199.66.198.2 (199.66.198.2): icmp_seq=89 ttl=56 time=21.7 ms
64 bytes from 199.66.198.2 (199.66.198.2): icmp_seq=89 ttl=56 time=21.8 ms
64 bytes from 199.66.198.2 (199.66.198.2): icmp_seq=90 ttl=56 time=21.6 ms
64 bytes from 199.66.198.2 (199.66.198.2): icmp_seq=90 ttl=56 time=21.6 ms
64 bytes from 199.66.198.2 (199.66.198.2): icmp_seq=90 ttl=56 time=21.7 ms
64 bytes from 199.66.198.2 (199.66.198.2): icmp_seq=90 ttl=56 time=21.8 ms
64 bytes from 199.66.198.2 (199.66.198.2): icmp_seq=90 ttl=56 time=21.8 ms
64 bytes from 199.66.198.2 (199.66.198.2): icmp_seq=90 ttl=56 time=21.6 ms
64 bytes from 199.66.198.2 (199.66.198.2): icmp_seq=90 ttl=56 time=21.7 ms
64 bytes from 199.66.198.2 (199.66.198.2): icmp_seq=90 ttl=56 time=21.7 ms
64 bytes from 199.66.198.2 (199.66.198.2): icmp_seq=90 ttl=56 time=21.7 ms
64 bytes from 199.66.198.2 (199.66.198.2): icmp_seq=90 ttl=56 time=21.8 ms
64 bytes from 199.66.198.2 (199.66.198.2): icmp_seq=91 ttl=56 time=21.7 ms
64 bytes from 199.66.198.2 (199.66.198.2): icmp_seq=91 ttl=56 time=21.8 ms
64 bytes from 199.66.198.2 (199.66.198.2): icmp_seq=91 ttl=56 time=21.4 ms
64 bytes from 199.66.198.2 (199.66.198.2): icmp_seq=91 ttl=56 time=21.5 ms
64 bytes from 199.66.198.2 (199.66.198.2): icmp_seq=91 ttl=56 time=21.3 ms
64 bytes from 199.66.198.2 (199.66.198.2): icmp_seq=91 ttl=56 time=21.7 ms
64 bytes from 199.66.198.2 (199.66.198.2): icmp_seq=91 ttl=56 time=21.8 ms
64 bytes from 199.66.198.2 (199.66.198.2): icmp_seq=91 ttl=56 time=21.8 ms
64 bytes from 199.66.198.2 (199.66.198.2): icmp_seq=91 ttl=56 time=21.6 ms
64 bytes from 199.66.198.2 (199.66.198.2): icmp_seq=91 ttl=56 time=21.8 ms
64 bytes from 199.66.198.2 (199.66.198.2): icmp_seq=92 ttl=56 time=22.0 ms
64 bytes from 199.66.198.2 (199.66.198.2): icmp_seq=92 ttl=56 time=22.0 ms
64 bytes from 199.66.198.2 (199.66.198.2): icmp_seq=92 ttl=56 time=21.7 ms
64 bytes from 199.66.198.2 (199.66.198.2): icmp_seq=92 ttl=56 time=21.7 ms
64 bytes from 199.66.198.2 (199.66.198.2): icmp_seq=92 ttl=56 time=21.7 ms
64 bytes from 199.66.198.2 (199.66.198.2): icmp_seq=92 ttl=56 time=21.8 ms
64 bytes from 199.66.198.2 (199.66.198.2): icmp_seq=92 ttl=56 time=21.8 ms
64 bytes from 199.66.198.2 (199.66.198.2): icmp_seq=92 ttl=56 time=21.9 ms
64 bytes from 199.66.198.2 (199.66.198.2): icmp_seq=92 ttl=56 time=21.7 ms
64 bytes from 199.66.198.2 (199.66.198.2): icmp_seq=92 ttl=56 time=21.7 ms
64 bytes from 199.66.198.2 (199.66.198.2): icmp_seq=93 ttl=56 time=21.7 ms
64 bytes from 199.66.198.2 (199.66.198.2): icmp_seq=93 ttl=56 time=21.8 ms
64 bytes from 199.66.198.2 (199.66.198.2): icmp_seq=93 ttl=56 time=21.6 ms
64 bytes from 199.66.198.2 (199.66.198.2): icmp_seq=93 ttl=56 time=21.7 ms
64 bytes from 199.66.198.2 (199.66.198.2): icmp_seq=93 ttl=56 time=21.6 ms
64 bytes from 199.66.198.2 (199.66.198.2): icmp_seq=93 ttl=56 time=21.7 ms
64 bytes from 199.66.198.2 (199.66.198.2): icmp_seq=93 ttl=56 time=21.7 ms
64 bytes from 199.66.198.2 (199.66.198.2): icmp_seq=93 ttl=56 time=21.8 ms
64 bytes from 199.66.198.2 (199.66.198.2): icmp_seq=93 ttl=56 time=21.7 ms
64 bytes from 199.66.198.2 (199.66.198.2): icmp_seq=93 ttl=56 time=21.7 ms
64 bytes from 199.66.198.2 (199.66.198.2): icmp_seq=94 ttl=56 time=21.7 ms
64 bytes from 199.66.198.2 (199.66.198.2): icmp_seq=94 ttl=56 time=21.3 ms
64 bytes from 199.66.198.2 (199.66.198.2): icmp_seq=94 ttl=56 time=21.7 ms
64 bytes from 199.66.198.2 (199.66.198.2): icmp_seq=94 ttl=56 time=21.8 ms
64 bytes from 199.66.198.2 (199.66.198.2): icmp_seq=94 ttl=56 time=21.8 ms
64 bytes from 199.66.198.2 (199.66.198.2): icmp_seq=94 ttl=56 time=21.8 ms
64 bytes from 199.66.198.2 (199.66.198.2): icmp_seq=94 ttl=56 time=21.7 ms
64 bytes from 199.66.198.2 (199.66.198.2): icmp_seq=94 ttl=56 time=21.8 ms
64 bytes from 199.66.198.2 (199.66.198.2): icmp_seq=94 ttl=56 time=21.8 ms
64 bytes from 199.66.198.2 (199.66.198.2): icmp_seq=94 ttl=56 time=21.4 ms
64 bytes from 199.66.198.2 (199.66.198.2): icmp_seq=95 ttl=56 time=21.8 ms
64 bytes from 199.66.198.2 (199.66.198.2): icmp_seq=95 ttl=56 time=21.8 ms
64 bytes from 199.66.198.2 (199.66.198.2): icmp_seq=95 ttl=56 time=21.8 ms
64 bytes from 199.66.198.2 (199.66.198.2): icmp_seq=95 ttl=56 time=21.8 ms
64 bytes from 199.66.198.2 (199.66.198.2): icmp_seq=95 ttl=56 time=21.9 ms
64 bytes from 199.66.198.2 (199.66.198.2): icmp_seq=95 ttl=56 time=21.7 ms
64 bytes from 199.66.198.2 (199.66.198.2): icmp_seq=95 ttl=56 time=21.8 ms
64 bytes from 199.66.198.2 (199.66.198.2): icmp_seq=95 ttl=56 time=21.8 ms
64 bytes from 199.66.198.2 (199.66.198.2): icmp_seq=95 ttl=56 time=21.6 ms
64 bytes from 199.66.198.2 (199.66.198.2): icmp_seq=95 ttl=56 time=21.8 ms
64 bytes from 199.66.198.2 (199.66.198.2): icmp_seq=96 ttl=56 time=21.8 ms
64 bytes from 199.66.198.2 (199.66.198.2): icmp_seq=96 ttl=56 time=21.8 ms
64 bytes from 199.66.198.2 (199.66.198.2): icmp_seq=96 ttl=56 time=21.3 ms
64 bytes from 199.66.198.2 (199.66.198.2): icmp_seq=96 ttl=56 time=21.1 ms
64 bytes from 199.66.198.2 (199.66.198.2): icmp_seq=96 ttl=56 time=21.4 ms
64 bytes from 199.66.198.2 (199.66.198.2): icmp_seq=96 ttl=56 time=21.7 ms
64 bytes from 199.66.198.2 (199.66.198.2): icmp_seq=96 ttl=56 time=21.7 ms
64 bytes from 199.66.198.2 (199.66.198.2): icmp_seq=96 ttl=56 time=21.6 ms
64 bytes from 199.66.198.2 (199.66.198.2): icmp_seq=96 ttl=56 time=21.7 ms
64 bytes from 199.66.198.2 (199.66.198.2): icmp_seq=96 ttl=56 time=21.6 ms
64 bytes from 199.66.198.2 (199.66.198.2): icmp_seq=97 ttl=56 time=21.6 ms
64 bytes from 199.66.198.2 (199.66.198.2): icmp_seq=97 ttl=56 time=21.6 ms
64 bytes from 199.66.198.2 (199.66.198.2): icmp_seq=97 ttl=56 time=21.7 ms
64 bytes from 199.66.198.2 (199.66.198.2): icmp_seq=97 ttl=56 time=21.8 ms
64 bytes from 199.66.198.2 (199.66.198.2): icmp_seq=97 ttl=56 time=21.7 ms
64 bytes from 199.66.198.2 (199.66.198.2): icmp_seq=97 ttl=56 time=21.8 ms
64 bytes from 199.66.198.2 (199.66.198.2): icmp_seq=97 ttl=56 time=21.7 ms
64 bytes from 199.66.198.2 (199.66.198.2): icmp_seq=97 ttl=56 time=21.8 ms
64 bytes from 199.66.198.2 (199.66.198.2): icmp_seq=97 ttl=56 time=21.8 ms
64 bytes from 199.66.198.2 (199.66.198.2): icmp_seq=97 ttl=56 time=21.7 ms
64 bytes from 199.66.198.2 (199.66.198.2): icmp_seq=98 ttl=56 time=21.8 ms
64 bytes from 199.66.198.2 (199.66.198.2): icmp_seq=98 ttl=56 time=21.9 ms
64 bytes from 199.66.198.2 (199.66.198.2): icmp_seq=98 ttl=56 time=21.8 ms
64 bytes from 199.66.198.2 (199.66.198.2): icmp_seq=98 ttl=56 time=21.7 ms
64 bytes from 199.66.198.2 (199.66.198.2): icmp_seq=98 ttl=56 time=21.8 ms
64 bytes from 199.66.198.2 (199.66.198.2): icmp_seq=98 ttl=56 time=21.7 ms
64 bytes from 199.66.198.2 (199.66.198.2): icmp_seq=98 ttl=56 time=21.8 ms
64 bytes from 199.66.198.2 (199.66.198.2): icmp_seq=98 ttl=56 time=21.8 ms
64 bytes from 199.66.198.2 (199.66.198.2): icmp_seq=98 ttl=56 time=21.7 ms
64 bytes from 199.66.198.2 (199.66.198.2): icmp_seq=98 ttl=56 time=21.8 ms
64 bytes from 199.66.198.2 (199.66.198.2): icmp_seq=99 ttl=56 time=21.7 ms
64 bytes from 199.66.198.2 (199.66.198.2): icmp_seq=99 ttl=56 time=21.8 ms
64 bytes from 199.66.198.2 (199.66.198.2): icmp_seq=99 ttl=56 time=21.7 ms
64 bytes from 199.66.198.2 (199.66.198.2): icmp_seq=99 ttl=56 time=21.7 ms
64 bytes from 199.66.198.2 (199.66.198.2): icmp_seq=99 ttl=56 time=21.7 ms
64 bytes from 199.66.198.2 (199.66.198.2): icmp_seq=99 ttl=56 time=21.7 ms
64 bytes from 199.66.198.2 (199.66.198.2): icmp_seq=99 ttl=56 time=21.7 ms
64 bytes from 199.66.198.2 (199.66.198.2): icmp_seq=99 ttl=56 time=21.7 ms
64 bytes from 199.66.198.2 (199.66.198.2): icmp_seq=99 ttl=56 time=21.7 ms
64 bytes from 199.66.198.2 (199.66.198.2): icmp_seq=99 ttl=56 time=21.7 ms
64 bytes from 199.66.198.2 (199.66.198.2): icmp_seq=100 ttl=56 time=21.7 ms
64 bytes from 199.66.198.2 (199.66.198.2): icmp_seq=100 ttl=56 time=21.8 ms


--- speedtest.xsmedia.com ping statistics ---
100 packets transmitted, 100 received, 0% packet loss, time 99166ms
rtt min/avg/max/mdev = 21.324/21.768/22.350/0.212 ms
--- speedtest.xsmedia.com ping statistics ---
100 packets transmitted, 100 received, 0% packet loss, time 99166ms
rtt min/avg/max/mdev = 21.321/21.764/22.352/0.248 ms
64 bytes from 199.66.198.2 (199.66.198.2): icmp_seq=100 ttl=56 time=21.8 ms
64 bytes from 199.66.198.2 (199.66.198.2): icmp_seq=100 ttl=56 time=21.9 ms
64 bytes from 199.66.198.2 (199.66.198.2): icmp_seq=100 ttl=56 time=21.9 ms



--- speedtest.xsmedia.com ping statistics ---
100 packets transmitted, 100 received, 0% packet loss, time 99170ms
rtt min/avg/max/mdev = 21.175/21.712/22.332/0.210 ms
--- speedtest.xsmedia.com ping statistics ---
100 packets transmitted, 100 received, 0% packet loss, time 99170ms
rtt min/avg/max/mdev = 21.228/21.722/22.351/0.243 ms
--- speedtest.xsmedia.com ping statistics ---
100 packets transmitted, 100 received, 0% packet loss, time 99170ms
rtt min/avg/max/mdev = 21.231/21.723/22.276/0.246 ms
64 bytes from 199.66.198.2 (199.66.198.2): icmp_seq=100 ttl=56 time=21.4 ms
64 bytes from 199.66.198.2 (199.66.198.2): icmp_seq=100 ttl=56 time=21.4 ms
64 bytes from 199.66.198.2 (199.66.198.2): icmp_seq=100 ttl=56 time=21.5 ms



--- speedtest.xsmedia.com ping statistics ---
100 packets transmitted, 100 received, 0% packet loss, time 99174ms
rtt min/avg/max/mdev = 21.319/21.737/23.109/0.289 ms
--- speedtest.xsmedia.com ping statistics ---
100 packets transmitted, 100 received, 0% packet loss, time 99174ms
rtt min/avg/max/mdev = 21.268/21.733/23.091/0.312 ms
--- speedtest.xsmedia.com ping statistics ---
100 packets transmitted, 100 received, 0% packet loss, time 99174ms
rtt min/avg/max/mdev = 21.245/21.744/23.070/0.252 ms
64 bytes from 199.66.198.2 (199.66.198.2): icmp_seq=100 ttl=56 time=21.6 ms

--- speedtest.xsmedia.com ping statistics ---
100 packets transmitted, 100 received, 0% packet loss, time 99179ms
rtt min/avg/max/mdev = 21.308/21.727/22.993/0.313 ms
64 bytes from 199.66.198.2 (199.66.198.2): icmp_seq=100 ttl=56 time=21.7 ms

--- speedtest.xsmedia.com ping statistics ---
100 packets transmitted, 100 received, 0% packet loss, time 99183ms
rtt min/avg/max/mdev = 21.293/21.714/22.832/0.206 ms
