Attaching to softwareoverhead_ping_1, softwareoverhead_ping_7, softwareoverhead_ping_2, softwareoverhead_ping_8, softwareoverhead_ping_10, softwareoverhead_ping_3, softwareoverhead_ping_9, softwareoverhead_ping_5, softwareoverhead_ping_6, softwareoverhead_ping_4
ping_1  | PING 216.58.195.238 (216.58.195.238): 56 data bytes
ping_2  | PING 216.58.195.238 (216.58.195.238): 56 data bytes
ping_2  | 64 bytes from 216.58.195.238: seq=0 ttl=53 time=13.105 ms
ping_1  | 64 bytes from 216.58.195.238: seq=0 ttl=53 time=13.115 ms
ping_1  | 64 bytes from 216.58.195.238: seq=1 ttl=53 time=13.118 ms
ping_1  | 64 bytes from 216.58.195.238: seq=2 ttl=53 time=13.259 ms
ping_10 | PING 216.58.195.238 (216.58.195.238): 56 data bytes
ping_7  | PING 216.58.195.238 (216.58.195.238): 56 data bytes
ping_2  | 64 bytes from 216.58.195.238: seq=1 ttl=53 time=13.510 ms
ping_3  | PING 216.58.195.238 (216.58.195.238): 56 data bytes
ping_9  | PING 216.58.195.238 (216.58.195.238): 56 data bytes
ping_8  | PING 216.58.195.238 (216.58.195.238): 56 data bytes
ping_9  | 64 bytes from 216.58.195.238: seq=0 ttl=53 time=13.048 ms
ping_1  | 64 bytes from 216.58.195.238: seq=3 ttl=53 time=13.131 ms
ping_10 | 64 bytes from 216.58.195.238: seq=0 ttl=53 time=13.038 ms
ping_3  | 64 bytes from 216.58.195.238: seq=0 ttl=53 time=13.095 ms
ping_1  | 64 bytes from 216.58.195.238: seq=4 ttl=53 time=13.180 ms
ping_7  | 64 bytes from 216.58.195.238: seq=0 ttl=53 time=13.049 ms
ping_9  | 64 bytes from 216.58.195.238: seq=1 ttl=53 time=13.456 ms
ping_10 | 64 bytes from 216.58.195.238: seq=1 ttl=53 time=13.664 ms
ping_2  | 64 bytes from 216.58.195.238: seq=2 ttl=53 time=13.707 ms
ping_1  | 64 bytes from 216.58.195.238: seq=5 ttl=53 time=13.173 ms
ping_9  | 64 bytes from 216.58.195.238: seq=2 ttl=53 time=13.299 ms
ping_8  | 64 bytes from 216.58.195.238: seq=0 ttl=53 time=13.100 ms
ping_10 | 64 bytes from 216.58.195.238: seq=2 ttl=53 time=13.122 ms
ping_8  | 64 bytes from 216.58.195.238: seq=1 ttl=53 time=13.014 ms
ping_8  | 64 bytes from 216.58.195.238: seq=2 ttl=53 time=13.077 ms
ping_4  | PING 216.58.195.238 (216.58.195.238): 56 data bytes
ping_1  | 64 bytes from 216.58.195.238: seq=6 ttl=53 time=13.483 ms
ping_7  | 64 bytes from 216.58.195.238: seq=1 ttl=53 time=13.598 ms
ping_6  | PING 216.58.195.238 (216.58.195.238): 56 data bytes
ping_3  | 64 bytes from 216.58.195.238: seq=1 ttl=53 time=13.221 ms
ping_5  | PING 216.58.195.238 (216.58.195.238): 56 data bytes
ping_2  | 64 bytes from 216.58.195.238: seq=3 ttl=53 time=13.205 ms
ping_5  | 64 bytes from 216.58.195.238: seq=0 ttl=53 time=13.109 ms
ping_8  | 64 bytes from 216.58.195.238: seq=3 ttl=53 time=13.503 ms
ping_4  | 64 bytes from 216.58.195.238: seq=0 ttl=53 time=13.171 ms
ping_7  | 64 bytes from 216.58.195.238: seq=2 ttl=53 time=13.066 ms
ping_5  | 64 bytes from 216.58.195.238: seq=1 ttl=53 time=13.044 ms
ping_6  | 64 bytes from 216.58.195.238: seq=0 ttl=53 time=13.212 ms
ping_3  | 64 bytes from 216.58.195.238: seq=2 ttl=53 time=13.448 ms
ping_2  | 64 bytes from 216.58.195.238: seq=4 ttl=53 time=13.504 ms
ping_8  | 64 bytes from 216.58.195.238: seq=4 ttl=53 time=13.432 ms
ping_7  | 64 bytes from 216.58.195.238: seq=3 ttl=53 time=13.423 ms
ping_7  | 64 bytes from 216.58.195.238: seq=4 ttl=53 time=13.253 ms
ping_2  | 64 bytes from 216.58.195.238: seq=5 ttl=53 time=13.171 ms
ping_10 | 64 bytes from 216.58.195.238: seq=3 ttl=53 time=13.065 ms
ping_3  | 64 bytes from 216.58.195.238: seq=3 ttl=53 time=13.232 ms
ping_7  | 64 bytes from 216.58.195.238: seq=5 ttl=53 time=13.204 ms
ping_7  | 64 bytes from 216.58.195.238: seq=6 ttl=53 time=13.215 ms
ping_10 | 64 bytes from 216.58.195.238: seq=4 ttl=53 time=13.473 ms
ping_6  | 64 bytes from 216.58.195.238: seq=1 ttl=53 time=13.397 ms
ping_5  | 64 bytes from 216.58.195.238: seq=2 ttl=53 time=13.507 ms
ping_9  | 64 bytes from 216.58.195.238: seq=3 ttl=53 time=14.133 ms
ping_8  | 64 bytes from 216.58.195.238: seq=5 ttl=53 time=13.489 ms
ping_3  | 64 bytes from 216.58.195.238: seq=4 ttl=53 time=13.260 ms
ping_1  | 64 bytes from 216.58.195.238: seq=7 ttl=53 time=13.603 ms
ping_2  | 64 bytes from 216.58.195.238: seq=6 ttl=53 time=13.585 ms
ping_4  | 64 bytes from 216.58.195.238: seq=1 ttl=53 time=13.476 ms
ping_7  | 64 bytes from 216.58.195.238: seq=7 ttl=53 time=13.434 ms
ping_10 | 64 bytes from 216.58.195.238: seq=5 ttl=53 time=13.436 ms
ping_6  | 64 bytes from 216.58.195.238: seq=2 ttl=53 time=13.481 ms
ping_5  | 64 bytes from 216.58.195.238: seq=3 ttl=53 time=13.781 ms
ping_9  | 64 bytes from 216.58.195.238: seq=4 ttl=53 time=13.677 ms
ping_8  | 64 bytes from 216.58.195.238: seq=6 ttl=53 time=13.518 ms
ping_3  | 64 bytes from 216.58.195.238: seq=5 ttl=53 time=13.207 ms
ping_1  | 64 bytes from 216.58.195.238: seq=8 ttl=53 time=13.455 ms
ping_2  | 64 bytes from 216.58.195.238: seq=7 ttl=53 time=13.421 ms
ping_4  | 64 bytes from 216.58.195.238: seq=2 ttl=53 time=13.586 ms
ping_7  | 64 bytes from 216.58.195.238: seq=8 ttl=53 time=13.465 ms
ping_10 | 64 bytes from 216.58.195.238: seq=6 ttl=53 time=13.555 ms
ping_6  | 64 bytes from 216.58.195.238: seq=3 ttl=53 time=13.707 ms
ping_5  | 64 bytes from 216.58.195.238: seq=4 ttl=53 time=13.258 ms
ping_9  | 64 bytes from 216.58.195.238: seq=5 ttl=53 time=14.122 ms
ping_8  | 64 bytes from 216.58.195.238: seq=7 ttl=53 time=13.352 ms
ping_3  | 64 bytes from 216.58.195.238: seq=6 ttl=53 time=13.497 ms
ping_1  | 64 bytes from 216.58.195.238: seq=9 ttl=53 time=13.637 ms
ping_2  | 64 bytes from 216.58.195.238: seq=8 ttl=53 time=13.489 ms
ping_4  | 64 bytes from 216.58.195.238: seq=3 ttl=53 time=13.440 ms
ping_7  | 64 bytes from 216.58.195.238: seq=9 ttl=53 time=13.231 ms
ping_10 | 64 bytes from 216.58.195.238: seq=7 ttl=53 time=13.435 ms
ping_6  | 64 bytes from 216.58.195.238: seq=4 ttl=53 time=13.729 ms
ping_5  | 64 bytes from 216.58.195.238: seq=5 ttl=53 time=13.563 ms
ping_9  | 64 bytes from 216.58.195.238: seq=6 ttl=53 time=13.414 ms
ping_8  | 64 bytes from 216.58.195.238: seq=8 ttl=53 time=13.478 ms
ping_3  | 64 bytes from 216.58.195.238: seq=7 ttl=53 time=13.781 ms
ping_1  | 64 bytes from 216.58.195.238: seq=10 ttl=53 time=13.685 ms
ping_2  | 64 bytes from 216.58.195.238: seq=9 ttl=53 time=13.481 ms
ping_4  | 64 bytes from 216.58.195.238: seq=4 ttl=53 time=13.443 ms
ping_7  | 64 bytes from 216.58.195.238: seq=10 ttl=53 time=13.279 ms
ping_10 | 64 bytes from 216.58.195.238: seq=8 ttl=53 time=13.681 ms
ping_6  | 64 bytes from 216.58.195.238: seq=5 ttl=53 time=13.180 ms
ping_5  | 64 bytes from 216.58.195.238: seq=6 ttl=53 time=13.190 ms
ping_9  | 64 bytes from 216.58.195.238: seq=7 ttl=53 time=13.717 ms
ping_8  | 64 bytes from 216.58.195.238: seq=9 ttl=53 time=13.549 ms
ping_3  | 64 bytes from 216.58.195.238: seq=8 ttl=53 time=13.800 ms
ping_1  | 64 bytes from 216.58.195.238: seq=11 ttl=53 time=13.554 ms
ping_2  | 64 bytes from 216.58.195.238: seq=10 ttl=53 time=13.191 ms
ping_4  | 64 bytes from 216.58.195.238: seq=5 ttl=53 time=13.534 ms
ping_7  | 64 bytes from 216.58.195.238: seq=11 ttl=53 time=13.564 ms
ping_10 | 64 bytes from 216.58.195.238: seq=9 ttl=53 time=13.389 ms
ping_6  | 64 bytes from 216.58.195.238: seq=6 ttl=53 time=13.673 ms
ping_5  | 64 bytes from 216.58.195.238: seq=7 ttl=53 time=13.408 ms
ping_9  | 64 bytes from 216.58.195.238: seq=8 ttl=53 time=13.701 ms
ping_8  | 64 bytes from 216.58.195.238: seq=10 ttl=53 time=13.530 ms
ping_3  | 64 bytes from 216.58.195.238: seq=9 ttl=53 time=13.456 ms
ping_1  | 64 bytes from 216.58.195.238: seq=12 ttl=53 time=13.388 ms
ping_2  | 64 bytes from 216.58.195.238: seq=11 ttl=53 time=13.428 ms
ping_4  | 64 bytes from 216.58.195.238: seq=6 ttl=53 time=13.197 ms
ping_7  | 64 bytes from 216.58.195.238: seq=12 ttl=53 time=13.146 ms
ping_10 | 64 bytes from 216.58.195.238: seq=10 ttl=53 time=13.163 ms
ping_6  | 64 bytes from 216.58.195.238: seq=7 ttl=53 time=13.143 ms
ping_5  | 64 bytes from 216.58.195.238: seq=8 ttl=53 time=13.359 ms
ping_9  | 64 bytes from 216.58.195.238: seq=9 ttl=53 time=13.549 ms
ping_8  | 64 bytes from 216.58.195.238: seq=11 ttl=53 time=13.479 ms
ping_3  | 64 bytes from 216.58.195.238: seq=10 ttl=53 time=13.567 ms
ping_1  | 64 bytes from 216.58.195.238: seq=13 ttl=53 time=13.722 ms
ping_2  | 64 bytes from 216.58.195.238: seq=12 ttl=53 time=13.586 ms
ping_4  | 64 bytes from 216.58.195.238: seq=7 ttl=53 time=13.521 ms
ping_7  | 64 bytes from 216.58.195.238: seq=13 ttl=53 time=13.619 ms
ping_10 | 64 bytes from 216.58.195.238: seq=11 ttl=53 time=13.339 ms
ping_6  | 64 bytes from 216.58.195.238: seq=8 ttl=53 time=13.745 ms
ping_5  | 64 bytes from 216.58.195.238: seq=9 ttl=53 time=13.566 ms
ping_9  | 64 bytes from 216.58.195.238: seq=10 ttl=53 time=13.474 ms
ping_8  | 64 bytes from 216.58.195.238: seq=12 ttl=53 time=13.538 ms
ping_3  | 64 bytes from 216.58.195.238: seq=11 ttl=53 time=13.251 ms
ping_1  | 64 bytes from 216.58.195.238: seq=14 ttl=53 time=13.381 ms
ping_2  | 64 bytes from 216.58.195.238: seq=13 ttl=53 time=13.576 ms
ping_4  | 64 bytes from 216.58.195.238: seq=8 ttl=53 time=13.208 ms
ping_7  | 64 bytes from 216.58.195.238: seq=14 ttl=53 time=13.340 ms
ping_10 | 64 bytes from 216.58.195.238: seq=12 ttl=53 time=13.635 ms
ping_6  | 64 bytes from 216.58.195.238: seq=9 ttl=53 time=13.498 ms
ping_5  | 64 bytes from 216.58.195.238: seq=10 ttl=53 time=13.568 ms
ping_9  | 64 bytes from 216.58.195.238: seq=11 ttl=53 time=13.755 ms
ping_8  | 64 bytes from 216.58.195.238: seq=13 ttl=53 time=13.522 ms
ping_3  | 64 bytes from 216.58.195.238: seq=12 ttl=53 time=13.179 ms
ping_1  | 64 bytes from 216.58.195.238: seq=15 ttl=53 time=13.576 ms
ping_2  | 64 bytes from 216.58.195.238: seq=14 ttl=53 time=13.605 ms
ping_4  | 64 bytes from 216.58.195.238: seq=9 ttl=53 time=13.460 ms
ping_7  | 64 bytes from 216.58.195.238: seq=15 ttl=53 time=13.391 ms
ping_10 | 64 bytes from 216.58.195.238: seq=13 ttl=53 time=13.760 ms
ping_6  | 64 bytes from 216.58.195.238: seq=10 ttl=53 time=13.255 ms
ping_5  | 64 bytes from 216.58.195.238: seq=11 ttl=53 time=13.740 ms
ping_9  | 64 bytes from 216.58.195.238: seq=12 ttl=53 time=13.561 ms
ping_8  | 64 bytes from 216.58.195.238: seq=14 ttl=53 time=13.554 ms
ping_3  | 64 bytes from 216.58.195.238: seq=13 ttl=53 time=13.316 ms
ping_1  | 64 bytes from 216.58.195.238: seq=16 ttl=53 time=13.512 ms
ping_2  | 64 bytes from 216.58.195.238: seq=15 ttl=53 time=13.529 ms
ping_4  | 64 bytes from 216.58.195.238: seq=10 ttl=53 time=13.262 ms
ping_7  | 64 bytes from 216.58.195.238: seq=16 ttl=53 time=13.822 ms
ping_10 | 64 bytes from 216.58.195.238: seq=14 ttl=53 time=13.623 ms
ping_6  | 64 bytes from 216.58.195.238: seq=11 ttl=53 time=13.694 ms
ping_5  | 64 bytes from 216.58.195.238: seq=12 ttl=53 time=13.549 ms
ping_9  | 64 bytes from 216.58.195.238: seq=13 ttl=53 time=13.501 ms
ping_8  | 64 bytes from 216.58.195.238: seq=15 ttl=53 time=13.548 ms
ping_3  | 64 bytes from 216.58.195.238: seq=14 ttl=53 time=13.470 ms
ping_1  | 64 bytes from 216.58.195.238: seq=17 ttl=53 time=13.709 ms
ping_2  | 64 bytes from 216.58.195.238: seq=16 ttl=53 time=13.649 ms
ping_4  | 64 bytes from 216.58.195.238: seq=11 ttl=53 time=13.583 ms
ping_7  | 64 bytes from 216.58.195.238: seq=17 ttl=53 time=13.624 ms
ping_10 | 64 bytes from 216.58.195.238: seq=15 ttl=53 time=13.451 ms
ping_6  | 64 bytes from 216.58.195.238: seq=12 ttl=53 time=13.635 ms
ping_5  | 64 bytes from 216.58.195.238: seq=13 ttl=53 time=13.609 ms
ping_9  | 64 bytes from 216.58.195.238: seq=14 ttl=53 time=13.612 ms
ping_8  | 64 bytes from 216.58.195.238: seq=16 ttl=53 time=13.459 ms
ping_3  | 64 bytes from 216.58.195.238: seq=15 ttl=53 time=13.367 ms
ping_1  | 64 bytes from 216.58.195.238: seq=18 ttl=53 time=13.679 ms
ping_2  | 64 bytes from 216.58.195.238: seq=17 ttl=53 time=13.168 ms
ping_4  | 64 bytes from 216.58.195.238: seq=12 ttl=53 time=13.362 ms
ping_7  | 64 bytes from 216.58.195.238: seq=18 ttl=53 time=13.161 ms
ping_10 | 64 bytes from 216.58.195.238: seq=16 ttl=53 time=13.618 ms
ping_6  | 64 bytes from 216.58.195.238: seq=13 ttl=53 time=13.138 ms
ping_5  | 64 bytes from 216.58.195.238: seq=14 ttl=53 time=13.035 ms
ping_9  | 64 bytes from 216.58.195.238: seq=15 ttl=53 time=13.683 ms
ping_8  | 64 bytes from 216.58.195.238: seq=17 ttl=53 time=13.536 ms
ping_3  | 64 bytes from 216.58.195.238: seq=16 ttl=53 time=13.532 ms
ping_1  | 64 bytes from 216.58.195.238: seq=19 ttl=53 time=13.511 ms
ping_2  | 64 bytes from 216.58.195.238: seq=18 ttl=53 time=13.618 ms
ping_4  | 64 bytes from 216.58.195.238: seq=13 ttl=53 time=13.236 ms
ping_7  | 64 bytes from 216.58.195.238: seq=19 ttl=53 time=13.216 ms
ping_10 | 64 bytes from 216.58.195.238: seq=17 ttl=53 time=13.145 ms
ping_6  | 64 bytes from 216.58.195.238: seq=14 ttl=53 time=13.199 ms
ping_5  | 64 bytes from 216.58.195.238: seq=15 ttl=53 time=13.686 ms
ping_9  | 64 bytes from 216.58.195.238: seq=16 ttl=53 time=13.779 ms
ping_8  | 64 bytes from 216.58.195.238: seq=18 ttl=53 time=13.506 ms
ping_3  | 64 bytes from 216.58.195.238: seq=17 ttl=53 time=13.434 ms
ping_1  | 64 bytes from 216.58.195.238: seq=20 ttl=53 time=13.350 ms
ping_2  | 64 bytes from 216.58.195.238: seq=19 ttl=53 time=13.388 ms
ping_4  | 64 bytes from 216.58.195.238: seq=14 ttl=53 time=13.215 ms
ping_7  | 64 bytes from 216.58.195.238: seq=20 ttl=53 time=13.110 ms
ping_10 | 64 bytes from 216.58.195.238: seq=18 ttl=53 time=13.651 ms
ping_6  | 64 bytes from 216.58.195.238: seq=15 ttl=53 time=13.586 ms
ping_5  | 64 bytes from 216.58.195.238: seq=16 ttl=53 time=13.577 ms
ping_9  | 64 bytes from 216.58.195.238: seq=17 ttl=53 time=13.679 ms
ping_8  | 64 bytes from 216.58.195.238: seq=19 ttl=53 time=13.546 ms
ping_3  | 64 bytes from 216.58.195.238: seq=18 ttl=53 time=13.148 ms
ping_1  | 64 bytes from 216.58.195.238: seq=21 ttl=53 time=13.773 ms
ping_2  | 64 bytes from 216.58.195.238: seq=20 ttl=53 time=13.513 ms
ping_4  | 64 bytes from 216.58.195.238: seq=15 ttl=53 time=13.540 ms
ping_7  | 64 bytes from 216.58.195.238: seq=21 ttl=53 time=13.200 ms
ping_10 | 64 bytes from 216.58.195.238: seq=19 ttl=53 time=13.634 ms
ping_6  | 64 bytes from 216.58.195.238: seq=16 ttl=53 time=13.353 ms
ping_5  | 64 bytes from 216.58.195.238: seq=17 ttl=53 time=13.260 ms
ping_9  | 64 bytes from 216.58.195.238: seq=18 ttl=53 time=13.627 ms
ping_8  | 64 bytes from 216.58.195.238: seq=20 ttl=53 time=13.593 ms
ping_3  | 64 bytes from 216.58.195.238: seq=19 ttl=53 time=13.529 ms
ping_1  | 64 bytes from 216.58.195.238: seq=22 ttl=53 time=13.586 ms
ping_2  | 64 bytes from 216.58.195.238: seq=21 ttl=53 time=13.751 ms
ping_4  | 64 bytes from 216.58.195.238: seq=16 ttl=53 time=13.217 ms
ping_7  | 64 bytes from 216.58.195.238: seq=22 ttl=53 time=13.162 ms
ping_10 | 64 bytes from 216.58.195.238: seq=20 ttl=53 time=13.616 ms
ping_6  | 64 bytes from 216.58.195.238: seq=17 ttl=53 time=13.780 ms
ping_5  | 64 bytes from 216.58.195.238: seq=18 ttl=53 time=13.741 ms
ping_9  | 64 bytes from 216.58.195.238: seq=19 ttl=53 time=13.693 ms
ping_8  | 64 bytes from 216.58.195.238: seq=21 ttl=53 time=13.585 ms
ping_3  | 64 bytes from 216.58.195.238: seq=20 ttl=53 time=13.483 ms
ping_1  | 64 bytes from 216.58.195.238: seq=23 ttl=53 time=13.434 ms
ping_2  | 64 bytes from 216.58.195.238: seq=22 ttl=53 time=13.544 ms
ping_4  | 64 bytes from 216.58.195.238: seq=17 ttl=53 time=13.630 ms
ping_7  | 64 bytes from 216.58.195.238: seq=23 ttl=53 time=13.432 ms
ping_10 | 64 bytes from 216.58.195.238: seq=21 ttl=53 time=13.445 ms
ping_6  | 64 bytes from 216.58.195.238: seq=18 ttl=53 time=13.872 ms
ping_5  | 64 bytes from 216.58.195.238: seq=19 ttl=53 time=13.740 ms
ping_9  | 64 bytes from 216.58.195.238: seq=20 ttl=53 time=13.544 ms
ping_8  | 64 bytes from 216.58.195.238: seq=22 ttl=53 time=13.258 ms
ping_3  | 64 bytes from 216.58.195.238: seq=21 ttl=53 time=13.168 ms
ping_1  | 64 bytes from 216.58.195.238: seq=24 ttl=53 time=13.137 ms
ping_2  | 64 bytes from 216.58.195.238: seq=23 ttl=53 time=13.470 ms
ping_4  | 64 bytes from 216.58.195.238: seq=18 ttl=53 time=13.687 ms
ping_7  | 64 bytes from 216.58.195.238: seq=24 ttl=53 time=13.678 ms
ping_10 | 64 bytes from 216.58.195.238: seq=22 ttl=53 time=13.439 ms
ping_6  | 64 bytes from 216.58.195.238: seq=19 ttl=53 time=13.905 ms
ping_5  | 64 bytes from 216.58.195.238: seq=20 ttl=53 time=13.542 ms
ping_9  | 64 bytes from 216.58.195.238: seq=21 ttl=53 time=13.528 ms
ping_8  | 64 bytes from 216.58.195.238: seq=23 ttl=53 time=13.291 ms
ping_3  | 64 bytes from 216.58.195.238: seq=22 ttl=53 time=13.479 ms
ping_1  | 64 bytes from 216.58.195.238: seq=25 ttl=53 time=13.732 ms
ping_2  | 64 bytes from 216.58.195.238: seq=24 ttl=53 time=13.788 ms
ping_4  | 64 bytes from 216.58.195.238: seq=19 ttl=53 time=13.682 ms
ping_7  | 64 bytes from 216.58.195.238: seq=25 ttl=53 time=13.548 ms
ping_10 | 64 bytes from 216.58.195.238: seq=23 ttl=53 time=13.570 ms
ping_6  | 64 bytes from 216.58.195.238: seq=20 ttl=53 time=13.269 ms
ping_5  | 64 bytes from 216.58.195.238: seq=21 ttl=53 time=13.634 ms
ping_9  | 64 bytes from 216.58.195.238: seq=22 ttl=53 time=13.727 ms
ping_8  | 64 bytes from 216.58.195.238: seq=24 ttl=53 time=13.294 ms
ping_3  | 64 bytes from 216.58.195.238: seq=23 ttl=53 time=13.202 ms
ping_1  | 64 bytes from 216.58.195.238: seq=26 ttl=53 time=13.197 ms
ping_2  | 64 bytes from 216.58.195.238: seq=25 ttl=53 time=13.555 ms
ping_4  | 64 bytes from 216.58.195.238: seq=20 ttl=53 time=13.432 ms
ping_7  | 64 bytes from 216.58.195.238: seq=26 ttl=53 time=13.198 ms
ping_10 | 64 bytes from 216.58.195.238: seq=24 ttl=53 time=13.872 ms
ping_6  | 64 bytes from 216.58.195.238: seq=21 ttl=53 time=13.617 ms
ping_5  | 64 bytes from 216.58.195.238: seq=22 ttl=53 time=13.472 ms
ping_9  | 64 bytes from 216.58.195.238: seq=23 ttl=53 time=13.688 ms
ping_8  | 64 bytes from 216.58.195.238: seq=25 ttl=53 time=13.211 ms
ping_3  | 64 bytes from 216.58.195.238: seq=24 ttl=53 time=13.490 ms
ping_1  | 64 bytes from 216.58.195.238: seq=27 ttl=53 time=13.767 ms
ping_2  | 64 bytes from 216.58.195.238: seq=26 ttl=53 time=13.131 ms
ping_4  | 64 bytes from 216.58.195.238: seq=21 ttl=53 time=13.650 ms
ping_7  | 64 bytes from 216.58.195.238: seq=27 ttl=53 time=13.419 ms
ping_10 | 64 bytes from 216.58.195.238: seq=25 ttl=53 time=13.733 ms
ping_6  | 64 bytes from 216.58.195.238: seq=22 ttl=53 time=13.515 ms
ping_5  | 64 bytes from 216.58.195.238: seq=23 ttl=53 time=13.479 ms
ping_9  | 64 bytes from 216.58.195.238: seq=24 ttl=53 time=13.518 ms
ping_8  | 64 bytes from 216.58.195.238: seq=26 ttl=53 time=13.348 ms
ping_3  | 64 bytes from 216.58.195.238: seq=25 ttl=53 time=13.441 ms
ping_1  | 64 bytes from 216.58.195.238: seq=28 ttl=53 time=13.442 ms
ping_2  | 64 bytes from 216.58.195.238: seq=27 ttl=53 time=13.733 ms
ping_4  | 64 bytes from 216.58.195.238: seq=22 ttl=53 time=13.527 ms
ping_7  | 64 bytes from 216.58.195.238: seq=28 ttl=53 time=13.577 ms
ping_10 | 64 bytes from 216.58.195.238: seq=26 ttl=53 time=13.507 ms
ping_6  | 64 bytes from 216.58.195.238: seq=23 ttl=53 time=13.414 ms
ping_5  | 64 bytes from 216.58.195.238: seq=24 ttl=53 time=13.762 ms
ping_9  | 64 bytes from 216.58.195.238: seq=25 ttl=53 time=13.203 ms
ping_8  | 64 bytes from 216.58.195.238: seq=27 ttl=53 time=13.254 ms
ping_3  | 64 bytes from 216.58.195.238: seq=26 ttl=53 time=13.194 ms
ping_1  | 64 bytes from 216.58.195.238: seq=29 ttl=53 time=13.094 ms
ping_2  | 64 bytes from 216.58.195.238: seq=28 ttl=53 time=13.116 ms
ping_4  | 64 bytes from 216.58.195.238: seq=23 ttl=53 time=13.643 ms
ping_7  | 64 bytes from 216.58.195.238: seq=29 ttl=53 time=13.243 ms
ping_10 | 64 bytes from 216.58.195.238: seq=27 ttl=53 time=13.220 ms
ping_6  | 64 bytes from 216.58.195.238: seq=24 ttl=53 time=13.534 ms
ping_5  | 64 bytes from 216.58.195.238: seq=25 ttl=53 time=13.350 ms
ping_9  | 64 bytes from 216.58.195.238: seq=26 ttl=53 time=13.668 ms
ping_8  | 64 bytes from 216.58.195.238: seq=28 ttl=53 time=13.389 ms
ping_3  | 64 bytes from 216.58.195.238: seq=27 ttl=53 time=13.500 ms
ping_1  | 64 bytes from 216.58.195.238: seq=30 ttl=53 time=13.560 ms
ping_2  | 64 bytes from 216.58.195.238: seq=29 ttl=53 time=13.508 ms
ping_4  | 64 bytes from 216.58.195.238: seq=24 ttl=53 time=13.774 ms
ping_7  | 64 bytes from 216.58.195.238: seq=30 ttl=53 time=13.611 ms
ping_10 | 64 bytes from 216.58.195.238: seq=28 ttl=53 time=13.637 ms
ping_6  | 64 bytes from 216.58.195.238: seq=25 ttl=53 time=13.643 ms
ping_5  | 64 bytes from 216.58.195.238: seq=26 ttl=53 time=13.744 ms
ping_9  | 64 bytes from 216.58.195.238: seq=27 ttl=53 time=13.584 ms
ping_8  | 64 bytes from 216.58.195.238: seq=29 ttl=53 time=13.506 ms
ping_3  | 64 bytes from 216.58.195.238: seq=28 ttl=53 time=13.566 ms
ping_1  | 64 bytes from 216.58.195.238: seq=31 ttl=53 time=13.726 ms
ping_2  | 64 bytes from 216.58.195.238: seq=30 ttl=53 time=13.821 ms
ping_4  | 64 bytes from 216.58.195.238: seq=25 ttl=53 time=13.646 ms
ping_7  | 64 bytes from 216.58.195.238: seq=31 ttl=53 time=13.573 ms
ping_10 | 64 bytes from 216.58.195.238: seq=29 ttl=53 time=13.138 ms
ping_6  | 64 bytes from 216.58.195.238: seq=26 ttl=53 time=13.666 ms
ping_5  | 64 bytes from 216.58.195.238: seq=27 ttl=53 time=13.104 ms
ping_9  | 64 bytes from 216.58.195.238: seq=28 ttl=53 time=13.464 ms
ping_8  | 64 bytes from 216.58.195.238: seq=30 ttl=53 time=13.136 ms
ping_3  | 64 bytes from 216.58.195.238: seq=29 ttl=53 time=13.479 ms
ping_1  | 64 bytes from 216.58.195.238: seq=32 ttl=53 time=13.497 ms
ping_2  | 64 bytes from 216.58.195.238: seq=31 ttl=53 time=13.622 ms
ping_4  | 64 bytes from 216.58.195.238: seq=26 ttl=53 time=13.649 ms
ping_7  | 64 bytes from 216.58.195.238: seq=32 ttl=53 time=13.692 ms
ping_10 | 64 bytes from 216.58.195.238: seq=30 ttl=53 time=13.273 ms
ping_6  | 64 bytes from 216.58.195.238: seq=27 ttl=53 time=13.192 ms
ping_5  | 64 bytes from 216.58.195.238: seq=28 ttl=53 time=13.468 ms
ping_9  | 64 bytes from 216.58.195.238: seq=29 ttl=53 time=13.532 ms
ping_8  | 64 bytes from 216.58.195.238: seq=31 ttl=53 time=13.502 ms
ping_3  | 64 bytes from 216.58.195.238: seq=30 ttl=53 time=13.452 ms
ping_1  | 64 bytes from 216.58.195.238: seq=33 ttl=53 time=13.521 ms
ping_2  | 64 bytes from 216.58.195.238: seq=32 ttl=53 time=13.670 ms
ping_4  | 64 bytes from 216.58.195.238: seq=27 ttl=53 time=13.596 ms
ping_7  | 64 bytes from 216.58.195.238: seq=33 ttl=53 time=13.498 ms
ping_10 | 64 bytes from 216.58.195.238: seq=31 ttl=53 time=13.394 ms
ping_6  | 64 bytes from 216.58.195.238: seq=28 ttl=53 time=13.729 ms
ping_5  | 64 bytes from 216.58.195.238: seq=29 ttl=53 time=13.541 ms
ping_9  | 64 bytes from 216.58.195.238: seq=30 ttl=53 time=13.559 ms
ping_8  | 64 bytes from 216.58.195.238: seq=32 ttl=53 time=13.143 ms
ping_3  | 64 bytes from 216.58.195.238: seq=31 ttl=53 time=13.429 ms
ping_1  | 64 bytes from 216.58.195.238: seq=34 ttl=53 time=13.732 ms
ping_2  | 64 bytes from 216.58.195.238: seq=33 ttl=53 time=13.556 ms
ping_4  | 64 bytes from 216.58.195.238: seq=28 ttl=53 time=13.269 ms
ping_7  | 64 bytes from 216.58.195.238: seq=34 ttl=53 time=13.569 ms
ping_10 | 64 bytes from 216.58.195.238: seq=32 ttl=53 time=13.887 ms
ping_6  | 64 bytes from 216.58.195.238: seq=29 ttl=53 time=13.577 ms
ping_5  | 64 bytes from 216.58.195.238: seq=30 ttl=53 time=13.470 ms
ping_9  | 64 bytes from 216.58.195.238: seq=31 ttl=53 time=13.173 ms
ping_8  | 64 bytes from 216.58.195.238: seq=33 ttl=53 time=13.388 ms
ping_3  | 64 bytes from 216.58.195.238: seq=32 ttl=53 time=13.369 ms
ping_1  | 64 bytes from 216.58.195.238: seq=35 ttl=53 time=13.512 ms
ping_2  | 64 bytes from 216.58.195.238: seq=34 ttl=53 time=13.315 ms
ping_4  | 64 bytes from 216.58.195.238: seq=29 ttl=53 time=14.806 ms
ping_7  | 64 bytes from 216.58.195.238: seq=35 ttl=53 time=13.570 ms
ping_10 | 64 bytes from 216.58.195.238: seq=33 ttl=53 time=13.488 ms
ping_6  | 64 bytes from 216.58.195.238: seq=30 ttl=53 time=13.870 ms
ping_5  | 64 bytes from 216.58.195.238: seq=31 ttl=53 time=13.614 ms
ping_9  | 64 bytes from 216.58.195.238: seq=32 ttl=53 time=13.153 ms
ping_8  | 64 bytes from 216.58.195.238: seq=34 ttl=53 time=13.270 ms
ping_3  | 64 bytes from 216.58.195.238: seq=33 ttl=53 time=13.442 ms
ping_1  | 64 bytes from 216.58.195.238: seq=36 ttl=53 time=13.191 ms
ping_2  | 64 bytes from 216.58.195.238: seq=35 ttl=53 time=13.053 ms
ping_4  | 64 bytes from 216.58.195.238: seq=30 ttl=53 time=13.581 ms
ping_7  | 64 bytes from 216.58.195.238: seq=36 ttl=53 time=13.444 ms
ping_10 | 64 bytes from 216.58.195.238: seq=34 ttl=53 time=13.363 ms
ping_6  | 64 bytes from 216.58.195.238: seq=31 ttl=53 time=13.560 ms
ping_5  | 64 bytes from 216.58.195.238: seq=32 ttl=53 time=13.181 ms
ping_9  | 64 bytes from 216.58.195.238: seq=33 ttl=53 time=13.633 ms
ping_8  | 64 bytes from 216.58.195.238: seq=35 ttl=53 time=13.077 ms
ping_3  | 64 bytes from 216.58.195.238: seq=34 ttl=53 time=13.399 ms
ping_1  | 64 bytes from 216.58.195.238: seq=37 ttl=53 time=13.500 ms
ping_2  | 64 bytes from 216.58.195.238: seq=36 ttl=53 time=13.516 ms
ping_4  | 64 bytes from 216.58.195.238: seq=31 ttl=53 time=13.301 ms
ping_7  | 64 bytes from 216.58.195.238: seq=37 ttl=53 time=13.578 ms
ping_10 | 64 bytes from 216.58.195.238: seq=35 ttl=53 time=13.798 ms
ping_6  | 64 bytes from 216.58.195.238: seq=32 ttl=53 time=13.735 ms
ping_5  | 64 bytes from 216.58.195.238: seq=33 ttl=53 time=13.516 ms
ping_9  | 64 bytes from 216.58.195.238: seq=34 ttl=53 time=13.604 ms
ping_8  | 64 bytes from 216.58.195.238: seq=36 ttl=53 time=13.195 ms
ping_3  | 64 bytes from 216.58.195.238: seq=35 ttl=53 time=13.077 ms
ping_1  | 64 bytes from 216.58.195.238: seq=38 ttl=53 time=13.694 ms
ping_2  | 64 bytes from 216.58.195.238: seq=37 ttl=53 time=13.504 ms
ping_4  | 64 bytes from 216.58.195.238: seq=32 ttl=53 time=13.810 ms
ping_7  | 64 bytes from 216.58.195.238: seq=38 ttl=53 time=13.522 ms
ping_10 | 64 bytes from 216.58.195.238: seq=36 ttl=53 time=13.747 ms
ping_6  | 64 bytes from 216.58.195.238: seq=33 ttl=53 time=13.584 ms
ping_5  | 64 bytes from 216.58.195.238: seq=34 ttl=53 time=13.744 ms
ping_9  | 64 bytes from 216.58.195.238: seq=35 ttl=53 time=13.718 ms
ping_8  | 64 bytes from 216.58.195.238: seq=37 ttl=53 time=13.127 ms
ping_3  | 64 bytes from 216.58.195.238: seq=36 ttl=53 time=13.250 ms
ping_1  | 64 bytes from 216.58.195.238: seq=39 ttl=53 time=13.412 ms
ping_2  | 64 bytes from 216.58.195.238: seq=38 ttl=53 time=13.510 ms
ping_4  | 64 bytes from 216.58.195.238: seq=33 ttl=53 time=13.830 ms
ping_7  | 64 bytes from 216.58.195.238: seq=39 ttl=53 time=13.421 ms
ping_10 | 64 bytes from 216.58.195.238: seq=37 ttl=53 time=13.711 ms
ping_6  | 64 bytes from 216.58.195.238: seq=34 ttl=53 time=13.383 ms
ping_5  | 64 bytes from 216.58.195.238: seq=35 ttl=53 time=14.359 ms
ping_9  | 64 bytes from 216.58.195.238: seq=36 ttl=53 time=13.747 ms
ping_8  | 64 bytes from 216.58.195.238: seq=38 ttl=53 time=13.280 ms
ping_3  | 64 bytes from 216.58.195.238: seq=37 ttl=53 time=13.216 ms
ping_1  | 64 bytes from 216.58.195.238: seq=40 ttl=53 time=13.317 ms
ping_2  | 64 bytes from 216.58.195.238: seq=39 ttl=53 time=13.732 ms
ping_4  | 64 bytes from 216.58.195.238: seq=34 ttl=53 time=13.452 ms
ping_7  | 64 bytes from 216.58.195.238: seq=40 ttl=53 time=13.762 ms
ping_10 | 64 bytes from 216.58.195.238: seq=38 ttl=53 time=13.191 ms
ping_6  | 64 bytes from 216.58.195.238: seq=35 ttl=53 time=13.354 ms
ping_5  | 64 bytes from 216.58.195.238: seq=36 ttl=53 time=13.757 ms
ping_9  | 64 bytes from 216.58.195.238: seq=37 ttl=53 time=13.587 ms
ping_8  | 64 bytes from 216.58.195.238: seq=39 ttl=53 time=13.534 ms
ping_3  | 64 bytes from 216.58.195.238: seq=38 ttl=53 time=13.363 ms
ping_1  | 64 bytes from 216.58.195.238: seq=41 ttl=53 time=13.599 ms
ping_2  | 64 bytes from 216.58.195.238: seq=40 ttl=53 time=13.519 ms
ping_4  | 64 bytes from 216.58.195.238: seq=35 ttl=53 time=13.596 ms
ping_7  | 64 bytes from 216.58.195.238: seq=41 ttl=53 time=13.544 ms
ping_10 | 64 bytes from 216.58.195.238: seq=39 ttl=53 time=13.147 ms
ping_6  | 64 bytes from 216.58.195.238: seq=36 ttl=53 time=13.746 ms
ping_5  | 64 bytes from 216.58.195.238: seq=37 ttl=53 time=13.789 ms
ping_9  | 64 bytes from 216.58.195.238: seq=38 ttl=53 time=13.580 ms
ping_8  | 64 bytes from 216.58.195.238: seq=40 ttl=53 time=13.436 ms
ping_3  | 64 bytes from 216.58.195.238: seq=39 ttl=53 time=13.398 ms
ping_1  | 64 bytes from 216.58.195.238: seq=42 ttl=53 time=13.607 ms
ping_2  | 64 bytes from 216.58.195.238: seq=41 ttl=53 time=13.516 ms
ping_4  | 64 bytes from 216.58.195.238: seq=36 ttl=53 time=13.597 ms
ping_7  | 64 bytes from 216.58.195.238: seq=42 ttl=53 time=13.651 ms
ping_10 | 64 bytes from 216.58.195.238: seq=40 ttl=53 time=13.560 ms
ping_6  | 64 bytes from 216.58.195.238: seq=37 ttl=53 time=13.735 ms
ping_5  | 64 bytes from 216.58.195.238: seq=38 ttl=53 time=13.603 ms
ping_9  | 64 bytes from 216.58.195.238: seq=39 ttl=53 time=13.506 ms
ping_8  | 64 bytes from 216.58.195.238: seq=41 ttl=53 time=13.293 ms
ping_3  | 64 bytes from 216.58.195.238: seq=40 ttl=53 time=13.178 ms
ping_1  | 64 bytes from 216.58.195.238: seq=43 ttl=53 time=13.769 ms
ping_2  | 64 bytes from 216.58.195.238: seq=42 ttl=53 time=13.579 ms
ping_4  | 64 bytes from 216.58.195.238: seq=37 ttl=53 time=13.486 ms
ping_7  | 64 bytes from 216.58.195.238: seq=43 ttl=53 time=13.545 ms
ping_10 | 64 bytes from 216.58.195.238: seq=41 ttl=53 time=13.251 ms
ping_6  | 64 bytes from 216.58.195.238: seq=38 ttl=53 time=13.552 ms
ping_5  | 64 bytes from 216.58.195.238: seq=39 ttl=53 time=13.641 ms
ping_9  | 64 bytes from 216.58.195.238: seq=40 ttl=53 time=13.599 ms
ping_8  | 64 bytes from 216.58.195.238: seq=42 ttl=53 time=13.549 ms
ping_3  | 64 bytes from 216.58.195.238: seq=41 ttl=53 time=13.251 ms
ping_1  | 64 bytes from 216.58.195.238: seq=44 ttl=53 time=13.494 ms
ping_2  | 64 bytes from 216.58.195.238: seq=43 ttl=53 time=13.200 ms
ping_4  | 64 bytes from 216.58.195.238: seq=38 ttl=53 time=13.449 ms
ping_7  | 64 bytes from 216.58.195.238: seq=44 ttl=53 time=13.437 ms
ping_10 | 64 bytes from 216.58.195.238: seq=42 ttl=53 time=13.816 ms
ping_6  | 64 bytes from 216.58.195.238: seq=39 ttl=53 time=13.447 ms
ping_5  | 64 bytes from 216.58.195.238: seq=40 ttl=53 time=13.776 ms
ping_9  | 64 bytes from 216.58.195.238: seq=41 ttl=53 time=13.667 ms
ping_8  | 64 bytes from 216.58.195.238: seq=43 ttl=53 time=13.666 ms
ping_3  | 64 bytes from 216.58.195.238: seq=42 ttl=53 time=13.192 ms
ping_1  | 64 bytes from 216.58.195.238: seq=45 ttl=53 time=13.621 ms
ping_2  | 64 bytes from 216.58.195.238: seq=44 ttl=53 time=13.142 ms
ping_4  | 64 bytes from 216.58.195.238: seq=39 ttl=53 time=13.741 ms
ping_7  | 64 bytes from 216.58.195.238: seq=45 ttl=53 time=13.697 ms
ping_10 | 64 bytes from 216.58.195.238: seq=43 ttl=53 time=13.639 ms
ping_6  | 64 bytes from 216.58.195.238: seq=40 ttl=53 time=13.492 ms
ping_5  | 64 bytes from 216.58.195.238: seq=41 ttl=53 time=13.759 ms
ping_9  | 64 bytes from 216.58.195.238: seq=42 ttl=53 time=13.628 ms
ping_8  | 64 bytes from 216.58.195.238: seq=44 ttl=53 time=13.392 ms
ping_3  | 64 bytes from 216.58.195.238: seq=43 ttl=53 time=13.474 ms
ping_1  | 64 bytes from 216.58.195.238: seq=46 ttl=53 time=13.168 ms
ping_2  | 64 bytes from 216.58.195.238: seq=45 ttl=53 time=13.146 ms
ping_4  | 64 bytes from 216.58.195.238: seq=40 ttl=53 time=13.750 ms
ping_7  | 64 bytes from 216.58.195.238: seq=46 ttl=53 time=13.580 ms
ping_10 | 64 bytes from 216.58.195.238: seq=44 ttl=53 time=13.523 ms
ping_6  | 64 bytes from 216.58.195.238: seq=41 ttl=53 time=13.671 ms
ping_5  | 64 bytes from 216.58.195.238: seq=42 ttl=53 time=13.455 ms
ping_9  | 64 bytes from 216.58.195.238: seq=43 ttl=53 time=13.743 ms
ping_8  | 64 bytes from 216.58.195.238: seq=45 ttl=53 time=13.186 ms
ping_3  | 64 bytes from 216.58.195.238: seq=44 ttl=53 time=13.509 ms
ping_1  | 64 bytes from 216.58.195.238: seq=47 ttl=53 time=13.613 ms
ping_2  | 64 bytes from 216.58.195.238: seq=46 ttl=53 time=13.162 ms
ping_4  | 64 bytes from 216.58.195.238: seq=41 ttl=53 time=13.483 ms
ping_7  | 64 bytes from 216.58.195.238: seq=47 ttl=53 time=13.184 ms
ping_10 | 64 bytes from 216.58.195.238: seq=45 ttl=53 time=13.556 ms
ping_6  | 64 bytes from 216.58.195.238: seq=42 ttl=53 time=13.377 ms
ping_5  | 64 bytes from 216.58.195.238: seq=43 ttl=53 time=13.459 ms
ping_9  | 64 bytes from 216.58.195.238: seq=44 ttl=53 time=13.549 ms
ping_8  | 64 bytes from 216.58.195.238: seq=46 ttl=53 time=13.204 ms
ping_3  | 64 bytes from 216.58.195.238: seq=45 ttl=53 time=13.464 ms
ping_1  | 64 bytes from 216.58.195.238: seq=48 ttl=53 time=13.519 ms
ping_2  | 64 bytes from 216.58.195.238: seq=47 ttl=53 time=13.121 ms
ping_4  | 64 bytes from 216.58.195.238: seq=42 ttl=53 time=13.559 ms
ping_7  | 64 bytes from 216.58.195.238: seq=48 ttl=53 time=13.842 ms
ping_10 | 64 bytes from 216.58.195.238: seq=46 ttl=53 time=13.766 ms
ping_6  | 64 bytes from 216.58.195.238: seq=43 ttl=53 time=13.247 ms
ping_5  | 64 bytes from 216.58.195.238: seq=44 ttl=53 time=13.689 ms
ping_9  | 64 bytes from 216.58.195.238: seq=45 ttl=53 time=13.699 ms
ping_8  | 64 bytes from 216.58.195.238: seq=47 ttl=53 time=13.275 ms
ping_3  | 64 bytes from 216.58.195.238: seq=46 ttl=53 time=13.540 ms
ping_1  | 64 bytes from 216.58.195.238: seq=49 ttl=53 time=13.790 ms
ping_2  | 64 bytes from 216.58.195.238: seq=48 ttl=53 time=13.278 ms
ping_4  | 64 bytes from 216.58.195.238: seq=43 ttl=53 time=13.677 ms
ping_7  | 64 bytes from 216.58.195.238: seq=49 ttl=53 time=13.201 ms
ping_10 | 64 bytes from 216.58.195.238: seq=47 ttl=53 time=13.605 ms
ping_6  | 64 bytes from 216.58.195.238: seq=44 ttl=53 time=13.258 ms
ping_5  | 64 bytes from 216.58.195.238: seq=45 ttl=53 time=13.773 ms
ping_9  | 64 bytes from 216.58.195.238: seq=46 ttl=53 time=13.608 ms
ping_8  | 64 bytes from 216.58.195.238: seq=48 ttl=53 time=13.218 ms
ping_3  | 64 bytes from 216.58.195.238: seq=47 ttl=53 time=13.459 ms
ping_1  | 64 bytes from 216.58.195.238: seq=50 ttl=53 time=13.473 ms
ping_2  | 64 bytes from 216.58.195.238: seq=49 ttl=53 time=13.244 ms
ping_4  | 64 bytes from 216.58.195.238: seq=44 ttl=53 time=13.695 ms
ping_7  | 64 bytes from 216.58.195.238: seq=50 ttl=53 time=13.419 ms
ping_10 | 64 bytes from 216.58.195.238: seq=48 ttl=53 time=13.448 ms
ping_6  | 64 bytes from 216.58.195.238: seq=45 ttl=53 time=13.243 ms
ping_5  | 64 bytes from 216.58.195.238: seq=46 ttl=53 time=13.572 ms
ping_9  | 64 bytes from 216.58.195.238: seq=47 ttl=53 time=13.797 ms
ping_8  | 64 bytes from 216.58.195.238: seq=49 ttl=53 time=13.361 ms
ping_3  | 64 bytes from 216.58.195.238: seq=48 ttl=53 time=13.937 ms
ping_1  | 64 bytes from 216.58.195.238: seq=51 ttl=53 time=13.669 ms
ping_2  | 64 bytes from 216.58.195.238: seq=50 ttl=53 time=13.772 ms
ping_4  | 64 bytes from 216.58.195.238: seq=45 ttl=53 time=13.518 ms
ping_7  | 64 bytes from 216.58.195.238: seq=51 ttl=53 time=13.202 ms
ping_10 | 64 bytes from 216.58.195.238: seq=49 ttl=53 time=13.170 ms
ping_6  | 64 bytes from 216.58.195.238: seq=46 ttl=53 time=13.270 ms
ping_5  | 64 bytes from 216.58.195.238: seq=47 ttl=53 time=13.284 ms
ping_9  | 64 bytes from 216.58.195.238: seq=48 ttl=53 time=13.465 ms
ping_8  | 64 bytes from 216.58.195.238: seq=50 ttl=53 time=13.269 ms
ping_3  | 64 bytes from 216.58.195.238: seq=49 ttl=53 time=13.528 ms
ping_1  | 64 bytes from 216.58.195.238: seq=52 ttl=53 time=13.660 ms
ping_2  | 64 bytes from 216.58.195.238: seq=51 ttl=53 time=13.501 ms
ping_4  | 64 bytes from 216.58.195.238: seq=46 ttl=53 time=13.132 ms
ping_7  | 64 bytes from 216.58.195.238: seq=52 ttl=53 time=13.326 ms
ping_10 | 64 bytes from 216.58.195.238: seq=50 ttl=53 time=13.450 ms
ping_6  | 64 bytes from 216.58.195.238: seq=47 ttl=53 time=13.252 ms
ping_5  | 64 bytes from 216.58.195.238: seq=48 ttl=53 time=13.485 ms
ping_9  | 64 bytes from 216.58.195.238: seq=49 ttl=53 time=13.501 ms
ping_8  | 64 bytes from 216.58.195.238: seq=51 ttl=53 time=13.259 ms
ping_3  | 64 bytes from 216.58.195.238: seq=50 ttl=53 time=13.350 ms
ping_1  | 64 bytes from 216.58.195.238: seq=53 ttl=53 time=13.750 ms
ping_2  | 64 bytes from 216.58.195.238: seq=52 ttl=53 time=13.673 ms
ping_4  | 64 bytes from 216.58.195.238: seq=47 ttl=53 time=13.776 ms
ping_7  | 64 bytes from 216.58.195.238: seq=53 ttl=53 time=13.520 ms
ping_10 | 64 bytes from 216.58.195.238: seq=51 ttl=53 time=13.270 ms
ping_6  | 64 bytes from 216.58.195.238: seq=48 ttl=53 time=13.228 ms
ping_5  | 64 bytes from 216.58.195.238: seq=49 ttl=53 time=13.250 ms
ping_9  | 64 bytes from 216.58.195.238: seq=50 ttl=53 time=13.531 ms
ping_8  | 64 bytes from 216.58.195.238: seq=52 ttl=53 time=13.256 ms
ping_3  | 64 bytes from 216.58.195.238: seq=51 ttl=53 time=13.491 ms
ping_1  | 64 bytes from 216.58.195.238: seq=54 ttl=53 time=13.241 ms
ping_2  | 64 bytes from 216.58.195.238: seq=53 ttl=53 time=13.181 ms
ping_4  | 64 bytes from 216.58.195.238: seq=48 ttl=53 time=13.737 ms
ping_7  | 64 bytes from 216.58.195.238: seq=54 ttl=53 time=13.540 ms
ping_10 | 64 bytes from 216.58.195.238: seq=52 ttl=53 time=13.196 ms
ping_6  | 64 bytes from 216.58.195.238: seq=49 ttl=53 time=13.175 ms
ping_5  | 64 bytes from 216.58.195.238: seq=50 ttl=53 time=13.168 ms
ping_9  | 64 bytes from 216.58.195.238: seq=51 ttl=53 time=13.626 ms
ping_8  | 64 bytes from 216.58.195.238: seq=53 ttl=53 time=13.259 ms
ping_3  | 64 bytes from 216.58.195.238: seq=52 ttl=53 time=13.507 ms
ping_1  | 64 bytes from 216.58.195.238: seq=55 ttl=53 time=13.580 ms
ping_2  | 64 bytes from 216.58.195.238: seq=54 ttl=53 time=13.873 ms
ping_4  | 64 bytes from 216.58.195.238: seq=49 ttl=53 time=13.777 ms
ping_7  | 64 bytes from 216.58.195.238: seq=55 ttl=53 time=13.142 ms
ping_10 | 64 bytes from 216.58.195.238: seq=53 ttl=53 time=13.154 ms
ping_6  | 64 bytes from 216.58.195.238: seq=50 ttl=53 time=13.272 ms
ping_5  | 64 bytes from 216.58.195.238: seq=51 ttl=53 time=13.639 ms
ping_9  | 64 bytes from 216.58.195.238: seq=52 ttl=53 time=13.455 ms
ping_8  | 64 bytes from 216.58.195.238: seq=54 ttl=53 time=13.303 ms
ping_3  | 64 bytes from 216.58.195.238: seq=53 ttl=53 time=13.530 ms
ping_1  | 64 bytes from 216.58.195.238: seq=56 ttl=53 time=13.485 ms
ping_2  | 64 bytes from 216.58.195.238: seq=55 ttl=53 time=13.685 ms
ping_4  | 64 bytes from 216.58.195.238: seq=50 ttl=53 time=13.585 ms
ping_7  | 64 bytes from 216.58.195.238: seq=56 ttl=53 time=13.266 ms
ping_10 | 64 bytes from 216.58.195.238: seq=54 ttl=53 time=13.182 ms
ping_6  | 64 bytes from 216.58.195.238: seq=51 ttl=53 time=13.190 ms
ping_5  | 64 bytes from 216.58.195.238: seq=52 ttl=53 time=13.501 ms
ping_9  | 64 bytes from 216.58.195.238: seq=53 ttl=53 time=13.693 ms
ping_8  | 64 bytes from 216.58.195.238: seq=55 ttl=53 time=13.440 ms
ping_3  | 64 bytes from 216.58.195.238: seq=54 ttl=53 time=13.456 ms
ping_1  | 64 bytes from 216.58.195.238: seq=57 ttl=53 time=13.505 ms
ping_2  | 64 bytes from 216.58.195.238: seq=56 ttl=53 time=13.523 ms
ping_4  | 64 bytes from 216.58.195.238: seq=51 ttl=53 time=13.751 ms
ping_7  | 64 bytes from 216.58.195.238: seq=57 ttl=53 time=13.466 ms
ping_10 | 64 bytes from 216.58.195.238: seq=55 ttl=53 time=13.949 ms
ping_6  | 64 bytes from 216.58.195.238: seq=52 ttl=53 time=13.139 ms
ping_5  | 64 bytes from 216.58.195.238: seq=53 ttl=53 time=13.617 ms
ping_9  | 64 bytes from 216.58.195.238: seq=54 ttl=53 time=13.726 ms
ping_8  | 64 bytes from 216.58.195.238: seq=56 ttl=53 time=13.295 ms
ping_3  | 64 bytes from 216.58.195.238: seq=55 ttl=53 time=13.178 ms
ping_1  | 64 bytes from 216.58.195.238: seq=58 ttl=53 time=13.500 ms
ping_2  | 64 bytes from 216.58.195.238: seq=57 ttl=53 time=13.267 ms
ping_4  | 64 bytes from 216.58.195.238: seq=52 ttl=53 time=13.500 ms
ping_7  | 64 bytes from 216.58.195.238: seq=58 ttl=53 time=13.767 ms
ping_10 | 64 bytes from 216.58.195.238: seq=56 ttl=53 time=13.466 ms
ping_6  | 64 bytes from 216.58.195.238: seq=53 ttl=53 time=13.134 ms
ping_5  | 64 bytes from 216.58.195.238: seq=54 ttl=53 time=14.275 ms
ping_9  | 64 bytes from 216.58.195.238: seq=55 ttl=53 time=13.154 ms
ping_8  | 64 bytes from 216.58.195.238: seq=57 ttl=53 time=13.161 ms
ping_3  | 64 bytes from 216.58.195.238: seq=56 ttl=53 time=13.382 ms
ping_1  | 64 bytes from 216.58.195.238: seq=59 ttl=53 time=13.577 ms
ping_2  | 64 bytes from 216.58.195.238: seq=58 ttl=53 time=13.185 ms
ping_4  | 64 bytes from 216.58.195.238: seq=53 ttl=53 time=13.187 ms
ping_7  | 64 bytes from 216.58.195.238: seq=59 ttl=53 time=13.138 ms
ping_10 | 64 bytes from 216.58.195.238: seq=57 ttl=53 time=13.092 ms
ping_6  | 64 bytes from 216.58.195.238: seq=54 ttl=53 time=13.377 ms
ping_5  | 64 bytes from 216.58.195.238: seq=55 ttl=53 time=13.673 ms
ping_9  | 64 bytes from 216.58.195.238: seq=56 ttl=53 time=13.641 ms
ping_8  | 64 bytes from 216.58.195.238: seq=58 ttl=53 time=13.221 ms
ping_3  | 64 bytes from 216.58.195.238: seq=57 ttl=53 time=13.532 ms
ping_1  | 64 bytes from 216.58.195.238: seq=60 ttl=53 time=13.561 ms
ping_2  | 64 bytes from 216.58.195.238: seq=59 ttl=53 time=13.465 ms
ping_4  | 64 bytes from 216.58.195.238: seq=54 ttl=53 time=13.706 ms
ping_7  | 64 bytes from 216.58.195.238: seq=60 ttl=53 time=13.429 ms
ping_10 | 64 bytes from 216.58.195.238: seq=58 ttl=53 time=13.125 ms
ping_6  | 64 bytes from 216.58.195.238: seq=55 ttl=53 time=13.062 ms
ping_5  | 64 bytes from 216.58.195.238: seq=56 ttl=53 time=13.706 ms
ping_9  | 64 bytes from 216.58.195.238: seq=57 ttl=53 time=13.482 ms
ping_8  | 64 bytes from 216.58.195.238: seq=59 ttl=53 time=13.203 ms
ping_3  | 64 bytes from 216.58.195.238: seq=58 ttl=53 time=13.146 ms
ping_1  | 64 bytes from 216.58.195.238: seq=61 ttl=53 time=13.630 ms
ping_2  | 64 bytes from 216.58.195.238: seq=60 ttl=53 time=13.522 ms
ping_4  | 64 bytes from 216.58.195.238: seq=55 ttl=53 time=13.779 ms
ping_7  | 64 bytes from 216.58.195.238: seq=61 ttl=53 time=13.784 ms
ping_10 | 64 bytes from 216.58.195.238: seq=59 ttl=53 time=13.648 ms
ping_6  | 64 bytes from 216.58.195.238: seq=56 ttl=53 time=13.233 ms
ping_5  | 64 bytes from 216.58.195.238: seq=57 ttl=53 time=13.661 ms
ping_9  | 64 bytes from 216.58.195.238: seq=58 ttl=53 time=13.601 ms
ping_8  | 64 bytes from 216.58.195.238: seq=60 ttl=53 time=13.461 ms
ping_3  | 64 bytes from 216.58.195.238: seq=59 ttl=53 time=14.061 ms
ping_1  | 64 bytes from 216.58.195.238: seq=62 ttl=53 time=13.533 ms
ping_2  | 64 bytes from 216.58.195.238: seq=61 ttl=53 time=13.466 ms
ping_4  | 64 bytes from 216.58.195.238: seq=56 ttl=53 time=13.620 ms
ping_7  | 64 bytes from 216.58.195.238: seq=62 ttl=53 time=13.669 ms
ping_10 | 64 bytes from 216.58.195.238: seq=60 ttl=53 time=13.526 ms
ping_6  | 64 bytes from 216.58.195.238: seq=57 ttl=53 time=13.555 ms
ping_5  | 64 bytes from 216.58.195.238: seq=58 ttl=53 time=13.382 ms
ping_9  | 64 bytes from 216.58.195.238: seq=59 ttl=53 time=13.477 ms
ping_8  | 64 bytes from 216.58.195.238: seq=61 ttl=53 time=13.477 ms
ping_3  | 64 bytes from 216.58.195.238: seq=60 ttl=53 time=13.260 ms
ping_1  | 64 bytes from 216.58.195.238: seq=63 ttl=53 time=13.229 ms
ping_2  | 64 bytes from 216.58.195.238: seq=62 ttl=53 time=15.981 ms
ping_4  | 64 bytes from 216.58.195.238: seq=57 ttl=53 time=13.737 ms
ping_7  | 64 bytes from 216.58.195.238: seq=63 ttl=53 time=13.707 ms
ping_10 | 64 bytes from 216.58.195.238: seq=61 ttl=53 time=13.806 ms
ping_6  | 64 bytes from 216.58.195.238: seq=58 ttl=53 time=13.082 ms
ping_5  | 64 bytes from 216.58.195.238: seq=59 ttl=53 time=13.428 ms
ping_9  | 64 bytes from 216.58.195.238: seq=60 ttl=53 time=13.637 ms
ping_8  | 64 bytes from 216.58.195.238: seq=62 ttl=53 time=13.439 ms
ping_3  | 64 bytes from 216.58.195.238: seq=61 ttl=53 time=13.329 ms
ping_1  | 64 bytes from 216.58.195.238: seq=64 ttl=53 time=13.591 ms
ping_2  | 64 bytes from 216.58.195.238: seq=63 ttl=53 time=13.588 ms
ping_4  | 64 bytes from 216.58.195.238: seq=58 ttl=53 time=13.758 ms
ping_7  | 64 bytes from 216.58.195.238: seq=64 ttl=53 time=13.277 ms
ping_10 | 64 bytes from 216.58.195.238: seq=62 ttl=53 time=13.956 ms
ping_6  | 64 bytes from 216.58.195.238: seq=59 ttl=53 time=13.266 ms
ping_5  | 64 bytes from 216.58.195.238: seq=60 ttl=53 time=13.127 ms
ping_9  | 64 bytes from 216.58.195.238: seq=61 ttl=53 time=13.728 ms
ping_8  | 64 bytes from 216.58.195.238: seq=63 ttl=53 time=13.295 ms
ping_3  | 64 bytes from 216.58.195.238: seq=62 ttl=53 time=13.261 ms
ping_1  | 64 bytes from 216.58.195.238: seq=65 ttl=53 time=13.657 ms
ping_2  | 64 bytes from 216.58.195.238: seq=64 ttl=53 time=13.276 ms
ping_4  | 64 bytes from 216.58.195.238: seq=59 ttl=53 time=13.804 ms
ping_7  | 64 bytes from 216.58.195.238: seq=65 ttl=53 time=13.803 ms
ping_10 | 64 bytes from 216.58.195.238: seq=63 ttl=53 time=13.583 ms
ping_6  | 64 bytes from 216.58.195.238: seq=60 ttl=53 time=13.320 ms
ping_5  | 64 bytes from 216.58.195.238: seq=61 ttl=53 time=13.428 ms
ping_9  | 64 bytes from 216.58.195.238: seq=62 ttl=53 time=13.681 ms
ping_8  | 64 bytes from 216.58.195.238: seq=64 ttl=53 time=13.493 ms
ping_3  | 64 bytes from 216.58.195.238: seq=63 ttl=53 time=13.587 ms
ping_1  | 64 bytes from 216.58.195.238: seq=66 ttl=53 time=13.380 ms
ping_2  | 64 bytes from 216.58.195.238: seq=65 ttl=53 time=13.550 ms
ping_4  | 64 bytes from 216.58.195.238: seq=60 ttl=53 time=13.585 ms
ping_7  | 64 bytes from 216.58.195.238: seq=66 ttl=53 time=13.686 ms
ping_10 | 64 bytes from 216.58.195.238: seq=64 ttl=53 time=13.320 ms
ping_6  | 64 bytes from 216.58.195.238: seq=61 ttl=53 time=13.319 ms
ping_5  | 64 bytes from 216.58.195.238: seq=62 ttl=53 time=13.790 ms
ping_9  | 64 bytes from 216.58.195.238: seq=63 ttl=53 time=13.628 ms
ping_8  | 64 bytes from 216.58.195.238: seq=65 ttl=53 time=13.509 ms
ping_3  | 64 bytes from 216.58.195.238: seq=64 ttl=53 time=13.561 ms
ping_1  | 64 bytes from 216.58.195.238: seq=67 ttl=53 time=13.600 ms
ping_2  | 64 bytes from 216.58.195.238: seq=66 ttl=53 time=13.770 ms
ping_4  | 64 bytes from 216.58.195.238: seq=61 ttl=53 time=13.538 ms
ping_7  | 64 bytes from 216.58.195.238: seq=67 ttl=53 time=13.777 ms
ping_10 | 64 bytes from 216.58.195.238: seq=65 ttl=53 time=13.649 ms
ping_6  | 64 bytes from 216.58.195.238: seq=62 ttl=53 time=13.497 ms
ping_5  | 64 bytes from 216.58.195.238: seq=63 ttl=53 time=14.194 ms
ping_9  | 64 bytes from 216.58.195.238: seq=64 ttl=53 time=13.540 ms
ping_8  | 64 bytes from 216.58.195.238: seq=66 ttl=53 time=13.367 ms
ping_3  | 64 bytes from 216.58.195.238: seq=65 ttl=53 time=13.540 ms
ping_1  | 64 bytes from 216.58.195.238: seq=68 ttl=53 time=13.475 ms
ping_2  | 64 bytes from 216.58.195.238: seq=67 ttl=53 time=13.703 ms
ping_4  | 64 bytes from 216.58.195.238: seq=62 ttl=53 time=13.536 ms
ping_7  | 64 bytes from 216.58.195.238: seq=68 ttl=53 time=17.331 ms
ping_10 | 64 bytes from 216.58.195.238: seq=66 ttl=53 time=13.561 ms
ping_6  | 64 bytes from 216.58.195.238: seq=63 ttl=53 time=13.547 ms
ping_5  | 64 bytes from 216.58.195.238: seq=64 ttl=53 time=13.629 ms
ping_9  | 64 bytes from 216.58.195.238: seq=65 ttl=53 time=13.493 ms
ping_8  | 64 bytes from 216.58.195.238: seq=67 ttl=53 time=13.499 ms
ping_3  | 64 bytes from 216.58.195.238: seq=66 ttl=53 time=13.439 ms
ping_1  | 64 bytes from 216.58.195.238: seq=69 ttl=53 time=13.591 ms
ping_2  | 64 bytes from 216.58.195.238: seq=68 ttl=53 time=14.137 ms
ping_4  | 64 bytes from 216.58.195.238: seq=63 ttl=53 time=13.575 ms
ping_7  | 64 bytes from 216.58.195.238: seq=69 ttl=53 time=13.278 ms
ping_10 | 64 bytes from 216.58.195.238: seq=67 ttl=53 time=13.192 ms
ping_6  | 64 bytes from 216.58.195.238: seq=64 ttl=53 time=13.203 ms
ping_5  | 64 bytes from 216.58.195.238: seq=65 ttl=53 time=13.170 ms
ping_9  | 64 bytes from 216.58.195.238: seq=66 ttl=53 time=13.769 ms
ping_8  | 64 bytes from 216.58.195.238: seq=68 ttl=53 time=13.400 ms
ping_3  | 64 bytes from 216.58.195.238: seq=67 ttl=53 time=13.297 ms
ping_1  | 64 bytes from 216.58.195.238: seq=70 ttl=53 time=13.451 ms
ping_2  | 64 bytes from 216.58.195.238: seq=69 ttl=53 time=13.586 ms
ping_4  | 64 bytes from 216.58.195.238: seq=64 ttl=53 time=13.515 ms
ping_7  | 64 bytes from 216.58.195.238: seq=70 ttl=53 time=13.190 ms
ping_10 | 64 bytes from 216.58.195.238: seq=68 ttl=53 time=13.561 ms
ping_6  | 64 bytes from 216.58.195.238: seq=65 ttl=53 time=13.472 ms
ping_5  | 64 bytes from 216.58.195.238: seq=66 ttl=53 time=13.604 ms
ping_9  | 64 bytes from 216.58.195.238: seq=67 ttl=53 time=13.696 ms
ping_8  | 64 bytes from 216.58.195.238: seq=69 ttl=53 time=13.559 ms
ping_3  | 64 bytes from 216.58.195.238: seq=68 ttl=53 time=13.486 ms
ping_1  | 64 bytes from 216.58.195.238: seq=71 ttl=53 time=13.693 ms
ping_2  | 64 bytes from 216.58.195.238: seq=70 ttl=53 time=13.085 ms
ping_4  | 64 bytes from 216.58.195.238: seq=65 ttl=53 time=13.095 ms
ping_7  | 64 bytes from 216.58.195.238: seq=71 ttl=53 time=13.095 ms
ping_10 | 64 bytes from 216.58.195.238: seq=69 ttl=53 time=13.476 ms
ping_6  | 64 bytes from 216.58.195.238: seq=66 ttl=53 time=13.443 ms
ping_5  | 64 bytes from 216.58.195.238: seq=67 ttl=53 time=17.327 ms
ping_9  | 64 bytes from 216.58.195.238: seq=68 ttl=53 time=13.784 ms
ping_8  | 64 bytes from 216.58.195.238: seq=70 ttl=53 time=13.560 ms
ping_3  | 64 bytes from 216.58.195.238: seq=69 ttl=53 time=13.324 ms
ping_1  | 64 bytes from 216.58.195.238: seq=72 ttl=53 time=13.565 ms
ping_2  | 64 bytes from 216.58.195.238: seq=71 ttl=53 time=13.635 ms
ping_4  | 64 bytes from 216.58.195.238: seq=66 ttl=53 time=13.664 ms
ping_7  | 64 bytes from 216.58.195.238: seq=72 ttl=53 time=13.537 ms
ping_10 | 64 bytes from 216.58.195.238: seq=70 ttl=53 time=13.731 ms
ping_6  | 64 bytes from 216.58.195.238: seq=67 ttl=53 time=13.234 ms
ping_5  | 64 bytes from 216.58.195.238: seq=68 ttl=53 time=13.472 ms
ping_9  | 64 bytes from 216.58.195.238: seq=69 ttl=53 time=13.815 ms
ping_8  | 64 bytes from 216.58.195.238: seq=71 ttl=53 time=13.497 ms
ping_3  | 64 bytes from 216.58.195.238: seq=70 ttl=53 time=13.546 ms
ping_1  | 64 bytes from 216.58.195.238: seq=73 ttl=53 time=13.773 ms
ping_2  | 64 bytes from 216.58.195.238: seq=72 ttl=53 time=13.699 ms
ping_4  | 64 bytes from 216.58.195.238: seq=67 ttl=53 time=13.247 ms
ping_7  | 64 bytes from 216.58.195.238: seq=73 ttl=53 time=13.405 ms
ping_10 | 64 bytes from 216.58.195.238: seq=71 ttl=53 time=13.818 ms
ping_6  | 64 bytes from 216.58.195.238: seq=68 ttl=53 time=13.293 ms
ping_5  | 64 bytes from 216.58.195.238: seq=69 ttl=53 time=13.249 ms
ping_9  | 64 bytes from 216.58.195.238: seq=70 ttl=53 time=13.702 ms
ping_8  | 64 bytes from 216.58.195.238: seq=72 ttl=53 time=13.562 ms
ping_3  | 64 bytes from 216.58.195.238: seq=71 ttl=53 time=13.774 ms
ping_1  | 64 bytes from 216.58.195.238: seq=74 ttl=53 time=13.638 ms
ping_2  | 64 bytes from 216.58.195.238: seq=73 ttl=53 time=13.306 ms
ping_4  | 64 bytes from 216.58.195.238: seq=68 ttl=53 time=13.683 ms
ping_7  | 64 bytes from 216.58.195.238: seq=74 ttl=53 time=13.768 ms
ping_10 | 64 bytes from 216.58.195.238: seq=72 ttl=53 time=13.791 ms
ping_6  | 64 bytes from 216.58.195.238: seq=69 ttl=53 time=13.273 ms
ping_5  | 64 bytes from 216.58.195.238: seq=70 ttl=53 time=13.871 ms
ping_9  | 64 bytes from 216.58.195.238: seq=71 ttl=53 time=13.540 ms
ping_8  | 64 bytes from 216.58.195.238: seq=73 ttl=53 time=13.421 ms
ping_3  | 64 bytes from 216.58.195.238: seq=72 ttl=53 time=13.727 ms
ping_1  | 64 bytes from 216.58.195.238: seq=75 ttl=53 time=13.469 ms
ping_2  | 64 bytes from 216.58.195.238: seq=74 ttl=53 time=13.193 ms
ping_4  | 64 bytes from 216.58.195.238: seq=69 ttl=53 time=13.751 ms
ping_7  | 64 bytes from 216.58.195.238: seq=75 ttl=53 time=13.245 ms
ping_10 | 64 bytes from 216.58.195.238: seq=73 ttl=53 time=13.677 ms
ping_6  | 64 bytes from 216.58.195.238: seq=70 ttl=53 time=13.206 ms
ping_5  | 64 bytes from 216.58.195.238: seq=71 ttl=53 time=13.284 ms
ping_9  | 64 bytes from 216.58.195.238: seq=72 ttl=53 time=13.705 ms
ping_8  | 64 bytes from 216.58.195.238: seq=74 ttl=53 time=13.483 ms
ping_3  | 64 bytes from 216.58.195.238: seq=73 ttl=53 time=13.229 ms
ping_1  | 64 bytes from 216.58.195.238: seq=76 ttl=53 time=13.591 ms
ping_2  | 64 bytes from 216.58.195.238: seq=75 ttl=53 time=13.302 ms
ping_4  | 64 bytes from 216.58.195.238: seq=70 ttl=53 time=13.496 ms
ping_7  | 64 bytes from 216.58.195.238: seq=76 ttl=53 time=13.125 ms
ping_10 | 64 bytes from 216.58.195.238: seq=74 ttl=53 time=13.738 ms
ping_6  | 64 bytes from 216.58.195.238: seq=71 ttl=53 time=13.206 ms
ping_5  | 64 bytes from 216.58.195.238: seq=72 ttl=53 time=13.518 ms
ping_9  | 64 bytes from 216.58.195.238: seq=73 ttl=53 time=13.780 ms
ping_8  | 64 bytes from 216.58.195.238: seq=75 ttl=53 time=13.415 ms
ping_3  | 64 bytes from 216.58.195.238: seq=74 ttl=53 time=13.215 ms
ping_1  | 64 bytes from 216.58.195.238: seq=77 ttl=53 time=13.289 ms
ping_2  | 64 bytes from 216.58.195.238: seq=76 ttl=53 time=13.409 ms
ping_4  | 64 bytes from 216.58.195.238: seq=71 ttl=53 time=13.602 ms
ping_7  | 64 bytes from 216.58.195.238: seq=77 ttl=53 time=13.809 ms
ping_10 | 64 bytes from 216.58.195.238: seq=75 ttl=53 time=13.281 ms
ping_6  | 64 bytes from 216.58.195.238: seq=72 ttl=53 time=13.424 ms
ping_5  | 64 bytes from 216.58.195.238: seq=73 ttl=53 time=16.551 ms
ping_9  | 64 bytes from 216.58.195.238: seq=74 ttl=53 time=13.446 ms
ping_8  | 64 bytes from 216.58.195.238: seq=76 ttl=53 time=13.440 ms
ping_3  | 64 bytes from 216.58.195.238: seq=75 ttl=53 time=13.274 ms
ping_1  | 64 bytes from 216.58.195.238: seq=78 ttl=53 time=13.466 ms
ping_2  | 64 bytes from 216.58.195.238: seq=77 ttl=53 time=13.775 ms
ping_4  | 64 bytes from 216.58.195.238: seq=72 ttl=53 time=13.712 ms
ping_7  | 64 bytes from 216.58.195.238: seq=78 ttl=53 time=13.196 ms
ping_10 | 64 bytes from 216.58.195.238: seq=76 ttl=53 time=13.667 ms
ping_6  | 64 bytes from 216.58.195.238: seq=73 ttl=53 time=13.238 ms
ping_5  | 64 bytes from 216.58.195.238: seq=74 ttl=53 time=13.259 ms
ping_9  | 64 bytes from 216.58.195.238: seq=75 ttl=53 time=13.614 ms
ping_8  | 64 bytes from 216.58.195.238: seq=77 ttl=53 time=13.513 ms
ping_3  | 64 bytes from 216.58.195.238: seq=76 ttl=53 time=13.253 ms
ping_1  | 64 bytes from 216.58.195.238: seq=79 ttl=53 time=13.594 ms
ping_2  | 64 bytes from 216.58.195.238: seq=78 ttl=53 time=13.586 ms
ping_4  | 64 bytes from 216.58.195.238: seq=73 ttl=53 time=13.788 ms
ping_7  | 64 bytes from 216.58.195.238: seq=79 ttl=53 time=13.208 ms
ping_10 | 64 bytes from 216.58.195.238: seq=77 ttl=53 time=13.155 ms
ping_6  | 64 bytes from 216.58.195.238: seq=74 ttl=53 time=19.556 ms
ping_5  | 64 bytes from 216.58.195.238: seq=75 ttl=53 time=16.898 ms
ping_9  | 64 bytes from 216.58.195.238: seq=76 ttl=53 time=13.625 ms
ping_8  | 64 bytes from 216.58.195.238: seq=78 ttl=53 time=13.495 ms
ping_3  | 64 bytes from 216.58.195.238: seq=77 ttl=53 time=13.279 ms
ping_1  | 64 bytes from 216.58.195.238: seq=80 ttl=53 time=13.631 ms
ping_2  | 64 bytes from 216.58.195.238: seq=79 ttl=53 time=13.755 ms
ping_4  | 64 bytes from 216.58.195.238: seq=74 ttl=53 time=13.240 ms
ping_7  | 64 bytes from 216.58.195.238: seq=80 ttl=53 time=13.147 ms
ping_10 | 64 bytes from 216.58.195.238: seq=78 ttl=53 time=13.572 ms
ping_6  | 64 bytes from 216.58.195.238: seq=75 ttl=53 time=13.254 ms
ping_5  | 64 bytes from 216.58.195.238: seq=76 ttl=53 time=13.241 ms
ping_9  | 64 bytes from 216.58.195.238: seq=77 ttl=53 time=13.661 ms
ping_8  | 64 bytes from 216.58.195.238: seq=79 ttl=53 time=13.583 ms
ping_3  | 64 bytes from 216.58.195.238: seq=78 ttl=53 time=13.356 ms
ping_1  | 64 bytes from 216.58.195.238: seq=81 ttl=53 time=13.412 ms
ping_2  | 64 bytes from 216.58.195.238: seq=80 ttl=53 time=13.627 ms
ping_4  | 64 bytes from 216.58.195.238: seq=75 ttl=53 time=13.256 ms
ping_7  | 64 bytes from 216.58.195.238: seq=81 ttl=53 time=13.173 ms
ping_10 | 64 bytes from 216.58.195.238: seq=79 ttl=53 time=14.064 ms
ping_6  | 64 bytes from 216.58.195.238: seq=76 ttl=53 time=13.437 ms
ping_5  | 64 bytes from 216.58.195.238: seq=77 ttl=53 time=13.749 ms
ping_9  | 64 bytes from 216.58.195.238: seq=78 ttl=53 time=13.265 ms
ping_8  | 64 bytes from 216.58.195.238: seq=80 ttl=53 time=13.533 ms
ping_3  | 64 bytes from 216.58.195.238: seq=79 ttl=53 time=13.453 ms
ping_1  | 64 bytes from 216.58.195.238: seq=82 ttl=53 time=13.521 ms
ping_2  | 64 bytes from 216.58.195.238: seq=81 ttl=53 time=13.250 ms
ping_4  | 64 bytes from 216.58.195.238: seq=76 ttl=53 time=13.186 ms
ping_7  | 64 bytes from 216.58.195.238: seq=82 ttl=53 time=13.471 ms
ping_10 | 64 bytes from 216.58.195.238: seq=80 ttl=53 time=13.681 ms
ping_6  | 64 bytes from 216.58.195.238: seq=77 ttl=53 time=13.462 ms
ping_5  | 64 bytes from 216.58.195.238: seq=78 ttl=53 time=13.676 ms
ping_9  | 64 bytes from 216.58.195.238: seq=79 ttl=53 time=13.326 ms
ping_8  | 64 bytes from 216.58.195.238: seq=81 ttl=53 time=13.546 ms
ping_3  | 64 bytes from 216.58.195.238: seq=80 ttl=53 time=13.274 ms
ping_1  | 64 bytes from 216.58.195.238: seq=83 ttl=53 time=13.689 ms
ping_2  | 64 bytes from 216.58.195.238: seq=82 ttl=53 time=13.647 ms
ping_4  | 64 bytes from 216.58.195.238: seq=77 ttl=53 time=13.541 ms
ping_7  | 64 bytes from 216.58.195.238: seq=83 ttl=53 time=13.447 ms
ping_10 | 64 bytes from 216.58.195.238: seq=81 ttl=53 time=13.745 ms
ping_6  | 64 bytes from 216.58.195.238: seq=78 ttl=53 time=13.517 ms
ping_5  | 64 bytes from 216.58.195.238: seq=79 ttl=53 time=20.166 ms
ping_9  | 64 bytes from 216.58.195.238: seq=80 ttl=53 time=13.738 ms
ping_8  | 64 bytes from 216.58.195.238: seq=82 ttl=53 time=13.576 ms
ping_3  | 64 bytes from 216.58.195.238: seq=81 ttl=53 time=13.262 ms
ping_1  | 64 bytes from 216.58.195.238: seq=84 ttl=53 time=13.191 ms
ping_2  | 64 bytes from 216.58.195.238: seq=83 ttl=53 time=13.053 ms
ping_4  | 64 bytes from 216.58.195.238: seq=78 ttl=53 time=13.410 ms
ping_7  | 64 bytes from 216.58.195.238: seq=84 ttl=53 time=13.698 ms
ping_10 | 64 bytes from 216.58.195.238: seq=82 ttl=53 time=13.788 ms
ping_6  | 64 bytes from 216.58.195.238: seq=79 ttl=53 time=13.213 ms
ping_5  | 64 bytes from 216.58.195.238: seq=80 ttl=53 time=13.173 ms
ping_9  | 64 bytes from 216.58.195.238: seq=81 ttl=53 time=13.239 ms
ping_8  | 64 bytes from 216.58.195.238: seq=83 ttl=53 time=13.169 ms
ping_3  | 64 bytes from 216.58.195.238: seq=82 ttl=53 time=13.119 ms
ping_1  | 64 bytes from 216.58.195.238: seq=85 ttl=53 time=13.521 ms
ping_2  | 64 bytes from 216.58.195.238: seq=84 ttl=53 time=13.647 ms
ping_4  | 64 bytes from 216.58.195.238: seq=79 ttl=53 time=13.246 ms
ping_7  | 64 bytes from 216.58.195.238: seq=85 ttl=53 time=13.501 ms
ping_10 | 64 bytes from 216.58.195.238: seq=83 ttl=53 time=13.608 ms
ping_6  | 64 bytes from 216.58.195.238: seq=80 ttl=53 time=15.788 ms
ping_5  | 64 bytes from 216.58.195.238: seq=81 ttl=53 time=13.546 ms
ping_9  | 64 bytes from 216.58.195.238: seq=82 ttl=53 time=13.333 ms
ping_8  | 64 bytes from 216.58.195.238: seq=84 ttl=53 time=13.596 ms
ping_3  | 64 bytes from 216.58.195.238: seq=83 ttl=53 time=13.256 ms
ping_1  | 64 bytes from 216.58.195.238: seq=86 ttl=53 time=13.628 ms
ping_2  | 64 bytes from 216.58.195.238: seq=85 ttl=53 time=13.432 ms
ping_4  | 64 bytes from 216.58.195.238: seq=80 ttl=53 time=13.548 ms
ping_7  | 64 bytes from 216.58.195.238: seq=86 ttl=53 time=13.234 ms
ping_10 | 64 bytes from 216.58.195.238: seq=84 ttl=53 time=13.181 ms
ping_6  | 64 bytes from 216.58.195.238: seq=81 ttl=53 time=13.321 ms
ping_5  | 64 bytes from 216.58.195.238: seq=82 ttl=53 time=13.242 ms
ping_9  | 64 bytes from 216.58.195.238: seq=83 ttl=53 time=13.617 ms
ping_8  | 64 bytes from 216.58.195.238: seq=85 ttl=53 time=13.560 ms
ping_3  | 64 bytes from 216.58.195.238: seq=84 ttl=53 time=13.392 ms
ping_1  | 64 bytes from 216.58.195.238: seq=87 ttl=53 time=13.558 ms
ping_2  | 64 bytes from 216.58.195.238: seq=86 ttl=53 time=13.660 ms
ping_4  | 64 bytes from 216.58.195.238: seq=81 ttl=53 time=13.150 ms
ping_7  | 64 bytes from 216.58.195.238: seq=87 ttl=53 time=13.687 ms
ping_10 | 64 bytes from 216.58.195.238: seq=85 ttl=53 time=13.567 ms
ping_6  | 64 bytes from 216.58.195.238: seq=82 ttl=53 time=13.950 ms
ping_5  | 64 bytes from 216.58.195.238: seq=83 ttl=53 time=13.804 ms
ping_9  | 64 bytes from 216.58.195.238: seq=84 ttl=53 time=13.238 ms
ping_8  | 64 bytes from 216.58.195.238: seq=86 ttl=53 time=13.483 ms
ping_3  | 64 bytes from 216.58.195.238: seq=85 ttl=53 time=13.282 ms
ping_1  | 64 bytes from 216.58.195.238: seq=88 ttl=53 time=13.236 ms
ping_2  | 64 bytes from 216.58.195.238: seq=87 ttl=53 time=13.797 ms
ping_4  | 64 bytes from 216.58.195.238: seq=82 ttl=53 time=13.659 ms
ping_7  | 64 bytes from 216.58.195.238: seq=88 ttl=53 time=13.509 ms
ping_10 | 64 bytes from 216.58.195.238: seq=86 ttl=53 time=13.592 ms
ping_6  | 64 bytes from 216.58.195.238: seq=83 ttl=53 time=13.179 ms
ping_5  | 64 bytes from 216.58.195.238: seq=84 ttl=53 time=13.506 ms
ping_9  | 64 bytes from 216.58.195.238: seq=85 ttl=53 time=13.332 ms
ping_8  | 64 bytes from 216.58.195.238: seq=87 ttl=53 time=13.196 ms
ping_3  | 64 bytes from 216.58.195.238: seq=86 ttl=53 time=13.426 ms
ping_1  | 64 bytes from 216.58.195.238: seq=89 ttl=53 time=13.241 ms
ping_2  | 64 bytes from 216.58.195.238: seq=88 ttl=53 time=13.104 ms
ping_4  | 64 bytes from 216.58.195.238: seq=83 ttl=53 time=13.045 ms
ping_7  | 64 bytes from 216.58.195.238: seq=89 ttl=53 time=13.160 ms
ping_10 | 64 bytes from 216.58.195.238: seq=87 ttl=53 time=13.151 ms
ping_6  | 64 bytes from 216.58.195.238: seq=84 ttl=53 time=13.135 ms
ping_5  | 64 bytes from 216.58.195.238: seq=85 ttl=53 time=13.150 ms
ping_9  | 64 bytes from 216.58.195.238: seq=86 ttl=53 time=13.434 ms
ping_8  | 64 bytes from 216.58.195.238: seq=88 ttl=53 time=13.562 ms
ping_3  | 64 bytes from 216.58.195.238: seq=87 ttl=53 time=13.308 ms
ping_1  | 64 bytes from 216.58.195.238: seq=90 ttl=53 time=13.663 ms
ping_2  | 64 bytes from 216.58.195.238: seq=89 ttl=53 time=13.534 ms
ping_4  | 64 bytes from 216.58.195.238: seq=84 ttl=53 time=13.711 ms
ping_7  | 64 bytes from 216.58.195.238: seq=90 ttl=53 time=13.412 ms
ping_10 | 64 bytes from 216.58.195.238: seq=88 ttl=53 time=13.726 ms
ping_6  | 64 bytes from 216.58.195.238: seq=85 ttl=53 time=20.365 ms
ping_5  | 64 bytes from 216.58.195.238: seq=86 ttl=53 time=13.626 ms
ping_9  | 64 bytes from 216.58.195.238: seq=87 ttl=53 time=13.659 ms
ping_8  | 64 bytes from 216.58.195.238: seq=89 ttl=53 time=13.676 ms
ping_3  | 64 bytes from 216.58.195.238: seq=88 ttl=53 time=13.265 ms
ping_1  | 64 bytes from 216.58.195.238: seq=91 ttl=53 time=13.228 ms
ping_2  | 64 bytes from 216.58.195.238: seq=90 ttl=53 time=13.775 ms
ping_4  | 64 bytes from 216.58.195.238: seq=85 ttl=53 time=13.753 ms
ping_7  | 64 bytes from 216.58.195.238: seq=91 ttl=53 time=13.799 ms
ping_10 | 64 bytes from 216.58.195.238: seq=89 ttl=53 time=13.702 ms
ping_6  | 64 bytes from 216.58.195.238: seq=86 ttl=53 time=13.436 ms
ping_5  | 64 bytes from 216.58.195.238: seq=87 ttl=53 time=13.711 ms
ping_9  | 64 bytes from 216.58.195.238: seq=88 ttl=53 time=13.773 ms
ping_8  | 64 bytes from 216.58.195.238: seq=90 ttl=53 time=13.328 ms
ping_3  | 64 bytes from 216.58.195.238: seq=89 ttl=53 time=13.415 ms
ping_1  | 64 bytes from 216.58.195.238: seq=92 ttl=53 time=13.767 ms
ping_2  | 64 bytes from 216.58.195.238: seq=91 ttl=53 time=13.566 ms
ping_4  | 64 bytes from 216.58.195.238: seq=86 ttl=53 time=13.531 ms
ping_7  | 64 bytes from 216.58.195.238: seq=92 ttl=53 time=13.800 ms
ping_10 | 64 bytes from 216.58.195.238: seq=90 ttl=53 time=13.637 ms
ping_6  | 64 bytes from 216.58.195.238: seq=87 ttl=53 time=13.386 ms
ping_5  | 64 bytes from 216.58.195.238: seq=88 ttl=53 time=13.588 ms
ping_9  | 64 bytes from 216.58.195.238: seq=89 ttl=53 time=13.446 ms
ping_8  | 64 bytes from 216.58.195.238: seq=91 ttl=53 time=13.623 ms
ping_3  | 64 bytes from 216.58.195.238: seq=90 ttl=53 time=13.455 ms
ping_1  | 64 bytes from 216.58.195.238: seq=93 ttl=53 time=14.494 ms
ping_2  | 64 bytes from 216.58.195.238: seq=92 ttl=53 time=13.369 ms
ping_4  | 64 bytes from 216.58.195.238: seq=87 ttl=53 time=15.645 ms
ping_7  | 64 bytes from 216.58.195.238: seq=93 ttl=53 time=13.204 ms
ping_10 | 64 bytes from 216.58.195.238: seq=91 ttl=53 time=13.173 ms
ping_6  | 64 bytes from 216.58.195.238: seq=88 ttl=53 time=13.164 ms
ping_5  | 64 bytes from 216.58.195.238: seq=89 ttl=53 time=13.197 ms
ping_9  | 64 bytes from 216.58.195.238: seq=90 ttl=53 time=13.843 ms
ping_8  | 64 bytes from 216.58.195.238: seq=92 ttl=53 time=13.267 ms
ping_3  | 64 bytes from 216.58.195.238: seq=91 ttl=53 time=13.266 ms
ping_1  | 64 bytes from 216.58.195.238: seq=94 ttl=53 time=13.756 ms
ping_2  | 64 bytes from 216.58.195.238: seq=93 ttl=53 time=13.234 ms
ping_4  | 64 bytes from 216.58.195.238: seq=88 ttl=53 time=13.769 ms
ping_7  | 64 bytes from 216.58.195.238: seq=94 ttl=53 time=13.582 ms
ping_10 | 64 bytes from 216.58.195.238: seq=92 ttl=53 time=13.820 ms
ping_6  | 64 bytes from 216.58.195.238: seq=89 ttl=53 time=13.271 ms
ping_5  | 64 bytes from 216.58.195.238: seq=90 ttl=53 time=13.842 ms
ping_9  | 64 bytes from 216.58.195.238: seq=91 ttl=53 time=13.711 ms
ping_8  | 64 bytes from 216.58.195.238: seq=93 ttl=53 time=13.593 ms
ping_3  | 64 bytes from 216.58.195.238: seq=92 ttl=53 time=13.263 ms
ping_1  | 64 bytes from 216.58.195.238: seq=95 ttl=53 time=13.285 ms
ping_2  | 64 bytes from 216.58.195.238: seq=94 ttl=53 time=13.772 ms
ping_4  | 64 bytes from 216.58.195.238: seq=89 ttl=53 time=14.129 ms
ping_7  | 64 bytes from 216.58.195.238: seq=95 ttl=53 time=13.321 ms
ping_10 | 64 bytes from 216.58.195.238: seq=93 ttl=53 time=13.579 ms
ping_6  | 64 bytes from 216.58.195.238: seq=90 ttl=53 time=13.252 ms
ping_5  | 64 bytes from 216.58.195.238: seq=91 ttl=53 time=13.735 ms
ping_9  | 64 bytes from 216.58.195.238: seq=92 ttl=53 time=13.756 ms
ping_8  | 64 bytes from 216.58.195.238: seq=94 ttl=53 time=13.461 ms
ping_3  | 64 bytes from 216.58.195.238: seq=93 ttl=53 time=13.270 ms
ping_1  | 64 bytes from 216.58.195.238: seq=96 ttl=53 time=13.598 ms
ping_2  | 64 bytes from 216.58.195.238: seq=95 ttl=53 time=13.184 ms
ping_4  | 64 bytes from 216.58.195.238: seq=90 ttl=53 time=13.186 ms
ping_7  | 64 bytes from 216.58.195.238: seq=96 ttl=53 time=13.706 ms
ping_10 | 64 bytes from 216.58.195.238: seq=94 ttl=53 time=13.370 ms
ping_6  | 64 bytes from 216.58.195.238: seq=91 ttl=53 time=13.240 ms
ping_5  | 64 bytes from 216.58.195.238: seq=92 ttl=53 time=13.782 ms
ping_9  | 64 bytes from 216.58.195.238: seq=93 ttl=53 time=13.623 ms
ping_8  | 64 bytes from 216.58.195.238: seq=95 ttl=53 time=13.361 ms
ping_3  | 64 bytes from 216.58.195.238: seq=94 ttl=53 time=13.316 ms
ping_1  | 64 bytes from 216.58.195.238: seq=97 ttl=53 time=13.561 ms
ping_2  | 64 bytes from 216.58.195.238: seq=96 ttl=53 time=14.218 ms
ping_4  | 64 bytes from 216.58.195.238: seq=91 ttl=53 time=13.905 ms
ping_7  | 64 bytes from 216.58.195.238: seq=97 ttl=53 time=13.713 ms
ping_10 | 64 bytes from 216.58.195.238: seq=95 ttl=53 time=13.156 ms
ping_6  | 64 bytes from 216.58.195.238: seq=92 ttl=53 time=13.344 ms
ping_5  | 64 bytes from 216.58.195.238: seq=93 ttl=53 time=13.554 ms
ping_9  | 64 bytes from 216.58.195.238: seq=94 ttl=53 time=13.764 ms
ping_8  | 64 bytes from 216.58.195.238: seq=96 ttl=53 time=13.443 ms
ping_3  | 64 bytes from 216.58.195.238: seq=95 ttl=53 time=13.248 ms
ping_1  | 64 bytes from 216.58.195.238: seq=98 ttl=53 time=13.831 ms
ping_2  | 64 bytes from 216.58.195.238: seq=97 ttl=53 time=13.720 ms
ping_4  | 64 bytes from 216.58.195.238: seq=92 ttl=53 time=13.780 ms
ping_7  | 64 bytes from 216.58.195.238: seq=98 ttl=53 time=13.658 ms
ping_10 | 64 bytes from 216.58.195.238: seq=96 ttl=53 time=13.641 ms
ping_6  | 64 bytes from 216.58.195.238: seq=93 ttl=53 time=13.383 ms
ping_5  | 64 bytes from 216.58.195.238: seq=94 ttl=53 time=13.686 ms
ping_9  | 64 bytes from 216.58.195.238: seq=95 ttl=53 time=13.566 ms
ping_8  | 64 bytes from 216.58.195.238: seq=97 ttl=53 time=13.520 ms
ping_3  | 64 bytes from 216.58.195.238: seq=96 ttl=53 time=13.169 ms
ping_1  | 64 bytes from 216.58.195.238: seq=99 ttl=53 time=13.488 ms
ping_1  | 
ping_1  | --- 216.58.195.238 ping statistics ---
ping_1  | 100 packets transmitted, 100 packets received, 0% packet loss
ping_1  | round-trip min/avg/max = 13.094/13.517/14.494 ms
ping_2  | 64 bytes from 216.58.195.238: seq=98 ttl=53 time=13.322 ms
ping_4  | 64 bytes from 216.58.195.238: seq=93 ttl=53 time=13.121 ms
ping_7  | 64 bytes from 216.58.195.238: seq=99 ttl=53 time=13.524 ms
ping_7  | 
ping_7  | --- 216.58.195.238 ping statistics ---
ping_7  | 100 packets transmitted, 100 packets received, 0% packet loss
ping_7  | round-trip min/avg/max = 13.049/13.484/17.331 ms
ping_10 | 64 bytes from 216.58.195.238: seq=97 ttl=53 time=13.151 ms
ping_6  | 64 bytes from 216.58.195.238: seq=94 ttl=53 time=13.862 ms
ping_5  | 64 bytes from 216.58.195.238: seq=95 ttl=53 time=13.370 ms
softwareoverhead_ping_1 exited with code 0
softwareoverhead_ping_7 exited with code 0
ping_9  | 64 bytes from 216.58.195.238: seq=96 ttl=53 time=13.545 ms
ping_8  | 64 bytes from 216.58.195.238: seq=98 ttl=53 time=13.350 ms
ping_3  | 64 bytes from 216.58.195.238: seq=97 ttl=53 time=13.820 ms
ping_2  | 64 bytes from 216.58.195.238: seq=99 ttl=53 time=13.279 ms
ping_2  | 
ping_2  | --- 216.58.195.238 ping statistics ---
ping_2  | 100 packets transmitted, 100 packets received, 0% packet loss
ping_2  | round-trip min/avg/max = 13.053/13.508/15.981 ms
ping_4  | 64 bytes from 216.58.195.238: seq=94 ttl=53 time=13.036 ms
ping_10 | 64 bytes from 216.58.195.238: seq=98 ttl=53 time=13.537 ms
ping_6  | 64 bytes from 216.58.195.238: seq=95 ttl=53 time=13.285 ms
ping_5  | 64 bytes from 216.58.195.238: seq=96 ttl=53 time=13.143 ms
softwareoverhead_ping_2 exited with code 0
ping_9  | 64 bytes from 216.58.195.238: seq=97 ttl=53 time=13.295 ms
ping_8  | 64 bytes from 216.58.195.238: seq=99 ttl=53 time=13.586 ms
ping_8  | 
ping_8  | --- 216.58.195.238 ping statistics ---
ping_8  | 100 packets transmitted, 100 packets received, 0% packet loss
ping_8  | round-trip min/avg/max = 13.014/13.402/13.676 ms
ping_3  | 64 bytes from 216.58.195.238: seq=98 ttl=53 time=13.535 ms
ping_4  | 64 bytes from 216.58.195.238: seq=95 ttl=53 time=13.191 ms
ping_10 | 64 bytes from 216.58.195.238: seq=99 ttl=53 time=13.084 ms
ping_10 | 
ping_10 | --- 216.58.195.238 ping statistics ---
ping_10 | 100 packets transmitted, 100 packets received, 0% packet loss
ping_10 | round-trip min/avg/max = 13.038/13.499/14.064 ms
softwareoverhead_ping_8 exited with code 0
ping_6  | 64 bytes from 216.58.195.238: seq=96 ttl=53 time=13.247 ms
ping_5  | 64 bytes from 216.58.195.238: seq=97 ttl=53 time=13.195 ms
softwareoverhead_ping_10 exited with code 0
ping_9  | 64 bytes from 216.58.195.238: seq=98 ttl=53 time=13.581 ms
ping_3  | 64 bytes from 216.58.195.238: seq=99 ttl=53 time=13.204 ms
ping_3  | 
ping_3  | --- 216.58.195.238 ping statistics ---
ping_3  | 100 packets transmitted, 100 packets received, 0% packet loss
ping_3  | round-trip min/avg/max = 13.077/13.390/14.061 ms
ping_4  | 64 bytes from 216.58.195.238: seq=96 ttl=53 time=13.148 ms
ping_6  | 64 bytes from 216.58.195.238: seq=97 ttl=53 time=13.446 ms
softwareoverhead_ping_3 exited with code 0
ping_5  | 64 bytes from 216.58.195.238: seq=98 ttl=53 time=13.173 ms
ping_9  | 64 bytes from 216.58.195.238: seq=99 ttl=53 time=13.162 ms
ping_9  | 
ping_9  | --- 216.58.195.238 ping statistics ---
ping_9  | 100 packets transmitted, 100 packets received, 0% packet loss
ping_9  | round-trip min/avg/max = 13.048/13.579/14.133 ms
ping_4  | 64 bytes from 216.58.195.238: seq=97 ttl=53 time=13.179 ms
softwareoverhead_ping_9 exited with code 0
ping_6  | 64 bytes from 216.58.195.238: seq=98 ttl=53 time=13.524 ms
ping_5  | 64 bytes from 216.58.195.238: seq=99 ttl=53 time=13.502 ms
ping_5  | 
ping_5  | --- 216.58.195.238 ping statistics ---
ping_5  | 100 packets transmitted, 100 packets received, 0% packet loss
ping_5  | round-trip min/avg/max = 13.035/13.693/20.166 ms
softwareoverhead_ping_5 exited with code 0
ping_4  | 64 bytes from 216.58.195.238: seq=98 ttl=53 time=14.816 ms
ping_6  | 64 bytes from 216.58.195.238: seq=99 ttl=53 time=13.638 ms
ping_6  | 
ping_6  | --- 216.58.195.238 ping statistics ---
ping_6  | 100 packets transmitted, 100 packets received, 0% packet loss
ping_6  | round-trip min/avg/max = 13.062/13.571/20.365 ms
softwareoverhead_ping_6 exited with code 0
ping_4  | 64 bytes from 216.58.195.238: seq=99 ttl=53 time=13.422 ms
ping_4  | 
ping_4  | --- 216.58.195.238 ping statistics ---
ping_4  | 100 packets transmitted, 100 packets received, 0% packet loss
ping_4  | round-trip min/avg/max = 13.036/13.562/15.645 ms
softwareoverhead_ping_4 exited with code 0
