     1	.0 
     2	.1 
     3	.6 
     4	.1 
     5	.3 
     6	.8 
     7	.5 
     8	.5 
     9	.3 
    10	.5 
    11	.6 
    12	.5 
    13	.6 
    14	.5 
    15	.4 
    16	.6 
    17	.5 
    18	.8 
    19	.8 
    20	.6 
    21	.5 
    22	.6 
    23	.6 
    24	.5 
    25	.6 
    26	.5 
    27	.6 
    28	.6 
    29	.4 
    30	.6 
    31	.4 
    32	.8 
    33	.5 
    34	.3 
    35	.6 
    36	.9 
    37	.4 
    38	.8 
    39	.6 
    40	.5 
    41	.6 
    42	.6 
    43	.6 
    44	.6 
    45	.8 
    46	.9 
    47	.6 
    48	.8 
    49	.8 
    50	.5 
    51	.6 
    52	.5 
    53	.6 
    54	.9 
    55	.6 
    56	.4 
    57	.8 
    58	.9 
    59	.4 
    60	.6 
    61	.8 
    62	.8 
    63	.8 
    64	.6 
    65	.9 
    66	.5 
    67	.6 
    68	.5 
    69	.5 
    70	.5 
    71	.8 
    72	.9 
    73	.8 
    74	.3 
    75	.5 
    76	.5 
    77	.5 
    78	.5 
    79	.6 
    80	.6 
    81	.8 
    82	.6 
    83	.5 
    84	.8 
    85	.4 
    86	.8 
    87	.5 
    88	.8 
    89	.6 
    90	.5 
    91	.5 
    92	.4 
    93	.8 
    94	.6 
    95	.8 
    96	.8 
    97	.6 
    98	.4 
    99	.8 
   100	.8 
   101	.6 
   102	.5 
   103	.6 
   104	.4 
   105	.6 
   106	.6 
   107	.8 
   108	.6 
   109	.8 
   110	.6 
   111	.6 
   112	.6 
   113	.8 
   114	.3 
   115	.6 
   116	.6 
   117	.6 
   118	.8 
   119	.6 
   120	.8 
   121	.4 
   122	.6 
   123	.8 
   124	.3 
   125	.5 
   126	.8 
   127	.4 
   128	.6 
   129	.8 
   130	.6 
   131	.8 
   132	.4 
   133	.6 
   134	.5 
   135	.6 
   136	.6 
   137	.8 
   138	.6 
   139	.5 
   140	.8 
   141	.6 
   142	.8 
   143	.3 
   144	.4 
   145	.5 
   146	.6 
   147	.6 
   148	.5 
   149	.8 
   150	.6 
   151	.5 
   152	.6 
   153	.4 
   154	.6 
   155	.5 
   156	.6 
   157	.5 
   158	.6 
   159	.8 
   160	.5 
   161	.6 
   162	.5 
   163	.5 
   164	.6 
   165	.6 
   166	.6 
   167	.6 
   168	.8 
   169	.5 
   170	.5 
   171	.6 
   172	.5 
   173	.5 
   174	.6 
   175	.8 
   176	.6 
   177	.5 
   178	.5 
   179	.5 
   180	.6 
   181	.5 
   182	.5 
   183	.5 
   184	.8 
   185	.3 
   186	.6 
   187	.0 
   188	.6 
   189	.4 
   190	.3 
   191	.5 
   192	.5 
   193	.5 
   194	.6 
   195	.5 
   196	.8 
   197	.5 
   198	.4 
   199	.5 
   200	.6 
   201	.9 
   202	.5 
   203	.8 
   204	.4 
   205	.6 
   206	.8 
   207	.4 
   208	.5 
   209	.5 
   210	.4 
   211	.8 
   212	.8 
   213	.5 
   214	.6 
   215	.6 
   216	.8 
   217	.8 
   218	.6 
   219	.6 
   220	.8 
   221	.3 
   222	.4 
   223	.5 
   224	.5 
   225	.6 
   226	.6 
   227	.8 
   228	.6 
   229	.3 
   230	.8 
   231	.6 
   232	.8 
   233	.4 
   234	.5 
   235	.9 
   236	.4 
   237	.6 
   238	.6 
   239	.5 
   240	.4 
   241	.8 
   242	.9 
   243	.6 
   244	.8 
   245	.5 
   246	.5 
   247	.8 
   248	.5 
   249	.9 
   250	.6 
   251	.8 
   252	.6 
   253	.5 
   254	.6 
   255	.6 
   256	.5 
   257	.6 
   258	.5 
   259	.8 
   260	.6 
   261	.6 
   262	.5 
   263	.8 
   264	.5 
   265	.6 
   266	.6 
   267	.8 
   268	.6 
   269	.6 
   270	.4 
   271	.6 
   272	.6 
   273	.5 
   274	.6 
   275	.6 
   276	.8 
   277	.6 
   278	.5 
   279	.8 
   280	.6 
   281	.8 
   282	.5 
   283	.6 
   284	.8 
   285	.6 
   286	.6 
   287	.6 
   288	.9 
   289	.6 
   290	.5 
   291	.9 
   292	.6 
   293	.4 
   294	.6 
   295	.6 
   296	.4 
   297	.4 
   298	.6 
   299	.3 
   300	.1 
   301	.3 
   302	.7 
   303	.5 
   304	.3 
   305	.4 
   306	.3 
   307	.5 
   308	.4 
   309	.6 
   310	.9 
   311	.5 
   312	.6 
   313	.0 
   314	.8 
   315	.1 
   316	.6 
   317	.9 
   318	.6 
   319	.1 
   320	.5 
   321	.3 
   322	.6 
   323	.6 
   324	.9 
   325	.4 
   326	.8 
   327	.8 
   328	.6 
   329	.5 
   330	.6 
   331	.4 
   332	.8 
   333	.4 
   334	.6 
   335	.5 
   336	.5 
   337	.5 
   338	.6 
   339	.4 
   340	.8 
   341	.6 
   342	.8 
   343	.5 
   344	.9 
   345	.8 
   346	.5 
   347	.6 
   348	.4 
   349	.6 
   350	.5 
   351	.5 
   352	.6 
   353	.4 
   354	.6 
   355	.9 
   356	.6 
   357	.8 
   358	.4 
   359	.6 
   360	.4 
   361	.3 
   362	.6 
   363	.4 
   364	.4 
   365	.6 
   366	.4 
   367	.8 
   368	.5 
   369	.5 
   370	.5 
   371	.8 
   372	.5 
   373	.6 
   374	.5 
   375	.5 
   376	.4 
   377	.5 
   378	.6 
   379	.5 
   380	.8 
   381	.8 
   382	.4 
   383	.6 
   384	.6 
   385	.6 
   386	.3 
   387	.8 
   388	.5 
   389	.5 
   390	.6 
   391	.8 
   392	.6 
   393	.5 
   394	.8 
   395	.5 
   396	.5 
   397	.8 
   398	.3 
   399	.8 
   400	.6 
   401	.9 
   402	.5 
   403	.6 
   404	.6 
   405	.8 
   406	.8 
   407	.8 
   408	.6 
   409	.8 
   410	.1 
   411	.8 
   412	.1 
   413	.9 
   414	.8 
   415	.8 
   416	.6 
   417	.6 
   418	.5 
   419	.6 
   420	.8 
   421	.4 
   422	.5 
   423	.8 
   424	.6 
   425	.6 
   426	.8 
   427	.3 
   428	.5 
   429	.6 
   430	.4 
   431	.4 
   432	.5 
   433	.5 
   434	.6 
   435	.6 
   436	.5 
   437	.8 
   438	.6 
   439	.8 
   440	.6 
   441	.5 
   442	.8 
   443	.6 
   444	.4 
   445	.5 
   446	.9 
   447	.6 
   448	.8 
   449	.8 
   450	.8 
   451	.5 
   452	.9 
   453	.9 
   454	.5 
   455	.8 
   456	.8 
   457	.6 
   458	.8 
   459	.8 
   460	.4 
   461	.6 
   462	.8 
   463	.6 
   464	.8 
   465	.6 
   466	.5 
   467	.8 
   468	.6 
   469	.8 
   470	.8 
   471	.5 
   472	.5 
   473	.5 
   474	.9 
   475	.8 
   476	.6 
   477	.4 
   478	.6 
   479	.9 
   480	.8 
   481	.6 
   482	.4 
   483	.6 
   484	.6 
   485	.5 
   486	.0 
   487	.5 
   488	.8 
   489	.5 
   490	.6 
   491	.8 
   492	.3 
   493	.8 
   494	.6 
   495	.5 
   496	.8 
   497	.6 
   498	.7 
   499	.6 
   500	.6 
   501	.6 
   502	.8 
