     1	 97.5 
     2	 96.8 
     3	 54.7 
     4	  9.6 
     5	 49.2 
     6	 86.7 
     7	 93.6 
     8	 90.3 
     9	 90.6 
    10	 92.6 
    11	 96.2 
    12	 95.3 
    13	 95.4 
    14	 96.7 
    15	 95.8 
    16	 21.8 
    17	  9.2 
    18	 75.1 
    19	 89.1 
    20	 89.6 
    21	 93.9 
    22	 89.4 
    23	 89.7 
    24	 94.3 
    25	 94.7 
    26	 95.2 
    27	 95.1 
    28	 83.0 
    29	 80.6 
    30	 60.4 
    31	 85.2 
    32	 84.6 
    33	 86.9 
    34	 85.6 
    35	 91.8 
    36	 92.2 
    37	 93.5 
    38	 91.0 
    39	 92.3 
    40	 98.4 
    41	 91.9 
    42	 92.5 
    43	 80.2 
    44	 75.2 
    45	 90.4 
    46	 76.3 
    47	 83.9 
    48	 92.8 
    49	 94.0 
    50	 92.4 
    51	 93.5 
    52	 93.2 
