Attaching to softwareoverhead_ping_8, softwareoverhead_ping_4, softwareoverhead_ping_3, softwareoverhead_ping_6, softwareoverhead_ping_9, softwareoverhead_ping_7, softwareoverhead_ping_5, softwareoverhead_ping_10, softwareoverhead_ping_1, softwareoverhead_ping_2, softwareoverhead_ping_19, softwareoverhead_ping_17, softwareoverhead_ping_12, softwareoverhead_ping_13, softwareoverhead_ping_18, softwareoverhead_ping_16, softwareoverhead_ping_11, softwareoverhead_ping_20, softwareoverhead_ping_14, softwareoverhead_ping_15
ping_8  | PING speedtest.softether.co.jp (103.41.63.43): 56 data bytes
ping_4  | PING speedtest.softether.co.jp (103.41.63.43): 56 data bytes
ping_8  | 64 bytes from 103.41.63.43: seq=0 ttl=52 time=119.383 ms
ping_4  | 64 bytes from 103.41.63.43: seq=0 ttl=52 time=119.708 ms
ping_8  | 64 bytes from 103.41.63.43: seq=1 ttl=52 time=119.625 ms
ping_4  | 64 bytes from 103.41.63.43: seq=1 ttl=52 time=119.550 ms
ping_3  | PING speedtest.softether.co.jp (103.41.63.43): 56 data bytes
ping_3  | 64 bytes from 103.41.63.43: seq=0 ttl=52 time=119.440 ms
ping_4  | 64 bytes from 103.41.63.43: seq=2 ttl=52 time=119.815 ms
ping_8  | 64 bytes from 103.41.63.43: seq=2 ttl=52 time=119.303 ms
ping_6  | PING speedtest.softether.co.jp (103.41.63.43): 56 data bytes
ping_4  | 64 bytes from 103.41.63.43: seq=3 ttl=52 time=119.431 ms
ping_3  | 64 bytes from 103.41.63.43: seq=1 ttl=52 time=119.635 ms
ping_8  | 64 bytes from 103.41.63.43: seq=3 ttl=52 time=119.256 ms
ping_9  | PING speedtest.softether.co.jp (103.41.63.43): 56 data bytes
ping_4  | 64 bytes from 103.41.63.43: seq=4 ttl=52 time=119.714 ms
ping_3  | 64 bytes from 103.41.63.43: seq=2 ttl=52 time=119.615 ms
ping_9  | 64 bytes from 103.41.63.43: seq=0 ttl=52 time=119.751 ms
ping_4  | 64 bytes from 103.41.63.43: seq=5 ttl=52 time=119.245 ms
ping_7  | PING speedtest.softether.co.jp (103.41.63.43): 56 data bytes
ping_9  | 64 bytes from 103.41.63.43: seq=1 ttl=52 time=119.352 ms
ping_6  | 64 bytes from 103.41.63.43: seq=0 ttl=52 time=119.742 ms
ping_5  | PING speedtest.softether.co.jp (103.41.63.43): 56 data bytes
ping_4  | 64 bytes from 103.41.63.43: seq=6 ttl=52 time=119.215 ms
ping_8  | 64 bytes from 103.41.63.43: seq=4 ttl=52 time=119.256 ms
ping_3  | 64 bytes from 103.41.63.43: seq=3 ttl=52 time=119.529 ms
ping_5  | 64 bytes from 103.41.63.43: seq=0 ttl=52 time=119.257 ms
ping_7  | 64 bytes from 103.41.63.43: seq=0 ttl=52 time=119.511 ms
ping_9  | 64 bytes from 103.41.63.43: seq=2 ttl=52 time=119.279 ms
ping_7  | 64 bytes from 103.41.63.43: seq=1 ttl=52 time=119.327 ms
ping_9  | 64 bytes from 103.41.63.43: seq=3 ttl=52 time=119.306 ms
ping_6  | 64 bytes from 103.41.63.43: seq=1 ttl=52 time=119.445 ms
ping_7  | 64 bytes from 103.41.63.43: seq=2 ttl=52 time=119.398 ms
ping_8  | 64 bytes from 103.41.63.43: seq=5 ttl=52 time=119.566 ms
ping_9  | 64 bytes from 103.41.63.43: seq=4 ttl=52 time=119.272 ms
ping_5  | 64 bytes from 103.41.63.43: seq=1 ttl=52 time=119.730 ms
ping_6  | 64 bytes from 103.41.63.43: seq=2 ttl=52 time=119.325 ms
ping_3  | 64 bytes from 103.41.63.43: seq=4 ttl=52 time=119.612 ms
ping_6  | 64 bytes from 103.41.63.43: seq=3 ttl=52 time=119.522 ms
ping_4  | 64 bytes from 103.41.63.43: seq=7 ttl=52 time=119.224 ms
ping_9  | 64 bytes from 103.41.63.43: seq=5 ttl=52 time=120.266 ms
ping_6  | 64 bytes from 103.41.63.43: seq=4 ttl=52 time=119.468 ms
ping_8  | 64 bytes from 103.41.63.43: seq=6 ttl=52 time=119.305 ms
ping_10 | PING speedtest.softether.co.jp (103.41.63.43): 56 data bytes
ping_4  | 64 bytes from 103.41.63.43: seq=8 ttl=52 time=119.661 ms
ping_5  | 64 bytes from 103.41.63.43: seq=2 ttl=52 time=119.158 ms
ping_3  | 64 bytes from 103.41.63.43: seq=5 ttl=52 time=119.174 ms
ping_8  | 64 bytes from 103.41.63.43: seq=7 ttl=52 time=119.586 ms
ping_7  | 64 bytes from 103.41.63.43: seq=3 ttl=52 time=119.187 ms
ping_4  | 64 bytes from 103.41.63.43: seq=9 ttl=52 time=119.701 ms
ping_10 | 64 bytes from 103.41.63.43: seq=0 ttl=52 time=119.259 ms
ping_8  | 64 bytes from 103.41.63.43: seq=8 ttl=52 time=119.598 ms
ping_5  | 64 bytes from 103.41.63.43: seq=3 ttl=52 time=119.162 ms
ping_9  | 64 bytes from 103.41.63.43: seq=6 ttl=52 time=119.289 ms
ping_7  | 64 bytes from 103.41.63.43: seq=4 ttl=52 time=119.605 ms
ping_4  | 64 bytes from 103.41.63.43: seq=10 ttl=52 time=119.341 ms
ping_3  | 64 bytes from 103.41.63.43: seq=6 ttl=52 time=119.601 ms
ping_5  | 64 bytes from 103.41.63.43: seq=4 ttl=52 time=119.438 ms
ping_4  | 64 bytes from 103.41.63.43: seq=11 ttl=52 time=119.248 ms
ping_9  | 64 bytes from 103.41.63.43: seq=7 ttl=52 time=119.633 ms
ping_1  | PING speedtest.softether.co.jp (103.41.63.43): 56 data bytes
ping_1  | 64 bytes from 103.41.63.43: seq=0 ttl=52 time=119.472 ms
ping_8  | 64 bytes from 103.41.63.43: seq=9 ttl=52 time=119.268 ms
ping_10 | 64 bytes from 103.41.63.43: seq=1 ttl=52 time=119.446 ms
ping_6  | 64 bytes from 103.41.63.43: seq=5 ttl=52 time=119.145 ms
ping_2  | PING speedtest.softether.co.jp (103.41.63.43): 56 data bytes
ping_1  | 64 bytes from 103.41.63.43: seq=1 ttl=52 time=119.403 ms
ping_10 | 64 bytes from 103.41.63.43: seq=2 ttl=52 time=119.245 ms
ping_6  | 64 bytes from 103.41.63.43: seq=6 ttl=52 time=119.450 ms
ping_9  | 64 bytes from 103.41.63.43: seq=8 ttl=52 time=119.567 ms
ping_5  | 64 bytes from 103.41.63.43: seq=5 ttl=52 time=119.647 ms
ping_7  | 64 bytes from 103.41.63.43: seq=5 ttl=52 time=119.305 ms
ping_19 | PING speedtest.softether.co.jp (103.41.63.43): 56 data bytes
ping_3  | 64 bytes from 103.41.63.43: seq=7 ttl=52 time=119.725 ms
ping_10 | 64 bytes from 103.41.63.43: seq=3 ttl=52 time=119.346 ms
ping_8  | 64 bytes from 103.41.63.43: seq=10 ttl=52 time=119.657 ms
ping_5  | 64 bytes from 103.41.63.43: seq=6 ttl=52 time=119.419 ms
ping_9  | 64 bytes from 103.41.63.43: seq=9 ttl=52 time=119.587 ms
ping_2  | 64 bytes from 103.41.63.43: seq=0 ttl=52 time=119.089 ms
ping_17 | PING speedtest.softether.co.jp (103.41.63.43): 56 data bytes
ping_3  | 64 bytes from 103.41.63.43: seq=8 ttl=52 time=119.646 ms
ping_7  | 64 bytes from 103.41.63.43: seq=6 ttl=52 time=119.590 ms
ping_10 | 64 bytes from 103.41.63.43: seq=4 ttl=52 time=119.454 ms
ping_1  | 64 bytes from 103.41.63.43: seq=2 ttl=52 time=119.109 ms
ping_6  | 64 bytes from 103.41.63.43: seq=7 ttl=52 time=119.572 ms
ping_5  | 64 bytes from 103.41.63.43: seq=7 ttl=52 time=119.367 ms
ping_8  | 64 bytes from 103.41.63.43: seq=11 ttl=52 time=119.734 ms
ping_19 | 64 bytes from 103.41.63.43: seq=0 ttl=52 time=119.679 ms
ping_10 | 64 bytes from 103.41.63.43: seq=5 ttl=52 time=119.450 ms
ping_17 | 64 bytes from 103.41.63.43: seq=0 ttl=52 time=119.237 ms
ping_5  | 64 bytes from 103.41.63.43: seq=8 ttl=52 time=119.751 ms
ping_9  | 64 bytes from 103.41.63.43: seq=10 ttl=52 time=119.541 ms
ping_17 | 64 bytes from 103.41.63.43: seq=1 ttl=52 time=119.527 ms
ping_12 | PING speedtest.softether.co.jp (103.41.63.43): 56 data bytes
ping_6  | 64 bytes from 103.41.63.43: seq=8 ttl=52 time=119.288 ms
ping_19 | 64 bytes from 103.41.63.43: seq=1 ttl=52 time=119.200 ms
ping_8  | 64 bytes from 103.41.63.43: seq=12 ttl=52 time=119.656 ms
ping_2  | 64 bytes from 103.41.63.43: seq=1 ttl=52 time=119.153 ms
ping_12 | 64 bytes from 103.41.63.43: seq=0 ttl=52 time=119.255 ms
ping_3  | 64 bytes from 103.41.63.43: seq=9 ttl=52 time=119.310 ms
ping_12 | 64 bytes from 103.41.63.43: seq=1 ttl=52 time=119.370 ms
ping_7  | 64 bytes from 103.41.63.43: seq=7 ttl=52 time=119.232 ms
ping_10 | 64 bytes from 103.41.63.43: seq=6 ttl=52 time=119.752 ms
ping_19 | 64 bytes from 103.41.63.43: seq=2 ttl=52 time=119.299 ms
ping_2  | 64 bytes from 103.41.63.43: seq=2 ttl=52 time=119.401 ms
ping_10 | 64 bytes from 103.41.63.43: seq=7 ttl=52 time=119.434 ms
ping_1  | 64 bytes from 103.41.63.43: seq=3 ttl=52 time=119.365 ms
ping_19 | 64 bytes from 103.41.63.43: seq=3 ttl=52 time=119.324 ms
ping_13 | PING speedtest.softether.co.jp (103.41.63.43): 56 data bytes
ping_7  | 64 bytes from 103.41.63.43: seq=8 ttl=52 time=119.568 ms
ping_3  | 64 bytes from 103.41.63.43: seq=10 ttl=52 time=119.637 ms
ping_6  | 64 bytes from 103.41.63.43: seq=9 ttl=52 time=119.681 ms
ping_17 | 64 bytes from 103.41.63.43: seq=2 ttl=52 time=119.318 ms
ping_12 | 64 bytes from 103.41.63.43: seq=2 ttl=52 time=119.646 ms
ping_7  | 64 bytes from 103.41.63.43: seq=9 ttl=52 time=119.497 ms
ping_2  | 64 bytes from 103.41.63.43: seq=3 ttl=52 time=119.469 ms
ping_3  | 64 bytes from 103.41.63.43: seq=11 ttl=52 time=119.726 ms
ping_19 | 64 bytes from 103.41.63.43: seq=4 ttl=52 time=119.619 ms
ping_13 | 64 bytes from 103.41.63.43: seq=0 ttl=52 time=119.461 ms
ping_1  | 64 bytes from 103.41.63.43: seq=4 ttl=52 time=121.884 ms
ping_18 | PING speedtest.softether.co.jp (103.41.63.43): 56 data bytes
ping_2  | 64 bytes from 103.41.63.43: seq=4 ttl=52 time=119.328 ms
ping_12 | 64 bytes from 103.41.63.43: seq=3 ttl=52 time=119.686 ms
ping_17 | 64 bytes from 103.41.63.43: seq=3 ttl=52 time=119.408 ms
ping_19 | 64 bytes from 103.41.63.43: seq=5 ttl=52 time=119.391 ms
ping_10 | 64 bytes from 103.41.63.43: seq=8 ttl=52 time=119.629 ms
ping_13 | 64 bytes from 103.41.63.43: seq=1 ttl=52 time=119.184 ms
ping_6  | 64 bytes from 103.41.63.43: seq=10 ttl=52 time=119.403 ms
ping_18 | 64 bytes from 103.41.63.43: seq=0 ttl=52 time=119.242 ms
ping_1  | 64 bytes from 103.41.63.43: seq=5 ttl=52 time=119.469 ms
ping_2  | 64 bytes from 103.41.63.43: seq=5 ttl=52 time=119.437 ms
ping_17 | 64 bytes from 103.41.63.43: seq=4 ttl=52 time=119.247 ms
ping_18 | 64 bytes from 103.41.63.43: seq=1 ttl=52 time=119.405 ms
ping_6  | 64 bytes from 103.41.63.43: seq=11 ttl=52 time=119.739 ms
ping_13 | 64 bytes from 103.41.63.43: seq=2 ttl=52 time=119.246 ms
ping_12 | 64 bytes from 103.41.63.43: seq=4 ttl=52 time=119.682 ms
ping_2  | 64 bytes from 103.41.63.43: seq=6 ttl=52 time=119.700 ms
ping_18 | 64 bytes from 103.41.63.43: seq=2 ttl=52 time=119.700 ms
ping_13 | 64 bytes from 103.41.63.43: seq=3 ttl=52 time=119.251 ms
ping_18 | 64 bytes from 103.41.63.43: seq=3 ttl=52 time=119.320 ms
ping_16 | PING speedtest.softether.co.jp (103.41.63.43): 56 data bytes
ping_11 | PING speedtest.softether.co.jp (103.41.63.43): 56 data bytes
ping_1  | 64 bytes from 103.41.63.43: seq=6 ttl=52 time=119.438 ms
ping_16 | 64 bytes from 103.41.63.43: seq=0 ttl=52 time=119.510 ms
ping_20 | PING speedtest.softether.co.jp (103.41.63.43): 56 data bytes
ping_11 | 64 bytes from 103.41.63.43: seq=0 ttl=52 time=119.576 ms
ping_16 | 64 bytes from 103.41.63.43: seq=1 ttl=52 time=119.507 ms
ping_20 | 64 bytes from 103.41.63.43: seq=0 ttl=52 time=119.701 ms
ping_11 | 64 bytes from 103.41.63.43: seq=1 ttl=52 time=119.709 ms
ping_16 | 64 bytes from 103.41.63.43: seq=2 ttl=52 time=119.533 ms
ping_14 | PING speedtest.softether.co.jp (103.41.63.43): 56 data bytes
ping_1  | 64 bytes from 103.41.63.43: seq=7 ttl=52 time=119.724 ms
ping_11 | 64 bytes from 103.41.63.43: seq=2 ttl=52 time=119.796 ms
ping_14 | 64 bytes from 103.41.63.43: seq=0 ttl=52 time=119.329 ms
ping_20 | 64 bytes from 103.41.63.43: seq=1 ttl=52 time=119.410 ms
ping_15 | PING speedtest.softether.co.jp (103.41.63.43): 56 data bytes
ping_15 | 64 bytes from 103.41.63.43: seq=0 ttl=52 time=119.650 ms
ping_1  | 64 bytes from 103.41.63.43: seq=8 ttl=52 time=119.810 ms
ping_16 | 64 bytes from 103.41.63.43: seq=3 ttl=52 time=119.534 ms
ping_9  | 64 bytes from 103.41.63.43: seq=11 ttl=52 time=121.677 ms
ping_7  | 64 bytes from 103.41.63.43: seq=10 ttl=52 time=122.630 ms
ping_13 | 64 bytes from 103.41.63.43: seq=4 ttl=52 time=123.546 ms
ping_14 | 64 bytes from 103.41.63.43: seq=1 ttl=52 time=119.846 ms
ping_20 | 64 bytes from 103.41.63.43: seq=2 ttl=52 time=119.662 ms
ping_4  | 64 bytes from 103.41.63.43: seq=12 ttl=52 time=119.448 ms
ping_2  | 64 bytes from 103.41.63.43: seq=7 ttl=52 time=119.364 ms
ping_5  | 64 bytes from 103.41.63.43: seq=9 ttl=52 time=119.901 ms
ping_17 | 64 bytes from 103.41.63.43: seq=5 ttl=52 time=119.865 ms
ping_11 | 64 bytes from 103.41.63.43: seq=3 ttl=52 time=119.914 ms
ping_12 | 64 bytes from 103.41.63.43: seq=5 ttl=52 time=119.668 ms
ping_19 | 64 bytes from 103.41.63.43: seq=6 ttl=52 time=119.315 ms
ping_3  | 64 bytes from 103.41.63.43: seq=12 ttl=52 time=119.816 ms
ping_8  | 64 bytes from 103.41.63.43: seq=13 ttl=52 time=119.389 ms
ping_18 | 64 bytes from 103.41.63.43: seq=4 ttl=52 time=119.695 ms
ping_6  | 64 bytes from 103.41.63.43: seq=12 ttl=52 time=119.674 ms
ping_10 | 64 bytes from 103.41.63.43: seq=9 ttl=52 time=119.768 ms
ping_15 | 64 bytes from 103.41.63.43: seq=1 ttl=52 time=119.628 ms
ping_1  | 64 bytes from 103.41.63.43: seq=9 ttl=52 time=119.848 ms
ping_16 | 64 bytes from 103.41.63.43: seq=4 ttl=52 time=119.790 ms
ping_9  | 64 bytes from 103.41.63.43: seq=12 ttl=52 time=119.710 ms
ping_7  | 64 bytes from 103.41.63.43: seq=11 ttl=52 time=119.716 ms
ping_13 | 64 bytes from 103.41.63.43: seq=5 ttl=52 time=119.516 ms
ping_14 | 64 bytes from 103.41.63.43: seq=2 ttl=52 time=119.536 ms
ping_4  | 64 bytes from 103.41.63.43: seq=13 ttl=52 time=119.849 ms
ping_20 | 64 bytes from 103.41.63.43: seq=3 ttl=52 time=119.849 ms
ping_2  | 64 bytes from 103.41.63.43: seq=8 ttl=52 time=119.734 ms
ping_5  | 64 bytes from 103.41.63.43: seq=10 ttl=52 time=120.046 ms
ping_17 | 64 bytes from 103.41.63.43: seq=6 ttl=52 time=119.582 ms
ping_11 | 64 bytes from 103.41.63.43: seq=4 ttl=52 time=119.780 ms
ping_12 | 64 bytes from 103.41.63.43: seq=6 ttl=52 time=119.726 ms
ping_19 | 64 bytes from 103.41.63.43: seq=7 ttl=52 time=119.427 ms
ping_3  | 64 bytes from 103.41.63.43: seq=13 ttl=52 time=119.374 ms
ping_8  | 64 bytes from 103.41.63.43: seq=14 ttl=52 time=119.661 ms
ping_18 | 64 bytes from 103.41.63.43: seq=5 ttl=52 time=119.533 ms
ping_6  | 64 bytes from 103.41.63.43: seq=13 ttl=52 time=119.669 ms
ping_10 | 64 bytes from 103.41.63.43: seq=10 ttl=52 time=119.819 ms
ping_15 | 64 bytes from 103.41.63.43: seq=2 ttl=52 time=119.900 ms
ping_1  | 64 bytes from 103.41.63.43: seq=10 ttl=52 time=119.743 ms
ping_16 | 64 bytes from 103.41.63.43: seq=5 ttl=52 time=119.769 ms
ping_9  | 64 bytes from 103.41.63.43: seq=13 ttl=52 time=119.576 ms
ping_7  | 64 bytes from 103.41.63.43: seq=12 ttl=52 time=119.734 ms
ping_13 | 64 bytes from 103.41.63.43: seq=6 ttl=52 time=119.730 ms
ping_14 | 64 bytes from 103.41.63.43: seq=3 ttl=52 time=119.875 ms
ping_20 | 64 bytes from 103.41.63.43: seq=4 ttl=52 time=119.756 ms
ping_4  | 64 bytes from 103.41.63.43: seq=14 ttl=52 time=119.702 ms
ping_2  | 64 bytes from 103.41.63.43: seq=9 ttl=52 time=119.653 ms
ping_5  | 64 bytes from 103.41.63.43: seq=11 ttl=52 time=119.999 ms
ping_17 | 64 bytes from 103.41.63.43: seq=7 ttl=52 time=119.714 ms
ping_11 | 64 bytes from 103.41.63.43: seq=5 ttl=52 time=119.551 ms
ping_12 | 64 bytes from 103.41.63.43: seq=7 ttl=52 time=119.540 ms
ping_19 | 64 bytes from 103.41.63.43: seq=8 ttl=52 time=119.374 ms
ping_3  | 64 bytes from 103.41.63.43: seq=14 ttl=52 time=119.350 ms
ping_8  | 64 bytes from 103.41.63.43: seq=15 ttl=52 time=119.890 ms
ping_18 | 64 bytes from 103.41.63.43: seq=6 ttl=52 time=119.759 ms
ping_6  | 64 bytes from 103.41.63.43: seq=14 ttl=52 time=119.601 ms
ping_10 | 64 bytes from 103.41.63.43: seq=11 ttl=52 time=119.809 ms
ping_15 | 64 bytes from 103.41.63.43: seq=3 ttl=52 time=119.721 ms
ping_1  | 64 bytes from 103.41.63.43: seq=11 ttl=52 time=119.902 ms
ping_16 | 64 bytes from 103.41.63.43: seq=6 ttl=52 time=120.029 ms
ping_9  | 64 bytes from 103.41.63.43: seq=14 ttl=52 time=119.765 ms
ping_7  | 64 bytes from 103.41.63.43: seq=13 ttl=52 time=119.733 ms
ping_13 | 64 bytes from 103.41.63.43: seq=7 ttl=52 time=119.723 ms
ping_14 | 64 bytes from 103.41.63.43: seq=4 ttl=52 time=119.836 ms
ping_20 | 64 bytes from 103.41.63.43: seq=5 ttl=52 time=119.932 ms
ping_4  | 64 bytes from 103.41.63.43: seq=15 ttl=52 time=119.858 ms
ping_2  | 64 bytes from 103.41.63.43: seq=10 ttl=52 time=119.516 ms
ping_5  | 64 bytes from 103.41.63.43: seq=12 ttl=52 time=119.343 ms
ping_17 | 64 bytes from 103.41.63.43: seq=8 ttl=52 time=120.012 ms
ping_11 | 64 bytes from 103.41.63.43: seq=6 ttl=52 time=119.746 ms
ping_12 | 64 bytes from 103.41.63.43: seq=8 ttl=52 time=119.990 ms
ping_19 | 64 bytes from 103.41.63.43: seq=9 ttl=52 time=119.427 ms
ping_3  | 64 bytes from 103.41.63.43: seq=15 ttl=52 time=119.725 ms
ping_8  | 64 bytes from 103.41.63.43: seq=16 ttl=52 time=119.862 ms
ping_18 | 64 bytes from 103.41.63.43: seq=7 ttl=52 time=119.663 ms
ping_6  | 64 bytes from 103.41.63.43: seq=15 ttl=52 time=119.744 ms
ping_10 | 64 bytes from 103.41.63.43: seq=12 ttl=52 time=119.919 ms
ping_15 | 64 bytes from 103.41.63.43: seq=4 ttl=52 time=119.420 ms
ping_1  | 64 bytes from 103.41.63.43: seq=12 ttl=52 time=119.936 ms
ping_16 | 64 bytes from 103.41.63.43: seq=7 ttl=52 time=119.766 ms
ping_9  | 64 bytes from 103.41.63.43: seq=15 ttl=52 time=119.763 ms
ping_7  | 64 bytes from 103.41.63.43: seq=14 ttl=52 time=119.730 ms
ping_13 | 64 bytes from 103.41.63.43: seq=8 ttl=52 time=119.704 ms
ping_14 | 64 bytes from 103.41.63.43: seq=5 ttl=52 time=119.757 ms
ping_20 | 64 bytes from 103.41.63.43: seq=6 ttl=52 time=119.777 ms
ping_4  | 64 bytes from 103.41.63.43: seq=16 ttl=52 time=119.715 ms
ping_2  | 64 bytes from 103.41.63.43: seq=11 ttl=52 time=119.648 ms
ping_5  | 64 bytes from 103.41.63.43: seq=13 ttl=52 time=119.861 ms
ping_17 | 64 bytes from 103.41.63.43: seq=9 ttl=52 time=119.848 ms
ping_11 | 64 bytes from 103.41.63.43: seq=7 ttl=52 time=119.319 ms
ping_12 | 64 bytes from 103.41.63.43: seq=9 ttl=52 time=120.063 ms
ping_19 | 64 bytes from 103.41.63.43: seq=10 ttl=52 time=119.413 ms
ping_3  | 64 bytes from 103.41.63.43: seq=16 ttl=52 time=119.644 ms
ping_8  | 64 bytes from 103.41.63.43: seq=17 ttl=52 time=119.728 ms
ping_18 | 64 bytes from 103.41.63.43: seq=8 ttl=52 time=119.583 ms
ping_6  | 64 bytes from 103.41.63.43: seq=16 ttl=52 time=119.710 ms
ping_10 | 64 bytes from 103.41.63.43: seq=13 ttl=52 time=119.936 ms
ping_15 | 64 bytes from 103.41.63.43: seq=5 ttl=52 time=119.384 ms
ping_1  | 64 bytes from 103.41.63.43: seq=13 ttl=52 time=119.493 ms
ping_16 | 64 bytes from 103.41.63.43: seq=8 ttl=52 time=119.563 ms
ping_9  | 64 bytes from 103.41.63.43: seq=16 ttl=52 time=119.759 ms
ping_7  | 64 bytes from 103.41.63.43: seq=15 ttl=52 time=119.513 ms
ping_13 | 64 bytes from 103.41.63.43: seq=9 ttl=52 time=119.690 ms
ping_14 | 64 bytes from 103.41.63.43: seq=6 ttl=52 time=120.640 ms
ping_20 | 64 bytes from 103.41.63.43: seq=7 ttl=52 time=119.321 ms
ping_4  | 64 bytes from 103.41.63.43: seq=17 ttl=52 time=119.386 ms
ping_2  | 64 bytes from 103.41.63.43: seq=12 ttl=52 time=119.655 ms
ping_5  | 64 bytes from 103.41.63.43: seq=14 ttl=52 time=119.646 ms
ping_17 | 64 bytes from 103.41.63.43: seq=10 ttl=52 time=119.698 ms
ping_11 | 64 bytes from 103.41.63.43: seq=8 ttl=52 time=119.766 ms
ping_12 | 64 bytes from 103.41.63.43: seq=10 ttl=52 time=119.664 ms
ping_19 | 64 bytes from 103.41.63.43: seq=11 ttl=52 time=119.275 ms
ping_3  | 64 bytes from 103.41.63.43: seq=17 ttl=52 time=119.731 ms
ping_8  | 64 bytes from 103.41.63.43: seq=18 ttl=52 time=119.920 ms
ping_18 | 64 bytes from 103.41.63.43: seq=9 ttl=52 time=119.512 ms
ping_6  | 64 bytes from 103.41.63.43: seq=17 ttl=52 time=119.712 ms
ping_10 | 64 bytes from 103.41.63.43: seq=14 ttl=52 time=119.708 ms
ping_15 | 64 bytes from 103.41.63.43: seq=6 ttl=52 time=119.397 ms
ping_1  | 64 bytes from 103.41.63.43: seq=14 ttl=52 time=119.429 ms
ping_16 | 64 bytes from 103.41.63.43: seq=9 ttl=52 time=119.433 ms
ping_9  | 64 bytes from 103.41.63.43: seq=17 ttl=52 time=119.376 ms
ping_7  | 64 bytes from 103.41.63.43: seq=16 ttl=52 time=119.542 ms
ping_13 | 64 bytes from 103.41.63.43: seq=10 ttl=52 time=119.399 ms
ping_14 | 64 bytes from 103.41.63.43: seq=7 ttl=52 time=119.377 ms
ping_20 | 64 bytes from 103.41.63.43: seq=8 ttl=52 time=119.391 ms
ping_4  | 64 bytes from 103.41.63.43: seq=18 ttl=52 time=119.507 ms
ping_2  | 64 bytes from 103.41.63.43: seq=13 ttl=52 time=119.312 ms
ping_5  | 64 bytes from 103.41.63.43: seq=15 ttl=52 time=119.751 ms
ping_17 | 64 bytes from 103.41.63.43: seq=11 ttl=52 time=119.625 ms
ping_11 | 64 bytes from 103.41.63.43: seq=9 ttl=52 time=119.763 ms
ping_12 | 64 bytes from 103.41.63.43: seq=11 ttl=52 time=119.546 ms
ping_19 | 64 bytes from 103.41.63.43: seq=12 ttl=52 time=119.598 ms
ping_3  | 64 bytes from 103.41.63.43: seq=18 ttl=52 time=119.933 ms
ping_8  | 64 bytes from 103.41.63.43: seq=19 ttl=52 time=119.394 ms
ping_18 | 64 bytes from 103.41.63.43: seq=10 ttl=52 time=119.662 ms
ping_6  | 64 bytes from 103.41.63.43: seq=18 ttl=52 time=119.878 ms
ping_10 | 64 bytes from 103.41.63.43: seq=15 ttl=52 time=119.290 ms
ping_15 | 64 bytes from 103.41.63.43: seq=7 ttl=52 time=119.889 ms
ping_1  | 64 bytes from 103.41.63.43: seq=15 ttl=52 time=119.778 ms
ping_16 | 64 bytes from 103.41.63.43: seq=10 ttl=52 time=119.776 ms
ping_9  | 64 bytes from 103.41.63.43: seq=18 ttl=52 time=119.605 ms
ping_7  | 64 bytes from 103.41.63.43: seq=17 ttl=52 time=119.616 ms
ping_13 | 64 bytes from 103.41.63.43: seq=11 ttl=52 time=119.818 ms
ping_14 | 64 bytes from 103.41.63.43: seq=8 ttl=52 time=119.848 ms
ping_4  | 64 bytes from 103.41.63.43: seq=19 ttl=52 time=119.691 ms
ping_20 | 64 bytes from 103.41.63.43: seq=9 ttl=52 time=119.790 ms
ping_2  | 64 bytes from 103.41.63.43: seq=14 ttl=52 time=119.838 ms
ping_5  | 64 bytes from 103.41.63.43: seq=16 ttl=52 time=119.560 ms
ping_17 | 64 bytes from 103.41.63.43: seq=12 ttl=52 time=119.708 ms
ping_11 | 64 bytes from 103.41.63.43: seq=10 ttl=52 time=119.752 ms
ping_12 | 64 bytes from 103.41.63.43: seq=12 ttl=52 time=119.622 ms
ping_19 | 64 bytes from 103.41.63.43: seq=13 ttl=52 time=119.359 ms
ping_3  | 64 bytes from 103.41.63.43: seq=19 ttl=52 time=119.543 ms
ping_8  | 64 bytes from 103.41.63.43: seq=20 ttl=52 time=119.484 ms
ping_18 | 64 bytes from 103.41.63.43: seq=11 ttl=52 time=119.520 ms
ping_6  | 64 bytes from 103.41.63.43: seq=19 ttl=52 time=119.672 ms
ping_10 | 64 bytes from 103.41.63.43: seq=16 ttl=52 time=119.635 ms
ping_15 | 64 bytes from 103.41.63.43: seq=8 ttl=52 time=119.803 ms
ping_1  | 64 bytes from 103.41.63.43: seq=16 ttl=52 time=119.917 ms
ping_16 | 64 bytes from 103.41.63.43: seq=11 ttl=52 time=119.639 ms
ping_9  | 64 bytes from 103.41.63.43: seq=19 ttl=52 time=119.777 ms
ping_7  | 64 bytes from 103.41.63.43: seq=18 ttl=52 time=119.589 ms
ping_13 | 64 bytes from 103.41.63.43: seq=12 ttl=52 time=119.831 ms
ping_14 | 64 bytes from 103.41.63.43: seq=9 ttl=52 time=119.678 ms
ping_4  | 64 bytes from 103.41.63.43: seq=20 ttl=52 time=119.591 ms
ping_20 | 64 bytes from 103.41.63.43: seq=10 ttl=52 time=119.651 ms
ping_2  | 64 bytes from 103.41.63.43: seq=15 ttl=52 time=119.951 ms
ping_5  | 64 bytes from 103.41.63.43: seq=17 ttl=52 time=119.539 ms
ping_17 | 64 bytes from 103.41.63.43: seq=13 ttl=52 time=119.339 ms
ping_11 | 64 bytes from 103.41.63.43: seq=11 ttl=52 time=119.624 ms
ping_12 | 64 bytes from 103.41.63.43: seq=13 ttl=52 time=119.867 ms
ping_19 | 64 bytes from 103.41.63.43: seq=14 ttl=52 time=119.294 ms
ping_3  | 64 bytes from 103.41.63.43: seq=20 ttl=52 time=119.770 ms
ping_8  | 64 bytes from 103.41.63.43: seq=21 ttl=52 time=119.759 ms
ping_18 | 64 bytes from 103.41.63.43: seq=12 ttl=52 time=119.663 ms
ping_6  | 64 bytes from 103.41.63.43: seq=20 ttl=52 time=119.482 ms
ping_10 | 64 bytes from 103.41.63.43: seq=17 ttl=52 time=119.433 ms
ping_15 | 64 bytes from 103.41.63.43: seq=9 ttl=52 time=119.819 ms
ping_1  | 64 bytes from 103.41.63.43: seq=17 ttl=52 time=119.680 ms
ping_16 | 64 bytes from 103.41.63.43: seq=12 ttl=52 time=119.631 ms
ping_9  | 64 bytes from 103.41.63.43: seq=20 ttl=52 time=119.416 ms
ping_7  | 64 bytes from 103.41.63.43: seq=19 ttl=52 time=119.616 ms
ping_13 | 64 bytes from 103.41.63.43: seq=13 ttl=52 time=119.719 ms
ping_14 | 64 bytes from 103.41.63.43: seq=10 ttl=52 time=119.832 ms
ping_4  | 64 bytes from 103.41.63.43: seq=21 ttl=52 time=119.858 ms
ping_20 | 64 bytes from 103.41.63.43: seq=11 ttl=52 time=119.834 ms
ping_2  | 64 bytes from 103.41.63.43: seq=16 ttl=52 time=119.658 ms
ping_5  | 64 bytes from 103.41.63.43: seq=18 ttl=52 time=119.680 ms
ping_17 | 64 bytes from 103.41.63.43: seq=14 ttl=52 time=119.230 ms
ping_11 | 64 bytes from 103.41.63.43: seq=12 ttl=52 time=119.598 ms
ping_12 | 64 bytes from 103.41.63.43: seq=14 ttl=52 time=119.627 ms
ping_19 | 64 bytes from 103.41.63.43: seq=15 ttl=52 time=119.567 ms
ping_3  | 64 bytes from 103.41.63.43: seq=21 ttl=52 time=119.893 ms
ping_8  | 64 bytes from 103.41.63.43: seq=22 ttl=52 time=119.921 ms
ping_18 | 64 bytes from 103.41.63.43: seq=13 ttl=52 time=119.577 ms
ping_6  | 64 bytes from 103.41.63.43: seq=21 ttl=52 time=119.914 ms
ping_10 | 64 bytes from 103.41.63.43: seq=18 ttl=52 time=119.473 ms
ping_15 | 64 bytes from 103.41.63.43: seq=10 ttl=52 time=119.540 ms
ping_1  | 64 bytes from 103.41.63.43: seq=18 ttl=52 time=119.424 ms
ping_16 | 64 bytes from 103.41.63.43: seq=13 ttl=52 time=119.623 ms
ping_9  | 64 bytes from 103.41.63.43: seq=21 ttl=52 time=119.739 ms
ping_7  | 64 bytes from 103.41.63.43: seq=20 ttl=52 time=119.523 ms
ping_13 | 64 bytes from 103.41.63.43: seq=14 ttl=52 time=119.575 ms
ping_14 | 64 bytes from 103.41.63.43: seq=11 ttl=52 time=119.648 ms
ping_4  | 64 bytes from 103.41.63.43: seq=22 ttl=52 time=119.826 ms
ping_20 | 64 bytes from 103.41.63.43: seq=12 ttl=52 time=119.850 ms
ping_2  | 64 bytes from 103.41.63.43: seq=17 ttl=52 time=119.742 ms
ping_5  | 64 bytes from 103.41.63.43: seq=19 ttl=52 time=119.762 ms
ping_17 | 64 bytes from 103.41.63.43: seq=15 ttl=52 time=119.889 ms
ping_11 | 64 bytes from 103.41.63.43: seq=13 ttl=52 time=119.669 ms
ping_12 | 64 bytes from 103.41.63.43: seq=15 ttl=52 time=119.760 ms
ping_19 | 64 bytes from 103.41.63.43: seq=16 ttl=52 time=119.621 ms
ping_3  | 64 bytes from 103.41.63.43: seq=22 ttl=52 time=119.414 ms
ping_8  | 64 bytes from 103.41.63.43: seq=23 ttl=52 time=119.940 ms
ping_18 | 64 bytes from 103.41.63.43: seq=14 ttl=52 time=119.630 ms
ping_6  | 64 bytes from 103.41.63.43: seq=22 ttl=52 time=119.789 ms
ping_10 | 64 bytes from 103.41.63.43: seq=19 ttl=52 time=119.790 ms
ping_15 | 64 bytes from 103.41.63.43: seq=11 ttl=52 time=119.635 ms
ping_1  | 64 bytes from 103.41.63.43: seq=19 ttl=52 time=119.690 ms
ping_16 | 64 bytes from 103.41.63.43: seq=14 ttl=52 time=119.607 ms
ping_9  | 64 bytes from 103.41.63.43: seq=22 ttl=52 time=119.327 ms
ping_7  | 64 bytes from 103.41.63.43: seq=21 ttl=52 time=119.287 ms
ping_13 | 64 bytes from 103.41.63.43: seq=15 ttl=52 time=119.913 ms
ping_14 | 64 bytes from 103.41.63.43: seq=12 ttl=52 time=119.698 ms
ping_20 | 64 bytes from 103.41.63.43: seq=13 ttl=52 time=119.722 ms
ping_4  | 64 bytes from 103.41.63.43: seq=23 ttl=52 time=119.767 ms
ping_2  | 64 bytes from 103.41.63.43: seq=18 ttl=52 time=119.349 ms
ping_5  | 64 bytes from 103.41.63.43: seq=20 ttl=52 time=119.409 ms
ping_17 | 64 bytes from 103.41.63.43: seq=16 ttl=52 time=120.000 ms
ping_11 | 64 bytes from 103.41.63.43: seq=14 ttl=52 time=119.979 ms
ping_12 | 64 bytes from 103.41.63.43: seq=16 ttl=52 time=119.478 ms
ping_19 | 64 bytes from 103.41.63.43: seq=17 ttl=52 time=119.412 ms
ping_3  | 64 bytes from 103.41.63.43: seq=23 ttl=52 time=119.320 ms
ping_8  | 64 bytes from 103.41.63.43: seq=24 ttl=52 time=119.931 ms
ping_18 | 64 bytes from 103.41.63.43: seq=15 ttl=52 time=119.636 ms
ping_6  | 64 bytes from 103.41.63.43: seq=23 ttl=52 time=119.357 ms
ping_10 | 64 bytes from 103.41.63.43: seq=20 ttl=52 time=119.586 ms
ping_15 | 64 bytes from 103.41.63.43: seq=12 ttl=52 time=119.742 ms
ping_1  | 64 bytes from 103.41.63.43: seq=20 ttl=52 time=119.360 ms
ping_16 | 64 bytes from 103.41.63.43: seq=15 ttl=52 time=119.474 ms
ping_9  | 64 bytes from 103.41.63.43: seq=23 ttl=52 time=119.826 ms
ping_7  | 64 bytes from 103.41.63.43: seq=22 ttl=52 time=119.577 ms
ping_13 | 64 bytes from 103.41.63.43: seq=16 ttl=52 time=119.393 ms
ping_14 | 64 bytes from 103.41.63.43: seq=13 ttl=52 time=119.398 ms
ping_20 | 64 bytes from 103.41.63.43: seq=14 ttl=52 time=119.401 ms
ping_4  | 64 bytes from 103.41.63.43: seq=24 ttl=52 time=119.404 ms
ping_2  | 64 bytes from 103.41.63.43: seq=19 ttl=52 time=119.383 ms
ping_5  | 64 bytes from 103.41.63.43: seq=21 ttl=52 time=119.309 ms
ping_17 | 64 bytes from 103.41.63.43: seq=17 ttl=52 time=119.881 ms
ping_11 | 64 bytes from 103.41.63.43: seq=15 ttl=52 time=119.547 ms
ping_12 | 64 bytes from 103.41.63.43: seq=17 ttl=52 time=119.728 ms
ping_19 | 64 bytes from 103.41.63.43: seq=18 ttl=52 time=119.365 ms
ping_3  | 64 bytes from 103.41.63.43: seq=24 ttl=52 time=119.405 ms
ping_8  | 64 bytes from 103.41.63.43: seq=25 ttl=52 time=119.369 ms
ping_18 | 64 bytes from 103.41.63.43: seq=16 ttl=52 time=119.679 ms
ping_6  | 64 bytes from 103.41.63.43: seq=24 ttl=52 time=119.716 ms
ping_10 | 64 bytes from 103.41.63.43: seq=21 ttl=52 time=119.581 ms
ping_15 | 64 bytes from 103.41.63.43: seq=13 ttl=52 time=119.967 ms
ping_1  | 64 bytes from 103.41.63.43: seq=21 ttl=52 time=119.791 ms
ping_16 | 64 bytes from 103.41.63.43: seq=16 ttl=52 time=119.709 ms
ping_9  | 64 bytes from 103.41.63.43: seq=24 ttl=52 time=119.413 ms
ping_7  | 64 bytes from 103.41.63.43: seq=23 ttl=52 time=119.309 ms
ping_13 | 64 bytes from 103.41.63.43: seq=17 ttl=52 time=119.298 ms
ping_14 | 64 bytes from 103.41.63.43: seq=14 ttl=52 time=119.278 ms
ping_20 | 64 bytes from 103.41.63.43: seq=15 ttl=52 time=119.353 ms
ping_4  | 64 bytes from 103.41.63.43: seq=25 ttl=52 time=119.291 ms
ping_2  | 64 bytes from 103.41.63.43: seq=20 ttl=52 time=119.335 ms
ping_5  | 64 bytes from 103.41.63.43: seq=22 ttl=52 time=119.833 ms
ping_17 | 64 bytes from 103.41.63.43: seq=18 ttl=52 time=119.666 ms
ping_11 | 64 bytes from 103.41.63.43: seq=16 ttl=52 time=119.696 ms
ping_12 | 64 bytes from 103.41.63.43: seq=18 ttl=52 time=119.741 ms
ping_19 | 64 bytes from 103.41.63.43: seq=19 ttl=52 time=119.553 ms
ping_3  | 64 bytes from 103.41.63.43: seq=25 ttl=52 time=119.954 ms
ping_8  | 64 bytes from 103.41.63.43: seq=26 ttl=52 time=119.936 ms
ping_18 | 64 bytes from 103.41.63.43: seq=17 ttl=52 time=119.568 ms
ping_6  | 64 bytes from 103.41.63.43: seq=25 ttl=52 time=119.822 ms
ping_10 | 64 bytes from 103.41.63.43: seq=22 ttl=52 time=119.881 ms
ping_15 | 64 bytes from 103.41.63.43: seq=14 ttl=52 time=119.842 ms
ping_1  | 64 bytes from 103.41.63.43: seq=22 ttl=52 time=119.726 ms
ping_16 | 64 bytes from 103.41.63.43: seq=17 ttl=52 time=119.735 ms
ping_9  | 64 bytes from 103.41.63.43: seq=25 ttl=52 time=119.926 ms
ping_7  | 64 bytes from 103.41.63.43: seq=24 ttl=52 time=119.543 ms
ping_13 | 64 bytes from 103.41.63.43: seq=18 ttl=52 time=119.676 ms
ping_14 | 64 bytes from 103.41.63.43: seq=15 ttl=52 time=119.339 ms
ping_4  | 64 bytes from 103.41.63.43: seq=26 ttl=52 time=119.356 ms
ping_20 | 64 bytes from 103.41.63.43: seq=16 ttl=52 time=119.398 ms
ping_2  | 64 bytes from 103.41.63.43: seq=21 ttl=52 time=119.739 ms
ping_5  | 64 bytes from 103.41.63.43: seq=23 ttl=52 time=119.728 ms
ping_17 | 64 bytes from 103.41.63.43: seq=19 ttl=52 time=119.568 ms
ping_11 | 64 bytes from 103.41.63.43: seq=17 ttl=52 time=119.574 ms
ping_12 | 64 bytes from 103.41.63.43: seq=19 ttl=52 time=119.815 ms
ping_19 | 64 bytes from 103.41.63.43: seq=20 ttl=52 time=119.672 ms
ping_3  | 64 bytes from 103.41.63.43: seq=26 ttl=52 time=119.692 ms
ping_8  | 64 bytes from 103.41.63.43: seq=27 ttl=52 time=119.512 ms
ping_18 | 64 bytes from 103.41.63.43: seq=18 ttl=52 time=119.575 ms
ping_6  | 64 bytes from 103.41.63.43: seq=26 ttl=52 time=119.614 ms
ping_10 | 64 bytes from 103.41.63.43: seq=23 ttl=52 time=119.611 ms
ping_15 | 64 bytes from 103.41.63.43: seq=15 ttl=52 time=119.506 ms
ping_1  | 64 bytes from 103.41.63.43: seq=23 ttl=52 time=119.404 ms
ping_16 | 64 bytes from 103.41.63.43: seq=18 ttl=52 time=119.701 ms
ping_9  | 64 bytes from 103.41.63.43: seq=26 ttl=52 time=119.662 ms
ping_7  | 64 bytes from 103.41.63.43: seq=25 ttl=52 time=119.798 ms
ping_13 | 64 bytes from 103.41.63.43: seq=19 ttl=52 time=119.790 ms
ping_14 | 64 bytes from 103.41.63.43: seq=16 ttl=52 time=119.637 ms
ping_20 | 64 bytes from 103.41.63.43: seq=17 ttl=52 time=119.347 ms
ping_4  | 64 bytes from 103.41.63.43: seq=27 ttl=52 time=119.373 ms
ping_2  | 64 bytes from 103.41.63.43: seq=22 ttl=52 time=119.296 ms
ping_5  | 64 bytes from 103.41.63.43: seq=24 ttl=52 time=119.316 ms
ping_17 | 64 bytes from 103.41.63.43: seq=20 ttl=52 time=119.708 ms
ping_11 | 64 bytes from 103.41.63.43: seq=18 ttl=52 time=119.314 ms
ping_12 | 64 bytes from 103.41.63.43: seq=20 ttl=52 time=119.580 ms
ping_19 | 64 bytes from 103.41.63.43: seq=21 ttl=52 time=119.736 ms
ping_3  | 64 bytes from 103.41.63.43: seq=27 ttl=52 time=119.584 ms
ping_8  | 64 bytes from 103.41.63.43: seq=28 ttl=52 time=119.717 ms
ping_18 | 64 bytes from 103.41.63.43: seq=19 ttl=52 time=119.522 ms
ping_6  | 64 bytes from 103.41.63.43: seq=27 ttl=52 time=119.631 ms
ping_10 | 64 bytes from 103.41.63.43: seq=24 ttl=52 time=119.836 ms
ping_15 | 64 bytes from 103.41.63.43: seq=16 ttl=52 time=119.810 ms
ping_1  | 64 bytes from 103.41.63.43: seq=24 ttl=52 time=119.861 ms
ping_16 | 64 bytes from 103.41.63.43: seq=19 ttl=52 time=119.947 ms
ping_9  | 64 bytes from 103.41.63.43: seq=27 ttl=52 time=119.604 ms
ping_7  | 64 bytes from 103.41.63.43: seq=26 ttl=52 time=119.353 ms
ping_13 | 64 bytes from 103.41.63.43: seq=20 ttl=52 time=119.382 ms
ping_14 | 64 bytes from 103.41.63.43: seq=17 ttl=52 time=119.474 ms
ping_20 | 64 bytes from 103.41.63.43: seq=18 ttl=52 time=119.345 ms
ping_4  | 64 bytes from 103.41.63.43: seq=28 ttl=52 time=119.364 ms
ping_2  | 64 bytes from 103.41.63.43: seq=23 ttl=52 time=119.722 ms
ping_5  | 64 bytes from 103.41.63.43: seq=25 ttl=52 time=119.612 ms
ping_17 | 64 bytes from 103.41.63.43: seq=21 ttl=52 time=119.786 ms
ping_11 | 64 bytes from 103.41.63.43: seq=19 ttl=52 time=119.853 ms
ping_12 | 64 bytes from 103.41.63.43: seq=21 ttl=52 time=119.477 ms
ping_19 | 64 bytes from 103.41.63.43: seq=22 ttl=52 time=119.511 ms
ping_3  | 64 bytes from 103.41.63.43: seq=28 ttl=52 time=119.363 ms
ping_8  | 64 bytes from 103.41.63.43: seq=29 ttl=52 time=119.437 ms
ping_18 | 64 bytes from 103.41.63.43: seq=20 ttl=52 time=119.266 ms
ping_6  | 64 bytes from 103.41.63.43: seq=28 ttl=52 time=119.348 ms
ping_10 | 64 bytes from 103.41.63.43: seq=25 ttl=52 time=119.450 ms
ping_15 | 64 bytes from 103.41.63.43: seq=17 ttl=52 time=119.519 ms
ping_1  | 64 bytes from 103.41.63.43: seq=25 ttl=52 time=119.309 ms
ping_16 | 64 bytes from 103.41.63.43: seq=20 ttl=52 time=119.377 ms
ping_9  | 64 bytes from 103.41.63.43: seq=28 ttl=52 time=119.301 ms
ping_7  | 64 bytes from 103.41.63.43: seq=27 ttl=52 time=119.669 ms
ping_13 | 64 bytes from 103.41.63.43: seq=21 ttl=52 time=119.755 ms
ping_14 | 64 bytes from 103.41.63.43: seq=18 ttl=52 time=119.437 ms
ping_20 | 64 bytes from 103.41.63.43: seq=19 ttl=52 time=119.358 ms
ping_4  | 64 bytes from 103.41.63.43: seq=29 ttl=52 time=119.317 ms
ping_2  | 64 bytes from 103.41.63.43: seq=24 ttl=52 time=119.757 ms
ping_5  | 64 bytes from 103.41.63.43: seq=26 ttl=52 time=119.555 ms
ping_17 | 64 bytes from 103.41.63.43: seq=22 ttl=52 time=119.665 ms
ping_11 | 64 bytes from 103.41.63.43: seq=20 ttl=52 time=119.409 ms
ping_12 | 64 bytes from 103.41.63.43: seq=22 ttl=52 time=119.453 ms
ping_19 | 64 bytes from 103.41.63.43: seq=23 ttl=52 time=119.819 ms
ping_3  | 64 bytes from 103.41.63.43: seq=29 ttl=52 time=119.697 ms
ping_8  | 64 bytes from 103.41.63.43: seq=30 ttl=52 time=119.715 ms
ping_18 | 64 bytes from 103.41.63.43: seq=21 ttl=52 time=119.669 ms
ping_6  | 64 bytes from 103.41.63.43: seq=29 ttl=52 time=119.393 ms
ping_10 | 64 bytes from 103.41.63.43: seq=26 ttl=52 time=119.364 ms
ping_15 | 64 bytes from 103.41.63.43: seq=18 ttl=52 time=119.850 ms
ping_1  | 64 bytes from 103.41.63.43: seq=26 ttl=52 time=119.393 ms
ping_16 | 64 bytes from 103.41.63.43: seq=21 ttl=52 time=119.351 ms
ping_9  | 64 bytes from 103.41.63.43: seq=29 ttl=52 time=119.373 ms
ping_7  | 64 bytes from 103.41.63.43: seq=28 ttl=52 time=119.344 ms
ping_13 | 64 bytes from 103.41.63.43: seq=22 ttl=52 time=119.375 ms
ping_14 | 64 bytes from 103.41.63.43: seq=19 ttl=52 time=119.689 ms
ping_20 | 64 bytes from 103.41.63.43: seq=20 ttl=52 time=119.394 ms
ping_4  | 64 bytes from 103.41.63.43: seq=30 ttl=52 time=119.359 ms
ping_2  | 64 bytes from 103.41.63.43: seq=25 ttl=52 time=119.812 ms
ping_5  | 64 bytes from 103.41.63.43: seq=27 ttl=52 time=119.562 ms
ping_17 | 64 bytes from 103.41.63.43: seq=23 ttl=52 time=119.611 ms
ping_11 | 64 bytes from 103.41.63.43: seq=21 ttl=52 time=119.689 ms
ping_12 | 64 bytes from 103.41.63.43: seq=23 ttl=52 time=119.779 ms
ping_19 | 64 bytes from 103.41.63.43: seq=24 ttl=52 time=119.552 ms
ping_3  | 64 bytes from 103.41.63.43: seq=30 ttl=52 time=119.296 ms
ping_8  | 64 bytes from 103.41.63.43: seq=31 ttl=52 time=119.857 ms
ping_18 | 64 bytes from 103.41.63.43: seq=22 ttl=52 time=119.578 ms
ping_6  | 64 bytes from 103.41.63.43: seq=30 ttl=52 time=120.085 ms
ping_10 | 64 bytes from 103.41.63.43: seq=27 ttl=52 time=119.632 ms
ping_15 | 64 bytes from 103.41.63.43: seq=19 ttl=52 time=119.744 ms
ping_1  | 64 bytes from 103.41.63.43: seq=27 ttl=52 time=119.815 ms
ping_16 | 64 bytes from 103.41.63.43: seq=22 ttl=52 time=119.328 ms
ping_9  | 64 bytes from 103.41.63.43: seq=30 ttl=52 time=119.631 ms
ping_7  | 64 bytes from 103.41.63.43: seq=29 ttl=52 time=119.440 ms
ping_13 | 64 bytes from 103.41.63.43: seq=23 ttl=52 time=119.711 ms
ping_14 | 64 bytes from 103.41.63.43: seq=20 ttl=52 time=119.725 ms
ping_20 | 64 bytes from 103.41.63.43: seq=21 ttl=52 time=119.440 ms
ping_4  | 64 bytes from 103.41.63.43: seq=31 ttl=52 time=119.440 ms
ping_2  | 64 bytes from 103.41.63.43: seq=26 ttl=52 time=119.670 ms
ping_5  | 64 bytes from 103.41.63.43: seq=28 ttl=52 time=119.721 ms
ping_17 | 64 bytes from 103.41.63.43: seq=24 ttl=52 time=119.910 ms
ping_11 | 64 bytes from 103.41.63.43: seq=22 ttl=52 time=119.949 ms
ping_12 | 64 bytes from 103.41.63.43: seq=24 ttl=52 time=119.809 ms
ping_19 | 64 bytes from 103.41.63.43: seq=25 ttl=52 time=119.553 ms
ping_3  | 64 bytes from 103.41.63.43: seq=31 ttl=52 time=119.882 ms
ping_8  | 64 bytes from 103.41.63.43: seq=32 ttl=52 time=119.550 ms
ping_18 | 64 bytes from 103.41.63.43: seq=23 ttl=52 time=119.785 ms
ping_6  | 64 bytes from 103.41.63.43: seq=31 ttl=52 time=119.781 ms
ping_10 | 64 bytes from 103.41.63.43: seq=28 ttl=52 time=119.687 ms
ping_15 | 64 bytes from 103.41.63.43: seq=20 ttl=52 time=119.729 ms
ping_1  | 64 bytes from 103.41.63.43: seq=28 ttl=52 time=119.590 ms
ping_16 | 64 bytes from 103.41.63.43: seq=23 ttl=52 time=119.562 ms
ping_9  | 64 bytes from 103.41.63.43: seq=31 ttl=52 time=119.681 ms
ping_7  | 64 bytes from 103.41.63.43: seq=30 ttl=52 time=119.738 ms
ping_13 | 64 bytes from 103.41.63.43: seq=24 ttl=52 time=125.040 ms
ping_14 | 64 bytes from 103.41.63.43: seq=21 ttl=52 time=126.622 ms
ping_20 | 64 bytes from 103.41.63.43: seq=22 ttl=52 time=123.076 ms
ping_4  | 64 bytes from 103.41.63.43: seq=32 ttl=52 time=123.076 ms
ping_2  | 64 bytes from 103.41.63.43: seq=27 ttl=52 time=119.361 ms
ping_5  | 64 bytes from 103.41.63.43: seq=29 ttl=52 time=119.753 ms
ping_17 | 64 bytes from 103.41.63.43: seq=25 ttl=52 time=119.716 ms
ping_11 | 64 bytes from 103.41.63.43: seq=23 ttl=52 time=119.412 ms
ping_12 | 64 bytes from 103.41.63.43: seq=25 ttl=52 time=119.655 ms
ping_19 | 64 bytes from 103.41.63.43: seq=26 ttl=52 time=119.706 ms
ping_3  | 64 bytes from 103.41.63.43: seq=32 ttl=52 time=119.610 ms
ping_8  | 64 bytes from 103.41.63.43: seq=33 ttl=52 time=119.704 ms
ping_18 | 64 bytes from 103.41.63.43: seq=24 ttl=52 time=119.586 ms
ping_6  | 64 bytes from 103.41.63.43: seq=32 ttl=52 time=119.779 ms
ping_10 | 64 bytes from 103.41.63.43: seq=29 ttl=52 time=119.836 ms
ping_15 | 64 bytes from 103.41.63.43: seq=21 ttl=52 time=119.850 ms
ping_1  | 64 bytes from 103.41.63.43: seq=29 ttl=52 time=119.523 ms
ping_16 | 64 bytes from 103.41.63.43: seq=24 ttl=52 time=119.697 ms
ping_9  | 64 bytes from 103.41.63.43: seq=32 ttl=52 time=119.388 ms
ping_7  | 64 bytes from 103.41.63.43: seq=31 ttl=52 time=119.444 ms
ping_13 | 64 bytes from 103.41.63.43: seq=25 ttl=52 time=119.494 ms
ping_14 | 64 bytes from 103.41.63.43: seq=22 ttl=52 time=119.567 ms
ping_20 | 64 bytes from 103.41.63.43: seq=23 ttl=52 time=119.541 ms
ping_4  | 64 bytes from 103.41.63.43: seq=33 ttl=52 time=119.541 ms
ping_2  | 64 bytes from 103.41.63.43: seq=28 ttl=52 time=120.116 ms
ping_5  | 64 bytes from 103.41.63.43: seq=30 ttl=52 time=119.794 ms
ping_17 | 64 bytes from 103.41.63.43: seq=26 ttl=52 time=119.889 ms
ping_11 | 64 bytes from 103.41.63.43: seq=24 ttl=52 time=119.955 ms
ping_12 | 64 bytes from 103.41.63.43: seq=26 ttl=52 time=119.829 ms
ping_19 | 64 bytes from 103.41.63.43: seq=27 ttl=52 time=119.777 ms
ping_3  | 64 bytes from 103.41.63.43: seq=33 ttl=52 time=119.682 ms
ping_8  | 64 bytes from 103.41.63.43: seq=34 ttl=52 time=119.613 ms
ping_18 | 64 bytes from 103.41.63.43: seq=25 ttl=52 time=119.772 ms
ping_6  | 64 bytes from 103.41.63.43: seq=33 ttl=52 time=119.615 ms
ping_10 | 64 bytes from 103.41.63.43: seq=30 ttl=52 time=119.672 ms
ping_15 | 64 bytes from 103.41.63.43: seq=22 ttl=52 time=119.843 ms
ping_1  | 64 bytes from 103.41.63.43: seq=30 ttl=52 time=119.877 ms
ping_16 | 64 bytes from 103.41.63.43: seq=25 ttl=52 time=119.873 ms
ping_9  | 64 bytes from 103.41.63.43: seq=33 ttl=52 time=119.814 ms
ping_7  | 64 bytes from 103.41.63.43: seq=32 ttl=52 time=119.648 ms
ping_13 | 64 bytes from 103.41.63.43: seq=26 ttl=52 time=119.813 ms
ping_14 | 64 bytes from 103.41.63.43: seq=23 ttl=52 time=119.675 ms
ping_4  | 64 bytes from 103.41.63.43: seq=34 ttl=52 time=119.475 ms
ping_20 | 64 bytes from 103.41.63.43: seq=24 ttl=52 time=119.502 ms
ping_2  | 64 bytes from 103.41.63.43: seq=29 ttl=52 time=119.835 ms
ping_5  | 64 bytes from 103.41.63.43: seq=31 ttl=52 time=119.843 ms
ping_17 | 64 bytes from 103.41.63.43: seq=27 ttl=52 time=119.430 ms
ping_11 | 64 bytes from 103.41.63.43: seq=25 ttl=52 time=119.672 ms
ping_12 | 64 bytes from 103.41.63.43: seq=27 ttl=52 time=119.796 ms
ping_19 | 64 bytes from 103.41.63.43: seq=28 ttl=52 time=119.687 ms
ping_3  | 64 bytes from 103.41.63.43: seq=34 ttl=52 time=119.371 ms
ping_8  | 64 bytes from 103.41.63.43: seq=35 ttl=52 time=119.756 ms
ping_18 | 64 bytes from 103.41.63.43: seq=26 ttl=52 time=119.763 ms
ping_6  | 64 bytes from 103.41.63.43: seq=34 ttl=52 time=119.755 ms
ping_10 | 64 bytes from 103.41.63.43: seq=31 ttl=52 time=119.518 ms
ping_15 | 64 bytes from 103.41.63.43: seq=23 ttl=52 time=119.576 ms
ping_1  | 64 bytes from 103.41.63.43: seq=31 ttl=52 time=119.463 ms
ping_16 | 64 bytes from 103.41.63.43: seq=26 ttl=52 time=119.700 ms
ping_9  | 64 bytes from 103.41.63.43: seq=34 ttl=52 time=119.475 ms
ping_7  | 64 bytes from 103.41.63.43: seq=33 ttl=52 time=119.496 ms
ping_13 | 64 bytes from 103.41.63.43: seq=27 ttl=52 time=119.721 ms
ping_14 | 64 bytes from 103.41.63.43: seq=24 ttl=52 time=119.546 ms
ping_4  | 64 bytes from 103.41.63.43: seq=35 ttl=52 time=119.652 ms
ping_20 | 64 bytes from 103.41.63.43: seq=25 ttl=52 time=119.623 ms
ping_2  | 64 bytes from 103.41.63.43: seq=30 ttl=52 time=119.287 ms
ping_5  | 64 bytes from 103.41.63.43: seq=32 ttl=52 time=119.720 ms
ping_17 | 64 bytes from 103.41.63.43: seq=28 ttl=52 time=119.808 ms
ping_11 | 64 bytes from 103.41.63.43: seq=26 ttl=52 time=119.423 ms
ping_12 | 64 bytes from 103.41.63.43: seq=28 ttl=52 time=119.699 ms
ping_19 | 64 bytes from 103.41.63.43: seq=29 ttl=52 time=119.327 ms
ping_3  | 64 bytes from 103.41.63.43: seq=35 ttl=52 time=123.984 ms
ping_8  | 64 bytes from 103.41.63.43: seq=36 ttl=52 time=119.368 ms
ping_18 | 64 bytes from 103.41.63.43: seq=27 ttl=52 time=119.375 ms
ping_6  | 64 bytes from 103.41.63.43: seq=35 ttl=52 time=119.678 ms
ping_10 | 64 bytes from 103.41.63.43: seq=32 ttl=52 time=119.693 ms
ping_15 | 64 bytes from 103.41.63.43: seq=24 ttl=52 time=119.256 ms
ping_1  | 64 bytes from 103.41.63.43: seq=32 ttl=52 time=119.302 ms
ping_16 | 64 bytes from 103.41.63.43: seq=27 ttl=52 time=119.522 ms
ping_9  | 64 bytes from 103.41.63.43: seq=35 ttl=52 time=119.621 ms
ping_7  | 64 bytes from 103.41.63.43: seq=34 ttl=52 time=119.487 ms
ping_13 | 64 bytes from 103.41.63.43: seq=28 ttl=52 time=119.518 ms
ping_14 | 64 bytes from 103.41.63.43: seq=25 ttl=52 time=119.725 ms
ping_4  | 64 bytes from 103.41.63.43: seq=36 ttl=52 time=119.420 ms
ping_20 | 64 bytes from 103.41.63.43: seq=26 ttl=52 time=119.410 ms
ping_2  | 64 bytes from 103.41.63.43: seq=31 ttl=52 time=119.273 ms
ping_5  | 64 bytes from 103.41.63.43: seq=33 ttl=52 time=119.462 ms
ping_17 | 64 bytes from 103.41.63.43: seq=29 ttl=52 time=119.638 ms
ping_11 | 64 bytes from 103.41.63.43: seq=27 ttl=52 time=119.722 ms
ping_12 | 64 bytes from 103.41.63.43: seq=29 ttl=52 time=119.720 ms
ping_19 | 64 bytes from 103.41.63.43: seq=30 ttl=52 time=119.743 ms
ping_3  | 64 bytes from 103.41.63.43: seq=36 ttl=52 time=119.640 ms
ping_8  | 64 bytes from 103.41.63.43: seq=37 ttl=52 time=119.743 ms
ping_18 | 64 bytes from 103.41.63.43: seq=28 ttl=52 time=119.630 ms
ping_6  | 64 bytes from 103.41.63.43: seq=36 ttl=52 time=119.629 ms
ping_10 | 64 bytes from 103.41.63.43: seq=33 ttl=52 time=120.013 ms
ping_15 | 64 bytes from 103.41.63.43: seq=25 ttl=52 time=119.503 ms
ping_1  | 64 bytes from 103.41.63.43: seq=33 ttl=52 time=119.795 ms
ping_16 | 64 bytes from 103.41.63.43: seq=28 ttl=52 time=120.060 ms
ping_9  | 64 bytes from 103.41.63.43: seq=36 ttl=52 time=119.658 ms
ping_7  | 64 bytes from 103.41.63.43: seq=35 ttl=52 time=119.354 ms
ping_13 | 64 bytes from 103.41.63.43: seq=29 ttl=52 time=119.554 ms
ping_14 | 64 bytes from 103.41.63.43: seq=26 ttl=52 time=119.917 ms
ping_4  | 64 bytes from 103.41.63.43: seq=37 ttl=52 time=119.634 ms
ping_20 | 64 bytes from 103.41.63.43: seq=27 ttl=52 time=119.589 ms
ping_2  | 64 bytes from 103.41.63.43: seq=32 ttl=52 time=119.648 ms
ping_5  | 64 bytes from 103.41.63.43: seq=34 ttl=52 time=119.936 ms
ping_17 | 64 bytes from 103.41.63.43: seq=30 ttl=52 time=119.576 ms
ping_11 | 64 bytes from 103.41.63.43: seq=28 ttl=52 time=119.731 ms
ping_12 | 64 bytes from 103.41.63.43: seq=30 ttl=52 time=119.824 ms
ping_19 | 64 bytes from 103.41.63.43: seq=31 ttl=52 time=119.652 ms
ping_3  | 64 bytes from 103.41.63.43: seq=37 ttl=52 time=119.866 ms
ping_8  | 64 bytes from 103.41.63.43: seq=38 ttl=52 time=119.669 ms
ping_18 | 64 bytes from 103.41.63.43: seq=29 ttl=52 time=119.401 ms
ping_6  | 64 bytes from 103.41.63.43: seq=37 ttl=52 time=119.400 ms
ping_10 | 64 bytes from 103.41.63.43: seq=34 ttl=52 time=119.298 ms
ping_15 | 64 bytes from 103.41.63.43: seq=26 ttl=52 time=119.617 ms
ping_1  | 64 bytes from 103.41.63.43: seq=34 ttl=52 time=119.815 ms
ping_16 | 64 bytes from 103.41.63.43: seq=29 ttl=52 time=119.444 ms
ping_9  | 64 bytes from 103.41.63.43: seq=37 ttl=52 time=119.615 ms
ping_7  | 64 bytes from 103.41.63.43: seq=36 ttl=52 time=119.637 ms
ping_13 | 64 bytes from 103.41.63.43: seq=30 ttl=52 time=119.559 ms
ping_14 | 64 bytes from 103.41.63.43: seq=27 ttl=52 time=119.728 ms
ping_4  | 64 bytes from 103.41.63.43: seq=38 ttl=52 time=119.606 ms
ping_20 | 64 bytes from 103.41.63.43: seq=28 ttl=52 time=119.563 ms
ping_2  | 64 bytes from 103.41.63.43: seq=33 ttl=52 time=119.713 ms
ping_5  | 64 bytes from 103.41.63.43: seq=35 ttl=52 time=119.849 ms
ping_17 | 64 bytes from 103.41.63.43: seq=31 ttl=52 time=119.745 ms
ping_11 | 64 bytes from 103.41.63.43: seq=29 ttl=52 time=119.765 ms
ping_12 | 64 bytes from 103.41.63.43: seq=31 ttl=52 time=119.663 ms
ping_19 | 64 bytes from 103.41.63.43: seq=32 ttl=52 time=119.672 ms
ping_3  | 64 bytes from 103.41.63.43: seq=38 ttl=52 time=127.754 ms
ping_8  | 64 bytes from 103.41.63.43: seq=39 ttl=52 time=119.759 ms
ping_18 | 64 bytes from 103.41.63.43: seq=30 ttl=52 time=119.573 ms
ping_6  | 64 bytes from 103.41.63.43: seq=38 ttl=52 time=119.644 ms
ping_10 | 64 bytes from 103.41.63.43: seq=35 ttl=52 time=119.596 ms
ping_15 | 64 bytes from 103.41.63.43: seq=27 ttl=52 time=119.703 ms
ping_1  | 64 bytes from 103.41.63.43: seq=35 ttl=52 time=119.862 ms
ping_16 | 64 bytes from 103.41.63.43: seq=30 ttl=52 time=119.759 ms
ping_9  | 64 bytes from 103.41.63.43: seq=38 ttl=52 time=119.902 ms
ping_7  | 64 bytes from 103.41.63.43: seq=37 ttl=52 time=119.728 ms
ping_13 | 64 bytes from 103.41.63.43: seq=31 ttl=52 time=119.544 ms
ping_14 | 64 bytes from 103.41.63.43: seq=28 ttl=52 time=119.913 ms
ping_20 | 64 bytes from 103.41.63.43: seq=29 ttl=52 time=119.495 ms
ping_4  | 64 bytes from 103.41.63.43: seq=39 ttl=52 time=119.543 ms
ping_2  | 64 bytes from 103.41.63.43: seq=34 ttl=52 time=119.919 ms
ping_5  | 64 bytes from 103.41.63.43: seq=36 ttl=52 time=119.791 ms
ping_17 | 64 bytes from 103.41.63.43: seq=32 ttl=52 time=119.744 ms
ping_11 | 64 bytes from 103.41.63.43: seq=30 ttl=52 time=119.739 ms
ping_12 | 64 bytes from 103.41.63.43: seq=32 ttl=52 time=119.380 ms
ping_19 | 64 bytes from 103.41.63.43: seq=33 ttl=52 time=119.269 ms
ping_3  | 64 bytes from 103.41.63.43: seq=39 ttl=52 time=119.237 ms
ping_8  | 64 bytes from 103.41.63.43: seq=40 ttl=52 time=119.448 ms
ping_18 | 64 bytes from 103.41.63.43: seq=31 ttl=52 time=119.555 ms
ping_6  | 64 bytes from 103.41.63.43: seq=39 ttl=52 time=119.858 ms
ping_10 | 64 bytes from 103.41.63.43: seq=36 ttl=52 time=119.651 ms
ping_15 | 64 bytes from 103.41.63.43: seq=28 ttl=52 time=119.869 ms
ping_1  | 64 bytes from 103.41.63.43: seq=36 ttl=52 time=119.607 ms
ping_16 | 64 bytes from 103.41.63.43: seq=31 ttl=52 time=119.358 ms
ping_9  | 64 bytes from 103.41.63.43: seq=39 ttl=52 time=119.388 ms
ping_7  | 64 bytes from 103.41.63.43: seq=38 ttl=52 time=119.332 ms
ping_13 | 64 bytes from 103.41.63.43: seq=32 ttl=52 time=119.878 ms
ping_14 | 64 bytes from 103.41.63.43: seq=29 ttl=52 time=119.654 ms
ping_20 | 64 bytes from 103.41.63.43: seq=30 ttl=52 time=119.426 ms
ping_4  | 64 bytes from 103.41.63.43: seq=40 ttl=52 time=119.443 ms
ping_2  | 64 bytes from 103.41.63.43: seq=35 ttl=52 time=119.793 ms
ping_5  | 64 bytes from 103.41.63.43: seq=37 ttl=52 time=119.834 ms
ping_17 | 64 bytes from 103.41.63.43: seq=33 ttl=52 time=119.502 ms
ping_11 | 64 bytes from 103.41.63.43: seq=31 ttl=52 time=119.662 ms
ping_12 | 64 bytes from 103.41.63.43: seq=33 ttl=52 time=119.757 ms
ping_19 | 64 bytes from 103.41.63.43: seq=34 ttl=52 time=119.762 ms
ping_3  | 64 bytes from 103.41.63.43: seq=40 ttl=52 time=119.699 ms
ping_8  | 64 bytes from 103.41.63.43: seq=41 ttl=52 time=119.643 ms
ping_18 | 64 bytes from 103.41.63.43: seq=32 ttl=52 time=119.618 ms
ping_6  | 64 bytes from 103.41.63.43: seq=40 ttl=52 time=119.346 ms
ping_10 | 64 bytes from 103.41.63.43: seq=37 ttl=52 time=119.578 ms
ping_15 | 64 bytes from 103.41.63.43: seq=29 ttl=52 time=119.714 ms
ping_1  | 64 bytes from 103.41.63.43: seq=37 ttl=52 time=119.966 ms
ping_16 | 64 bytes from 103.41.63.43: seq=32 ttl=52 time=119.895 ms
ping_9  | 64 bytes from 103.41.63.43: seq=40 ttl=52 time=119.598 ms
ping_7  | 64 bytes from 103.41.63.43: seq=39 ttl=52 time=119.782 ms
ping_13 | 64 bytes from 103.41.63.43: seq=33 ttl=52 time=119.861 ms
ping_14 | 64 bytes from 103.41.63.43: seq=30 ttl=52 time=119.891 ms
ping_4  | 64 bytes from 103.41.63.43: seq=41 ttl=52 time=119.393 ms
ping_20 | 64 bytes from 103.41.63.43: seq=31 ttl=52 time=119.354 ms
ping_2  | 64 bytes from 103.41.63.43: seq=36 ttl=52 time=119.291 ms
ping_5  | 64 bytes from 103.41.63.43: seq=38 ttl=52 time=119.381 ms
ping_17 | 64 bytes from 103.41.63.43: seq=34 ttl=52 time=119.306 ms
ping_11 | 64 bytes from 103.41.63.43: seq=32 ttl=52 time=119.666 ms
ping_12 | 64 bytes from 103.41.63.43: seq=34 ttl=52 time=119.737 ms
ping_19 | 64 bytes from 103.41.63.43: seq=35 ttl=52 time=119.393 ms
ping_3  | 64 bytes from 103.41.63.43: seq=41 ttl=52 time=119.318 ms
ping_8  | 64 bytes from 103.41.63.43: seq=42 ttl=52 time=119.752 ms
ping_18 | 64 bytes from 103.41.63.43: seq=33 ttl=52 time=119.449 ms
ping_6  | 64 bytes from 103.41.63.43: seq=41 ttl=52 time=119.439 ms
ping_10 | 64 bytes from 103.41.63.43: seq=38 ttl=52 time=119.340 ms
ping_15 | 64 bytes from 103.41.63.43: seq=30 ttl=52 time=119.729 ms
ping_1  | 64 bytes from 103.41.63.43: seq=38 ttl=52 time=119.363 ms
ping_16 | 64 bytes from 103.41.63.43: seq=33 ttl=52 time=119.357 ms
ping_9  | 64 bytes from 103.41.63.43: seq=41 ttl=52 time=120.756 ms
ping_7  | 64 bytes from 103.41.63.43: seq=40 ttl=52 time=119.814 ms
ping_13 | 64 bytes from 103.41.63.43: seq=34 ttl=52 time=119.760 ms
ping_14 | 64 bytes from 103.41.63.43: seq=31 ttl=52 time=119.341 ms
ping_4  | 64 bytes from 103.41.63.43: seq=42 ttl=52 time=119.494 ms
ping_20 | 64 bytes from 103.41.63.43: seq=32 ttl=52 time=119.462 ms
ping_2  | 64 bytes from 103.41.63.43: seq=37 ttl=52 time=119.872 ms
ping_5  | 64 bytes from 103.41.63.43: seq=39 ttl=52 time=119.654 ms
ping_17 | 64 bytes from 103.41.63.43: seq=35 ttl=52 time=119.700 ms
ping_11 | 64 bytes from 103.41.63.43: seq=33 ttl=52 time=119.619 ms
ping_12 | 64 bytes from 103.41.63.43: seq=35 ttl=52 time=119.700 ms
ping_19 | 64 bytes from 103.41.63.43: seq=36 ttl=52 time=119.696 ms
ping_3  | 64 bytes from 103.41.63.43: seq=42 ttl=52 time=119.670 ms
ping_8  | 64 bytes from 103.41.63.43: seq=43 ttl=52 time=119.698 ms
ping_18 | 64 bytes from 103.41.63.43: seq=34 ttl=52 time=119.669 ms
ping_6  | 64 bytes from 103.41.63.43: seq=42 ttl=52 time=119.604 ms
ping_10 | 64 bytes from 103.41.63.43: seq=39 ttl=52 time=119.626 ms
ping_15 | 64 bytes from 103.41.63.43: seq=31 ttl=52 time=119.630 ms
ping_1  | 64 bytes from 103.41.63.43: seq=39 ttl=52 time=119.687 ms
ping_16 | 64 bytes from 103.41.63.43: seq=34 ttl=52 time=119.341 ms
ping_9  | 64 bytes from 103.41.63.43: seq=42 ttl=52 time=119.691 ms
ping_7  | 64 bytes from 103.41.63.43: seq=41 ttl=52 time=119.716 ms
ping_13 | 64 bytes from 103.41.63.43: seq=35 ttl=52 time=119.742 ms
ping_14 | 64 bytes from 103.41.63.43: seq=32 ttl=52 time=119.690 ms
ping_20 | 64 bytes from 103.41.63.43: seq=33 ttl=52 time=119.794 ms
ping_4  | 64 bytes from 103.41.63.43: seq=43 ttl=52 time=119.822 ms
ping_2  | 64 bytes from 103.41.63.43: seq=38 ttl=52 time=119.847 ms
ping_5  | 64 bytes from 103.41.63.43: seq=40 ttl=52 time=119.363 ms
ping_17 | 64 bytes from 103.41.63.43: seq=36 ttl=52 time=119.782 ms
ping_11 | 64 bytes from 103.41.63.43: seq=34 ttl=52 time=120.346 ms
ping_12 | 64 bytes from 103.41.63.43: seq=36 ttl=52 time=119.297 ms
ping_19 | 64 bytes from 103.41.63.43: seq=37 ttl=52 time=119.279 ms
ping_3  | 64 bytes from 103.41.63.43: seq=43 ttl=52 time=119.244 ms
ping_8  | 64 bytes from 103.41.63.43: seq=44 ttl=52 time=119.282 ms
ping_18 | 64 bytes from 103.41.63.43: seq=35 ttl=52 time=119.708 ms
ping_6  | 64 bytes from 103.41.63.43: seq=43 ttl=52 time=119.576 ms
ping_10 | 64 bytes from 103.41.63.43: seq=40 ttl=52 time=119.624 ms
ping_15 | 64 bytes from 103.41.63.43: seq=32 ttl=52 time=119.976 ms
ping_1  | 64 bytes from 103.41.63.43: seq=40 ttl=52 time=119.782 ms
ping_16 | 64 bytes from 103.41.63.43: seq=35 ttl=52 time=119.606 ms
ping_9  | 64 bytes from 103.41.63.43: seq=43 ttl=52 time=122.320 ms
ping_7  | 64 bytes from 103.41.63.43: seq=42 ttl=52 time=119.346 ms
ping_13 | 64 bytes from 103.41.63.43: seq=36 ttl=52 time=119.864 ms
ping_14 | 64 bytes from 103.41.63.43: seq=33 ttl=52 time=119.764 ms
ping_20 | 64 bytes from 103.41.63.43: seq=34 ttl=52 time=119.354 ms
ping_4  | 64 bytes from 103.41.63.43: seq=44 ttl=52 time=119.354 ms
ping_2  | 64 bytes from 103.41.63.43: seq=39 ttl=52 time=119.275 ms
ping_5  | 64 bytes from 103.41.63.43: seq=41 ttl=52 time=119.695 ms
ping_17 | 64 bytes from 103.41.63.43: seq=37 ttl=52 time=119.471 ms
ping_11 | 64 bytes from 103.41.63.43: seq=35 ttl=52 time=119.666 ms
ping_12 | 64 bytes from 103.41.63.43: seq=37 ttl=52 time=119.890 ms
ping_19 | 64 bytes from 103.41.63.43: seq=38 ttl=52 time=119.701 ms
ping_3  | 64 bytes from 103.41.63.43: seq=44 ttl=52 time=119.876 ms
ping_8  | 64 bytes from 103.41.63.43: seq=45 ttl=52 time=119.332 ms
ping_18 | 64 bytes from 103.41.63.43: seq=36 ttl=52 time=119.688 ms
ping_6  | 64 bytes from 103.41.63.43: seq=44 ttl=52 time=119.594 ms
ping_10 | 64 bytes from 103.41.63.43: seq=41 ttl=52 time=119.799 ms
ping_15 | 64 bytes from 103.41.63.43: seq=33 ttl=52 time=119.857 ms
ping_1  | 64 bytes from 103.41.63.43: seq=41 ttl=52 time=119.873 ms
ping_16 | 64 bytes from 103.41.63.43: seq=36 ttl=52 time=119.472 ms
ping_9  | 64 bytes from 103.41.63.43: seq=44 ttl=52 time=119.729 ms
ping_7  | 64 bytes from 103.41.63.43: seq=43 ttl=52 time=119.732 ms
ping_13 | 64 bytes from 103.41.63.43: seq=37 ttl=52 time=119.741 ms
ping_14 | 64 bytes from 103.41.63.43: seq=34 ttl=52 time=119.556 ms
ping_4  | 64 bytes from 103.41.63.43: seq=45 ttl=52 time=119.677 ms
ping_20 | 64 bytes from 103.41.63.43: seq=35 ttl=52 time=119.643 ms
ping_2  | 64 bytes from 103.41.63.43: seq=40 ttl=52 time=119.916 ms
ping_5  | 64 bytes from 103.41.63.43: seq=42 ttl=52 time=119.873 ms
ping_17 | 64 bytes from 103.41.63.43: seq=38 ttl=52 time=119.935 ms
ping_11 | 64 bytes from 103.41.63.43: seq=36 ttl=52 time=119.355 ms
ping_12 | 64 bytes from 103.41.63.43: seq=38 ttl=52 time=119.746 ms
ping_19 | 64 bytes from 103.41.63.43: seq=39 ttl=52 time=119.815 ms
ping_3  | 64 bytes from 103.41.63.43: seq=45 ttl=52 time=119.860 ms
ping_8  | 64 bytes from 103.41.63.43: seq=46 ttl=52 time=119.884 ms
ping_18 | 64 bytes from 103.41.63.43: seq=37 ttl=52 time=119.599 ms
ping_6  | 64 bytes from 103.41.63.43: seq=45 ttl=52 time=119.653 ms
ping_10 | 64 bytes from 103.41.63.43: seq=42 ttl=52 time=119.449 ms
ping_15 | 64 bytes from 103.41.63.43: seq=34 ttl=52 time=119.680 ms
ping_1  | 64 bytes from 103.41.63.43: seq=42 ttl=52 time=119.906 ms
ping_16 | 64 bytes from 103.41.63.43: seq=37 ttl=52 time=120.767 ms
ping_9  | 64 bytes from 103.41.63.43: seq=45 ttl=52 time=119.761 ms
ping_7  | 64 bytes from 103.41.63.43: seq=44 ttl=52 time=119.434 ms
ping_13 | 64 bytes from 103.41.63.43: seq=38 ttl=52 time=119.341 ms
ping_14 | 64 bytes from 103.41.63.43: seq=35 ttl=52 time=119.262 ms
ping_4  | 64 bytes from 103.41.63.43: seq=46 ttl=52 time=119.487 ms
ping_20 | 64 bytes from 103.41.63.43: seq=36 ttl=52 time=119.380 ms
ping_2  | 64 bytes from 103.41.63.43: seq=41 ttl=52 time=119.688 ms
ping_5  | 64 bytes from 103.41.63.43: seq=43 ttl=52 time=119.785 ms
ping_17 | 64 bytes from 103.41.63.43: seq=39 ttl=52 time=119.720 ms
ping_11 | 64 bytes from 103.41.63.43: seq=37 ttl=52 time=119.811 ms
ping_12 | 64 bytes from 103.41.63.43: seq=39 ttl=52 time=119.820 ms
ping_19 | 64 bytes from 103.41.63.43: seq=40 ttl=52 time=119.708 ms
ping_3  | 64 bytes from 103.41.63.43: seq=46 ttl=52 time=119.846 ms
ping_8  | 64 bytes from 103.41.63.43: seq=47 ttl=52 time=119.702 ms
ping_18 | 64 bytes from 103.41.63.43: seq=38 ttl=52 time=119.595 ms
ping_6  | 64 bytes from 103.41.63.43: seq=46 ttl=52 time=119.278 ms
ping_10 | 64 bytes from 103.41.63.43: seq=43 ttl=52 time=119.411 ms
ping_15 | 64 bytes from 103.41.63.43: seq=35 ttl=52 time=119.790 ms
ping_1  | 64 bytes from 103.41.63.43: seq=43 ttl=52 time=119.829 ms
ping_16 | 64 bytes from 103.41.63.43: seq=38 ttl=52 time=119.891 ms
ping_9  | 64 bytes from 103.41.63.43: seq=46 ttl=52 time=119.385 ms
ping_7  | 64 bytes from 103.41.63.43: seq=45 ttl=52 time=119.622 ms
ping_13 | 64 bytes from 103.41.63.43: seq=39 ttl=52 time=119.653 ms
ping_14 | 64 bytes from 103.41.63.43: seq=36 ttl=52 time=119.667 ms
ping_4  | 64 bytes from 103.41.63.43: seq=47 ttl=52 time=119.648 ms
ping_20 | 64 bytes from 103.41.63.43: seq=37 ttl=52 time=119.680 ms
ping_2  | 64 bytes from 103.41.63.43: seq=42 ttl=52 time=119.340 ms
ping_5  | 64 bytes from 103.41.63.43: seq=44 ttl=52 time=119.254 ms
ping_17 | 64 bytes from 103.41.63.43: seq=40 ttl=52 time=119.503 ms
ping_11 | 64 bytes from 103.41.63.43: seq=38 ttl=52 time=119.814 ms
ping_12 | 64 bytes from 103.41.63.43: seq=40 ttl=52 time=119.749 ms
ping_19 | 64 bytes from 103.41.63.43: seq=41 ttl=52 time=119.679 ms
ping_3  | 64 bytes from 103.41.63.43: seq=47 ttl=52 time=119.791 ms
ping_8  | 64 bytes from 103.41.63.43: seq=48 ttl=52 time=119.809 ms
ping_18 | 64 bytes from 103.41.63.43: seq=39 ttl=52 time=119.593 ms
ping_6  | 64 bytes from 103.41.63.43: seq=47 ttl=52 time=119.685 ms
ping_10 | 64 bytes from 103.41.63.43: seq=44 ttl=52 time=119.222 ms
ping_15 | 64 bytes from 103.41.63.43: seq=36 ttl=52 time=119.870 ms
ping_1  | 64 bytes from 103.41.63.43: seq=44 ttl=52 time=119.616 ms
ping_16 | 64 bytes from 103.41.63.43: seq=39 ttl=52 time=119.768 ms
ping_9  | 64 bytes from 103.41.63.43: seq=47 ttl=52 time=119.362 ms
ping_7  | 64 bytes from 103.41.63.43: seq=46 ttl=52 time=119.288 ms
ping_13 | 64 bytes from 103.41.63.43: seq=40 ttl=52 time=119.273 ms
ping_14 | 64 bytes from 103.41.63.43: seq=37 ttl=52 time=119.281 ms
ping_20 | 64 bytes from 103.41.63.43: seq=38 ttl=52 time=119.285 ms
ping_4  | 64 bytes from 103.41.63.43: seq=48 ttl=52 time=119.285 ms
ping_2  | 64 bytes from 103.41.63.43: seq=43 ttl=52 time=119.804 ms
ping_5  | 64 bytes from 103.41.63.43: seq=45 ttl=52 time=119.757 ms
ping_17 | 64 bytes from 103.41.63.43: seq=41 ttl=52 time=119.590 ms
ping_11 | 64 bytes from 103.41.63.43: seq=39 ttl=52 time=119.772 ms
ping_12 | 64 bytes from 103.41.63.43: seq=41 ttl=52 time=119.725 ms
ping_19 | 64 bytes from 103.41.63.43: seq=42 ttl=52 time=119.655 ms
ping_3  | 64 bytes from 103.41.63.43: seq=48 ttl=52 time=119.649 ms
ping_8  | 64 bytes from 103.41.63.43: seq=49 ttl=52 time=119.693 ms
ping_8  | 
ping_8  | --- speedtest.softether.co.jp ping statistics ---
ping_8  | 50 packets transmitted, 50 packets received, 0% packet loss
ping_8  | round-trip min/avg/max = 119.256/119.620/119.940 ms
ping_18 | 64 bytes from 103.41.63.43: seq=40 ttl=52 time=119.317 ms
ping_6  | 64 bytes from 103.41.63.43: seq=48 ttl=52 time=119.650 ms
ping_10 | 64 bytes from 103.41.63.43: seq=45 ttl=52 time=119.605 ms
ping_15 | 64 bytes from 103.41.63.43: seq=37 ttl=52 time=119.310 ms
ping_1  | 64 bytes from 103.41.63.43: seq=45 ttl=52 time=119.273 ms
ping_16 | 64 bytes from 103.41.63.43: seq=40 ttl=52 time=119.129 ms
ping_9  | 64 bytes from 103.41.63.43: seq=48 ttl=52 time=119.324 ms
ping_7  | 64 bytes from 103.41.63.43: seq=47 ttl=52 time=119.235 ms
ping_13 | 64 bytes from 103.41.63.43: seq=41 ttl=52 time=119.175 ms
ping_14 | 64 bytes from 103.41.63.43: seq=38 ttl=52 time=119.133 ms
ping_4  | 64 bytes from 103.41.63.43: seq=49 ttl=52 time=119.360 ms
ping_4  | 
ping_4  | --- speedtest.softether.co.jp ping statistics ---
ping_4  | 50 packets transmitted, 50 packets received, 0% packet loss
ping_4  | round-trip min/avg/max = 119.215/119.597/123.076 ms
ping_20 | 64 bytes from 103.41.63.43: seq=39 ttl=52 time=119.379 ms
softwareoverhead_ping_8 exited with code 0
ping_2  | 64 bytes from 103.41.63.43: seq=44 ttl=52 time=119.414 ms
ping_5  | 64 bytes from 103.41.63.43: seq=46 ttl=52 time=119.246 ms
ping_17 | 64 bytes from 103.41.63.43: seq=42 ttl=52 time=119.183 ms
ping_11 | 64 bytes from 103.41.63.43: seq=40 ttl=52 time=119.396 ms
ping_12 | 64 bytes from 103.41.63.43: seq=42 ttl=52 time=119.655 ms
ping_19 | 64 bytes from 103.41.63.43: seq=43 ttl=52 time=119.783 ms
ping_3  | 64 bytes from 103.41.63.43: seq=49 ttl=52 time=119.246 ms
ping_3  | 
ping_3  | --- speedtest.softether.co.jp ping statistics ---
ping_3  | 50 packets transmitted, 50 packets received, 0% packet loss
ping_3  | round-trip min/avg/max = 119.174/119.847/127.754 ms
softwareoverhead_ping_4 exited with code 0
ping_18 | 64 bytes from 103.41.63.43: seq=41 ttl=52 time=119.296 ms
ping_6  | 64 bytes from 103.41.63.43: seq=49 ttl=52 time=119.330 ms
ping_6  | 
ping_6  | --- speedtest.softether.co.jp ping statistics ---
ping_6  | 50 packets transmitted, 50 packets received, 0% packet loss
ping_6  | round-trip min/avg/max = 119.145/119.597/120.085 ms
ping_10 | 64 bytes from 103.41.63.43: seq=46 ttl=52 time=119.389 ms
softwareoverhead_ping_3 exited with code 0
ping_15 | 64 bytes from 103.41.63.43: seq=38 ttl=52 time=119.314 ms
ping_1  | 64 bytes from 103.41.63.43: seq=46 ttl=52 time=120.421 ms
ping_16 | 64 bytes from 103.41.63.43: seq=41 ttl=52 time=119.616 ms
ping_9  | 64 bytes from 103.41.63.43: seq=49 ttl=52 time=119.198 ms
ping_9  | 
ping_9  | --- speedtest.softether.co.jp ping statistics ---
ping_9  | 50 packets transmitted, 50 packets received, 0% packet loss
ping_9  | round-trip min/avg/max = 119.198/119.694/122.320 ms
ping_7  | 64 bytes from 103.41.63.43: seq=48 ttl=52 time=119.309 ms
ping_13 | 64 bytes from 103.41.63.43: seq=42 ttl=52 time=119.313 ms
ping_14 | 64 bytes from 103.41.63.43: seq=39 ttl=52 time=119.308 ms
ping_20 | 64 bytes from 103.41.63.43: seq=40 ttl=52 time=119.627 ms
ping_2  | 64 bytes from 103.41.63.43: seq=45 ttl=52 time=119.168 ms
softwareoverhead_ping_6 exited with code 0
ping_5  | 64 bytes from 103.41.63.43: seq=47 ttl=52 time=119.124 ms
ping_17 | 64 bytes from 103.41.63.43: seq=43 ttl=52 time=119.544 ms
ping_11 | 64 bytes from 103.41.63.43: seq=41 ttl=52 time=119.236 ms
ping_12 | 64 bytes from 103.41.63.43: seq=43 ttl=52 time=119.404 ms
ping_19 | 64 bytes from 103.41.63.43: seq=44 ttl=52 time=119.195 ms
softwareoverhead_ping_9 exited with code 0
ping_18 | 64 bytes from 103.41.63.43: seq=42 ttl=52 time=119.632 ms
ping_10 | 64 bytes from 103.41.63.43: seq=47 ttl=52 time=119.724 ms
ping_15 | 64 bytes from 103.41.63.43: seq=39 ttl=52 time=119.687 ms
ping_1  | 64 bytes from 103.41.63.43: seq=47 ttl=52 time=119.401 ms
ping_16 | 64 bytes from 103.41.63.43: seq=42 ttl=52 time=119.947 ms
ping_7  | 64 bytes from 103.41.63.43: seq=49 ttl=52 time=119.804 ms
ping_7  | 
ping_7  | --- speedtest.softether.co.jp ping statistics ---
ping_7  | 50 packets transmitted, 50 packets received, 0% packet loss
ping_7  | round-trip min/avg/max = 119.187/119.588/122.630 ms
ping_13 | 64 bytes from 103.41.63.43: seq=43 ttl=52 time=119.618 ms
ping_14 | 64 bytes from 103.41.63.43: seq=40 ttl=52 time=119.877 ms
ping_20 | 64 bytes from 103.41.63.43: seq=41 ttl=52 time=119.520 ms
ping_2  | 64 bytes from 103.41.63.43: seq=46 ttl=52 time=119.216 ms
ping_5  | 64 bytes from 103.41.63.43: seq=48 ttl=52 time=119.231 ms
ping_17 | 64 bytes from 103.41.63.43: seq=44 ttl=52 time=119.819 ms
ping_11 | 64 bytes from 103.41.63.43: seq=42 ttl=52 time=119.408 ms
ping_12 | 64 bytes from 103.41.63.43: seq=44 ttl=52 time=119.759 ms
ping_19 | 64 bytes from 103.41.63.43: seq=45 ttl=52 time=119.654 ms
softwareoverhead_ping_7 exited with code 0
ping_18 | 64 bytes from 103.41.63.43: seq=43 ttl=52 time=119.709 ms
ping_10 | 64 bytes from 103.41.63.43: seq=48 ttl=52 time=119.822 ms
ping_15 | 64 bytes from 103.41.63.43: seq=40 ttl=52 time=119.648 ms
ping_1  | 64 bytes from 103.41.63.43: seq=48 ttl=52 time=119.712 ms
ping_16 | 64 bytes from 103.41.63.43: seq=43 ttl=52 time=119.474 ms
ping_13 | 64 bytes from 103.41.63.43: seq=44 ttl=52 time=119.326 ms
ping_14 | 64 bytes from 103.41.63.43: seq=41 ttl=52 time=119.373 ms
ping_20 | 64 bytes from 103.41.63.43: seq=42 ttl=52 time=119.699 ms
ping_2  | 64 bytes from 103.41.63.43: seq=47 ttl=52 time=119.755 ms
ping_5  | 64 bytes from 103.41.63.43: seq=49 ttl=52 time=119.881 ms
ping_5  | 
ping_5  | --- speedtest.softether.co.jp ping statistics ---
ping_5  | 50 packets transmitted, 50 packets received, 0% packet loss
ping_5  | round-trip min/avg/max = 119.124/119.605/120.046 ms
ping_17 | 64 bytes from 103.41.63.43: seq=45 ttl=52 time=119.774 ms
ping_11 | 64 bytes from 103.41.63.43: seq=43 ttl=52 time=119.595 ms
ping_12 | 64 bytes from 103.41.63.43: seq=45 ttl=52 time=119.181 ms
ping_19 | 64 bytes from 103.41.63.43: seq=46 ttl=52 time=119.246 ms
softwareoverhead_ping_5 exited with code 0
ping_18 | 64 bytes from 103.41.63.43: seq=44 ttl=52 time=119.679 ms
ping_10 | 64 bytes from 103.41.63.43: seq=49 ttl=52 time=119.749 ms
ping_10 | 
ping_10 | --- speedtest.softether.co.jp ping statistics ---
ping_10 | 50 packets transmitted, 50 packets received, 0% packet loss
ping_10 | round-trip min/avg/max = 119.222/119.596/120.013 ms
ping_15 | 64 bytes from 103.41.63.43: seq=41 ttl=52 time=119.337 ms
ping_1  | 64 bytes from 103.41.63.43: seq=49 ttl=52 time=119.262 ms
ping_1  | 
ping_1  | --- speedtest.softether.co.jp ping statistics ---
ping_1  | 50 packets transmitted, 50 packets received, 0% packet loss
ping_1  | round-trip min/avg/max = 119.109/119.681/121.884 ms
ping_16 | 64 bytes from 103.41.63.43: seq=44 ttl=52 time=119.499 ms
ping_13 | 64 bytes from 103.41.63.43: seq=45 ttl=52 time=119.537 ms
ping_14 | 64 bytes from 103.41.63.43: seq=42 ttl=52 time=119.241 ms
ping_20 | 64 bytes from 103.41.63.43: seq=43 ttl=52 time=119.203 ms
softwareoverhead_ping_10 exited with code 0
ping_2  | 64 bytes from 103.41.63.43: seq=48 ttl=52 time=119.171 ms
ping_17 | 64 bytes from 103.41.63.43: seq=46 ttl=52 time=119.748 ms
ping_11 | 64 bytes from 103.41.63.43: seq=44 ttl=52 time=119.155 ms
softwareoverhead_ping_1 exited with code 0
ping_12 | 64 bytes from 103.41.63.43: seq=46 ttl=52 time=119.557 ms
ping_19 | 64 bytes from 103.41.63.43: seq=47 ttl=52 time=119.555 ms
ping_18 | 64 bytes from 103.41.63.43: seq=45 ttl=52 time=119.809 ms
ping_15 | 64 bytes from 103.41.63.43: seq=42 ttl=52 time=119.263 ms
ping_16 | 64 bytes from 103.41.63.43: seq=45 ttl=52 time=119.638 ms
ping_13 | 64 bytes from 103.41.63.43: seq=46 ttl=52 time=119.975 ms
ping_14 | 64 bytes from 103.41.63.43: seq=43 ttl=52 time=119.671 ms
ping_20 | 64 bytes from 103.41.63.43: seq=44 ttl=52 time=119.296 ms
ping_2  | 64 bytes from 103.41.63.43: seq=49 ttl=52 time=119.585 ms
ping_2  | 
ping_2  | --- speedtest.softether.co.jp ping statistics ---
ping_2  | 50 packets transmitted, 50 packets received, 0% packet loss
ping_2  | round-trip min/avg/max = 119.089/119.559/120.116 ms
ping_17 | 64 bytes from 103.41.63.43: seq=47 ttl=52 time=119.488 ms
ping_11 | 64 bytes from 103.41.63.43: seq=45 ttl=52 time=119.623 ms
ping_12 | 64 bytes from 103.41.63.43: seq=47 ttl=52 time=119.303 ms
ping_19 | 64 bytes from 103.41.63.43: seq=48 ttl=52 time=119.343 ms
softwareoverhead_ping_2 exited with code 0
ping_18 | 64 bytes from 103.41.63.43: seq=46 ttl=52 time=119.863 ms
ping_15 | 64 bytes from 103.41.63.43: seq=43 ttl=52 time=119.278 ms
ping_16 | 64 bytes from 103.41.63.43: seq=46 ttl=52 time=119.434 ms
ping_13 | 64 bytes from 103.41.63.43: seq=47 ttl=52 time=119.912 ms
ping_14 | 64 bytes from 103.41.63.43: seq=44 ttl=52 time=119.336 ms
ping_20 | 64 bytes from 103.41.63.43: seq=45 ttl=52 time=119.402 ms
ping_17 | 64 bytes from 103.41.63.43: seq=48 ttl=52 time=119.975 ms
ping_11 | 64 bytes from 103.41.63.43: seq=46 ttl=52 time=119.598 ms
ping_12 | 64 bytes from 103.41.63.43: seq=48 ttl=52 time=119.354 ms
ping_19 | 64 bytes from 103.41.63.43: seq=49 ttl=52 time=119.302 ms
ping_19 | 
ping_19 | --- speedtest.softether.co.jp ping statistics ---
ping_19 | 50 packets transmitted, 50 packets received, 0% packet loss
ping_19 | round-trip min/avg/max = 119.195/119.519/119.819 ms
ping_18 | 64 bytes from 103.41.63.43: seq=47 ttl=52 time=119.283 ms
softwareoverhead_ping_19 exited with code 0
ping_15 | 64 bytes from 103.41.63.43: seq=44 ttl=52 time=119.653 ms
ping_16 | 64 bytes from 103.41.63.43: seq=47 ttl=52 time=120.000 ms
ping_13 | 64 bytes from 103.41.63.43: seq=48 ttl=52 time=119.552 ms
ping_14 | 64 bytes from 103.41.63.43: seq=45 ttl=52 time=119.315 ms
ping_20 | 64 bytes from 103.41.63.43: seq=46 ttl=52 time=119.580 ms
ping_17 | 64 bytes from 103.41.63.43: seq=49 ttl=52 time=119.724 ms
ping_17 | 
ping_17 | --- speedtest.softether.co.jp ping statistics ---
ping_17 | 50 packets transmitted, 50 packets received, 0% packet loss
ping_17 | round-trip min/avg/max = 119.183/119.647/120.012 ms
ping_11 | 64 bytes from 103.41.63.43: seq=47 ttl=52 time=119.277 ms
ping_12 | 64 bytes from 103.41.63.43: seq=49 ttl=52 time=119.319 ms
ping_12 | 
ping_12 | --- speedtest.softether.co.jp ping statistics ---
ping_12 | 50 packets transmitted, 50 packets received, 0% packet loss
ping_12 | round-trip min/avg/max = 119.181/119.641/120.063 ms
softwareoverhead_ping_17 exited with code 0
ping_18 | 64 bytes from 103.41.63.43: seq=48 ttl=52 time=119.310 ms
softwareoverhead_ping_12 exited with code 0
ping_15 | 64 bytes from 103.41.63.43: seq=45 ttl=52 time=119.350 ms
ping_16 | 64 bytes from 103.41.63.43: seq=48 ttl=52 time=119.516 ms
ping_13 | 64 bytes from 103.41.63.43: seq=49 ttl=52 time=119.870 ms
ping_13 | 
ping_13 | --- speedtest.softether.co.jp ping statistics ---
ping_13 | 50 packets transmitted, 50 packets received, 0% packet loss
ping_13 | round-trip min/avg/max = 119.175/119.786/125.040 ms
ping_14 | 64 bytes from 103.41.63.43: seq=46 ttl=52 time=119.610 ms
ping_20 | 64 bytes from 103.41.63.43: seq=47 ttl=52 time=119.329 ms
ping_11 | 64 bytes from 103.41.63.43: seq=48 ttl=52 time=119.424 ms
softwareoverhead_ping_13 exited with code 0
ping_18 | 64 bytes from 103.41.63.43: seq=49 ttl=52 time=119.697 ms
ping_18 | 
ping_18 | --- speedtest.softether.co.jp ping statistics ---
ping_18 | 50 packets transmitted, 50 packets received, 0% packet loss
ping_18 | round-trip min/avg/max = 119.242/119.578/119.863 ms
ping_15 | 64 bytes from 103.41.63.43: seq=46 ttl=52 time=119.543 ms
ping_16 | 64 bytes from 103.41.63.43: seq=49 ttl=52 time=119.653 ms
ping_16 | 
ping_16 | --- speedtest.softether.co.jp ping statistics ---
ping_16 | 50 packets transmitted, 50 packets received, 0% packet loss
ping_16 | round-trip min/avg/max = 119.129/119.646/120.767 ms
ping_14 | 64 bytes from 103.41.63.43: seq=47 ttl=52 time=119.409 ms
softwareoverhead_ping_18 exited with code 0
ping_20 | 64 bytes from 103.41.63.43: seq=48 ttl=52 time=119.178 ms
ping_11 | 64 bytes from 103.41.63.43: seq=49 ttl=52 time=119.288 ms
ping_11 | 
ping_11 | --- speedtest.softether.co.jp ping statistics ---
ping_11 | 50 packets transmitted, 50 packets received, 0% packet loss
ping_11 | round-trip min/avg/max = 119.155/119.634/120.346 ms
softwareoverhead_ping_16 exited with code 0
softwareoverhead_ping_11 exited with code 0
ping_15 | 64 bytes from 103.41.63.43: seq=47 ttl=52 time=119.383 ms
ping_14 | 64 bytes from 103.41.63.43: seq=48 ttl=52 time=119.685 ms
ping_20 | 64 bytes from 103.41.63.43: seq=49 ttl=52 time=119.676 ms
ping_20 | 
ping_20 | --- speedtest.softether.co.jp ping statistics ---
ping_20 | 50 packets transmitted, 50 packets received, 0% packet loss
ping_20 | round-trip min/avg/max = 119.178/119.594/123.076 ms
softwareoverhead_ping_20 exited with code 0
ping_15 | 64 bytes from 103.41.63.43: seq=48 ttl=52 time=119.677 ms
ping_14 | 64 bytes from 103.41.63.43: seq=49 ttl=52 time=119.920 ms
ping_14 | 
ping_14 | --- speedtest.softether.co.jp ping statistics ---
ping_14 | 50 packets transmitted, 50 packets received, 0% packet loss
ping_14 | round-trip min/avg/max = 119.133/119.751/126.622 ms
softwareoverhead_ping_14 exited with code 0
ping_15 | 64 bytes from 103.41.63.43: seq=49 ttl=52 time=119.909 ms
ping_15 | 
ping_15 | --- speedtest.softether.co.jp ping statistics ---
ping_15 | 50 packets transmitted, 50 packets received, 0% packet loss
ping_15 | round-trip min/avg/max = 119.256/119.646/119.976 ms
softwareoverhead_ping_15 exited with code 0
