PING 216.58.195.238 (216.58.195.238) 56(84) bytes of data.
64 bytes from 216.58.195.238: icmp_seq=1 ttl=54 time=13.2 ms
PING 216.58.195.238 (216.58.195.238) 56(84) bytes of data.
64 bytes from 216.58.195.238: icmp_seq=1 ttl=54 time=13.3 ms
PING 216.58.195.238 (216.58.195.238) 56(84) bytes of data.
64 bytes from 216.58.195.238: icmp_seq=1 ttl=54 time=13.0 ms
PING 216.58.195.238 (216.58.195.238) 56(84) bytes of data.
64 bytes from 216.58.195.238: icmp_seq=1 ttl=54 time=13.2 ms
PING 216.58.195.238 (216.58.195.238) 56(84) bytes of data.
64 bytes from 216.58.195.238: icmp_seq=1 ttl=54 time=13.1 ms
PING 216.58.195.238 (216.58.195.238) 56(84) bytes of data.
64 bytes from 216.58.195.238: icmp_seq=1 ttl=54 time=13.2 ms
PING 216.58.195.238 (216.58.195.238) 56(84) bytes of data.
64 bytes from 216.58.195.238: icmp_seq=1 ttl=54 time=12.9 ms
PING 216.58.195.238 (216.58.195.238) 56(84) bytes of data.
64 bytes from 216.58.195.238: icmp_seq=1 ttl=54 time=12.9 ms
PING 216.58.195.238 (216.58.195.238) 56(84) bytes of data.
64 bytes from 216.58.195.238: icmp_seq=1 ttl=54 time=12.9 ms
PING 216.58.195.238 (216.58.195.238) 56(84) bytes of data.
64 bytes from 216.58.195.238: icmp_seq=1 ttl=54 time=13.0 ms
PING 216.58.195.238 (216.58.195.238) 56(84) bytes of data.
64 bytes from 216.58.195.238: icmp_seq=1 ttl=54 time=13.0 ms
PING 216.58.195.238 (216.58.195.238) 56(84) bytes of data.
64 bytes from 216.58.195.238: icmp_seq=1 ttl=54 time=12.9 ms
PING 216.58.195.238 (216.58.195.238) 56(84) bytes of data.
64 bytes from 216.58.195.238: icmp_seq=1 ttl=54 time=12.9 ms
PING 216.58.195.238 (216.58.195.238) 56(84) bytes of data.
64 bytes from 216.58.195.238: icmp_seq=1 ttl=54 time=12.9 ms
PING 216.58.195.238 (216.58.195.238) 56(84) bytes of data.
64 bytes from 216.58.195.238: icmp_seq=1 ttl=54 time=12.9 ms
PING 216.58.195.238 (216.58.195.238) 56(84) bytes of data.
64 bytes from 216.58.195.238: icmp_seq=1 ttl=54 time=12.9 ms
PING 216.58.195.238 (216.58.195.238) 56(84) bytes of data.
64 bytes from 216.58.195.238: icmp_seq=1 ttl=54 time=12.9 ms
PING 216.58.195.238 (216.58.195.238) 56(84) bytes of data.
64 bytes from 216.58.195.238: icmp_seq=1 ttl=54 time=12.8 ms
PING 216.58.195.238 (216.58.195.238) 56(84) bytes of data.
64 bytes from 216.58.195.238: icmp_seq=1 ttl=54 time=12.9 ms
PING 216.58.195.238 (216.58.195.238) 56(84) bytes of data.
64 bytes from 216.58.195.238: icmp_seq=1 ttl=54 time=12.9 ms
PING 216.58.195.238 (216.58.195.238) 56(84) bytes of data.
64 bytes from 216.58.195.238: icmp_seq=1 ttl=54 time=12.9 ms
PING 216.58.195.238 (216.58.195.238) 56(84) bytes of data.
64 bytes from 216.58.195.238: icmp_seq=1 ttl=54 time=12.9 ms
PING 216.58.195.238 (216.58.195.238) 56(84) bytes of data.
64 bytes from 216.58.195.238: icmp_seq=1 ttl=54 time=12.9 ms
PING 216.58.195.238 (216.58.195.238) 56(84) bytes of data.
64 bytes from 216.58.195.238: icmp_seq=1 ttl=54 time=12.8 ms
PING 216.58.195.238 (216.58.195.238) 56(84) bytes of data.
64 bytes from 216.58.195.238: icmp_seq=1 ttl=54 time=12.9 ms
PING 216.58.195.238 (216.58.195.238) 56(84) bytes of data.
64 bytes from 216.58.195.238: icmp_seq=1 ttl=54 time=12.9 ms
PING 216.58.195.238 (216.58.195.238) 56(84) bytes of data.
64 bytes from 216.58.195.238: icmp_seq=1 ttl=54 time=12.9 ms
PING 216.58.195.238 (216.58.195.238) 56(84) bytes of data.
64 bytes from 216.58.195.238: icmp_seq=1 ttl=54 time=12.9 ms
PING 216.58.195.238 (216.58.195.238) 56(84) bytes of data.
64 bytes from 216.58.195.238: icmp_seq=1 ttl=54 time=12.9 ms
PING 216.58.195.238 (216.58.195.238) 56(84) bytes of data.
64 bytes from 216.58.195.238: icmp_seq=1 ttl=54 time=12.9 ms
PING 216.58.195.238 (216.58.195.238) 56(84) bytes of data.
64 bytes from 216.58.195.238: icmp_seq=1 ttl=54 time=12.8 ms
PING 216.58.195.238 (216.58.195.238) 56(84) bytes of data.
64 bytes from 216.58.195.238: icmp_seq=1 ttl=54 time=12.9 ms
PING 216.58.195.238 (216.58.195.238) 56(84) bytes of data.
64 bytes from 216.58.195.238: icmp_seq=1 ttl=54 time=12.9 ms
PING 216.58.195.238 (216.58.195.238) 56(84) bytes of data.
64 bytes from 216.58.195.238: icmp_seq=1 ttl=54 time=12.9 ms
PING 216.58.195.238 (216.58.195.238) 56(84) bytes of data.
64 bytes from 216.58.195.238: icmp_seq=1 ttl=54 time=12.9 ms
PING 216.58.195.238 (216.58.195.238) 56(84) bytes of data.
64 bytes from 216.58.195.238: icmp_seq=1 ttl=54 time=12.9 ms
PING 216.58.195.238 (216.58.195.238) 56(84) bytes of data.
64 bytes from 216.58.195.238: icmp_seq=1 ttl=54 time=12.8 ms
PING 216.58.195.238 (216.58.195.238) 56(84) bytes of data.
64 bytes from 216.58.195.238: icmp_seq=1 ttl=54 time=12.8 ms
PING 216.58.195.238 (216.58.195.238) 56(84) bytes of data.
64 bytes from 216.58.195.238: icmp_seq=1 ttl=54 time=12.8 ms
PING 216.58.195.238 (216.58.195.238) 56(84) bytes of data.
64 bytes from 216.58.195.238: icmp_seq=1 ttl=54 time=12.9 ms
PING 216.58.195.238 (216.58.195.238) 56(84) bytes of data.
64 bytes from 216.58.195.238: icmp_seq=1 ttl=54 time=12.9 ms
PING 216.58.195.238 (216.58.195.238) 56(84) bytes of data.
64 bytes from 216.58.195.238: icmp_seq=1 ttl=54 time=12.9 ms
PING 216.58.195.238 (216.58.195.238) 56(84) bytes of data.
64 bytes from 216.58.195.238: icmp_seq=1 ttl=54 time=12.8 ms
PING 216.58.195.238 (216.58.195.238) 56(84) bytes of data.
64 bytes from 216.58.195.238: icmp_seq=1 ttl=54 time=12.9 ms
PING 216.58.195.238 (216.58.195.238) 56(84) bytes of data.
64 bytes from 216.58.195.238: icmp_seq=1 ttl=54 time=12.9 ms
PING 216.58.195.238 (216.58.195.238) 56(84) bytes of data.
64 bytes from 216.58.195.238: icmp_seq=1 ttl=54 time=12.9 ms
PING 216.58.195.238 (216.58.195.238) 56(84) bytes of data.
64 bytes from 216.58.195.238: icmp_seq=1 ttl=54 time=12.9 ms
PING 216.58.195.238 (216.58.195.238) 56(84) bytes of data.
64 bytes from 216.58.195.238: icmp_seq=1 ttl=54 time=12.9 ms
PING 216.58.195.238 (216.58.195.238) 56(84) bytes of data.
64 bytes from 216.58.195.238: icmp_seq=1 ttl=54 time=12.9 ms
PING 216.58.195.238 (216.58.195.238) 56(84) bytes of data.
64 bytes from 216.58.195.238: icmp_seq=1 ttl=54 time=12.9 ms
PING 216.58.195.238 (216.58.195.238) 56(84) bytes of data.
64 bytes from 216.58.195.238: icmp_seq=1 ttl=54 time=12.9 ms
PING 216.58.195.238 (216.58.195.238) 56(84) bytes of data.
64 bytes from 216.58.195.238: icmp_seq=1 ttl=54 time=13.0 ms
PING 216.58.195.238 (216.58.195.238) 56(84) bytes of data.
64 bytes from 216.58.195.238: icmp_seq=1 ttl=54 time=12.9 ms
PING 216.58.195.238 (216.58.195.238) 56(84) bytes of data.
64 bytes from 216.58.195.238: icmp_seq=1 ttl=54 time=12.9 ms
PING 216.58.195.238 (216.58.195.238) 56(84) bytes of data.
64 bytes from 216.58.195.238: icmp_seq=1 ttl=54 time=12.9 ms
PING 216.58.195.238 (216.58.195.238) 56(84) bytes of data.
64 bytes from 216.58.195.238: icmp_seq=1 ttl=54 time=12.9 ms
PING 216.58.195.238 (216.58.195.238) 56(84) bytes of data.
64 bytes from 216.58.195.238: icmp_seq=1 ttl=54 time=12.9 ms
PING 216.58.195.238 (216.58.195.238) 56(84) bytes of data.
64 bytes from 216.58.195.238: icmp_seq=1 ttl=54 time=12.8 ms
PING 216.58.195.238 (216.58.195.238) 56(84) bytes of data.
64 bytes from 216.58.195.238: icmp_seq=1 ttl=54 time=12.9 ms
PING 216.58.195.238 (216.58.195.238) 56(84) bytes of data.
64 bytes from 216.58.195.238: icmp_seq=1 ttl=54 time=12.9 ms
PING 216.58.195.238 (216.58.195.238) 56(84) bytes of data.
64 bytes from 216.58.195.238: icmp_seq=1 ttl=54 time=12.9 ms
PING 216.58.195.238 (216.58.195.238) 56(84) bytes of data.
64 bytes from 216.58.195.238: icmp_seq=1 ttl=54 time=12.9 ms
PING 216.58.195.238 (216.58.195.238) 56(84) bytes of data.
64 bytes from 216.58.195.238: icmp_seq=1 ttl=54 time=12.9 ms
PING 216.58.195.238 (216.58.195.238) 56(84) bytes of data.
64 bytes from 216.58.195.238: icmp_seq=1 ttl=54 time=12.9 ms
PING 216.58.195.238 (216.58.195.238) 56(84) bytes of data.
64 bytes from 216.58.195.238: icmp_seq=1 ttl=54 time=12.9 ms
PING 216.58.195.238 (216.58.195.238) 56(84) bytes of data.
64 bytes from 216.58.195.238: icmp_seq=1 ttl=54 time=12.8 ms
PING 216.58.195.238 (216.58.195.238) 56(84) bytes of data.
64 bytes from 216.58.195.238: icmp_seq=1 ttl=54 time=13.0 ms
PING 216.58.195.238 (216.58.195.238) 56(84) bytes of data.
64 bytes from 216.58.195.238: icmp_seq=1 ttl=54 time=12.9 ms
PING 216.58.195.238 (216.58.195.238) 56(84) bytes of data.
64 bytes from 216.58.195.238: icmp_seq=1 ttl=54 time=13.0 ms
PING 216.58.195.238 (216.58.195.238) 56(84) bytes of data.
64 bytes from 216.58.195.238: icmp_seq=1 ttl=54 time=12.9 ms
PING 216.58.195.238 (216.58.195.238) 56(84) bytes of data.
64 bytes from 216.58.195.238: icmp_seq=1 ttl=54 time=12.9 ms
PING 216.58.195.238 (216.58.195.238) 56(84) bytes of data.
64 bytes from 216.58.195.238: icmp_seq=1 ttl=54 time=12.9 ms
PING 216.58.195.238 (216.58.195.238) 56(84) bytes of data.
64 bytes from 216.58.195.238: icmp_seq=1 ttl=54 time=13.1 ms
PING 216.58.195.238 (216.58.195.238) 56(84) bytes of data.
64 bytes from 216.58.195.238: icmp_seq=1 ttl=54 time=12.9 ms
PING 216.58.195.238 (216.58.195.238) 56(84) bytes of data.
64 bytes from 216.58.195.238: icmp_seq=1 ttl=54 time=12.9 ms
PING 216.58.195.238 (216.58.195.238) 56(84) bytes of data.
64 bytes from 216.58.195.238: icmp_seq=1 ttl=54 time=12.9 ms
PING 216.58.195.238 (216.58.195.238) 56(84) bytes of data.
64 bytes from 216.58.195.238: icmp_seq=1 ttl=54 time=13.0 ms
PING 216.58.195.238 (216.58.195.238) 56(84) bytes of data.
64 bytes from 216.58.195.238: icmp_seq=1 ttl=54 time=12.9 ms
PING 216.58.195.238 (216.58.195.238) 56(84) bytes of data.
64 bytes from 216.58.195.238: icmp_seq=1 ttl=54 time=13.0 ms
PING 216.58.195.238 (216.58.195.238) 56(84) bytes of data.
64 bytes from 216.58.195.238: icmp_seq=1 ttl=54 time=12.9 ms
PING 216.58.195.238 (216.58.195.238) 56(84) bytes of data.
64 bytes from 216.58.195.238: icmp_seq=1 ttl=54 time=12.9 ms
PING 216.58.195.238 (216.58.195.238) 56(84) bytes of data.
64 bytes from 216.58.195.238: icmp_seq=1 ttl=54 time=12.9 ms
PING 216.58.195.238 (216.58.195.238) 56(84) bytes of data.
64 bytes from 216.58.195.238: icmp_seq=1 ttl=54 time=12.8 ms
PING 216.58.195.238 (216.58.195.238) 56(84) bytes of data.
64 bytes from 216.58.195.238: icmp_seq=1 ttl=54 time=12.9 ms
PING 216.58.195.238 (216.58.195.238) 56(84) bytes of data.
64 bytes from 216.58.195.238: icmp_seq=1 ttl=54 time=12.9 ms
PING 216.58.195.238 (216.58.195.238) 56(84) bytes of data.
64 bytes from 216.58.195.238: icmp_seq=1 ttl=54 time=12.9 ms
PING 216.58.195.238 (216.58.195.238) 56(84) bytes of data.
64 bytes from 216.58.195.238: icmp_seq=1 ttl=54 time=12.9 ms
PING 216.58.195.238 (216.58.195.238) 56(84) bytes of data.
64 bytes from 216.58.195.238: icmp_seq=1 ttl=54 time=12.9 ms
PING 216.58.195.238 (216.58.195.238) 56(84) bytes of data.
64 bytes from 216.58.195.238: icmp_seq=1 ttl=54 time=12.8 ms
PING 216.58.195.238 (216.58.195.238) 56(84) bytes of data.
64 bytes from 216.58.195.238: icmp_seq=1 ttl=54 time=12.9 ms
PING 216.58.195.238 (216.58.195.238) 56(84) bytes of data.
64 bytes from 216.58.195.238: icmp_seq=1 ttl=54 time=12.8 ms
PING 216.58.195.238 (216.58.195.238) 56(84) bytes of data.
64 bytes from 216.58.195.238: icmp_seq=1 ttl=54 time=12.9 ms
PING 216.58.195.238 (216.58.195.238) 56(84) bytes of data.
64 bytes from 216.58.195.238: icmp_seq=1 ttl=54 time=13.0 ms
PING 216.58.195.238 (216.58.195.238) 56(84) bytes of data.
64 bytes from 216.58.195.238: icmp_seq=1 ttl=54 time=12.9 ms
PING 216.58.195.238 (216.58.195.238) 56(84) bytes of data.
64 bytes from 216.58.195.238: icmp_seq=1 ttl=54 time=13.0 ms
PING 216.58.195.238 (216.58.195.238) 56(84) bytes of data.
64 bytes from 216.58.195.238: icmp_seq=1 ttl=54 time=13.0 ms
PING 216.58.195.238 (216.58.195.238) 56(84) bytes of data.
64 bytes from 216.58.195.238: icmp_seq=1 ttl=54 time=13.1 ms
PING 216.58.195.238 (216.58.195.238) 56(84) bytes of data.
64 bytes from 216.58.195.238: icmp_seq=1 ttl=54 time=13.0 ms
PING 216.58.195.238 (216.58.195.238) 56(84) bytes of data.
64 bytes from 216.58.195.238: icmp_seq=1 ttl=54 time=13.0 ms
PING 216.58.195.238 (216.58.195.238) 56(84) bytes of data.
64 bytes from 216.58.195.238: icmp_seq=1 ttl=54 time=13.0 ms
PING 216.58.195.238 (216.58.195.238) 56(84) bytes of data.
64 bytes from 216.58.195.238: icmp_seq=1 ttl=54 time=13.0 ms
PING 216.58.195.238 (216.58.195.238) 56(84) bytes of data.
64 bytes from 216.58.195.238: icmp_seq=1 ttl=54 time=13.0 ms
PING 216.58.195.238 (216.58.195.238) 56(84) bytes of data.
64 bytes from 216.58.195.238: icmp_seq=1 ttl=54 time=12.9 ms
PING 216.58.195.238 (216.58.195.238) 56(84) bytes of data.
64 bytes from 216.58.195.238: icmp_seq=1 ttl=54 time=12.9 ms
PING 216.58.195.238 (216.58.195.238) 56(84) bytes of data.
64 bytes from 216.58.195.238: icmp_seq=1 ttl=54 time=13.0 ms
PING 216.58.195.238 (216.58.195.238) 56(84) bytes of data.
64 bytes from 216.58.195.238: icmp_seq=1 ttl=54 time=13.1 ms
PING 216.58.195.238 (216.58.195.238) 56(84) bytes of data.
64 bytes from 216.58.195.238: icmp_seq=1 ttl=54 time=13.0 ms
PING 216.58.195.238 (216.58.195.238) 56(84) bytes of data.
64 bytes from 216.58.195.238: icmp_seq=1 ttl=54 time=13.0 ms
PING 216.58.195.238 (216.58.195.238) 56(84) bytes of data.
64 bytes from 216.58.195.238: icmp_seq=1 ttl=54 time=13.0 ms
PING 216.58.195.238 (216.58.195.238) 56(84) bytes of data.
64 bytes from 216.58.195.238: icmp_seq=1 ttl=54 time=13.0 ms
PING 216.58.195.238 (216.58.195.238) 56(84) bytes of data.
64 bytes from 216.58.195.238: icmp_seq=1 ttl=54 time=13.1 ms
PING 216.58.195.238 (216.58.195.238) 56(84) bytes of data.
64 bytes from 216.58.195.238: icmp_seq=1 ttl=54 time=12.9 ms
PING 216.58.195.238 (216.58.195.238) 56(84) bytes of data.
64 bytes from 216.58.195.238: icmp_seq=1 ttl=54 time=12.9 ms
PING 216.58.195.238 (216.58.195.238) 56(84) bytes of data.
64 bytes from 216.58.195.238: icmp_seq=1 ttl=54 time=13.1 ms
PING 216.58.195.238 (216.58.195.238) 56(84) bytes of data.
64 bytes from 216.58.195.238: icmp_seq=1 ttl=54 time=13.0 ms
PING 216.58.195.238 (216.58.195.238) 56(84) bytes of data.
64 bytes from 216.58.195.238: icmp_seq=1 ttl=54 time=12.9 ms
PING 216.58.195.238 (216.58.195.238) 56(84) bytes of data.
64 bytes from 216.58.195.238: icmp_seq=1 ttl=54 time=12.9 ms
PING 216.58.195.238 (216.58.195.238) 56(84) bytes of data.
64 bytes from 216.58.195.238: icmp_seq=1 ttl=54 time=13.0 ms
PING 216.58.195.238 (216.58.195.238) 56(84) bytes of data.
64 bytes from 216.58.195.238: icmp_seq=1 ttl=54 time=13.0 ms
PING 216.58.195.238 (216.58.195.238) 56(84) bytes of data.
64 bytes from 216.58.195.238: icmp_seq=1 ttl=54 time=13.0 ms
PING 216.58.195.238 (216.58.195.238) 56(84) bytes of data.
64 bytes from 216.58.195.238: icmp_seq=1 ttl=54 time=13.0 ms
PING 216.58.195.238 (216.58.195.238) 56(84) bytes of data.
64 bytes from 216.58.195.238: icmp_seq=1 ttl=54 time=13.1 ms
PING 216.58.195.238 (216.58.195.238) 56(84) bytes of data.
64 bytes from 216.58.195.238: icmp_seq=1 ttl=54 time=13.0 ms
PING 216.58.195.238 (216.58.195.238) 56(84) bytes of data.
64 bytes from 216.58.195.238: icmp_seq=1 ttl=54 time=13.0 ms
PING 216.58.195.238 (216.58.195.238) 56(84) bytes of data.
64 bytes from 216.58.195.238: icmp_seq=1 ttl=54 time=13.1 ms
PING 216.58.195.238 (216.58.195.238) 56(84) bytes of data.
64 bytes from 216.58.195.238: icmp_seq=1 ttl=54 time=13.1 ms
PING 216.58.195.238 (216.58.195.238) 56(84) bytes of data.
64 bytes from 216.58.195.238: icmp_seq=1 ttl=54 time=13.0 ms
PING 216.58.195.238 (216.58.195.238) 56(84) bytes of data.
64 bytes from 216.58.195.238: icmp_seq=1 ttl=54 time=13.0 ms
PING 216.58.195.238 (216.58.195.238) 56(84) bytes of data.
64 bytes from 216.58.195.238: icmp_seq=1 ttl=54 time=13.0 ms
PING 216.58.195.238 (216.58.195.238) 56(84) bytes of data.
64 bytes from 216.58.195.238: icmp_seq=1 ttl=54 time=13.0 ms
PING 216.58.195.238 (216.58.195.238) 56(84) bytes of data.
64 bytes from 216.58.195.238: icmp_seq=1 ttl=54 time=13.1 ms
PING 216.58.195.238 (216.58.195.238) 56(84) bytes of data.
64 bytes from 216.58.195.238: icmp_seq=1 ttl=54 time=13.1 ms
PING 216.58.195.238 (216.58.195.238) 56(84) bytes of data.
64 bytes from 216.58.195.238: icmp_seq=1 ttl=54 time=13.1 ms
PING 216.58.195.238 (216.58.195.238) 56(84) bytes of data.
64 bytes from 216.58.195.238: icmp_seq=1 ttl=54 time=13.0 ms
PING 216.58.195.238 (216.58.195.238) 56(84) bytes of data.
64 bytes from 216.58.195.238: icmp_seq=1 ttl=54 time=13.0 ms
PING 216.58.195.238 (216.58.195.238) 56(84) bytes of data.
64 bytes from 216.58.195.238: icmp_seq=1 ttl=54 time=13.2 ms
PING 216.58.195.238 (216.58.195.238) 56(84) bytes of data.
64 bytes from 216.58.195.238: icmp_seq=1 ttl=54 time=13.1 ms
PING 216.58.195.238 (216.58.195.238) 56(84) bytes of data.
64 bytes from 216.58.195.238: icmp_seq=1 ttl=54 time=13.0 ms
PING 216.58.195.238 (216.58.195.238) 56(84) bytes of data.
64 bytes from 216.58.195.238: icmp_seq=1 ttl=54 time=12.9 ms
PING 216.58.195.238 (216.58.195.238) 56(84) bytes of data.
64 bytes from 216.58.195.238: icmp_seq=1 ttl=54 time=13.1 ms
PING 216.58.195.238 (216.58.195.238) 56(84) bytes of data.
64 bytes from 216.58.195.238: icmp_seq=1 ttl=54 time=13.0 ms
PING 216.58.195.238 (216.58.195.238) 56(84) bytes of data.
64 bytes from 216.58.195.238: icmp_seq=1 ttl=54 time=13.1 ms
PING 216.58.195.238 (216.58.195.238) 56(84) bytes of data.
64 bytes from 216.58.195.238: icmp_seq=1 ttl=54 time=13.1 ms
PING 216.58.195.238 (216.58.195.238) 56(84) bytes of data.
64 bytes from 216.58.195.238: icmp_seq=1 ttl=54 time=13.1 ms
PING 216.58.195.238 (216.58.195.238) 56(84) bytes of data.
64 bytes from 216.58.195.238: icmp_seq=1 ttl=54 time=13.1 ms
PING 216.58.195.238 (216.58.195.238) 56(84) bytes of data.
64 bytes from 216.58.195.238: icmp_seq=1 ttl=54 time=13.1 ms
PING 216.58.195.238 (216.58.195.238) 56(84) bytes of data.
64 bytes from 216.58.195.238: icmp_seq=1 ttl=54 time=13.1 ms
PING 216.58.195.238 (216.58.195.238) 56(84) bytes of data.
64 bytes from 216.58.195.238: icmp_seq=1 ttl=54 time=13.2 ms
PING 216.58.195.238 (216.58.195.238) 56(84) bytes of data.
64 bytes from 216.58.195.238: icmp_seq=1 ttl=54 time=13.0 ms
PING 216.58.195.238 (216.58.195.238) 56(84) bytes of data.
64 bytes from 216.58.195.238: icmp_seq=1 ttl=54 time=13.3 ms
PING 216.58.195.238 (216.58.195.238) 56(84) bytes of data.
64 bytes from 216.58.195.238: icmp_seq=1 ttl=54 time=12.9 ms
PING 216.58.195.238 (216.58.195.238) 56(84) bytes of data.
64 bytes from 216.58.195.238: icmp_seq=1 ttl=54 time=13.0 ms
PING 216.58.195.238 (216.58.195.238) 56(84) bytes of data.
64 bytes from 216.58.195.238: icmp_seq=1 ttl=54 time=13.0 ms
PING 216.58.195.238 (216.58.195.238) 56(84) bytes of data.
64 bytes from 216.58.195.238: icmp_seq=1 ttl=54 time=13.2 ms
PING 216.58.195.238 (216.58.195.238) 56(84) bytes of data.
64 bytes from 216.58.195.238: icmp_seq=1 ttl=54 time=13.1 ms
PING 216.58.195.238 (216.58.195.238) 56(84) bytes of data.
64 bytes from 216.58.195.238: icmp_seq=1 ttl=54 time=13.0 ms
PING 216.58.195.238 (216.58.195.238) 56(84) bytes of data.
64 bytes from 216.58.195.238: icmp_seq=1 ttl=54 time=13.2 ms
PING 216.58.195.238 (216.58.195.238) 56(84) bytes of data.
64 bytes from 216.58.195.238: icmp_seq=1 ttl=54 time=12.9 ms
PING 216.58.195.238 (216.58.195.238) 56(84) bytes of data.
64 bytes from 216.58.195.238: icmp_seq=1 ttl=54 time=13.4 ms
PING 216.58.195.238 (216.58.195.238) 56(84) bytes of data.
64 bytes from 216.58.195.238: icmp_seq=1 ttl=54 time=13.4 ms
PING 216.58.195.238 (216.58.195.238) 56(84) bytes of data.
64 bytes from 216.58.195.238: icmp_seq=1 ttl=54 time=13.4 ms
PING 216.58.195.238 (216.58.195.238) 56(84) bytes of data.
64 bytes from 216.58.195.238: icmp_seq=1 ttl=54 time=13.3 ms
PING 216.58.195.238 (216.58.195.238) 56(84) bytes of data.
64 bytes from 216.58.195.238: icmp_seq=1 ttl=54 time=13.3 ms
PING 216.58.195.238 (216.58.195.238) 56(84) bytes of data.
64 bytes from 216.58.195.238: icmp_seq=1 ttl=54 time=13.3 ms
PING 216.58.195.238 (216.58.195.238) 56(84) bytes of data.
64 bytes from 216.58.195.238: icmp_seq=1 ttl=54 time=13.3 ms
PING 216.58.195.238 (216.58.195.238) 56(84) bytes of data.
64 bytes from 216.58.195.238: icmp_seq=1 ttl=54 time=13.0 ms
PING 216.58.195.238 (216.58.195.238) 56(84) bytes of data.
64 bytes from 216.58.195.238: icmp_seq=1 ttl=54 time=13.1 ms
PING 216.58.195.238 (216.58.195.238) 56(84) bytes of data.
64 bytes from 216.58.195.238: icmp_seq=1 ttl=54 time=13.1 ms
PING 216.58.195.238 (216.58.195.238) 56(84) bytes of data.
64 bytes from 216.58.195.238: icmp_seq=1 ttl=54 time=13.2 ms
PING 216.58.195.238 (216.58.195.238) 56(84) bytes of data.
64 bytes from 216.58.195.238: icmp_seq=1 ttl=54 time=13.1 ms
PING 216.58.195.238 (216.58.195.238) 56(84) bytes of data.
64 bytes from 216.58.195.238: icmp_seq=1 ttl=54 time=13.0 ms
PING 216.58.195.238 (216.58.195.238) 56(84) bytes of data.
64 bytes from 216.58.195.238: icmp_seq=1 ttl=54 time=13.0 ms
PING 216.58.195.238 (216.58.195.238) 56(84) bytes of data.
64 bytes from 216.58.195.238: icmp_seq=1 ttl=54 time=13.0 ms
PING 216.58.195.238 (216.58.195.238) 56(84) bytes of data.
64 bytes from 216.58.195.238: icmp_seq=1 ttl=54 time=13.4 ms
PING 216.58.195.238 (216.58.195.238) 56(84) bytes of data.
64 bytes from 216.58.195.238: icmp_seq=1 ttl=54 time=13.3 ms
PING 216.58.195.238 (216.58.195.238) 56(84) bytes of data.
64 bytes from 216.58.195.238: icmp_seq=1 ttl=54 time=13.3 ms
PING 216.58.195.238 (216.58.195.238) 56(84) bytes of data.
64 bytes from 216.58.195.238: icmp_seq=1 ttl=54 time=13.1 ms
PING 216.58.195.238 (216.58.195.238) 56(84) bytes of data.
64 bytes from 216.58.195.238: icmp_seq=1 ttl=54 time=13.5 ms
PING 216.58.195.238 (216.58.195.238) 56(84) bytes of data.
64 bytes from 216.58.195.238: icmp_seq=1 ttl=54 time=12.9 ms
PING 216.58.195.238 (216.58.195.238) 56(84) bytes of data.
64 bytes from 216.58.195.238: icmp_seq=1 ttl=54 time=13.1 ms
PING 216.58.195.238 (216.58.195.238) 56(84) bytes of data.
64 bytes from 216.58.195.238: icmp_seq=1 ttl=54 time=13.6 ms
PING 216.58.195.238 (216.58.195.238) 56(84) bytes of data.
64 bytes from 216.58.195.238: icmp_seq=1 ttl=54 time=13.6 ms
PING 216.58.195.238 (216.58.195.238) 56(84) bytes of data.
64 bytes from 216.58.195.238: icmp_seq=1 ttl=54 time=13.1 ms
PING 216.58.195.238 (216.58.195.238) 56(84) bytes of data.
64 bytes from 216.58.195.238: icmp_seq=1 ttl=54 time=13.1 ms
PING 216.58.195.238 (216.58.195.238) 56(84) bytes of data.
64 bytes from 216.58.195.238: icmp_seq=1 ttl=54 time=13.0 ms
PING 216.58.195.238 (216.58.195.238) 56(84) bytes of data.
64 bytes from 216.58.195.238: icmp_seq=1 ttl=54 time=12.9 ms
PING 216.58.195.238 (216.58.195.238) 56(84) bytes of data.
64 bytes from 216.58.195.238: icmp_seq=1 ttl=54 time=13.5 ms
PING 216.58.195.238 (216.58.195.238) 56(84) bytes of data.
64 bytes from 216.58.195.238: icmp_seq=1 ttl=54 time=12.9 ms
PING 216.58.195.238 (216.58.195.238) 56(84) bytes of data.
64 bytes from 216.58.195.238: icmp_seq=1 ttl=54 time=13.3 ms
PING 216.58.195.238 (216.58.195.238) 56(84) bytes of data.
64 bytes from 216.58.195.238: icmp_seq=1 ttl=54 time=13.2 ms
PING 216.58.195.238 (216.58.195.238) 56(84) bytes of data.
64 bytes from 216.58.195.238: icmp_seq=1 ttl=54 time=13.3 ms
PING 216.58.195.238 (216.58.195.238) 56(84) bytes of data.
64 bytes from 216.58.195.238: icmp_seq=1 ttl=54 time=13.6 ms
PING 216.58.195.238 (216.58.195.238) 56(84) bytes of data.
64 bytes from 216.58.195.238: icmp_seq=1 ttl=54 time=13.6 ms
PING 216.58.195.238 (216.58.195.238) 56(84) bytes of data.
64 bytes from 216.58.195.238: icmp_seq=1 ttl=54 time=13.4 ms
PING 216.58.195.238 (216.58.195.238) 56(84) bytes of data.
64 bytes from 216.58.195.238: icmp_seq=1 ttl=54 time=13.4 ms
PING 216.58.195.238 (216.58.195.238) 56(84) bytes of data.
64 bytes from 216.58.195.238: icmp_seq=1 ttl=54 time=13.3 ms
PING 216.58.195.238 (216.58.195.238) 56(84) bytes of data.
64 bytes from 216.58.195.238: icmp_seq=1 ttl=54 time=13.4 ms
PING 216.58.195.238 (216.58.195.238) 56(84) bytes of data.
64 bytes from 216.58.195.238: icmp_seq=1 ttl=54 time=13.3 ms
PING 216.58.195.238 (216.58.195.238) 56(84) bytes of data.
64 bytes from 216.58.195.238: icmp_seq=1 ttl=54 time=13.5 ms
PING 216.58.195.238 (216.58.195.238) 56(84) bytes of data.
64 bytes from 216.58.195.238: icmp_seq=1 ttl=54 time=13.0 ms
64 bytes from 216.58.195.238: icmp_seq=2 ttl=54 time=13.4 ms

--- 216.58.195.238 ping statistics ---
2 packets transmitted, 2 received, 0% packet loss, time 1001ms
rtt min/avg/max/mdev = 12.962/13.190/13.418/0.228 ms
64 bytes from 216.58.195.238: icmp_seq=2 ttl=54 time=13.5 ms

--- 216.58.195.238 ping statistics ---
2 packets transmitted, 2 received, 0% packet loss, time 1001ms
rtt min/avg/max/mdev = 13.161/13.369/13.577/0.208 ms
64 bytes from 216.58.195.238: icmp_seq=2 ttl=54 time=13.7 ms

--- 216.58.195.238 ping statistics ---
2 packets transmitted, 2 received, 0% packet loss, time 1001ms
rtt min/avg/max/mdev = 13.318/13.528/13.739/0.240 ms
64 bytes from 216.58.195.238: icmp_seq=2 ttl=54 time=13.8 ms

--- 216.58.195.238 ping statistics ---
2 packets transmitted, 2 received, 0% packet loss, time 1001ms
rtt min/avg/max/mdev = 13.013/13.454/13.896/0.456 ms
64 bytes from 216.58.195.238: icmp_seq=2 ttl=54 time=14.1 ms

--- 216.58.195.238 ping statistics ---
2 packets transmitted, 2 received, 0% packet loss, time 1001ms
rtt min/avg/max/mdev = 13.279/13.709/14.139/0.430 ms
64 bytes from 216.58.195.238: icmp_seq=2 ttl=54 time=14.3 ms
64 bytes from 216.58.195.238: icmp_seq=2 ttl=54 time=13.1 ms


--- 216.58.195.238 ping statistics ---
2 packets transmitted, 2 received, 0% packet loss, time 1001ms
rtt min/avg/max/mdev = 13.100/13.181/13.263/0.140 ms
--- 216.58.195.238 ping statistics ---
2 packets transmitted, 2 received, 0% packet loss, time 1001ms
rtt min/avg/max/mdev = 13.220/13.770/14.321/0.562 ms
64 bytes from 216.58.195.238: icmp_seq=2 ttl=54 time=13.0 ms

--- 216.58.195.238 ping statistics ---
2 packets transmitted, 2 received, 0% packet loss, time 1000ms
rtt min/avg/max/mdev = 12.951/12.975/13.000/0.116 ms
64 bytes from 216.58.195.238: icmp_seq=2 ttl=54 time=13.2 ms

--- 216.58.195.238 ping statistics ---
2 packets transmitted, 2 received, 0% packet loss, time 1001ms
rtt min/avg/max/mdev = 12.987/13.097/13.208/0.159 ms
64 bytes from 216.58.195.238: icmp_seq=2 ttl=54 time=13.3 ms

--- 216.58.195.238 ping statistics ---
2 packets transmitted, 2 received, 0% packet loss, time 1001ms
rtt min/avg/max/mdev = 12.948/13.172/13.396/0.224 ms
64 bytes from 216.58.195.238: icmp_seq=2 ttl=54 time=13.5 ms

--- 216.58.195.238 ping statistics ---
2 packets transmitted, 2 received, 0% packet loss, time 1000ms
rtt min/avg/max/mdev = 12.938/13.255/13.572/0.317 ms
64 bytes from 216.58.195.238: icmp_seq=2 ttl=54 time=13.7 ms

--- 216.58.195.238 ping statistics ---
2 packets transmitted, 2 received, 0% packet loss, time 1001ms
rtt min/avg/max/mdev = 13.004/13.352/13.700/0.348 ms
64 bytes from 216.58.195.238: icmp_seq=2 ttl=54 time=13.8 ms

--- 216.58.195.238 ping statistics ---
2 packets transmitted, 2 received, 0% packet loss, time 1000ms
rtt min/avg/max/mdev = 12.953/13.423/13.894/0.484 ms
64 bytes from 216.58.195.238: icmp_seq=2 ttl=54 time=14.0 ms

--- 216.58.195.238 ping statistics ---
2 packets transmitted, 2 received, 0% packet loss, time 1000ms
rtt min/avg/max/mdev = 12.961/13.520/14.079/0.559 ms
64 bytes from 216.58.195.238: icmp_seq=2 ttl=54 time=14.2 ms

--- 216.58.195.238 ping statistics ---
2 packets transmitted, 2 received, 0% packet loss, time 1001ms
rtt min/avg/max/mdev = 13.003/13.645/14.288/0.653 ms
64 bytes from 216.58.195.238: icmp_seq=2 ttl=54 time=14.4 ms

--- 216.58.195.238 ping statistics ---
2 packets transmitted, 2 received, 0% packet loss, time 1001ms
rtt min/avg/max/mdev = 12.964/13.704/14.445/0.749 ms
64 bytes from 216.58.195.238: icmp_seq=2 ttl=54 time=13.6 ms

--- 216.58.195.238 ping statistics ---
2 packets transmitted, 2 received, 0% packet loss, time 1001ms
rtt min/avg/max/mdev = 12.982/13.292/13.602/0.310 ms
64 bytes from 216.58.195.238: icmp_seq=2 ttl=54 time=13.8 ms

--- 216.58.195.238 ping statistics ---
2 packets transmitted, 2 received, 0% packet loss, time 1000ms
rtt min/avg/max/mdev = 12.961/13.385/13.809/0.424 ms
64 bytes from 216.58.195.238: icmp_seq=2 ttl=54 time=13.9 ms

--- 216.58.195.238 ping statistics ---
2 packets transmitted, 2 received, 0% packet loss, time 1000ms
rtt min/avg/max/mdev = 12.945/13.456/13.968/0.524 ms
64 bytes from 216.58.195.238: icmp_seq=2 ttl=54 time=14.0 ms

--- 216.58.195.238 ping statistics ---
2 packets transmitted, 2 received, 0% packet loss, time 1002ms
rtt min/avg/max/mdev = 12.912/13.499/14.086/0.587 ms
64 bytes from 216.58.195.238: icmp_seq=2 ttl=54 time=13.9 ms

--- 216.58.195.238 ping statistics ---
2 packets transmitted, 2 received, 0% packet loss, time 1001ms
rtt min/avg/max/mdev = 12.936/13.441/13.946/0.505 ms
64 bytes from 216.58.195.238: icmp_seq=2 ttl=54 time=14.0 ms

--- 216.58.195.238 ping statistics ---
2 packets transmitted, 2 received, 0% packet loss, time 1000ms
rtt min/avg/max/mdev = 12.969/13.515/14.062/0.558 ms
64 bytes from 216.58.195.238: icmp_seq=2 ttl=54 time=14.2 ms

--- 216.58.195.238 ping statistics ---
2 packets transmitted, 2 received, 0% packet loss, time 1001ms
rtt min/avg/max/mdev = 12.960/13.593/14.227/0.644 ms
64 bytes from 216.58.195.238: icmp_seq=2 ttl=54 time=14.3 ms

--- 216.58.195.238 ping statistics ---
2 packets transmitted, 2 received, 0% packet loss, time 1002ms
rtt min/avg/max/mdev = 12.914/13.609/14.305/0.705 ms
64 bytes from 216.58.195.238: icmp_seq=2 ttl=54 time=14.4 ms

--- 216.58.195.238 ping statistics ---
2 packets transmitted, 2 received, 0% packet loss, time 1000ms
rtt min/avg/max/mdev = 12.935/13.699/14.463/0.764 ms
64 bytes from 216.58.195.238: icmp_seq=2 ttl=54 time=14.6 ms

--- 216.58.195.238 ping statistics ---
2 packets transmitted, 2 received, 0% packet loss, time 1000ms
rtt min/avg/max/mdev = 12.915/13.759/14.603/0.844 ms
64 bytes from 216.58.195.238: icmp_seq=2 ttl=54 time=14.7 ms

--- 216.58.195.238 ping statistics ---
2 packets transmitted, 2 received, 0% packet loss, time 1001ms
rtt min/avg/max/mdev = 12.887/13.801/14.715/0.914 ms
64 bytes from 216.58.195.238: icmp_seq=2 ttl=54 time=14.7 ms

--- 216.58.195.238 ping statistics ---
2 packets transmitted, 2 received, 0% packet loss, time 1000ms
rtt min/avg/max/mdev = 12.985/13.875/14.766/0.898 ms
64 bytes from 216.58.195.238: icmp_seq=2 ttl=54 time=14.1 ms

--- 216.58.195.238 ping statistics ---
2 packets transmitted, 2 received, 0% packet loss, time 1001ms
rtt min/avg/max/mdev = 12.908/13.539/14.170/0.631 ms
64 bytes from 216.58.195.238: icmp_seq=2 ttl=54 time=14.0 ms

--- 216.58.195.238 ping statistics ---
2 packets transmitted, 2 received, 0% packet loss, time 1002ms
rtt min/avg/max/mdev = 12.880/13.483/14.086/0.603 ms
64 bytes from 216.58.195.238: icmp_seq=2 ttl=54 time=14.0 ms

--- 216.58.195.238 ping statistics ---
2 packets transmitted, 2 received, 0% packet loss, time 1001ms
rtt min/avg/max/mdev = 12.872/13.478/14.085/0.617 ms
64 bytes from 216.58.195.238: icmp_seq=2 ttl=54 time=14.0 ms

--- 216.58.195.238 ping statistics ---
2 packets transmitted, 2 received, 0% packet loss, time 1001ms
rtt min/avg/max/mdev = 12.974/13.501/14.029/0.540 ms
64 bytes from 216.58.195.238: icmp_seq=2 ttl=54 time=14.0 ms

--- 216.58.195.238 ping statistics ---
2 packets transmitted, 2 received, 0% packet loss, time 1001ms
rtt min/avg/max/mdev = 12.936/13.494/14.053/0.570 ms
64 bytes from 216.58.195.238: icmp_seq=2 ttl=54 time=14.0 ms

--- 216.58.195.238 ping statistics ---
2 packets transmitted, 2 received, 0% packet loss, time 1001ms
rtt min/avg/max/mdev = 12.961/13.505/14.049/0.544 ms
64 bytes from 216.58.195.238: icmp_seq=2 ttl=54 time=14.1 ms

--- 216.58.195.238 ping statistics ---
2 packets transmitted, 2 received, 0% packet loss, time 1000ms
rtt min/avg/max/mdev = 12.870/13.494/14.119/0.635 ms
64 bytes from 216.58.195.238: icmp_seq=2 ttl=54 time=14.1 ms

64 bytes from 216.58.195.238: icmp_seq=2 ttl=54 time=13.8 ms

--- 216.58.195.238 ping statistics ---
2 packets transmitted, 2 received, 0% packet loss, time 1000ms
rtt min/avg/max/mdev = 12.934/13.549/14.165/0.626 ms
--- 216.58.195.238 ping statistics ---
2 packets transmitted, 2 received, 0% packet loss, time 1000ms
rtt min/avg/max/mdev = 12.944/13.379/13.814/0.435 ms
64 bytes from 216.58.195.238: icmp_seq=2 ttl=54 time=13.8 ms

--- 216.58.195.238 ping statistics ---
2 packets transmitted, 2 received, 0% packet loss, time 1001ms
rtt min/avg/max/mdev = 12.937/13.402/13.867/0.465 ms
64 bytes from 216.58.195.238: icmp_seq=2 ttl=54 time=13.4 ms

--- 216.58.195.238 ping statistics ---
2 packets transmitted, 2 received, 0% packet loss, time 1001ms
rtt min/avg/max/mdev = 12.917/13.159/13.401/0.242 ms
64 bytes from 216.58.195.238: icmp_seq=2 ttl=54 time=13.4 ms

--- 216.58.195.238 ping statistics ---
2 packets transmitted, 2 received, 0% packet loss, time 1000ms
rtt min/avg/max/mdev = 12.921/13.181/13.441/0.260 ms
64 bytes from 216.58.195.238: icmp_seq=2 ttl=54 time=13.4 ms

--- 216.58.195.238 ping statistics ---
2 packets transmitted, 2 received, 0% packet loss, time 1000ms
rtt min/avg/max/mdev = 12.953/13.213/13.474/0.284 ms
64 bytes from 216.58.195.238: icmp_seq=2 ttl=54 time=13.5 ms

--- 216.58.195.238 ping statistics ---
2 packets transmitted, 2 received, 0% packet loss, time 1000ms
rtt min/avg/max/mdev = 12.934/13.226/13.519/0.314 ms
64 bytes from 216.58.195.238: icmp_seq=2 ttl=54 time=13.1 ms

--- 216.58.195.238 ping statistics ---
2 packets transmitted, 2 received, 0% packet loss, time 1002ms
rtt min/avg/max/mdev = 12.910/13.018/13.126/0.108 ms
64 bytes from 216.58.195.238: icmp_seq=2 ttl=54 time=13.1 ms

--- 216.58.195.238 ping statistics ---
2 packets transmitted, 2 received, 0% packet loss, time 1001ms
rtt min/avg/max/mdev = 12.846/13.003/13.161/0.194 ms
64 bytes from 216.58.195.238: icmp_seq=2 ttl=54 time=13.0 ms

--- 216.58.195.238 ping statistics ---
2 packets transmitted, 2 received, 0% packet loss, time 1001ms
rtt min/avg/max/mdev = 12.869/12.968/13.067/0.099 ms
64 bytes from 216.58.195.238: icmp_seq=2 ttl=54 time=13.1 ms

--- 216.58.195.238 ping statistics ---
2 packets transmitted, 2 received, 0% packet loss, time 1002ms
rtt min/avg/max/mdev = 12.841/12.983/13.125/0.142 ms
64 bytes from 216.58.195.238: icmp_seq=2 ttl=54 time=13.1 ms

--- 216.58.195.238 ping statistics ---
2 packets transmitted, 2 received, 0% packet loss, time 1000ms
rtt min/avg/max/mdev = 13.021/13.101/13.182/0.139 ms
64 bytes from 216.58.195.238: icmp_seq=2 ttl=54 time=13.2 ms

--- 216.58.195.238 ping statistics ---
2 packets transmitted, 2 received, 0% packet loss, time 1000ms
rtt min/avg/max/mdev = 12.937/13.084/13.231/0.147 ms
64 bytes from 216.58.195.238: icmp_seq=2 ttl=54 time=13.2 ms

--- 216.58.195.238 ping statistics ---
2 packets transmitted, 2 received, 0% packet loss, time 1000ms
rtt min/avg/max/mdev = 12.983/13.134/13.285/0.151 ms
64 bytes from 216.58.195.238: icmp_seq=2 ttl=54 time=13.3 ms

--- 216.58.195.238 ping statistics ---
2 packets transmitted, 2 received, 0% packet loss, time 1001ms
rtt min/avg/max/mdev = 12.935/13.119/13.303/0.184 ms
64 bytes from 216.58.195.238: icmp_seq=2 ttl=54 time=12.9 ms

64 bytes from 216.58.195.238: icmp_seq=2 ttl=54 time=12.9 ms

--- 216.58.195.238 ping statistics ---
2 packets transmitted, 2 received, 0% packet loss, time 1001ms
rtt min/avg/max/mdev = 12.920/12.923/12.927/0.113 ms
--- 216.58.195.238 ping statistics ---
2 packets transmitted, 2 received, 0% packet loss, time 1000ms
rtt min/avg/max/mdev = 12.953/12.959/12.965/0.006 ms
64 bytes from 216.58.195.238: icmp_seq=2 ttl=54 time=13.0 ms

--- 216.58.195.238 ping statistics ---
2 packets transmitted, 2 received, 0% packet loss, time 1000ms
rtt min/avg/max/mdev = 12.970/12.990/13.010/0.020 ms
64 bytes from 216.58.195.238: icmp_seq=2 ttl=54 time=13.0 ms

--- 216.58.195.238 ping statistics ---
2 packets transmitted, 2 received, 0% packet loss, time 1000ms
rtt min/avg/max/mdev = 12.948/13.005/13.062/0.057 ms
64 bytes from 216.58.195.238: icmp_seq=2 ttl=54 time=12.9 ms

64 bytes from 216.58.195.238: icmp_seq=2 ttl=54 time=12.9 ms
--- 216.58.195.238 ping statistics ---
2 packets transmitted, 2 received, 0% packet loss, time 1001ms
rtt min/avg/max/mdev = 12.937/12.954/12.971/0.017 ms

--- 216.58.195.238 ping statistics ---
2 packets transmitted, 2 received, 0% packet loss, time 1000ms
rtt min/avg/max/mdev = 12.901/12.920/12.939/0.019 ms
64 bytes from 216.58.195.238: icmp_seq=2 ttl=54 time=12.9 ms

--- 216.58.195.238 ping statistics ---
2 packets transmitted, 2 received, 0% packet loss, time 1001ms
rtt min/avg/max/mdev = 12.925/12.940/12.955/0.015 ms
64 bytes from 216.58.195.238: icmp_seq=2 ttl=54 time=12.9 ms

--- 216.58.195.238 ping statistics ---
2 packets transmitted, 2 received, 0% packet loss, time 1001ms
rtt min/avg/max/mdev = 12.918/12.952/12.987/0.118 ms
64 bytes from 216.58.195.238: icmp_seq=2 ttl=54 time=12.9 ms

--- 216.58.195.238 ping statistics ---
2 packets transmitted, 2 received, 0% packet loss, time 1000ms
rtt min/avg/max/mdev = 12.969/12.973/12.977/0.004 ms
64 bytes from 216.58.195.238: icmp_seq=2 ttl=54 time=12.9 ms

--- 216.58.195.238 ping statistics ---
2 packets transmitted, 2 received, 0% packet loss, time 1001ms
rtt min/avg/max/mdev = 12.886/12.938/12.990/0.052 ms
64 bytes from 216.58.195.238: icmp_seq=2 ttl=54 time=12.9 ms

64 bytes from 216.58.195.238: icmp_seq=2 ttl=54 time=13.0 ms

--- 216.58.195.238 ping statistics ---
2 packets transmitted, 2 received, 0% packet loss, time 1001ms
rtt min/avg/max/mdev = 12.926/12.961/12.996/0.035 ms
--- 216.58.195.238 ping statistics ---
2 packets transmitted, 2 received, 0% packet loss, time 1000ms
rtt min/avg/max/mdev = 12.950/12.992/13.034/0.042 ms
64 bytes from 216.58.195.238: icmp_seq=2 ttl=54 time=12.9 ms
64 bytes from 216.58.195.238: icmp_seq=2 ttl=54 time=12.9 ms


--- 216.58.195.238 ping statistics ---
2 packets transmitted, 2 received, 0% packet loss, time 1001ms
rtt min/avg/max/mdev = 12.926/12.931/12.936/0.005 ms
--- 216.58.195.238 ping statistics ---
2 packets transmitted, 2 received, 0% packet loss, time 1001ms
rtt min/avg/max/mdev = 12.940/12.960/12.981/0.115 ms
64 bytes from 216.58.195.238: icmp_seq=2 ttl=54 time=12.9 ms

--- 216.58.195.238 ping statistics ---
2 packets transmitted, 2 received, 0% packet loss, time 1001ms
rtt min/avg/max/mdev = 12.948/12.956/12.964/0.008 ms
64 bytes from 216.58.195.238: icmp_seq=2 ttl=54 time=13.0 ms

--- 216.58.195.238 ping statistics ---
2 packets transmitted, 2 received, 0% packet loss, time 1000ms
rtt min/avg/max/mdev = 12.941/12.977/13.013/0.036 ms
64 bytes from 216.58.195.238: icmp_seq=2 ttl=54 time=13.0 ms

64 bytes from 216.58.195.238: icmp_seq=2 ttl=54 time=13.0 ms

--- 216.58.195.238 ping statistics ---
2 packets transmitted, 2 received, 0% packet loss, time 1000ms
rtt min/avg/max/mdev = 12.937/12.981/13.026/0.122 ms
--- 216.58.195.238 ping statistics ---
2 packets transmitted, 2 received, 0% packet loss, time 1001ms
rtt min/avg/max/mdev = 12.836/12.944/13.053/0.157 ms
64 bytes from 216.58.195.238: icmp_seq=2 ttl=54 time=13.0 ms

--- 216.58.195.238 ping statistics ---
2 packets transmitted, 2 received, 0% packet loss, time 1000ms
rtt min/avg/max/mdev = 12.949/13.018/13.088/0.133 ms
64 bytes from 216.58.195.238: icmp_seq=2 ttl=54 time=13.1 ms

--- 216.58.195.238 ping statistics ---
2 packets transmitted, 2 received, 0% packet loss, time 1000ms
rtt min/avg/max/mdev = 12.991/13.055/13.120/0.131 ms
64 bytes from 216.58.195.238: icmp_seq=2 ttl=54 time=13.1 ms

--- 216.58.195.238 ping statistics ---
2 packets transmitted, 2 received, 0% packet loss, time 1001ms
rtt min/avg/max/mdev = 12.951/13.063/13.175/0.112 ms
64 bytes from 216.58.195.238: icmp_seq=2 ttl=54 time=13.0 ms

64 bytes from 216.58.195.238: icmp_seq=2 ttl=54 time=13.2 ms

--- 216.58.195.238 ping statistics ---
2 packets transmitted, 2 received, 0% packet loss, time 1001ms
rtt min/avg/max/mdev = 13.040/13.131/13.222/0.091 ms
64 bytes from 216.58.195.238: icmp_seq=2 ttl=54 time=12.9 ms

--- 216.58.195.238 ping statistics ---
2 packets transmitted, 2 received, 0% packet loss, time 1001ms
rtt min/avg/max/mdev = 12.933/13.021/13.109/0.088 ms
--- 216.58.195.238 ping statistics ---
2 packets transmitted, 2 received, 0% packet loss, time 1001ms
rtt min/avg/max/mdev = 13.006/13.010/13.015/0.114 ms
64 bytes from 216.58.195.238: icmp_seq=2 ttl=54 time=12.8 ms

--- 216.58.195.238 ping statistics ---
2 packets transmitted, 2 received, 0% packet loss, time 1001ms
rtt min/avg/max/mdev = 12.833/12.894/12.955/0.061 ms
64 bytes from 216.58.195.238: icmp_seq=2 ttl=54 time=12.9 ms

--- 216.58.195.238 ping statistics ---
2 packets transmitted, 2 received, 0% packet loss, time 1001ms
rtt min/avg/max/mdev = 12.926/12.966/13.007/0.120 ms
64 bytes from 216.58.195.238: icmp_seq=2 ttl=54 time=12.9 ms

64 bytes from 216.58.195.238: icmp_seq=2 ttl=54 time=12.9 ms
--- 216.58.195.238 ping statistics ---
2 packets transmitted, 2 received, 0% packet loss, time 1001ms
rtt min/avg/max/mdev = 12.922/12.936/12.951/0.114 ms

--- 216.58.195.238 ping statistics ---
2 packets transmitted, 2 received, 0% packet loss, time 1001ms
rtt min/avg/max/mdev = 12.959/12.983/13.007/0.024 ms
64 bytes from 216.58.195.238: icmp_seq=2 ttl=54 time=12.9 ms

--- 216.58.195.238 ping statistics ---
2 packets transmitted, 2 received, 0% packet loss, time 1002ms
rtt min/avg/max/mdev = 12.900/12.912/12.924/0.012 ms
64 bytes from 216.58.195.238: icmp_seq=2 ttl=54 time=12.9 ms

--- 216.58.195.238 ping statistics ---
2 packets transmitted, 2 received, 0% packet loss, time 1001ms
rtt min/avg/max/mdev = 12.955/12.974/12.993/0.019 ms
64 bytes from 216.58.195.238: icmp_seq=2 ttl=54 time=12.9 ms

--- 216.58.195.238 ping statistics ---
2 packets transmitted, 2 received, 0% packet loss, time 1001ms
rtt min/avg/max/mdev = 12.928/12.942/12.957/0.114 ms
64 bytes from 216.58.195.238: icmp_seq=2 ttl=54 time=12.8 ms

--- 216.58.195.238 ping statistics ---
2 packets transmitted, 2 received, 0% packet loss, time 1001ms
rtt min/avg/max/mdev = 12.848/12.873/12.898/0.025 ms
64 bytes from 216.58.195.238: icmp_seq=2 ttl=54 time=12.8 ms

--- 216.58.195.238 ping statistics ---
2 packets transmitted, 2 received, 0% packet loss, time 1000ms
rtt min/avg/max/mdev = 12.845/12.865/12.886/0.115 ms
64 bytes from 216.58.195.238: icmp_seq=2 ttl=54 time=12.8 ms

--- 216.58.195.238 ping statistics ---
2 packets transmitted, 2 received, 0% packet loss, time 1001ms
rtt min/avg/max/mdev = 12.879/12.906/12.933/0.027 ms
64 bytes from 216.58.195.238: icmp_seq=2 ttl=54 time=12.9 ms

--- 216.58.195.238 ping statistics ---
2 packets transmitted, 2 received, 0% packet loss, time 1000ms
rtt min/avg/max/mdev = 12.950/12.967/12.984/0.017 ms
64 bytes from 216.58.195.238: icmp_seq=2 ttl=54 time=13.0 ms

--- 216.58.195.238 ping statistics ---
2 packets transmitted, 2 received, 0% packet loss, time 1000ms
rtt min/avg/max/mdev = 12.945/12.983/13.021/0.038 ms
64 bytes from 216.58.195.238: icmp_seq=2 ttl=54 time=13.0 ms

--- 216.58.195.238 ping statistics ---
2 packets transmitted, 2 received, 0% packet loss, time 1000ms
rtt min/avg/max/mdev = 12.945/13.000/13.055/0.055 ms
64 bytes from 216.58.195.238: icmp_seq=2 ttl=54 time=13.0 ms

--- 216.58.195.238 ping statistics ---
2 packets transmitted, 2 received, 0% packet loss, time 1000ms
rtt min/avg/max/mdev = 12.879/12.983/13.087/0.104 ms
64 bytes from 216.58.195.238: icmp_seq=2 ttl=54 time=13.0 ms

64 bytes from 216.58.195.238: icmp_seq=2 ttl=54 time=12.9 ms
--- 216.58.195.238 ping statistics ---
2 packets transmitted, 2 received, 0% packet loss, time 1001ms
rtt min/avg/max/mdev = 12.950/12.996/13.042/0.046 ms

--- 216.58.195.238 ping statistics ---
2 packets transmitted, 2 received, 0% packet loss, time 1001ms
rtt min/avg/max/mdev = 12.907/12.952/12.998/0.122 ms
64 bytes from 216.58.195.238: icmp_seq=2 ttl=54 time=13.0 ms

--- 216.58.195.238 ping statistics ---
2 packets transmitted, 2 received, 0% packet loss, time 1001ms
rtt min/avg/max/mdev = 12.915/12.986/13.058/0.134 ms
64 bytes from 216.58.195.238: icmp_seq=2 ttl=54 time=13.7 ms

--- 216.58.195.238 ping statistics ---
2 packets transmitted, 2 received, 0% packet loss, time 1001ms
rtt min/avg/max/mdev = 12.973/13.354/13.736/0.398 ms
64 bytes from 216.58.195.238: icmp_seq=2 ttl=54 time=13.5 ms

--- 216.58.195.238 ping statistics ---
2 packets transmitted, 2 received, 0% packet loss, time 1001ms
rtt min/avg/max/mdev = 13.078/13.326/13.574/0.248 ms
64 bytes from 216.58.195.238: icmp_seq=2 ttl=54 time=13.4 ms

64 bytes from 216.58.195.238: icmp_seq=2 ttl=54 time=13.5 ms

64 bytes from 216.58.195.238: icmp_seq=2 ttl=54 time=13.5 ms

--- 216.58.195.238 ping statistics ---
2 packets transmitted, 2 received, 0% packet loss, time 1001ms
rtt min/avg/max/mdev = 13.095/13.292/13.489/0.197 ms
--- 216.58.195.238 ping statistics ---
2 packets transmitted, 2 received, 0% packet loss, time 1001ms
rtt min/avg/max/mdev = 12.966/13.237/13.509/0.294 ms
--- 216.58.195.238 ping statistics ---
2 packets transmitted, 2 received, 0% packet loss, time 1001ms
rtt min/avg/max/mdev = 13.025/13.265/13.506/0.266 ms
64 bytes from 216.58.195.238: icmp_seq=2 ttl=54 time=14.5 ms

64 bytes from 216.58.195.238: icmp_seq=2 ttl=54 time=14.4 ms

64 bytes from 216.58.195.238: icmp_seq=2 ttl=54 time=14.5 ms
--- 216.58.195.238 ping statistics ---
2 packets transmitted, 2 received, 0% packet loss, time 1001ms
rtt min/avg/max/mdev = 13.124/13.820/14.516/0.696 ms

--- 216.58.195.238 ping statistics ---
2 packets transmitted, 2 received, 0% packet loss, time 1000ms
rtt min/avg/max/mdev = 13.043/13.761/14.480/0.728 ms
--- 216.58.195.238 ping statistics ---
2 packets transmitted, 2 received, 0% packet loss, time 1000ms
rtt min/avg/max/mdev = 12.947/13.743/14.540/0.805 ms
64 bytes from 216.58.195.238: icmp_seq=2 ttl=54 time=14.5 ms
64 bytes from 216.58.195.238: icmp_seq=2 ttl=54 time=14.5 ms


--- 216.58.195.238 ping statistics ---
2 packets transmitted, 2 received, 0% packet loss, time 1000ms
rtt min/avg/max/mdev = 12.992/13.749/14.506/0.757 ms
--- 216.58.195.238 ping statistics ---
2 packets transmitted, 2 received, 0% packet loss, time 1001ms
rtt min/avg/max/mdev = 13.064/13.800/14.537/0.745 ms
64 bytes from 216.58.195.238: icmp_seq=2 ttl=54 time=14.3 ms

--- 216.58.195.238 ping statistics ---
2 packets transmitted, 2 received, 0% packet loss, time 1001ms
rtt min/avg/max/mdev = 13.091/13.697/14.304/0.617 ms
64 bytes from 216.58.195.238: icmp_seq=2 ttl=54 time=14.2 ms

--- 216.58.195.238 ping statistics ---
2 packets transmitted, 2 received, 0% packet loss, time 1001ms
rtt min/avg/max/mdev = 13.090/13.693/14.297/0.614 ms
64 bytes from 216.58.195.238: icmp_seq=2 ttl=54 time=13.6 ms

--- 216.58.195.238 ping statistics ---
2 packets transmitted, 2 received, 0% packet loss, time 1001ms
rtt min/avg/max/mdev = 13.123/13.369/13.615/0.246 ms
64 bytes from 216.58.195.238: icmp_seq=2 ttl=54 time=14.3 ms

--- 216.58.195.238 ping statistics ---
2 packets transmitted, 2 received, 0% packet loss, time 1001ms
rtt min/avg/max/mdev = 13.050/13.675/14.300/0.625 ms
64 bytes from 216.58.195.238: icmp_seq=2 ttl=54 time=13.6 ms

--- 216.58.195.238 ping statistics ---
2 packets transmitted, 2 received, 0% packet loss, time 1001ms
rtt min/avg/max/mdev = 13.080/13.365/13.651/0.308 ms
64 bytes from 216.58.195.238: icmp_seq=2 ttl=54 time=14.4 ms

--- 216.58.195.238 ping statistics ---
2 packets transmitted, 2 received, 0% packet loss, time 1001ms
rtt min/avg/max/mdev = 13.005/13.743/14.482/0.747 ms
64 bytes from 216.58.195.238: icmp_seq=2 ttl=54 time=14.9 ms
64 bytes from 216.58.195.238: icmp_seq=2 ttl=54 time=15.0 ms


--- 216.58.195.238 ping statistics ---
2 packets transmitted, 2 received, 0% packet loss, time 1001ms
rtt min/avg/max/mdev = 13.030/14.042/15.055/1.019 ms
--- 216.58.195.238 ping statistics ---
2 packets transmitted, 2 received, 0% packet loss, time 1001ms
rtt min/avg/max/mdev = 13.092/14.014/14.937/0.930 ms
64 bytes from 216.58.195.238: icmp_seq=2 ttl=54 time=14.9 ms

--- 216.58.195.238 ping statistics ---
2 packets transmitted, 2 received, 0% packet loss, time 1001ms
rtt min/avg/max/mdev = 13.154/14.056/14.959/0.910 ms
64 bytes from 216.58.195.238: icmp_seq=2 ttl=54 time=14.9 ms
64 bytes from 216.58.195.238: icmp_seq=2 ttl=54 time=14.5 ms


--- 216.58.195.238 ping statistics ---
2 packets transmitted, 2 received, 0% packet loss, time 1000ms
rtt min/avg/max/mdev = 12.990/13.992/14.995/1.009 ms
--- 216.58.195.238 ping statistics ---
2 packets transmitted, 2 received, 0% packet loss, time 1000ms
rtt min/avg/max/mdev = 13.057/13.821/14.585/0.764 ms
64 bytes from 216.58.195.238: icmp_seq=2 ttl=54 time=14.6 ms

--- 216.58.195.238 ping statistics ---
2 packets transmitted, 2 received, 0% packet loss, time 1000ms
rtt min/avg/max/mdev = 12.947/13.784/14.621/0.837 ms
64 bytes from 216.58.195.238: icmp_seq=2 ttl=54 time=14.6 ms

--- 216.58.195.238 ping statistics ---
2 packets transmitted, 2 received, 0% packet loss, time 1001ms
rtt min/avg/max/mdev = 13.114/13.882/14.650/0.768 ms
64 bytes from 216.58.195.238: icmp_seq=2 ttl=54 time=14.6 ms

--- 216.58.195.238 ping statistics ---
2 packets transmitted, 2 received, 0% packet loss, time 1000ms
rtt min/avg/max/mdev = 13.047/13.830/14.613/0.783 ms
64 bytes from 216.58.195.238: icmp_seq=2 ttl=54 time=14.0 ms

--- 216.58.195.238 ping statistics ---
2 packets transmitted, 2 received, 0% packet loss, time 1001ms
rtt min/avg/max/mdev = 12.927/13.505/14.083/0.578 ms
64 bytes from 216.58.195.238: icmp_seq=2 ttl=54 time=13.6 ms

--- 216.58.195.238 ping statistics ---
2 packets transmitted, 2 received, 0% packet loss, time 1001ms
rtt min/avg/max/mdev = 13.096/13.369/13.643/0.296 ms
64 bytes from 216.58.195.238: icmp_seq=2 ttl=54 time=13.4 ms

--- 216.58.195.238 ping statistics ---
2 packets transmitted, 2 received, 0% packet loss, time 1000ms
rtt min/avg/max/mdev = 13.027/13.258/13.490/0.258 ms
64 bytes from 216.58.195.238: icmp_seq=2 ttl=54 time=13.5 ms

64 bytes from 216.58.195.238: icmp_seq=2 ttl=54 time=15.0 ms

--- 216.58.195.238 ping statistics ---
2 packets transmitted, 2 received, 0% packet loss, time 1002ms
rtt min/avg/max/mdev = 12.915/13.221/13.528/0.327 ms
--- 216.58.195.238 ping statistics ---
2 packets transmitted, 2 received, 0% packet loss, time 1001ms
rtt min/avg/max/mdev = 13.022/14.024/15.026/1.002 ms
64 bytes from 216.58.195.238: icmp_seq=2 ttl=54 time=13.4 ms

--- 216.58.195.238 ping statistics ---
2 packets transmitted, 2 received, 0% packet loss, time 1001ms
rtt min/avg/max/mdev = 13.161/13.280/13.400/0.166 ms
64 bytes from 216.58.195.238: icmp_seq=2 ttl=54 time=13.4 ms

64 bytes from 216.58.195.238: icmp_seq=2 ttl=54 time=13.4 ms

--- 216.58.195.238 ping statistics ---
2 packets transmitted, 2 received, 0% packet loss, time 1001ms
rtt min/avg/max/mdev = 13.000/13.206/13.412/0.206 ms
--- 216.58.195.238 ping statistics ---
2 packets transmitted, 2 received, 0% packet loss, time 1001ms
rtt min/avg/max/mdev = 13.007/13.207/13.408/0.231 ms
64 bytes from 216.58.195.238: icmp_seq=2 ttl=54 time=13.4 ms

--- 216.58.195.238 ping statistics ---
2 packets transmitted, 2 received, 0% packet loss, time 1001ms
rtt min/avg/max/mdev = 13.040/13.238/13.436/0.198 ms
64 bytes from 216.58.195.238: icmp_seq=2 ttl=54 time=13.4 ms

--- 216.58.195.238 ping statistics ---
2 packets transmitted, 2 received, 0% packet loss, time 1000ms
rtt min/avg/max/mdev = 13.066/13.269/13.472/0.203 ms
64 bytes from 216.58.195.238: icmp_seq=2 ttl=54 time=13.0 ms

--- 216.58.195.238 ping statistics ---
2 packets transmitted, 2 received, 0% packet loss, time 1001ms
rtt min/avg/max/mdev = 13.077/13.103/13.130/0.117 ms
64 bytes from 216.58.195.238: icmp_seq=2 ttl=54 time=13.1 ms

--- 216.58.195.238 ping statistics ---
2 packets transmitted, 2 received, 0% packet loss, time 1001ms
rtt min/avg/max/mdev = 13.065/13.103/13.142/0.120 ms
64 bytes from 216.58.195.238: icmp_seq=2 ttl=54 time=13.1 ms
64 bytes from 216.58.195.238: icmp_seq=2 ttl=54 time=13.1 ms
64 bytes from 216.58.195.238: icmp_seq=2 ttl=54 time=13.1 ms



64 bytes from 216.58.195.238: icmp_seq=2 ttl=54 time=13.1 ms
64 bytes from 216.58.195.238: icmp_seq=2 ttl=54 time=13.2 ms
--- 216.58.195.238 ping statistics ---
2 packets transmitted, 2 received, 0% packet loss, time 1001ms
rtt min/avg/max/mdev = 13.135/13.166/13.198/0.118 ms

--- 216.58.195.238 ping statistics ---
2 packets transmitted, 2 received, 0% packet loss, time 1000ms
rtt min/avg/max/mdev = 13.117/13.122/13.127/0.005 ms
--- 216.58.195.238 ping statistics ---
2 packets transmitted, 2 received, 0% packet loss, time 1001ms
rtt min/avg/max/mdev = 13.040/13.074/13.109/0.119 ms

--- 216.58.195.238 ping statistics ---
2 packets transmitted, 2 received, 0% packet loss, time 1000ms
rtt min/avg/max/mdev = 13.111/13.120/13.129/0.009 ms
--- 216.58.195.238 ping statistics ---
2 packets transmitted, 2 received, 0% packet loss, time 1001ms
rtt min/avg/max/mdev = 13.022/13.121/13.220/0.099 ms
64 bytes from 216.58.195.238: icmp_seq=2 ttl=54 time=13.0 ms

--- 216.58.195.238 ping statistics ---
2 packets transmitted, 2 received, 0% packet loss, time 1000ms
rtt min/avg/max/mdev = 12.952/12.986/13.021/0.119 ms
64 bytes from 216.58.195.238: icmp_seq=2 ttl=54 time=13.0 ms

--- 216.58.195.238 ping statistics ---
2 packets transmitted, 2 received, 0% packet loss, time 1001ms
rtt min/avg/max/mdev = 13.031/13.096/13.162/0.131 ms
64 bytes from 216.58.195.238: icmp_seq=2 ttl=54 time=12.9 ms

64 bytes from 216.58.195.238: icmp_seq=2 ttl=54 time=12.9 ms
--- 216.58.195.238 ping statistics ---
2 packets transmitted, 2 received, 0% packet loss, time 1001ms
rtt min/avg/max/mdev = 12.925/13.081/13.237/0.156 ms

64 bytes from 216.58.195.238: icmp_seq=2 ttl=54 time=12.9 ms

--- 216.58.195.238 ping statistics ---
2 packets transmitted, 2 received, 0% packet loss, time 1001ms
rtt min/avg/max/mdev = 12.941/12.980/13.020/0.120 ms
64 bytes from 216.58.195.238: icmp_seq=2 ttl=54 time=12.8 ms
--- 216.58.195.238 ping statistics ---
2 packets transmitted, 2 received, 0% packet loss, time 1001ms
rtt min/avg/max/mdev = 12.942/13.004/13.066/0.062 ms

64 bytes from 216.58.195.238: icmp_seq=2 ttl=54 time=12.9 ms

--- 216.58.195.238 ping statistics ---
2 packets transmitted, 2 received, 0% packet loss, time 1001ms
rtt min/avg/max/mdev = 12.829/12.927/13.026/0.150 ms
--- 216.58.195.238 ping statistics ---
2 packets transmitted, 2 received, 0% packet loss, time 1001ms
rtt min/avg/max/mdev = 12.965/13.062/13.159/0.097 ms
64 bytes from 216.58.195.238: icmp_seq=2 ttl=54 time=12.9 ms

--- 216.58.195.238 ping statistics ---
2 packets transmitted, 2 received, 0% packet loss, time 1000ms
rtt min/avg/max/mdev = 12.971/13.027/13.083/0.056 ms
64 bytes from 216.58.195.238: icmp_seq=2 ttl=54 time=12.9 ms

64 bytes from 216.58.195.238: icmp_seq=2 ttl=54 time=12.9 ms
--- 216.58.195.238 ping statistics ---
2 packets transmitted, 2 received, 0% packet loss, time 1000ms
rtt min/avg/max/mdev = 12.986/13.080/13.175/0.148 ms

64 bytes from 216.58.195.238: icmp_seq=2 ttl=54 time=12.9 ms

--- 216.58.195.238 ping statistics ---
2 packets transmitted, 2 received, 0% packet loss, time 1000ms
rtt min/avg/max/mdev = 12.999/13.088/13.177/0.089 ms
--- 216.58.195.238 ping statistics ---
2 packets transmitted, 2 received, 0% packet loss, time 1000ms
rtt min/avg/max/mdev = 12.946/13.035/13.125/0.145 ms
64 bytes from 216.58.195.238: icmp_seq=2 ttl=54 time=13.1 ms

--- 216.58.195.238 ping statistics ---
2 packets transmitted, 2 received, 0% packet loss, time 1000ms
rtt min/avg/max/mdev = 13.106/13.111/13.116/0.005 ms
64 bytes from 216.58.195.238: icmp_seq=2 ttl=54 time=13.1 ms

64 bytes from 216.58.195.238: icmp_seq=2 ttl=54 time=13.1 ms
--- 216.58.195.238 ping statistics ---
2 packets transmitted, 2 received, 0% packet loss, time 1000ms
rtt min/avg/max/mdev = 13.120/13.133/13.147/0.115 ms

--- 216.58.195.238 ping statistics ---
2 packets transmitted, 2 received, 0% packet loss, time 1000ms
rtt min/avg/max/mdev = 13.159/13.161/13.164/0.114 ms
64 bytes from 216.58.195.238: icmp_seq=2 ttl=54 time=13.0 ms

64 bytes from 216.58.195.238: icmp_seq=2 ttl=54 time=13.0 ms

--- 216.58.195.238 ping statistics ---
2 packets transmitted, 2 received, 0% packet loss, time 1001ms
rtt min/avg/max/mdev = 13.048/13.063/13.079/0.115 ms
--- 216.58.195.238 ping statistics ---
2 packets transmitted, 2 received, 0% packet loss, time 1001ms
rtt min/avg/max/mdev = 13.044/13.128/13.212/0.084 ms
64 bytes from 216.58.195.238: icmp_seq=2 ttl=54 time=12.9 ms

64 bytes from 216.58.195.238: icmp_seq=2 ttl=54 time=13.0 ms

64 bytes from 216.58.195.238: icmp_seq=2 ttl=54 time=12.9 ms
--- 216.58.195.238 ping statistics ---
2 packets transmitted, 2 received, 0% packet loss, time 1001ms
rtt min/avg/max/mdev = 12.972/12.975/12.978/0.003 ms

--- 216.58.195.238 ping statistics ---
2 packets transmitted, 2 received, 0% packet loss, time 1001ms
rtt min/avg/max/mdev = 13.056/13.178/13.301/0.167 ms
64 bytes from 216.58.195.238: icmp_seq=2 ttl=54 time=13.0 ms

--- 216.58.195.238 ping statistics ---
2 packets transmitted, 2 received, 0% packet loss, time 1001ms
rtt min/avg/max/mdev = 12.932/12.968/13.004/0.036 ms
--- 216.58.195.238 ping statistics ---
2 packets transmitted, 2 received, 0% packet loss, time 1001ms
rtt min/avg/max/mdev = 13.067/13.113/13.160/0.123 ms
64 bytes from 216.58.195.238: icmp_seq=2 ttl=54 time=12.9 ms

--- 216.58.195.238 ping statistics ---
2 packets transmitted, 2 received, 0% packet loss, time 1001ms
rtt min/avg/max/mdev = 12.938/13.004/13.070/0.066 ms
64 bytes from 216.58.195.238: icmp_seq=2 ttl=54 time=12.8 ms

64 bytes from 216.58.195.238: icmp_seq=2 ttl=54 time=12.9 ms

--- 216.58.195.238 ping statistics ---
2 packets transmitted, 2 received, 0% packet loss, time 1001ms
rtt min/avg/max/mdev = 12.896/13.040/13.184/0.144 ms
--- 216.58.195.238 ping statistics ---
2 packets transmitted, 2 received, 0% packet loss, time 1001ms
rtt min/avg/max/mdev = 12.923/13.088/13.253/0.165 ms
64 bytes from 216.58.195.238: icmp_seq=2 ttl=54 time=13.0 ms

64 bytes from 216.58.195.238: icmp_seq=2 ttl=54 time=13.0 ms

--- 216.58.195.238 ping statistics ---
2 packets transmitted, 2 received, 0% packet loss, time 1000ms
rtt min/avg/max/mdev = 12.960/12.997/13.034/0.037 ms
64 bytes from 216.58.195.238: icmp_seq=2 ttl=54 time=13.0 ms
--- 216.58.195.238 ping statistics ---
2 packets transmitted, 2 received, 0% packet loss, time 1001ms
rtt min/avg/max/mdev = 13.040/13.154/13.268/0.114 ms

--- 216.58.195.238 ping statistics ---
2 packets transmitted, 2 received, 0% packet loss, time 1001ms
rtt min/avg/max/mdev = 13.022/13.045/13.068/0.023 ms
64 bytes from 216.58.195.238: icmp_seq=2 ttl=54 time=12.9 ms

64 bytes from 216.58.195.238: icmp_seq=2 ttl=54 time=12.9 ms

64 bytes from 216.58.195.238: icmp_seq=2 ttl=54 time=12.9 ms
--- 216.58.195.238 ping statistics ---
2 packets transmitted, 2 received, 0% packet loss, time 1001ms
rtt min/avg/max/mdev = 12.958/13.205/13.452/0.247 ms

--- 216.58.195.238 ping statistics ---
2 packets transmitted, 2 received, 0% packet loss, time 1001ms
rtt min/avg/max/mdev = 12.959/13.215/13.471/0.256 ms
64 bytes from 216.58.195.238: icmp_seq=2 ttl=54 time=12.9 ms

--- 216.58.195.238 ping statistics ---
2 packets transmitted, 2 received, 0% packet loss, time 1000ms
rtt min/avg/max/mdev = 12.959/12.988/13.018/0.117 ms
64 bytes from 216.58.195.238: icmp_seq=2 ttl=54 time=12.9 ms

64 bytes from 216.58.195.238: icmp_seq=2 ttl=54 time=12.9 ms
--- 216.58.195.238 ping statistics ---
2 packets transmitted, 2 received, 0% packet loss, time 1001ms
rtt min/avg/max/mdev = 12.962/13.164/13.366/0.202 ms

--- 216.58.195.238 ping statistics ---
2 packets transmitted, 2 received, 0% packet loss, time 1001ms
rtt min/avg/max/mdev = 12.973/13.175/13.378/0.232 ms
64 bytes from 216.58.195.238: icmp_seq=2 ttl=54 time=12.9 ms
--- 216.58.195.238 ping statistics ---
2 packets transmitted, 2 received, 0% packet loss, time 1000ms
rtt min/avg/max/mdev = 12.958/13.065/13.173/0.156 ms

64 bytes from 216.58.195.238: icmp_seq=2 ttl=54 time=12.9 ms

--- 216.58.195.238 ping statistics ---
2 packets transmitted, 2 received, 0% packet loss, time 1001ms
rtt min/avg/max/mdev = 12.973/13.170/13.367/0.197 ms
--- 216.58.195.238 ping statistics ---
2 packets transmitted, 2 received, 0% packet loss, time 1001ms
rtt min/avg/max/mdev = 12.974/13.142/13.311/0.203 ms
64 bytes from 216.58.195.238: icmp_seq=2 ttl=54 time=12.9 ms

--- 216.58.195.238 ping statistics ---
2 packets transmitted, 2 received, 0% packet loss, time 1001ms
rtt min/avg/max/mdev = 12.943/13.176/13.410/0.260 ms
64 bytes from 216.58.195.238: icmp_seq=2 ttl=54 time=12.8 ms

64 bytes from 216.58.195.238: icmp_seq=2 ttl=54 time=12.8 ms

64 bytes from 216.58.195.238: icmp_seq=2 ttl=54 time=12.8 ms
--- 216.58.195.238 ping statistics ---
2 packets transmitted, 2 received, 0% packet loss, time 1001ms
rtt min/avg/max/mdev = 12.836/13.034/13.233/0.228 ms

64 bytes from 216.58.195.238: icmp_seq=2 ttl=54 time=12.8 ms
--- 216.58.195.238 ping statistics ---
2 packets transmitted, 2 received, 0% packet loss, time 1001ms
rtt min/avg/max/mdev = 12.821/12.958/13.095/0.137 ms

64 bytes from 216.58.195.238: icmp_seq=2 ttl=54 time=12.7 ms
64 bytes from 216.58.195.238: icmp_seq=2 ttl=54 time=12.9 ms


--- 216.58.195.238 ping statistics ---
2 packets transmitted, 2 received, 0% packet loss, time 1001ms
rtt min/avg/max/mdev = 12.828/13.007/13.187/0.212 ms
--- 216.58.195.238 ping statistics ---
2 packets transmitted, 2 received, 0% packet loss, time 1001ms
rtt min/avg/max/mdev = 12.840/12.961/13.083/0.166 ms
--- 216.58.195.238 ping statistics ---
2 packets transmitted, 2 received, 0% packet loss, time 1001ms
rtt min/avg/max/mdev = 12.915/13.053/13.191/0.138 ms
--- 216.58.195.238 ping statistics ---
2 packets transmitted, 2 received, 0% packet loss, time 1001ms
rtt min/avg/max/mdev = 12.782/12.916/13.051/0.176 ms
64 bytes from 216.58.195.238: icmp_seq=2 ttl=54 time=12.9 ms

64 bytes from 216.58.195.238: icmp_seq=2 ttl=54 time=12.9 ms

64 bytes from 216.58.195.238: icmp_seq=2 ttl=54 time=12.9 ms

--- 216.58.195.238 ping statistics ---
2 packets transmitted, 2 received, 0% packet loss, time 1000ms
rtt min/avg/max/mdev = 12.919/13.038/13.157/0.119 ms
--- 216.58.195.238 ping statistics ---
2 packets transmitted, 2 received, 0% packet loss, time 1001ms
rtt min/avg/max/mdev = 12.929/13.159/13.389/0.230 ms
64 bytes from 216.58.195.238: icmp_seq=2 ttl=54 time=12.9 ms
64 bytes from 216.58.195.238: icmp_seq=2 ttl=54 time=12.9 ms

--- 216.58.195.238 ping statistics ---
2 packets transmitted, 2 received, 0% packet loss, time 1001ms
rtt min/avg/max/mdev = 12.936/13.028/13.120/0.092 ms

--- 216.58.195.238 ping statistics ---
2 packets transmitted, 2 received, 0% packet loss, time 1001ms
rtt min/avg/max/mdev = 12.943/13.149/13.355/0.206 ms
--- 216.58.195.238 ping statistics ---
2 packets transmitted, 2 received, 0% packet loss, time 1001ms
rtt min/avg/max/mdev = 12.933/13.180/13.428/0.272 ms
64 bytes from 216.58.195.238: icmp_seq=2 ttl=54 time=13.1 ms

64 bytes from 216.58.195.238: icmp_seq=2 ttl=54 time=12.8 ms
64 bytes from 216.58.195.238: icmp_seq=2 ttl=54 time=13.1 ms

64 bytes from 216.58.195.238: icmp_seq=2 ttl=54 time=12.8 ms

--- 216.58.195.238 ping statistics ---
2 packets transmitted, 2 received, 0% packet loss, time 1001ms
rtt min/avg/max/mdev = 13.114/13.311/13.508/0.197 ms

--- 216.58.195.238 ping statistics ---
2 packets transmitted, 2 received, 0% packet loss, time 1001ms
rtt min/avg/max/mdev = 12.810/13.195/13.580/0.385 ms
--- 216.58.195.238 ping statistics ---
2 packets transmitted, 2 received, 0% packet loss, time 1001ms
rtt min/avg/max/mdev = 12.980/13.050/13.121/0.134 ms
--- 216.58.195.238 ping statistics ---
2 packets transmitted, 2 received, 0% packet loss, time 1001ms
rtt min/avg/max/mdev = 12.808/12.954/13.100/0.146 ms
64 bytes from 216.58.195.238: icmp_seq=2 ttl=54 time=12.9 ms
64 bytes from 216.58.195.238: icmp_seq=2 ttl=54 time=12.9 ms


64 bytes from 216.58.195.238: icmp_seq=2 ttl=54 time=12.9 ms

64 bytes from 216.58.195.238: icmp_seq=2 ttl=54 time=12.9 ms
64 bytes from 216.58.195.238: icmp_seq=2 ttl=54 time=12.9 ms

--- 216.58.195.238 ping statistics ---
2 packets transmitted, 2 received, 0% packet loss, time 1001ms
rtt min/avg/max/mdev = 12.922/13.264/13.607/0.361 ms
--- 216.58.195.238 ping statistics ---
2 packets transmitted, 2 received, 0% packet loss, time 1000ms
rtt min/avg/max/mdev = 12.901/12.927/12.953/0.026 ms

--- 216.58.195.238 ping statistics ---
2 packets transmitted, 2 received, 0% packet loss, time 1001ms
rtt min/avg/max/mdev = 12.907/12.956/13.005/0.049 ms
--- 216.58.195.238 ping statistics ---
2 packets transmitted, 2 received, 0% packet loss, time 1001ms
rtt min/avg/max/mdev = 12.900/13.005/13.111/0.155 ms
--- 216.58.195.238 ping statistics ---
2 packets transmitted, 2 received, 0% packet loss, time 1001ms
rtt min/avg/max/mdev = 12.914/13.274/13.635/0.378 ms
64 bytes from 216.58.195.238: icmp_seq=2 ttl=54 time=12.9 ms

64 bytes from 216.58.195.238: icmp_seq=2 ttl=54 time=12.9 ms

64 bytes from 216.58.195.238: icmp_seq=2 ttl=54 time=12.9 ms
64 bytes from 216.58.195.238: icmp_seq=2 ttl=54 time=12.9 ms
--- 216.58.195.238 ping statistics ---
2 packets transmitted, 2 received, 0% packet loss, time 1000ms
rtt min/avg/max/mdev = 12.907/13.265/13.623/0.358 ms


64 bytes from 216.58.195.238: icmp_seq=2 ttl=54 time=12.9 ms
--- 216.58.195.238 ping statistics ---
2 packets transmitted, 2 received, 0% packet loss, time 1000ms
rtt min/avg/max/mdev = 12.914/13.220/13.526/0.306 ms

64 bytes from 216.58.195.238: icmp_seq=2 ttl=54 time=12.9 ms

--- 216.58.195.238 ping statistics ---
2 packets transmitted, 2 received, 0% packet loss, time 1000ms
rtt min/avg/max/mdev = 12.921/13.271/13.621/0.350 ms
--- 216.58.195.238 ping statistics ---
2 packets transmitted, 2 received, 0% packet loss, time 1001ms
rtt min/avg/max/mdev = 12.915/13.153/13.391/0.238 ms
64 bytes from 216.58.195.238: icmp_seq=2 ttl=54 time=12.9 ms
--- 216.58.195.238 ping statistics ---
2 packets transmitted, 2 received, 0% packet loss, time 1001ms
rtt min/avg/max/mdev = 12.927/13.066/13.206/0.180 ms
64 bytes from 216.58.195.238: icmp_seq=2 ttl=54 time=12.8 ms

--- 216.58.195.238 ping statistics ---
2 packets transmitted, 2 received, 0% packet loss, time 1001ms
rtt min/avg/max/mdev = 12.908/12.922/12.937/0.114 ms

--- 216.58.195.238 ping statistics ---
2 packets transmitted, 2 received, 0% packet loss, time 1001ms
rtt min/avg/max/mdev = 12.940/13.149/13.359/0.238 ms
--- 216.58.195.238 ping statistics ---
2 packets transmitted, 2 received, 0% packet loss, time 1000ms
rtt min/avg/max/mdev = 12.898/13.180/13.463/0.304 ms
64 bytes from 216.58.195.238: icmp_seq=2 ttl=54 time=12.8 ms
64 bytes from 216.58.195.238: icmp_seq=2 ttl=54 time=12.8 ms

64 bytes from 216.58.195.238: icmp_seq=2 ttl=54 time=12.8 ms

64 bytes from 216.58.195.238: icmp_seq=2 ttl=54 time=12.9 ms


--- 216.58.195.238 ping statistics ---
2 packets transmitted, 2 received, 0% packet loss, time 1001ms
rtt min/avg/max/mdev = 12.885/13.132/13.380/0.272 ms
--- 216.58.195.238 ping statistics ---
2 packets transmitted, 2 received, 0% packet loss, time 1001ms
rtt min/avg/max/mdev = 12.890/13.166/13.443/0.299 ms
--- 216.58.195.238 ping statistics ---
2 packets transmitted, 2 received, 0% packet loss, time 1001ms
rtt min/avg/max/mdev = 12.903/13.161/13.419/0.258 ms
--- 216.58.195.238 ping statistics ---
2 packets transmitted, 2 received, 0% packet loss, time 1001ms
rtt min/avg/max/mdev = 12.856/13.117/13.378/0.261 ms
64 bytes from 216.58.195.238: icmp_seq=2 ttl=54 time=12.9 ms

--- 216.58.195.238 ping statistics ---
2 packets transmitted, 2 received, 0% packet loss, time 1001ms
rtt min/avg/max/mdev = 12.941/13.013/13.086/0.135 ms
