     1	 94.9 
     2	 97.4 
     3	 77.9 
     4	 38.7 
     5	  7.1 
     6	  9.9 
     7	  6.4 
     8	  4.2 
     9	 10.7 
    10	  1.4 
    11	 13.9 
    12	 86.3 
    13	 65.9 
    14	 91.1 
    15	 48.1 
    16	 38.1 
    17	 54.4 
    18	 60.0 
    19	 42.3 
    20	 35.2 
    21	 11.8 
    22	 12.9 
    23	 32.1 
    24	 28.8 
    25	 55.5 
    26	 23.8 
    27	 44.0 
    28	 31.5 
    29	 45.1 
    30	 56.0 
    31	 78.3 
    32	 68.2 
    33	 61.0 
    34	 71.0 
    35	 63.1 
    36	 71.1 
    37	 59.1 
    38	 66.3 
    39	 56.8 
    40	 51.4 
    41	 55.5 
    42	 63.0 
    43	 85.4 
    44	 79.8 
    45	 66.3 
    46	 54.6 
    47	 72.2 
    48	 72.0 
    49	 74.5 
    50	 88.3 
    51	 74.0 
    52	 66.7 
    53	 62.7 
    54	 19.6 
    55	  5.4 
    56	  2.5 
    57	  4.4 
    58	  1.4 
    59	  2.5 
    60	  2.6 
    61	  6.8 
    62	  5.5 
    63	  0.8 
    64	  0.7 
    65	  1.6 
    66	 59.3 
    67	 54.0 
    68	 52.7 
    69	 52.5 
    70	 83.7 
    71	 49.8 
    72	 56.2 
    73	 77.4 
    74	 73.2 
    75	 49.3 
    76	 67.1 
    77	 43.6 
    78	 26.8 
    79	 10.7 
    80	 13.7 
    81	 14.1 
    82	 51.4 
    83	 55.9 
    84	 70.3 
    85	 78.9 
    86	 85.9 
    87	 79.3 
    88	 69.7 
    89	 67.8 
    90	 85.4 
    91	 62.8 
    92	 61.5 
    93	 67.1 
    94	 61.7 
    95	 62.4 
    96	 64.5 
    97	 55.6 
    98	 68.7 
    99	 74.0 
   100	 76.0 
   101	 68.9 
   102	 72.2 
   103	 77.3 
   104	 68.6 
   105	 76.9 
   106	 79.6 
   107	 91.2 
   108	 86.9 
   109	 91.5 
   110	 94.5 
   111	 99.6 
