     1	1420460 
     2	1420460 
     3	1420460 
     4	1448116 
     5	1448116 
     6	1448116 
     7	1447756 
     8	1447756 
     9	1447756 
    10	1447804 
    11	1447804 
    12	1447804 
    13	1433308 
    14	1433308 
    15	1433308 
    16	1432852 
    17	1432852 
    18	1432852 
    19	1432844 
    20	1432844 
    21	1432844 
    22	1432840 
    23	1432840 
    24	1432840 
    25	1433036 
    26	1433036 
    27	1433036 
    28	1432236 
    29	1432236 
    30	1432236 
    31	1432236 
    32	1432236 
    33	1432236 
    34	1431116 
    35	1431116 
    36	1431116 
    37	1431084 
    38	1431084 
    39	1431084 
    40	1431092 
    41	1431092 
    42	1431092 
    43	1431068 
    44	1431068 
    45	1432100 
    46	1432100 
    47	1432100 
    48	1432124 
    49	1432124 
    50	1432124 
    51	1432120 
    52	1432120 
    53	1432120 
    54	1431328 
    55	1431328 
    56	1431328 
    57	1431160 
    58	1431160 
    59	1431160 
    60	1431184 
    61	1431184 
    62	1431184 
    63	1431156 
    64	1431156 
    65	1431156 
    66	1431180 
    67	1431180 
    68	1431180 
    69	1431136 
    70	1431136 
    71	1431136 
    72	1431164 
    73	1431164 
    74	1431164 
    75	1430512 
    76	1430512 
    77	1430512 
    78	1430508 
    79	1430508 
    80	1430508 
    81	1430504 
    82	1430504 
    83	1430504 
    84	1430532 
    85	1430532 
    86	1430532 
    87	1430500 
    88	1430500 
    89	1430500 
    90	1430524 
    91	1430524 
    92	1430524 
    93	1430492 
    94	1430492 
    95	1430492 
    96	1430516 
    97	1430516 
    98	1430516 
    99	1430516 
   100	1430516 
   101	1430516 
   102	1419964 
   103	1419964 
   104	1419964 
   105	1419932 
   106	1419932 
   107	1419932 
   108	1419944 
   109	1419944 
   110	1419944 
   111	1419960 
   112	1419960 
   113	1419960 
   114	1419944 
   115	1419944 
   116	1419944 
   117	1419940 
   118	1419940 
   119	1419940 
   120	1419964 
   121	1419964 
   122	1419964 
   123	1419960 
   124	1419960 
   125	1419960 
   126	1419940 
   127	1419940 
   128	1419940 
   129	1419936 
   130	1419936 
   131	1419936 
   132	1419064 
   133	1419064 
   134	1419064 
   135	1419072 
   136	1419072 
   137	1419072 
   138	1419072 
   139	1419072 
   140	1419072 
   141	1419052 
   142	1419052 
   143	1419052 
   144	1419060 
   145	1419060 
   146	1419060 
   147	1419056 
   148	1419056 
   149	1419056 
   150	1419032 
   151	1419032 
   152	1419032 
   153	1419044 
   154	1419044 
   155	1419044 
   156	1419024 
   157	1419024 
   158	1419024 
   159	1419036 
   160	1419036 
   161	1419036 
   162	1419020 
   163	1419020 
   164	1419020 
   165	1419020 
   166	1419020 
   167	1419020 
   168	1419004 
   169	1419004 
   170	1419004 
   171	1419020 
   172	1419020 
   173	1419020 
   174	1419000 
   175	1419000 
   176	1419000 
   177	1418996 
   178	1418996 
   179	1418996 
   180	1418992 
   181	1418992 
   182	1418992 
   183	1418928 
   184	1418928 
   185	1418928 
   186	1418920 
   187	1418920 
   188	1418920 
   189	1418920 
   190	1418920 
   191	1418932 
   192	1418932 
   193	1418932 
   194	1418912 
   195	1418912 
   196	1418912 
   197	1418912 
   198	1418912 
   199	1418912 
   200	1418904 
   201	1418904 
   202	1418904 
   203	1418920 
   204	1418920 
   205	1418920 
   206	1418900 
   207	1418900 
   208	1418900 
   209	1418900 
   210	1418900 
   211	1418900 
   212	1418896 
   213	1418896 
   214	1418896 
   215	1418896 
   216	1418896 
   217	1418896 
   218	1418888 
   219	1418888 
   220	1418888 
   221	1418884 
   222	1418884 
   223	1418884 
   224	1418896 
   225	1418896 
   226	1418896 
   227	1418892 
   228	1418892 
   229	1418892 
   230	1418868 
   231	1418868 
   232	1418868 
   233	1418884 
   234	1418884 
   235	1418884 
   236	1418876 
   237	1418876 
   238	1418876 
   239	1418960 
   240	1418960 
   241	1418960 
   242	1418940 
   243	1418940 
   244	1418940 
   245	1418952 
   246	1418952 
   247	1418952 
   248	1417896 
   249	1417896 
   250	1417896 
   251	1417832 
   252	1417832 
   253	1417832 
   254	1417816 
   255	1417816 
   256	1417816 
   257	1417828 
   258	1417828 
   259	1417824 
   260	1417824 
   261	1417824 
   262	1417800 
   263	1417800 
   264	1417800 
   265	1417812 
   266	1417812 
   267	1417812 
   268	1417808 
   269	1417808 
   270	1417808 
   271	1417804 
   272	1417804 
   273	1417804 
   274	1417784 
   275	1417784 
   276	1417784 
   277	1417792 
   278	1417792 
   279	1417792 
   280	1417792 
   281	1417792 
   282	1417792 
   283	1417768 
   284	1417768 
   285	1417768 
   286	1417768 
   287	1417768 
   288	1417768 
   289	1417780 
   290	1417780 
   291	1417780 
   292	1417760 
   293	1417760 
   294	1417760 
   295	1417768 
   296	1417768 
   297	1417768 
   298	1417752 
   299	1417752 
   300	1417752 
   301	1417764 
   302	1417764 
   303	1417764 
   304	1417744 
   305	1417744 
   306	1417744 
   307	1417756 
   308	1417756 
   309	1417756 
   310	1417736 
   311	1417736 
   312	1417736 
   313	1417748 
   314	1417748 
   315	1417748 
   316	1417732 
   317	1417732 
   318	1417732 
   319	1417744 
   320	1417744 
   321	1417744 
   322	1417724 
   323	1417724 
   324	1417724 
   325	1417724 
   326	1417724 
   327	1417724 
   328	1417716 
   329	1417716 
   330	1417716 
   331	1417724 
   332	1417724 
   333	1417724 
   334	1417720 
   335	1417720 
   336	1417720 
   337	1417460 
   338	1417460 
   339	1417460 
   340	1417464 
   341	1417464 
   342	1417464 
   343	1417400 
   344	1417400 
   345	1417400 
   346	1417388 
   347	1417388 
   348	1417388 
   349	1417388 
   350	1417388 
   351	1417388 
   352	1417328 
   353	1417328 
   354	1417328 
   355	1417312 
   356	1417312 
   357	1417312 
   358	1417284 
   359	1417284 
   360	1417284 
   361	1417268 
   362	1417268 
   363	1417268 
   364	1417276 
   365	1417276 
   366	1417276 
   367	1417260 
   368	1417260 
   369	1417260 
   370	1417276 
   371	1417276 
   372	1417276 
   373	1417252 
   374	1417252 
   375	1417252 
   376	1417268 
   377	1417268 
   378	1417268 
   379	1417248 
   380	1417248 
   381	1417248 
   382	1417248 
   383	1417248 
   384	1417248 
   385	1417244 
   386	1417244 
   387	1417244 
   388	1417252 
   389	1417252 
   390	1417252 
   391	1417236 
   392	1417236 
   393	1417236 
   394	1417348 
   395	1417348 
   396	1417348 
   397	1417360 
   398	1417360 
   399	1417360 
   400	1417360 
   401	1417360 
   402	1417360 
   403	1417340 
   404	1417340 
   405	1417340 
   406	1417340 
   407	1417340 
   408	1417340 
   409	1417340 
   410	1417340 
   411	1417336 
   412	1417336 
   413	1417336 
   414	1417352 
   415	1417352 
   416	1417352 
   417	1417332 
   418	1417332 
   419	1417332 
   420	1417340 
   421	1417340 
   422	1417340 
   423	1417316 
   424	1417316 
   425	1417316 
   426	1417332 
   427	1417332 
   428	1417332 
   429	1417284 
   430	1417284 
   431	1417284 
   432	1417292 
   433	1417292 
   434	1417292 
   435	1417280 
   436	1417280 
   437	1417280 
   438	1417280 
   439	1417280 
   440	1417280 
   441	1417272 
   442	1417272 
   443	1417272 
   444	1417280 
   445	1417280 
   446	1417280 
   447	1417272 
   448	1417272 
   449	1417272 
   450	1417272 
   451	1417272 
   452	1417272 
   453	1417260 
   454	1417260 
   455	1417260 
   456	1417260 
   457	1417260 
   458	1417260 
   459	1417252 
   460	1417252 
   461	1417252 
   462	1417256 
   463	1417256 
   464	1417256 
   465	1417248 
   466	1417248 
   467	1417248 
   468	1417256 
   469	1417256 
   470	1417256 
   471	1417252 
   472	1417252 
   473	1417252 
   474	1417236 
   475	1417236 
   476	1417236 
   477	1417244 
   478	1417244 
   479	1417244 
   480	1417244 
   481	1417244 
   482	1417224 
   483	1417224 
   484	1417224 
   485	1417228 
   486	1417228 
   487	1417228 
   488	1417216 
   489	1417216 
   490	1417216 
   491	1417224 
   492	1417224 
   493	1417224 
   494	1417212 
   495	1417212 
   496	1417212 
   497	1414600 
