     1	1313916 
     2	1313916 
     3	1313916 
     4	1430316 
     5	1430316 
     6	1430316 
     7	3130628 
     8	3130628 
     9	3130628 
    10	5425124 
    11	5425124 
    12	5425124 
    13	5438384 
    14	5438384 
    15	5438384 
    16	5519292 
    17	5519292 
    18	5519292 
    19	5551860 
    20	5551860 
    21	5551860 
    22	5351624 
    23	5351624 
    24	5351624 
    25	5479384 
    26	5479384 
    27	5479384 
    28	5297820 
    29	5297820 
    30	5297820 
    31	4914508 
    32	4914508 
    33	4914508 
    34	4374948 
    35	4374948 
    36	4374948 
    37	3718448 
    38	3718448 
    39	3718448 
    40	3089180 
    41	3089180 
    42	2702996 
    43	2702996 
    44	2702996 
    45	2063404 
    46	2063404 
    47	2063404 
    48	1617668 
    49	1617668 
    50	1617668 
    51	1422216 
    52	1422216 
    53	1422216 
    54	1866632 
    55	1866632 
    56	1866632 
    57	2583712 
    58	2583712 
    59	2583712 
    60	3835668 
    61	3835668 
    62	3835668 
    63	5327980 
    64	5327980 
    65	5327980 
    66	5652440 
    67	5652440 
    68	5652440 
    69	5430696 
    70	5430696 
    71	5430696 
    72	5556032 
    73	5556032 
    74	5556032 
    75	5554432 
    76	5554432 
    77	5554432 
    78	5469460 
    79	5469460 
    80	5521584 
    81	5521584 
    82	5521584 
    83	5308932 
    84	5308932 
    85	5308932 
    86	4879436 
    87	4879436 
    88	4879436 
    89	4147616 
    90	4147616 
    91	4147616 
    92	3372808 
    93	3372808 
    94	3372808 
    95	2717392 
    96	2717392 
    97	2717392 
    98	1895564 
    99	1895564 
   100	1895564 
   101	1474364 
   102	1474364 
   103	1474364 
   104	1428408 
   105	1428408 
   106	1428408 
   107	1416032 
   108	1416032 
   109	1416032 
