ping_30 | round-trip min/avg/max = 79.751/80.040/80.715 ms
ping_12 | round-trip min/avg/max = 79.849/80.142/80.696 ms
ping_25 | round-trip min/avg/max = 79.758/79.985/80.336 ms
ping_38 | round-trip min/avg/max = 79.747/80.225/82.545 ms
ping_5  | round-trip min/avg/max = 79.886/80.050/80.319 ms
ping_28 | round-trip min/avg/max = 79.836/80.064/80.594 ms
ping_8  | round-trip min/avg/max = 79.855/80.160/80.653 ms
ping_29 | round-trip min/avg/max = 79.811/80.015/80.344 ms
ping_34 | round-trip min/avg/max = 79.841/79.969/80.286 ms
ping_33 | round-trip min/avg/max = 79.749/80.079/80.621 ms
ping_37 | round-trip min/avg/max = 79.709/79.840/80.074 ms
ping_21 | round-trip min/avg/max = 79.831/80.111/80.737 ms
ping_40 | round-trip min/avg/max = 79.841/79.987/80.217 ms
ping_13 | round-trip min/avg/max = 79.801/79.972/80.219 ms
ping_10 | round-trip min/avg/max = 79.770/79.951/80.234 ms
ping_14 | round-trip min/avg/max = 79.784/79.980/80.343 ms
ping_6  | round-trip min/avg/max = 79.831/80.045/80.376 ms
ping_3  | round-trip min/avg/max = 79.771/80.018/80.265 ms
ping_4  | round-trip min/avg/max = 79.806/79.951/80.217 ms
ping_27 | round-trip min/avg/max = 79.806/79.910/80.259 ms
ping_17 | round-trip min/avg/max = 79.748/79.920/80.049 ms
ping_39 | round-trip min/avg/max = 79.930/80.227/81.100 ms
ping_24 | round-trip min/avg/max = 79.680/79.882/80.270 ms
ping_31 | round-trip min/avg/max = 79.687/79.869/80.141 ms
ping_11 | round-trip min/avg/max = 79.778/79.967/80.320 ms
ping_22 | round-trip min/avg/max = 79.717/80.115/81.497 ms
ping_32 | round-trip min/avg/max = 79.898/80.090/80.324 ms
ping_2  | round-trip min/avg/max = 79.752/79.868/80.175 ms
ping_18 | round-trip min/avg/max = 79.803/80.093/81.305 ms
ping_1  | round-trip min/avg/max = 79.794/80.362/83.860 ms
ping_36 | round-trip min/avg/max = 79.759/79.920/80.260 ms
ping_23 | round-trip min/avg/max = 79.737/79.974/80.550 ms
ping_7  | round-trip min/avg/max = 79.734/79.971/80.257 ms
ping_35 | round-trip min/avg/max = 79.701/79.833/79.991 ms
ping_20 | round-trip min/avg/max = 79.769/80.137/80.405 ms
ping_16 | round-trip min/avg/max = 79.739/80.152/81.657 ms
ping_15 | round-trip min/avg/max = 79.752/79.921/80.264 ms
ping_9  | round-trip min/avg/max = 79.715/80.091/82.630 ms
ping_26 | round-trip min/avg/max = 79.741/79.858/80.216 ms
ping_19 | round-trip min/avg/max = 79.690/80.234/82.886 ms
ping_42 | round-trip min/avg/max = 79.715/79.971/80.286 ms
ping_89 | round-trip min/avg/max = 79.751/80.068/81.323 ms
ping_96 | round-trip min/avg/max = 79.791/80.036/80.320 ms
ping_78 | round-trip min/avg/max = 79.834/80.119/80.619 ms
ping_58 | round-trip min/avg/max = 79.749/80.056/80.714 ms
ping_56 | round-trip min/avg/max = 79.847/80.013/80.296 ms
ping_61 | round-trip min/avg/max = 79.902/80.142/80.673 ms
ping_54 | round-trip min/avg/max = 79.750/80.103/82.310 ms
ping_69 | round-trip min/avg/max = 79.688/79.993/80.469 ms
ping_53 | round-trip min/avg/max = 79.753/80.176/81.563 ms
ping_74 | round-trip min/avg/max = 79.831/80.062/80.434 ms
ping_95 | round-trip min/avg/max = 79.856/80.048/80.412 ms
ping_77 | round-trip min/avg/max = 79.700/80.022/80.501 ms
ping_72 | round-trip min/avg/max = 79.787/79.996/80.334 ms
ping_83 | round-trip min/avg/max = 79.755/79.974/80.217 ms
ping_76 | round-trip min/avg/max = 79.745/79.984/80.306 ms
ping_51 | round-trip min/avg/max = 79.746/79.910/80.206 ms
ping_94 | round-trip min/avg/max = 79.757/80.105/81.577 ms
ping_47 | round-trip min/avg/max = 79.702/79.995/80.371 ms
ping_85 | round-trip min/avg/max = 79.797/79.971/80.333 ms
ping_55 | round-trip min/avg/max = 79.783/79.950/80.249 ms
ping_62 | round-trip min/avg/max = 79.794/80.029/80.601 ms
ping_81 | round-trip min/avg/max = 79.817/79.938/80.137 ms
ping_68 | round-trip min/avg/max = 79.700/79.932/80.300 ms
ping_41 | round-trip min/avg/max = 79.712/79.901/80.198 ms
ping_97 | round-trip min/avg/max = 79.746/79.814/79.981 ms
ping_93 | round-trip min/avg/max = 79.756/79.975/80.230 ms
ping_52 | round-trip min/avg/max = 79.706/80.000/80.703 ms
ping_67 | round-trip min/avg/max = 79.718/79.903/80.150 ms
ping_88 | round-trip min/avg/max = 79.772/80.032/80.559 ms
ping_50 | round-trip min/avg/max = 79.724/79.873/80.129 ms
ping_48 | round-trip min/avg/max = 79.838/80.024/80.791 ms
ping_71 | round-trip min/avg/max = 79.726/80.253/83.218 ms
ping_86 | round-trip min/avg/max = 79.786/80.081/80.709 ms
ping_46 | round-trip min/avg/max = 79.671/79.894/80.150 ms
ping_63 | round-trip min/avg/max = 79.752/79.935/80.299 ms
ping_91 | round-trip min/avg/max = 79.692/79.991/80.268 ms
ping_90 | round-trip min/avg/max = 79.688/79.994/80.372 ms
ping_49 | round-trip min/avg/max = 79.743/80.041/80.304 ms
ping_44 | round-trip min/avg/max = 79.768/80.010/80.335 ms
ping_73 | round-trip min/avg/max = 79.696/80.091/80.449 ms
ping_100 | round-trip min/avg/max = 79.715/79.928/80.111 ms
ping_99 | round-trip min/avg/max = 79.763/80.013/80.457 ms
ping_64 | round-trip min/avg/max = 79.650/79.831/79.945 ms
ping_98 | round-trip min/avg/max = 79.826/79.995/80.273 ms
ping_66 | round-trip min/avg/max = 79.684/79.870/80.174 ms
ping_79 | round-trip min/avg/max = 79.708/79.884/80.142 ms
ping_87 | round-trip min/avg/max = 79.722/80.030/80.397 ms
ping_43 | round-trip min/avg/max = 79.822/80.063/80.515 ms
ping_70 | round-trip min/avg/max = 79.794/79.981/80.237 ms
ping_84 | round-trip min/avg/max = 79.742/80.021/80.617 ms
ping_57 | round-trip min/avg/max = 79.655/79.972/80.348 ms
ping_92 | round-trip min/avg/max = 79.807/80.036/80.301 ms
ping_59 | round-trip min/avg/max = 79.799/80.086/81.141 ms
ping_75 | round-trip min/avg/max = 79.661/79.891/80.105 ms
ping_65 | round-trip min/avg/max = 79.711/80.068/80.534 ms
ping_80 | round-trip min/avg/max = 79.656/80.086/80.624 ms
ping_60 | round-trip min/avg/max = 79.707/79.953/80.306 ms
ping_45 | round-trip min/avg/max = 79.676/79.952/80.454 ms
ping_82 | round-trip min/avg/max = 79.800/80.005/80.387 ms
