     1	1433588 
     2	1433588 
     3	1433588 
     4	1433480 
     5	1433480 
     6	1433480 
     7	1433496 
     8	1433496 
     9	1433496 
    10	1433492 
    11	1433492 
    12	1433492 
    13	1433552 
    14	1433552 
    15	1433552 
    16	1433564 
    17	1433564 
    18	1433564 
    19	1433560 
    20	1433560 
    21	1433560 
    22	1433704 
    23	1433704 
    24	1433700 
    25	1433700 
    26	1433700 
    27	1433740 
    28	1433740 
    29	1433740 
    30	1433764 
    31	1433764 
    32	1433764 
    33	1433760 
    34	1433760 
    35	1433760 
    36	1433708 
    37	1433708 
    38	1433708 
    39	1433696 
    40	1433696 
    41	1433696 
    42	1433748 
    43	1433748 
    44	1433748 
    45	1433776 
    46	1433776 
    47	1433776 
    48	1433760 
    49	1433760 
