ping_11 | round-trip min/avg/max = 167.486/178.751/185.423 ms
ping_8  | round-trip min/avg/max = 167.223/179.775/185.631 ms
ping_20 | round-trip min/avg/max = 167.058/177.857/185.305 ms
ping_10 | round-trip min/avg/max = 167.367/179.941/185.179 ms
ping_13 | round-trip min/avg/max = 167.256/177.842/185.581 ms
ping_5  | round-trip min/avg/max = 167.707/179.657/185.604 ms
ping_3  | round-trip min/avg/max = 167.159/180.401/185.473 ms
ping_15 | round-trip min/avg/max = 167.882/180.704/185.956 ms
ping_2  | round-trip min/avg/max = 168.209/178.754/185.276 ms
ping_17 | round-trip min/avg/max = 166.979/180.664/185.886 ms
ping_14 | round-trip min/avg/max = 167.184/180.700/185.913 ms
ping_9  | round-trip min/avg/max = 167.840/178.980/184.906 ms
ping_4  | round-trip min/avg/max = 167.541/179.951/185.448 ms
ping_19 | round-trip min/avg/max = 167.182/180.426/185.406 ms
ping_6  | round-trip min/avg/max = 167.356/178.474/185.355 ms
ping_1  | round-trip min/avg/max = 167.209/179.014/185.965 ms
ping_18 | round-trip min/avg/max = 167.169/182.245/185.481 ms
ping_7  | round-trip min/avg/max = 167.497/179.612/185.297 ms
ping_16 | round-trip min/avg/max = 167.768/179.975/185.839 ms
ping_12 | round-trip min/avg/max = 168.047/180.489/186.064 ms
ping_31 | round-trip min/avg/max = 167.787/180.903/185.912 ms
ping_39 | round-trip min/avg/max = 178.331/183.776/186.503 ms
ping_22 | round-trip min/avg/max = 178.417/183.743/186.650 ms
ping_33 | round-trip min/avg/max = 171.533/183.117/185.683 ms
ping_27 | round-trip min/avg/max = 168.898/182.145/185.347 ms
ping_38 | round-trip min/avg/max = 179.823/183.636/186.465 ms
ping_32 | round-trip min/avg/max = 168.510/182.431/185.823 ms
ping_36 | round-trip min/avg/max = 175.777/183.051/186.084 ms
ping_30 | round-trip min/avg/max = 178.250/183.466/185.587 ms
ping_35 | round-trip min/avg/max = 176.318/183.206/185.899 ms
ping_34 | round-trip min/avg/max = 169.951/182.987/185.832 ms
ping_29 | round-trip min/avg/max = 175.649/183.405/185.999 ms
ping_25 | round-trip min/avg/max = 167.120/182.900/185.503 ms
ping_28 | round-trip min/avg/max = 168.405/182.797/185.875 ms
ping_24 | round-trip min/avg/max = 167.418/182.345/186.223 ms
ping_26 | round-trip min/avg/max = 166.932/181.670/185.751 ms
ping_40 | round-trip min/avg/max = 167.227/180.837/186.026 ms
ping_23 | round-trip min/avg/max = 167.229/180.131/186.328 ms
ping_21 | round-trip min/avg/max = 167.234/180.166/185.810 ms
ping_37 | round-trip min/avg/max = 167.095/180.434/185.407 ms
