     1	287 
     2	288 
     3	319 
     4	351 
     5	342 
     6	338 
     7	334 
     8	329 
     9	325 
    10	321 
    11	318 
    12	371 
    13	380 
    14	371 
    15	368 
    16	364 
    17	360 
    18	352 
    19	348 
    20	348 
    21	348 
    22	348 
    23	348 
    24	348 
    25	348 
    26	348 
    27	348 
    28	348 
    29	348 
    30	348 
    31	348 
    32	348 
    33	348 
    34	348 
    35	348 
    36	348 
    37	348 
    38	348 
    39	348 
    40	348 
    41	348 
    42	348 
    43	348 
    44	348 
    45	348 
    46	348 
    47	348 
    48	348 
    49	348 
    50	348 
    51	348 
    52	345 
    53	339 
    54	336 
    55	333 
    56	330 
    57	327 
    58	324 
    59	321 
    60	318 
    61	313 
    62	306 
    63	306 
    64	312 
    65	299 
    66	293 
    67	291 
