     1	 94.7 
     2	 99.4 
     3	 99.8 
     4	 99.4 
     5	 99.4 
     6	 99.3 
     7	 99.5 
     8	 99.6 
     9	 99.4 
    10	 99.6 
    11	 99.6 
    12	 99.5 
    13	 99.6 
    14	 99.8 
    15	 99.9 
    16	 99.8 
    17	 99.8 
    18	 99.6 
    19	 99.6 
    20	 99.3 
    21	 99.8 
    22	 99.8 
    23	 99.6 
    24	 99.8 
    25	 99.8 
    26	 99.8 
    27	 99.8 
    28	 99.6 
    29	 99.5 
    30	 99.9 
    31	 99.6 
    32	 99.8 
    33	 99.6 
    34	 99.8 
    35	 99.9 
    36	 99.8 
    37	 99.6 
    38	 99.6 
    39	 99.8 
    40	 99.9 
    41	 99.5 
    42	 99.8 
    43	 99.8 
    44	 99.9 
    45	 99.8 
    46	 99.8 
    47	 99.8 
    48	 99.8 
    49	 99.8 
    50	 99.6 
    51	 99.3 
    52	 99.6 
    53	 99.9 
    54	 99.6 
    55	 99.9 
    56	 99.8 
    57	 99.6 
    58	 99.4 
    59	 99.6 
    60	 99.6 
    61	 99.8 
    62	 99.5 
    63	 99.8 
    64	 99.8 
    65	 99.4 
    66	 99.8 
    67	 99.8 
    68	 99.8 
    69	 99.6 
    70	 99.8 
    71	 99.6 
    72	 99.8 
    73	 99.9 
    74	 99.9 
    75	 99.8 
    76	 99.6 
    77	 99.8 
    78	 99.9 
    79	 99.5 
    80	 99.8 
    81	100.0 
    82	 99.4 
    83	 99.6 
    84	 99.5 
    85	 99.9 
    86	 99.6 
    87	 98.5 
    88	 99.1 
    89	 99.8 
    90	 99.8 
    91	 99.6 
    92	 99.9 
    93	 99.8 
    94	 99.6 
    95	 99.8 
    96	 99.0 
    97	 99.6 
    98	 99.4 
