     1	1367216 
     2	1367216 
     3	1367216 
     4	1352868 
     5	1352868 
     6	1352868 
     7	1352940 
     8	1352940 
     9	1352940 
    10	1352932 
    11	1352932 
    12	1352932 
    13	1352928 
    14	1352928 
    15	1352928 
    16	1352580 
    17	1352580 
    18	1352580 
    19	1352612 
    20	1352612 
    21	1352612 
    22	1352612 
    23	1352612 
    24	1352612 
    25	1352644 
    26	1352644 
    27	1352644 
    28	1352624 
    29	1352624 
    30	1352624 
    31	1352696 
    32	1352696 
    33	1352696 
    34	1352652 
    35	1352652 
    36	1352684 
    37	1352684 
    38	1352684 
    39	1352684 
    40	1352684 
    41	1352684 
    42	1352676 
    43	1352676 
    44	1352676 
    45	1352744 
    46	1352744 
    47	1352744 
    48	1352704 
    49	1352704 
    50	1352704 
    51	1352772 
    52	1352772 
    53	1352772 
    54	1352764 
    55	1352764 
    56	1352764 
    57	1351460 
    58	1351460 
    59	1351460 
    60	1351456 
    61	1351456 
    62	1351456 
    63	1351520 
    64	1351520 
    65	1351520 
    66	1351480 
    67	1351480 
    68	1351480 
    69	1351520 
    70	1351520 
    71	1351520 
    72	1351456 
    73	1351456 
    74	1351456 
    75	1351476 
    76	1351476 
    77	1351476 
    78	1351500 
    79	1351500 
    80	1351500 
    81	1351496 
    82	1351496 
    83	1351496 
    84	1351520 
    85	1351520 
    86	1351520 
    87	1351520 
    88	1351520 
    89	1351520 
    90	1351552 
    91	1351552 
    92	1351552 
    93	1351580 
    94	1351580 
    95	1351580 
    96	1351576 
    97	1351576 
    98	1351576 
    99	1351604 
   100	1351604 
   101	1351604 
   102	1351584 
   103	1351584 
   104	1351584 
   105	1351592 
   106	1351592 
   107	1351592 
   108	1351592 
   109	1351592 
   110	1351592 
   111	1351648 
   112	1351648 
   113	1351640 
   114	1351640 
   115	1351640 
   116	1351668 
   117	1351668 
   118	1351668 
   119	1351708 
   120	1351708 
   121	1351708 
   122	1351700 
   123	1351700 
   124	1351700 
   125	1351732 
   126	1351732 
   127	1351732 
   128	1351724 
   129	1351724 
   130	1351724 
   131	1351764 
   132	1351764 
   133	1351764 
   134	1351804 
   135	1351804 
   136	1351804 
   137	1351808 
   138	1351808 
   139	1351808 
   140	1351864 
   141	1351864 
   142	1351864 
   143	1351860 
   144	1351860 
   145	1351860 
   146	1346304 
   147	1346304 
   148	1346304 
   149	1346280 
   150	1346280 
   151	1346280 
   152	1320164 
   153	1320164 
   154	1320164 
   155	1320092 
   156	1320092 
   157	1320092 
   158	1320144 
   159	1320144 
   160	1320144 
   161	1320116 
   162	1320116 
   163	1320116 
   164	1320112 
   165	1320112 
   166	1320112 
   167	1320136 
   168	1320136 
   169	1320136 
   170	1320184 
   171	1320184 
   172	1320184 
   173	1320184 
   174	1320184 
   175	1320184 
   176	1320184 
   177	1320184 
   178	1320184 
   179	1320180 
   180	1320180 
   181	1320180 
   182	1320172 
   183	1320172 
   184	1320172 
   185	1320168 
   186	1320168 
   187	1320168 
   188	1320168 
   189	1320168 
   190	1320168 
   191	1320224 
   192	1320224 
   193	1320224 
   194	1320216 
   195	1320216 
   196	1320216 
   197	1320216 
   198	1320216 
   199	1320216 
   200	1320188 
   201	1320188 
   202	1320188 
   203	1320228 
   204	1320228 
   205	1320228 
   206	1318756 
   207	1318756 
   208	1318756 
   209	1318792 
   210	1318792 
   211	1318792 
   212	1318764 
   213	1318764 
   214	1318764 
   215	1318796 
   216	1318796 
   217	1318796 
   218	1318816 
   219	1318816 
   220	1318816 
   221	1318816 
   222	1318816 
   223	1318816 
   224	1318848 
   225	1318848 
   226	1318848 
   227	1318784 
   228	1318784 
   229	1318784 
   230	1318776 
   231	1318776 
   232	1318776 
   233	1318816 
   234	1318816 
   235	1318816 
   236	1318812 
   237	1318812 
   238	1318812 
   239	1318804 
   240	1318804 
   241	1318804 
   242	1318856 
   243	1318856 
   244	1318856 
   245	1318864 
   246	1318864 
   247	1318864 
   248	1318856 
   249	1318856 
   250	1318856 
   251	1318856 
   252	1318856 
   253	1318856 
   254	1318868 
   255	1318868 
   256	1318868 
   257	1318908 
   258	1318908 
   259	1318908 
   260	1318932 
   261	1318932 
   262	1318924 
   263	1318924 
   264	1318924 
   265	1318932 
   266	1318932 
   267	1318932 
   268	1318956 
   269	1318956 
   270	1318956 
   271	1319012 
   272	1319012 
   273	1319012 
   274	1319028 
   275	1319028 
   276	1319028 
   277	1319036 
   278	1319036 
   279	1319036 
   280	1319052 
   281	1319052 
   282	1319052 
   283	1319056 
   284	1319056 
   285	1319056 
   286	1319088 
   287	1319088 
   288	1319088 
   289	1319108 
   290	1319108 
   291	1319108 
   292	1319108 
   293	1319108 
   294	1319108 
   295	1319132 
   296	1319132 
   297	1319132 
   298	1319164 
   299	1319164 
   300	1319164 
   301	1319156 
   302	1319156 
   303	1319156 
   304	1319076 
   305	1319076 
   306	1319076 
   307	1319056 
   308	1319056 
   309	1319056 
   310	1319132 
   311	1319132 
   312	1319132 
   313	1319092 
   314	1319092 
   315	1319092 
   316	1319148 
   317	1319148 
   318	1319148 
   319	1319108 
   320	1319108 
   321	1319108 
   322	1319132 
   323	1319132 
   324	1319132 
   325	1319196 
   326	1319196 
   327	1319196 
   328	1319156 
   329	1319156 
   330	1319156 
   331	1319192 
   332	1319192 
   333	1319192 
   334	1319216 
   335	1319216 
   336	1319216 
   337	1319204 
   338	1319204 
   339	1319204 
   340	1319236 
   341	1319236 
   342	1319236 
   343	1319256 
   344	1319256 
   345	1319256 
   346	1319292 
   347	1319292 
   348	1319292 
   349	1319288 
   350	1319288 
   351	1319288 
   352	1319248 
   353	1319248 
   354	1319248 
   355	1319272 
   356	1319272 
   357	1319272 
   358	1319272 
   359	1319272 
   360	1319272 
   361	1319260 
   362	1319260 
   363	1319260 
   364	1319280 
   365	1319280 
   366	1319280 
   367	1319280 
   368	1319280 
   369	1319280 
   370	1319332 
   371	1319332 
   372	1319332 
   373	1319296 
   374	1319296 
   375	1319296 
   376	1319356 
   377	1319356 
   378	1319356 
   379	1319352 
   380	1319352 
   381	1319352 
   382	1319380 
   383	1319380 
   384	1319380 
   385	1319408 
   386	1319408 
   387	1319408 
   388	1319440 
   389	1319440 
   390	1319440 
   391	1319420 
   392	1319420 
   393	1319420 
   394	1319448 
   395	1319448 
   396	1319448 
   397	1319416 
   398	1319416 
   399	1319416 
   400	1319440 
   401	1319440 
   402	1319440 
   403	1319436 
   404	1319436 
   405	1319436 
   406	1319496 
   407	1319496 
   408	1319496 
   409	1319488 
   410	1319488 
   411	1319488 
   412	1319516 
   413	1319516 
   414	1319516 
   415	1319516 
   416	1319516 
   417	1319516 
   418	1319576 
   419	1319576 
   420	1319576 
   421	1319536 
   422	1319536 
   423	1319536 
   424	1319568 
   425	1319568 
   426	1319568 
   427	1319560 
   428	1319560 
   429	1319560 
   430	1319588 
   431	1319588 
   432	1319588 
   433	1319588 
   434	1319588 
   435	1319588 
   436	1319640 
   437	1319640 
   438	1319640 
   439	1319600 
   440	1319600 
   441	1319600 
   442	1319616 
   443	1319616 
   444	1319616 
   445	1319620 
   446	1319620 
   447	1319620 
   448	1319684 
   449	1319684 
   450	1319684 
   451	1319680 
   452	1319680 
   453	1319680 
   454	1319664 
   455	1319664 
   456	1319664 
   457	1319704 
   458	1319704 
   459	1319704 
   460	1319756 
   461	1319756 
   462	1319756 
   463	1319724 
   464	1319724 
   465	1319724 
   466	1319776 
   467	1319776 
   468	1319776 
   469	1319744 
   470	1319744 
   471	1319744 
   472	1319768 
   473	1319768 
   474	1319768 
   475	1319796 
   476	1319796 
   477	1319796 
   478	1319828 
   479	1319828 
   480	1319828 
   481	1319816 
   482	1319816 
   483	1319816 
   484	1319856 
   485	1319856 
   486	1319856 
   487	1319848 
   488	1319848 
   489	1319848 
   490	1319908 
   491	1319908 
   492	1319908 
   493	1319900 
   494	1319900 
   495	1319900 
   496	1319904 
   497	1319904 
   498	1319904 
   499	1319932 
   500	1319932 
   501	1319932 
   502	1319964 
