     1	280 
     2	280 
     3	279 
     4	279 
     5	279 
     6	279 
     7	279 
     8	279 
     9	280 
    10	280 
    11	280 
    12	280 
    13	280 
    14	280 
    15	280 
    16	280 
    17	280 
    18	280 
    19	280 
    20	280 
    21	280 
    22	280 
    23	280 
    24	280 
    25	280 
    26	280 
    27	280 
    28	280 
    29	280 
    30	280 
    31	280 
    32	280 
    33	280 
    34	280 
    35	280 
    36	280 
    37	280 
    38	280 
    39	280 
    40	280 
    41	280 
    42	280 
    43	280 
    44	280 
    45	280 
    46	280 
    47	280 
    48	280 
    49	280 
    50	280 
    51	280 
    52	280 
    53	280 
    54	280 
    55	280 
    56	280 
    57	280 
    58	280 
    59	280 
    60	280 
    61	280 
    62	280 
    63	280 
    64	280 
    65	280 
    66	280 
    67	280 
    68	280 
    69	280 
    70	280 
    71	280 
    72	280 
    73	280 
    74	280 
    75	280 
    76	280 
    77	280 
    78	280 
    79	280 
    80	280 
    81	280 
    82	280 
    83	280 
    84	280 
    85	280 
    86	280 
    87	280 
    88	280 
    89	280 
    90	280 
    91	280 
    92	280 
    93	280 
    94	280 
    95	280 
    96	280 
    97	280 
    98	280 
    99	280 
   100	280 
   101	280 
   102	280 
   103	280 
   104	280 
   105	280 
   106	280 
   107	280 
   108	280 
   109	280 
   110	280 
   111	280 
   112	280 
   113	280 
   114	280 
   115	280 
   116	280 
   117	280 
   118	280 
   119	280 
   120	280 
   121	280 
   122	280 
   123	280 
   124	280 
   125	280 
   126	280 
   127	280 
   128	280 
   129	280 
   130	280 
   131	280 
   132	280 
   133	280 
   134	280 
   135	280 
   136	280 
   137	280 
   138	280 
   139	280 
   140	280 
   141	280 
   142	280 
   143	280 
   144	280 
   145	280 
   146	280 
   147	280 
   148	280 
   149	280 
   150	280 
   151	280 
   152	280 
   153	280 
   154	280 
   155	280 
   156	280 
   157	280 
   158	280 
   159	280 
   160	280 
   161	280 
   162	280 
   163	280 
   164	280 
   165	280 
   166	280 
   167	280 
   168	280 
   169	280 
   170	280 
   171	280 
   172	280 
   173	280 
   174	280 
   175	280 
   176	280 
   177	280 
   178	280 
   179	280 
   180	280 
   181	280 
   182	280 
   183	280 
   184	280 
   185	280 
   186	280 
   187	280 
   188	280 
   189	280 
   190	280 
   191	280 
   192	280 
   193	280 
   194	280 
   195	280 
   196	280 
   197	280 
   198	280 
   199	280 
   200	280 
   201	280 
   202	280 
   203	280 
   204	280 
   205	280 
   206	280 
   207	280 
   208	280 
   209	280 
   210	280 
   211	280 
   212	280 
   213	280 
   214	280 
   215	280 
   216	280 
   217	280 
   218	280 
   219	280 
   220	280 
   221	280 
   222	280 
   223	280 
   224	280 
   225	280 
   226	280 
   227	280 
   228	280 
   229	280 
   230	280 
   231	280 
   232	280 
   233	280 
   234	280 
   235	280 
   236	280 
   237	280 
   238	280 
   239	280 
   240	280 
   241	280 
   242	280 
   243	280 
   244	280 
   245	280 
   246	280 
   247	280 
   248	280 
   249	280 
   250	280 
   251	280 
   252	280 
   253	280 
   254	280 
   255	280 
   256	280 
   257	280 
   258	280 
   259	280 
   260	280 
   261	280 
   262	280 
   263	280 
   264	280 
   265	280 
   266	280 
   267	280 
   268	280 
   269	280 
   270	280 
   271	280 
   272	280 
   273	280 
   274	280 
   275	280 
   276	280 
   277	280 
   278	280 
   279	280 
   280	280 
   281	280 
   282	280 
   283	280 
   284	280 
   285	280 
   286	280 
   287	280 
   288	280 
   289	280 
   290	280 
   291	280 
   292	280 
   293	280 
   294	280 
   295	280 
   296	280 
   297	280 
   298	279 
   299	279 
   300	279 
   301	279 
   302	279 
   303	279 
   304	279 
   305	279 
   306	279 
   307	279 
   308	279 
   309	279 
   310	279 
   311	279 
   312	279 
   313	279 
   314	278 
   315	278 
   316	278 
   317	278 
   318	278 
   319	278 
   320	278 
   321	279 
   322	279 
   323	279 
   324	279 
   325	279 
   326	279 
   327	279 
   328	279 
   329	279 
   330	279 
   331	279 
   332	279 
   333	279 
   334	279 
   335	279 
   336	279 
   337	279 
   338	279 
   339	279 
   340	279 
   341	279 
   342	279 
   343	279 
   344	279 
   345	279 
   346	279 
   347	279 
   348	279 
   349	279 
   350	279 
   351	279 
   352	279 
   353	279 
   354	279 
   355	279 
   356	279 
   357	279 
   358	279 
   359	279 
   360	279 
   361	279 
   362	279 
   363	279 
   364	279 
   365	279 
   366	279 
   367	279 
   368	279 
   369	279 
   370	279 
   371	279 
   372	279 
   373	279 
   374	279 
   375	279 
   376	279 
   377	279 
   378	279 
   379	279 
   380	279 
   381	279 
   382	279 
   383	279 
   384	279 
   385	279 
   386	279 
   387	279 
   388	279 
   389	279 
   390	279 
   391	279 
   392	279 
   393	279 
   394	279 
   395	279 
   396	279 
   397	279 
   398	279 
   399	279 
   400	279 
   401	279 
   402	279 
   403	279 
   404	279 
   405	279 
   406	279 
   407	279 
   408	279 
   409	279 
   410	279 
   411	279 
   412	279 
   413	279 
   414	279 
   415	279 
   416	279 
   417	279 
   418	279 
   419	279 
   420	279 
   421	279 
   422	279 
   423	279 
   424	279 
   425	279 
   426	279 
   427	279 
   428	279 
   429	279 
   430	279 
   431	279 
   432	279 
   433	279 
   434	279 
   435	279 
   436	279 
   437	279 
   438	279 
   439	279 
   440	279 
   441	279 
   442	279 
   443	279 
   444	279 
   445	279 
   446	279 
   447	279 
   448	279 
   449	279 
   450	279 
   451	279 
   452	279 
   453	279 
   454	279 
   455	279 
   456	279 
   457	279 
   458	279 
   459	279 
   460	279 
   461	279 
   462	279 
   463	279 
   464	279 
   465	279 
   466	279 
   467	279 
   468	279 
   469	279 
   470	279 
   471	279 
   472	279 
   473	279 
   474	279 
   475	279 
   476	279 
   477	279 
   478	279 
   479	279 
   480	279 
   481	279 
   482	279 
   483	279 
   484	279 
   485	279 
   486	279 
   487	279 
   488	279 
   489	279 
   490	279 
   491	279 
   492	279 
   493	279 
   494	279 
   495	279 
   496	279 
   497	279 
   498	279 
   499	279 
   500	279 
   501	279 
   502	279 
