     1	.9 
     2	.3 
     3	.2 
     4	.1 
     5	.9 
     6	.6 
     7	.9 
     8	.3 
     9	.4 
    10	.3 
    11	.3 
    12	.4 
    13	.8 
    14	.5 
    15	.4 
    16	.8 
    17	.5 
    18	.8 
    19	.6 
    20	.6 
    21	.5 
    22	.6 
    23	.6 
    24	.6 
    25	.5 
    26	.6 
    27	.5 
    28	.6 
    29	.5 
    30	.5 
    31	.6 
    32	.6 
    33	.4 
    34	.5 
    35	.5 
    36	.6 
    37	.5 
    38	.8 
    39	.8 
    40	.6 
    41	.5 
    42	.5 
    43	.4 
    44	.5 
    45	.6 
    46	.6 
    47	.6 
    48	.8 
    49	.6 
    50	.6 
    51	.6 
    52	.6 
    53	.6 
    54	.4 
    55	.5 
    56	.5 
    57	.5 
    58	.5 
    59	.5 
    60	.8 
    61	.9 
    62	.4 
    63	.5 
    64	.8 
    65	.3 
    66	.0 
    67	.6 
    68	.5 
    69	.5 
    70	.6 
    71	.8 
    72	.8 
    73	.8 
    74	.4 
    75	.4 
    76	.6 
    77	.9 
    78	.8 
    79	.5 
    80	.6 
    81	.4 
    82	.6 
    83	.6 
    84	.9 
    85	.4 
    86	.6 
    87	.8 
    88	.8 
    89	.5 
    90	.5 
    91	.6 
    92	.5 
    93	.6 
    94	.8 
    95	.6 
    96	.6 
    97	.6 
    98	.6 
    99	.6 
   100	.6 
   101	.5 
