     1	1355784 
     2	1355784 
     3	1355784 
     4	1355784 
     5	1355784 
     6	1355784 
     7	1356552 
     8	1356552 
     9	1356552 
    10	1356468 
    11	1356468 
    12	1356468 
    13	1356520 
    14	1356520 
    15	1356520 
    16	1356540 
    17	1356540 
    18	1356540 
    19	1356472 
    20	1356472 
    21	1356472 
    22	1356912 
    23	1356912 
    24	1356912 
    25	1353216 
