     1	 96.1 
     2	 97.5 
     3	 81.0 
     4	 94.9 
     5	 39.8 
     6	 91.1 
     7	 95.7 
     8	 95.7 
     9	 96.6 
    10	 97.2 
    11	 96.6 
    12	 96.2 
    13	 97.0 
    14	 99.1 
    15	 99.4 
    16	 99.1 
    17	 99.6 
    18	 99.5 
    19	 99.1 
    20	 99.8 
    21	 99.3 
    22	 99.6 
    23	 99.5 
    24	 99.6 
    25	 99.3 
    26	 99.4 
    27	 99.5 
    28	 99.4 
    29	 99.0 
    30	 99.5 
    31	 99.9 
    32	 99.1 
    33	 99.6 
    34	 99.3 
    35	 99.1 
    36	 99.6 
    37	 99.5 
    38	 99.3 
    39	 99.8 
    40	 99.4 
    41	 99.3 
    42	 99.5 
    43	 99.5 
    44	 99.5 
    45	 99.4 
    46	 99.6 
    47	 99.5 
    48	 99.5 
    49	 99.5 
    50	 99.3 
    51	 99.8 
    52	 99.3 
    53	 99.5 
    54	 99.6 
    55	 99.6 
    56	 99.4 
    57	 99.6 
    58	 99.4 
    59	 99.6 
    60	 99.6 
    61	 99.3 
    62	 99.5 
    63	 99.3 
    64	 99.6 
    65	 99.5 
    66	 99.5 
    67	 99.3 
    68	 99.1 
    69	 99.5 
    70	 99.5 
    71	 99.6 
    72	 99.3 
    73	 99.6 
    74	 99.4 
    75	 99.4 
    76	 99.4 
    77	 99.4 
    78	 99.3 
    79	 99.5 
    80	 99.4 
    81	 99.4 
    82	 99.6 
    83	 99.4 
    84	 99.5 
    85	 99.3 
    86	 99.6 
    87	 99.5 
    88	 99.6 
    89	 99.5 
    90	 99.5 
    91	 99.5 
    92	 99.5 
    93	 99.8 
    94	 99.4 
    95	 99.8 
    96	 99.3 
    97	 99.6 
    98	 99.3 
    99	 99.4 
   100	 99.5 
   101	 99.4 
   102	 91.8 
   103	 93.1 
   104	 94.7 
   105	 92.7 
