ping_2  | round-trip min/avg/max = 167.205/178.643/186.626 ms
ping_1  | round-trip min/avg/max = 167.084/179.077/185.916 ms
ping_4  | round-trip min/avg/max = 167.287/179.826/186.144 ms
ping_6  | round-trip min/avg/max = 167.417/179.168/186.108 ms
ping_10 | round-trip min/avg/max = 167.253/179.554/186.065 ms
ping_3  | round-trip min/avg/max = 167.458/179.530/186.321 ms
ping_9  | round-trip min/avg/max = 167.130/179.520/186.581 ms
ping_8  | round-trip min/avg/max = 167.541/179.304/192.245 ms
ping_7  | round-trip min/avg/max = 167.441/179.153/186.624 ms
ping_5  | round-trip min/avg/max = 167.514/179.883/186.183 ms
