     1	284 
     2	285 
     3	319 
     4	347 
     5	339 
     6	332 
     7	324 
     8	319 
     9	324 
    10	380 
    11	374 
    12	367 
    13	361 
    14	357 
    15	355 
    16	352 
    17	347 
    18	346 
    19	346 
    20	346 
    21	346 
    22	346 
    23	346 
    24	346 
    25	346 
    26	346 
    27	346 
    28	346 
    29	346 
    30	346 
    31	346 
    32	346 
    33	346 
    34	346 
    35	346 
    36	346 
    37	346 
    38	346 
    39	346 
    40	346 
    41	346 
    42	346 
    43	346 
    44	346 
    45	346 
    46	346 
    47	346 
    48	346 
    49	346 
    50	346 
    51	346 
    52	346 
    53	339 
    54	333 
    55	328 
    56	322 
    57	322 
    58	316 
    59	310 
    60	307 
    61	301 
    62	298 
    63	295 
    64	295 
    65	289 
    66	286 
