     1	 95.3 
     2	 97.3 
     3	 77.6 
     4	 35.7 
     5	  9.4 
     6	  8.0 
     7	  5.6 
     8	  2.5 
     9	  5.3 
    10	  3.6 
    11	  1.3 
    12	 62.0 
    13	 57.0 
    14	 95.1 
    15	 42.7 
    16	 22.5 
    17	 48.2 
    18	 33.7 
    19	 30.0 
    20	 16.1 
    21	 14.5 
    22	 48.7 
    23	 23.5 
    24	 29.1 
    25	 53.7 
    26	 47.3 
    27	 25.0 
    28	 57.5 
    29	 31.7 
    30	 50.5 
    31	 79.4 
    32	 80.5 
    33	 64.4 
    34	 63.6 
    35	 64.2 
    36	 69.7 
    37	 58.9 
    38	 65.4 
    39	 58.7 
    40	 68.9 
    41	 64.7 
    42	 70.3 
    43	 78.9 
    44	 79.7 
    45	 72.9 
    46	 77.8 
    47	 82.7 
    48	 74.1 
    49	 84.4 
    50	 73.2 
    51	 79.1 
    52	 79.1 
    53	 74.5 
    54	 89.3 
    55	 69.2 
    56	 80.0 
    57	 61.7 
    58	 15.2 
    59	  6.0 
    60	  3.5 
    61	  2.4 
    62	  0.9 
    63	  0.9 
    64	  4.1 
    65	  1.8 
    66	  1.3 
    67	 90.0 
    68	 37.3 
    69	 75.4 
    70	 63.3 
    71	 47.9 
    72	 44.5 
    73	 71.0 
    74	 38.0 
    75	 17.6 
    76	 21.6 
    77	 22.8 
    78	 66.7 
    79	 33.7 
    80	 40.6 
    81	 22.9 
    82	 14.3 
    83	  5.3 
    84	 29.4 
    85	 48.1 
    86	 59.5 
    87	 71.0 
    88	 81.9 
    89	 60.4 
    90	 53.3 
    91	 79.4 
    92	 63.9 
    93	 74.6 
    94	 57.1 
    95	 73.6 
    96	 76.5 
    97	 60.3 
    98	 86.1 
    99	 55.3 
   100	 77.5 
   101	 77.1 
   102	 83.1 
   103	 65.0 
   104	 65.4 
   105	 76.8 
   106	 82.3 
   107	 81.1 
   108	 76.3 
   109	 87.6 
   110	 89.6 
   111	 94.8 
   112	 88.1 
