PING 128.223.32.36 (128.223.32.36) 56(84) bytes of data.
64 bytes from 128.223.32.36: icmp_seq=1 ttl=63 time=0.375 ms
PING 128.223.32.36 (128.223.32.36) 56(84) bytes of data.
64 bytes from 128.223.32.36: icmp_seq=1 ttl=63 time=0.331 ms
64 bytes from 128.223.32.36: icmp_seq=2 ttl=63 time=0.682 ms
64 bytes from 128.223.32.36: icmp_seq=2 ttl=63 time=0.720 ms
64 bytes from 128.223.32.36: icmp_seq=3 ttl=63 time=0.693 ms
64 bytes from 128.223.32.36: icmp_seq=3 ttl=63 time=0.747 ms
64 bytes from 128.223.32.36: icmp_seq=4 ttl=63 time=0.464 ms
64 bytes from 128.223.32.36: icmp_seq=5 ttl=63 time=0.455 ms
64 bytes from 128.223.32.36: icmp_seq=7 ttl=63 time=0.396 ms
64 bytes from 128.223.32.36: icmp_seq=7 ttl=63 time=0.406 ms
64 bytes from 128.223.32.36: icmp_seq=8 ttl=63 time=0.636 ms
64 bytes from 128.223.32.36: icmp_seq=10 ttl=63 time=0.643 ms
64 bytes from 128.223.32.36: icmp_seq=10 ttl=63 time=0.701 ms
64 bytes from 128.223.32.36: icmp_seq=11 ttl=63 time=0.630 ms
64 bytes from 128.223.32.36: icmp_seq=12 ttl=63 time=0.633 ms
64 bytes from 128.223.32.36: icmp_seq=17 ttl=63 time=0.455 ms
64 bytes from 128.223.32.36: icmp_seq=18 ttl=63 time=0.668 ms
64 bytes from 128.223.32.36: icmp_seq=19 ttl=63 time=0.616 ms
64 bytes from 128.223.32.36: icmp_seq=19 ttl=63 time=0.648 ms
64 bytes from 128.223.32.36: icmp_seq=21 ttl=63 time=0.629 ms
64 bytes from 128.223.32.36: icmp_seq=21 ttl=63 time=0.640 ms
64 bytes from 128.223.32.36: icmp_seq=22 ttl=63 time=0.595 ms
64 bytes from 128.223.32.36: icmp_seq=22 ttl=63 time=0.646 ms
64 bytes from 128.223.32.36: icmp_seq=23 ttl=63 time=0.622 ms
64 bytes from 128.223.32.36: icmp_seq=24 ttl=63 time=0.631 ms
64 bytes from 128.223.32.36: icmp_seq=25 ttl=63 time=0.618 ms
64 bytes from 128.223.32.36: icmp_seq=25 ttl=63 time=0.681 ms
64 bytes from 128.223.32.36: icmp_seq=26 ttl=63 time=0.633 ms
64 bytes from 128.223.32.36: icmp_seq=28 ttl=63 time=0.632 ms
64 bytes from 128.223.32.36: icmp_seq=29 ttl=63 time=0.629 ms
64 bytes from 128.223.32.36: icmp_seq=29 ttl=63 time=0.682 ms
64 bytes from 128.223.32.36: icmp_seq=33 ttl=63 time=0.631 ms
64 bytes from 128.223.32.36: icmp_seq=33 ttl=63 time=0.684 ms
64 bytes from 128.223.32.36: icmp_seq=34 ttl=63 time=0.629 ms
64 bytes from 128.223.32.36: icmp_seq=34 ttl=63 time=0.682 ms
64 bytes from 128.223.32.36: icmp_seq=35 ttl=63 time=0.656 ms
64 bytes from 128.223.32.36: icmp_seq=36 ttl=63 time=0.633 ms
64 bytes from 128.223.32.36: icmp_seq=37 ttl=63 time=0.609 ms
64 bytes from 128.223.32.36: icmp_seq=38 ttl=63 time=0.493 ms
64 bytes from 128.223.32.36: icmp_seq=40 ttl=63 time=0.621 ms
64 bytes from 128.223.32.36: icmp_seq=40 ttl=63 time=0.675 ms
64 bytes from 128.223.32.36: icmp_seq=44 ttl=63 time=0.640 ms
64 bytes from 128.223.32.36: icmp_seq=46 ttl=63 time=0.632 ms
64 bytes from 128.223.32.36: icmp_seq=46 ttl=63 time=0.683 ms
64 bytes from 128.223.32.36: icmp_seq=47 ttl=63 time=0.671 ms
64 bytes from 128.223.32.36: icmp_seq=49 ttl=63 time=0.651 ms
64 bytes from 128.223.32.36: icmp_seq=53 ttl=63 time=0.711 ms
64 bytes from 128.223.32.36: icmp_seq=54 ttl=63 time=0.704 ms
64 bytes from 128.223.32.36: icmp_seq=54 ttl=63 time=0.763 ms
64 bytes from 128.223.32.36: icmp_seq=55 ttl=63 time=0.616 ms
64 bytes from 128.223.32.36: icmp_seq=55 ttl=63 time=0.674 ms
64 bytes from 128.223.32.36: icmp_seq=56 ttl=63 time=0.681 ms
64 bytes from 128.223.32.36: icmp_seq=59 ttl=63 time=0.439 ms
64 bytes from 128.223.32.36: icmp_seq=60 ttl=63 time=0.696 ms
64 bytes from 128.223.32.36: icmp_seq=61 ttl=63 time=0.436 ms
64 bytes from 128.223.32.36: icmp_seq=61 ttl=63 time=0.433 ms
64 bytes from 128.223.32.36: icmp_seq=63 ttl=63 time=0.586 ms
64 bytes from 128.223.32.36: icmp_seq=63 ttl=63 time=0.592 ms
64 bytes from 128.223.32.36: icmp_seq=65 ttl=63 time=0.524 ms
64 bytes from 128.223.32.36: icmp_seq=65 ttl=63 time=0.552 ms
64 bytes from 128.223.32.36: icmp_seq=67 ttl=63 time=0.711 ms
64 bytes from 128.223.32.36: icmp_seq=68 ttl=63 time=0.698 ms
64 bytes from 128.223.32.36: icmp_seq=69 ttl=63 time=0.686 ms
64 bytes from 128.223.32.36: icmp_seq=69 ttl=63 time=0.738 ms
64 bytes from 128.223.32.36: icmp_seq=71 ttl=63 time=0.402 ms
64 bytes from 128.223.32.36: icmp_seq=75 ttl=63 time=0.624 ms
64 bytes from 128.223.32.36: icmp_seq=83 ttl=63 time=0.426 ms
64 bytes from 128.223.32.36: icmp_seq=84 ttl=63 time=0.429 ms
64 bytes from 128.223.32.36: icmp_seq=85 ttl=63 time=0.659 ms
64 bytes from 128.223.32.36: icmp_seq=87 ttl=63 time=0.649 ms
64 bytes from 128.223.32.36: icmp_seq=88 ttl=63 time=0.625 ms
64 bytes from 128.223.32.36: icmp_seq=89 ttl=63 time=0.641 ms
64 bytes from 128.223.32.36: icmp_seq=89 ttl=63 time=0.700 ms
64 bytes from 128.223.32.36: icmp_seq=98 ttl=63 time=0.698 ms
64 bytes from 128.223.32.36: icmp_seq=98 ttl=63 time=0.757 ms
64 bytes from 128.223.32.36: icmp_seq=99 ttl=63 time=0.649 ms
64 bytes from 128.223.32.36: icmp_seq=102 ttl=63 time=0.649 ms
64 bytes from 128.223.32.36: icmp_seq=105 ttl=63 time=0.646 ms
64 bytes from 128.223.32.36: icmp_seq=107 ttl=63 time=0.434 ms
64 bytes from 128.223.32.36: icmp_seq=111 ttl=63 time=0.382 ms
64 bytes from 128.223.32.36: icmp_seq=112 ttl=63 time=0.667 ms
64 bytes from 128.223.32.36: icmp_seq=112 ttl=63 time=0.698 ms
64 bytes from 128.223.32.36: icmp_seq=113 ttl=63 time=0.650 ms
64 bytes from 128.223.32.36: icmp_seq=114 ttl=63 time=0.449 ms
64 bytes from 128.223.32.36: icmp_seq=114 ttl=63 time=0.445 ms
64 bytes from 128.223.32.36: icmp_seq=116 ttl=63 time=0.693 ms
64 bytes from 128.223.32.36: icmp_seq=120 ttl=63 time=0.606 ms
64 bytes from 128.223.32.36: icmp_seq=121 ttl=63 time=0.700 ms
64 bytes from 128.223.32.36: icmp_seq=125 ttl=63 time=0.675 ms
64 bytes from 128.223.32.36: icmp_seq=126 ttl=63 time=0.689 ms
64 bytes from 128.223.32.36: icmp_seq=128 ttl=63 time=0.446 ms
64 bytes from 128.223.32.36: icmp_seq=129 ttl=63 time=0.585 ms
64 bytes from 128.223.32.36: icmp_seq=129 ttl=63 time=0.627 ms
64 bytes from 128.223.32.36: icmp_seq=134 ttl=63 time=0.605 ms
64 bytes from 128.223.32.36: icmp_seq=135 ttl=63 time=0.594 ms
64 bytes from 128.223.32.36: icmp_seq=136 ttl=63 time=0.591 ms
64 bytes from 128.223.32.36: icmp_seq=136 ttl=63 time=0.651 ms
64 bytes from 128.223.32.36: icmp_seq=141 ttl=63 time=0.452 ms
64 bytes from 128.223.32.36: icmp_seq=141 ttl=63 time=0.453 ms
64 bytes from 128.223.32.36: icmp_seq=142 ttl=63 time=0.705 ms
64 bytes from 128.223.32.36: icmp_seq=144 ttl=63 time=0.703 ms
64 bytes from 128.223.32.36: icmp_seq=146 ttl=63 time=0.427 ms
64 bytes from 128.223.32.36: icmp_seq=147 ttl=63 time=0.449 ms
64 bytes from 128.223.32.36: icmp_seq=150 ttl=63 time=0.451 ms
64 bytes from 128.223.32.36: icmp_seq=155 ttl=63 time=0.647 ms
64 bytes from 128.223.32.36: icmp_seq=159 ttl=63 time=0.706 ms
64 bytes from 128.223.32.36: icmp_seq=161 ttl=63 time=0.698 ms
64 bytes from 128.223.32.36: icmp_seq=161 ttl=63 time=0.758 ms
64 bytes from 128.223.32.36: icmp_seq=162 ttl=63 time=0.705 ms
64 bytes from 128.223.32.36: icmp_seq=162 ttl=63 time=0.765 ms
64 bytes from 128.223.32.36: icmp_seq=164 ttl=63 time=0.715 ms
64 bytes from 128.223.32.36: icmp_seq=166 ttl=63 time=0.703 ms
64 bytes from 128.223.32.36: icmp_seq=167 ttl=63 time=0.635 ms
64 bytes from 128.223.32.36: icmp_seq=170 ttl=63 time=0.682 ms
64 bytes from 128.223.32.36: icmp_seq=171 ttl=63 time=0.702 ms
64 bytes from 128.223.32.36: icmp_seq=172 ttl=63 time=0.683 ms
64 bytes from 128.223.32.36: icmp_seq=173 ttl=63 time=0.704 ms
64 bytes from 128.223.32.36: icmp_seq=174 ttl=63 time=0.684 ms
64 bytes from 128.223.32.36: icmp_seq=174 ttl=63 time=0.710 ms
64 bytes from 128.223.32.36: icmp_seq=177 ttl=63 time=0.691 ms
64 bytes from 128.223.32.36: icmp_seq=177 ttl=63 time=0.744 ms
64 bytes from 128.223.32.36: icmp_seq=178 ttl=63 time=0.474 ms
64 bytes from 128.223.32.36: icmp_seq=179 ttl=63 time=0.507 ms
64 bytes from 128.223.32.36: icmp_seq=180 ttl=63 time=0.674 ms
64 bytes from 128.223.32.36: icmp_seq=181 ttl=63 time=0.608 ms
64 bytes from 128.223.32.36: icmp_seq=182 ttl=63 time=0.624 ms
64 bytes from 128.223.32.36: icmp_seq=186 ttl=63 time=0.695 ms
64 bytes from 128.223.32.36: icmp_seq=186 ttl=63 time=0.752 ms
64 bytes from 128.223.32.36: icmp_seq=187 ttl=63 time=0.653 ms
64 bytes from 128.223.32.36: icmp_seq=188 ttl=63 time=0.698 ms
64 bytes from 128.223.32.36: icmp_seq=191 ttl=63 time=0.704 ms
64 bytes from 128.223.32.36: icmp_seq=191 ttl=63 time=0.762 ms
64 bytes from 128.223.32.36: icmp_seq=193 ttl=63 time=0.694 ms
64 bytes from 128.223.32.36: icmp_seq=193 ttl=63 time=0.753 ms
64 bytes from 128.223.32.36: icmp_seq=194 ttl=63 time=0.509 ms
64 bytes from 128.223.32.36: icmp_seq=196 ttl=63 time=0.656 ms
64 bytes from 128.223.32.36: icmp_seq=196 ttl=63 time=0.715 ms
64 bytes from 128.223.32.36: icmp_seq=197 ttl=63 time=0.454 ms
64 bytes from 128.223.32.36: icmp_seq=197 ttl=63 time=0.438 ms
64 bytes from 128.223.32.36: icmp_seq=198 ttl=63 time=0.709 ms
64 bytes from 128.223.32.36: icmp_seq=198 ttl=63 time=0.769 ms
64 bytes from 128.223.32.36: icmp_seq=199 ttl=63 time=0.704 ms
64 bytes from 128.223.32.36: icmp_seq=199 ttl=63 time=0.763 ms
64 bytes from 128.223.32.36: icmp_seq=200 ttl=63 time=0.459 ms
64 bytes from 128.223.32.36: icmp_seq=200 ttl=63 time=0.445 ms
64 bytes from 128.223.32.36: icmp_seq=201 ttl=63 time=0.393 ms
64 bytes from 128.223.32.36: icmp_seq=201 ttl=63 time=0.373 ms
64 bytes from 128.223.32.36: icmp_seq=202 ttl=63 time=0.690 ms
64 bytes from 128.223.32.36: icmp_seq=202 ttl=63 time=0.743 ms
64 bytes from 128.223.32.36: icmp_seq=203 ttl=63 time=0.736 ms
64 bytes from 128.223.32.36: icmp_seq=203 ttl=63 time=0.829 ms
64 bytes from 128.223.32.36: icmp_seq=204 ttl=63 time=0.536 ms
64 bytes from 128.223.32.36: icmp_seq=204 ttl=63 time=0.494 ms
64 bytes from 128.223.32.36: icmp_seq=205 ttl=63 time=0.414 ms
64 bytes from 128.223.32.36: icmp_seq=205 ttl=63 time=0.381 ms
64 bytes from 128.223.32.36: icmp_seq=206 ttl=63 time=0.660 ms
64 bytes from 128.223.32.36: icmp_seq=206 ttl=63 time=0.692 ms
64 bytes from 128.223.32.36: icmp_seq=207 ttl=63 time=0.626 ms
64 bytes from 128.223.32.36: icmp_seq=207 ttl=63 time=0.659 ms
64 bytes from 128.223.32.36: icmp_seq=208 ttl=63 time=0.483 ms
64 bytes from 128.223.32.36: icmp_seq=209 ttl=63 time=0.441 ms
64 bytes from 128.223.32.36: icmp_seq=210 ttl=63 time=0.680 ms
64 bytes from 128.223.32.36: icmp_seq=216 ttl=63 time=0.616 ms
64 bytes from 128.223.32.36: icmp_seq=217 ttl=63 time=0.676 ms
64 bytes from 128.223.32.36: icmp_seq=218 ttl=63 time=0.706 ms
64 bytes from 128.223.32.36: icmp_seq=218 ttl=63 time=0.743 ms
64 bytes from 128.223.32.36: icmp_seq=219 ttl=63 time=0.686 ms
64 bytes from 128.223.32.36: icmp_seq=223 ttl=63 time=0.602 ms
64 bytes from 128.223.32.36: icmp_seq=224 ttl=63 time=0.622 ms
64 bytes from 128.223.32.36: icmp_seq=225 ttl=63 time=0.597 ms
64 bytes from 128.223.32.36: icmp_seq=226 ttl=63 time=0.676 ms
64 bytes from 128.223.32.36: icmp_seq=226 ttl=63 time=0.724 ms
64 bytes from 128.223.32.36: icmp_seq=227 ttl=63 time=0.678 ms
64 bytes from 128.223.32.36: icmp_seq=229 ttl=63 time=0.681 ms
64 bytes from 128.223.32.36: icmp_seq=235 ttl=63 time=0.693 ms
64 bytes from 128.223.32.36: icmp_seq=239 ttl=63 time=0.688 ms
64 bytes from 128.223.32.36: icmp_seq=239 ttl=63 time=0.747 ms
64 bytes from 128.223.32.36: icmp_seq=241 ttl=63 time=0.633 ms
64 bytes from 128.223.32.36: icmp_seq=244 ttl=63 time=0.710 ms
64 bytes from 128.223.32.36: icmp_seq=245 ttl=63 time=0.695 ms
64 bytes from 128.223.32.36: icmp_seq=246 ttl=63 time=0.497 ms
64 bytes from 128.223.32.36: icmp_seq=247 ttl=63 time=0.699 ms
64 bytes from 128.223.32.36: icmp_seq=251 ttl=63 time=0.694 ms
64 bytes from 128.223.32.36: icmp_seq=252 ttl=63 time=0.607 ms
64 bytes from 128.223.32.36: icmp_seq=253 ttl=63 time=0.701 ms
64 bytes from 128.223.32.36: icmp_seq=253 ttl=63 time=0.741 ms
64 bytes from 128.223.32.36: icmp_seq=254 ttl=63 time=0.672 ms
64 bytes from 128.223.32.36: icmp_seq=259 ttl=63 time=0.533 ms
64 bytes from 128.223.32.36: icmp_seq=260 ttl=63 time=0.701 ms
64 bytes from 128.223.32.36: icmp_seq=262 ttl=63 time=0.710 ms
64 bytes from 128.223.32.36: icmp_seq=263 ttl=63 time=0.690 ms
64 bytes from 128.223.32.36: icmp_seq=264 ttl=63 time=0.628 ms
64 bytes from 128.223.32.36: icmp_seq=264 ttl=63 time=0.649 ms
64 bytes from 128.223.32.36: icmp_seq=265 ttl=63 time=0.604 ms
64 bytes from 128.223.32.36: icmp_seq=269 ttl=63 time=0.686 ms
64 bytes from 128.223.32.36: icmp_seq=269 ttl=63 time=0.744 ms
64 bytes from 128.223.32.36: icmp_seq=270 ttl=63 time=0.624 ms
64 bytes from 128.223.32.36: icmp_seq=270 ttl=63 time=0.677 ms
64 bytes from 128.223.32.36: icmp_seq=271 ttl=63 time=0.707 ms
64 bytes from 128.223.32.36: icmp_seq=271 ttl=63 time=0.764 ms
64 bytes from 128.223.32.36: icmp_seq=272 ttl=63 time=0.696 ms
64 bytes from 128.223.32.36: icmp_seq=272 ttl=63 time=0.754 ms
64 bytes from 128.223.32.36: icmp_seq=273 ttl=63 time=0.705 ms
64 bytes from 128.223.32.36: icmp_seq=274 ttl=63 time=0.721 ms
64 bytes from 128.223.32.36: icmp_seq=275 ttl=63 time=0.455 ms
64 bytes from 128.223.32.36: icmp_seq=276 ttl=63 time=0.689 ms
64 bytes from 128.223.32.36: icmp_seq=276 ttl=63 time=0.761 ms
64 bytes from 128.223.32.36: icmp_seq=277 ttl=63 time=0.699 ms
64 bytes from 128.223.32.36: icmp_seq=277 ttl=63 time=0.758 ms
64 bytes from 128.223.32.36: icmp_seq=278 ttl=63 time=0.697 ms
64 bytes from 128.223.32.36: icmp_seq=279 ttl=63 time=0.669 ms
64 bytes from 128.223.32.36: icmp_seq=279 ttl=63 time=0.693 ms
64 bytes from 128.223.32.36: icmp_seq=280 ttl=63 time=0.704 ms
64 bytes from 128.223.32.36: icmp_seq=281 ttl=63 time=0.608 ms
64 bytes from 128.223.32.36: icmp_seq=281 ttl=63 time=0.681 ms
64 bytes from 128.223.32.36: icmp_seq=282 ttl=63 time=0.713 ms
64 bytes from 128.223.32.36: icmp_seq=283 ttl=63 time=0.683 ms
64 bytes from 128.223.32.36: icmp_seq=283 ttl=63 time=0.720 ms
64 bytes from 128.223.32.36: icmp_seq=284 ttl=63 time=0.701 ms
64 bytes from 128.223.32.36: icmp_seq=284 ttl=63 time=0.759 ms
64 bytes from 128.223.32.36: icmp_seq=285 ttl=63 time=0.712 ms
64 bytes from 128.223.32.36: icmp_seq=285 ttl=63 time=0.771 ms
64 bytes from 128.223.32.36: icmp_seq=286 ttl=63 time=0.700 ms
64 bytes from 128.223.32.36: icmp_seq=286 ttl=63 time=0.742 ms
64 bytes from 128.223.32.36: icmp_seq=290 ttl=63 time=0.679 ms
64 bytes from 128.223.32.36: icmp_seq=290 ttl=63 time=0.737 ms
64 bytes from 128.223.32.36: icmp_seq=291 ttl=63 time=0.683 ms
64 bytes from 128.223.32.36: icmp_seq=292 ttl=63 time=0.684 ms
64 bytes from 128.223.32.36: icmp_seq=294 ttl=63 time=0.694 ms
64 bytes from 128.223.32.36: icmp_seq=295 ttl=63 time=0.391 ms
64 bytes from 128.223.32.36: icmp_seq=295 ttl=63 time=0.367 ms
64 bytes from 128.223.32.36: icmp_seq=297 ttl=63 time=0.630 ms
64 bytes from 128.223.32.36: icmp_seq=298 ttl=63 time=0.710 ms
64 bytes from 128.223.32.36: icmp_seq=299 ttl=63 time=0.517 ms
64 bytes from 128.223.32.36: icmp_seq=300 ttl=63 time=0.685 ms
64 bytes from 128.223.32.36: icmp_seq=301 ttl=63 time=0.404 ms
64 bytes from 128.223.32.36: icmp_seq=302 ttl=63 time=0.668 ms
64 bytes from 128.223.32.36: icmp_seq=303 ttl=63 time=0.492 ms
64 bytes from 128.223.32.36: icmp_seq=305 ttl=63 time=0.545 ms
64 bytes from 128.223.32.36: icmp_seq=306 ttl=63 time=0.600 ms
64 bytes from 128.223.32.36: icmp_seq=307 ttl=63 time=0.662 ms
64 bytes from 128.223.32.36: icmp_seq=309 ttl=63 time=0.685 ms
64 bytes from 128.223.32.36: icmp_seq=310 ttl=63 time=0.701 ms
64 bytes from 128.223.32.36: icmp_seq=311 ttl=63 time=0.693 ms
64 bytes from 128.223.32.36: icmp_seq=312 ttl=63 time=0.689 ms
64 bytes from 128.223.32.36: icmp_seq=312 ttl=63 time=0.730 ms
64 bytes from 128.223.32.36: icmp_seq=313 ttl=63 time=0.690 ms
64 bytes from 128.223.32.36: icmp_seq=316 ttl=63 time=0.767 ms
64 bytes from 128.223.32.36: icmp_seq=317 ttl=63 time=0.629 ms
64 bytes from 128.223.32.36: icmp_seq=317 ttl=63 time=0.648 ms
64 bytes from 128.223.32.36: icmp_seq=319 ttl=63 time=0.698 ms
64 bytes from 128.223.32.36: icmp_seq=319 ttl=63 time=0.754 ms
64 bytes from 128.223.32.36: icmp_seq=321 ttl=63 time=0.697 ms
64 bytes from 128.223.32.36: icmp_seq=321 ttl=63 time=0.757 ms
64 bytes from 128.223.32.36: icmp_seq=323 ttl=63 time=0.712 ms
64 bytes from 128.223.32.36: icmp_seq=325 ttl=63 time=0.692 ms
64 bytes from 128.223.32.36: icmp_seq=326 ttl=63 time=0.705 ms
64 bytes from 128.223.32.36: icmp_seq=330 ttl=63 time=0.702 ms
64 bytes from 128.223.32.36: icmp_seq=331 ttl=63 time=0.704 ms
64 bytes from 128.223.32.36: icmp_seq=332 ttl=63 time=0.684 ms
64 bytes from 128.223.32.36: icmp_seq=335 ttl=63 time=0.700 ms
64 bytes from 128.223.32.36: icmp_seq=335 ttl=63 time=0.743 ms
64 bytes from 128.223.32.36: icmp_seq=336 ttl=63 time=0.599 ms
64 bytes from 128.223.32.36: icmp_seq=337 ttl=63 time=0.691 ms
64 bytes from 128.223.32.36: icmp_seq=338 ttl=63 time=0.599 ms
64 bytes from 128.223.32.36: icmp_seq=339 ttl=63 time=0.616 ms
64 bytes from 128.223.32.36: icmp_seq=339 ttl=63 time=0.675 ms
64 bytes from 128.223.32.36: icmp_seq=340 ttl=63 time=0.521 ms
64 bytes from 128.223.32.36: icmp_seq=340 ttl=63 time=0.537 ms
64 bytes from 128.223.32.36: icmp_seq=341 ttl=63 time=0.496 ms
64 bytes from 128.223.32.36: icmp_seq=341 ttl=63 time=0.530 ms
64 bytes from 128.223.32.36: icmp_seq=342 ttl=63 time=0.492 ms
64 bytes from 128.223.32.36: icmp_seq=342 ttl=63 time=0.545 ms
64 bytes from 128.223.32.36: icmp_seq=343 ttl=63 time=0.684 ms
64 bytes from 128.223.32.36: icmp_seq=344 ttl=63 time=0.517 ms
64 bytes from 128.223.32.36: icmp_seq=345 ttl=63 time=0.708 ms
64 bytes from 128.223.32.36: icmp_seq=345 ttl=63 time=0.763 ms
64 bytes from 128.223.32.36: icmp_seq=346 ttl=63 time=0.628 ms
64 bytes from 128.223.32.36: icmp_seq=347 ttl=63 time=0.695 ms
64 bytes from 128.223.32.36: icmp_seq=347 ttl=63 time=0.754 ms
64 bytes from 128.223.32.36: icmp_seq=348 ttl=63 time=0.700 ms
64 bytes from 128.223.32.36: icmp_seq=349 ttl=63 time=0.594 ms
64 bytes from 128.223.32.36: icmp_seq=350 ttl=63 time=0.689 ms
64 bytes from 128.223.32.36: icmp_seq=351 ttl=63 time=0.698 ms
64 bytes from 128.223.32.36: icmp_seq=352 ttl=63 time=0.708 ms
64 bytes from 128.223.32.36: icmp_seq=353 ttl=63 time=0.609 ms
64 bytes from 128.223.32.36: icmp_seq=354 ttl=63 time=0.512 ms
64 bytes from 128.223.32.36: icmp_seq=356 ttl=63 time=0.701 ms
64 bytes from 128.223.32.36: icmp_seq=358 ttl=63 time=0.703 ms
64 bytes from 128.223.32.36: icmp_seq=358 ttl=63 time=0.757 ms
64 bytes from 128.223.32.36: icmp_seq=359 ttl=63 time=0.702 ms
64 bytes from 128.223.32.36: icmp_seq=360 ttl=63 time=0.672 ms
64 bytes from 128.223.32.36: icmp_seq=360 ttl=63 time=0.726 ms
64 bytes from 128.223.32.36: icmp_seq=361 ttl=63 time=0.710 ms
64 bytes from 128.223.32.36: icmp_seq=363 ttl=63 time=0.497 ms
64 bytes from 128.223.32.36: icmp_seq=364 ttl=63 time=0.692 ms
64 bytes from 128.223.32.36: icmp_seq=364 ttl=63 time=0.751 ms
64 bytes from 128.223.32.36: icmp_seq=365 ttl=63 time=0.704 ms
64 bytes from 128.223.32.36: icmp_seq=366 ttl=63 time=0.699 ms
64 bytes from 128.223.32.36: icmp_seq=366 ttl=63 time=0.756 ms
64 bytes from 128.223.32.36: icmp_seq=367 ttl=63 time=0.507 ms
64 bytes from 128.223.32.36: icmp_seq=368 ttl=63 time=0.701 ms
64 bytes from 128.223.32.36: icmp_seq=369 ttl=63 time=0.665 ms
64 bytes from 128.223.32.36: icmp_seq=370 ttl=63 time=0.638 ms
64 bytes from 128.223.32.36: icmp_seq=371 ttl=63 time=0.603 ms
64 bytes from 128.223.32.36: icmp_seq=372 ttl=63 time=0.685 ms
64 bytes from 128.223.32.36: icmp_seq=372 ttl=63 time=0.751 ms
64 bytes from 128.223.32.36: icmp_seq=374 ttl=63 time=0.675 ms
64 bytes from 128.223.32.36: icmp_seq=374 ttl=63 time=0.742 ms
64 bytes from 128.223.32.36: icmp_seq=375 ttl=63 time=0.528 ms
64 bytes from 128.223.32.36: icmp_seq=376 ttl=63 time=0.589 ms
64 bytes from 128.223.32.36: icmp_seq=377 ttl=63 time=0.649 ms
64 bytes from 128.223.32.36: icmp_seq=377 ttl=63 time=0.709 ms
64 bytes from 128.223.32.36: icmp_seq=378 ttl=63 time=0.684 ms
64 bytes from 128.223.32.36: icmp_seq=379 ttl=63 time=0.695 ms
64 bytes from 128.223.32.36: icmp_seq=380 ttl=63 time=0.602 ms
64 bytes from 128.223.32.36: icmp_seq=381 ttl=63 time=0.699 ms
64 bytes from 128.223.32.36: icmp_seq=381 ttl=63 time=0.759 ms
64 bytes from 128.223.32.36: icmp_seq=382 ttl=63 time=0.701 ms
64 bytes from 128.223.32.36: icmp_seq=382 ttl=63 time=0.765 ms
64 bytes from 128.223.32.36: icmp_seq=383 ttl=63 time=0.692 ms
64 bytes from 128.223.32.36: icmp_seq=383 ttl=63 time=0.751 ms
64 bytes from 128.223.32.36: icmp_seq=384 ttl=63 time=0.704 ms
64 bytes from 128.223.32.36: icmp_seq=385 ttl=63 time=0.671 ms
64 bytes from 128.223.32.36: icmp_seq=387 ttl=63 time=0.700 ms
64 bytes from 128.223.32.36: icmp_seq=387 ttl=63 time=0.759 ms
64 bytes from 128.223.32.36: icmp_seq=388 ttl=63 time=0.537 ms
64 bytes from 128.223.32.36: icmp_seq=388 ttl=63 time=0.571 ms
64 bytes from 128.223.32.36: icmp_seq=389 ttl=63 time=0.502 ms
64 bytes from 128.223.32.36: icmp_seq=390 ttl=63 time=0.524 ms
64 bytes from 128.223.32.36: icmp_seq=390 ttl=63 time=0.570 ms
64 bytes from 128.223.32.36: icmp_seq=391 ttl=63 time=0.607 ms
64 bytes from 128.223.32.36: icmp_seq=391 ttl=63 time=0.665 ms
64 bytes from 128.223.32.36: icmp_seq=392 ttl=63 time=0.698 ms
64 bytes from 128.223.32.36: icmp_seq=393 ttl=63 time=0.633 ms
64 bytes from 128.223.32.36: icmp_seq=394 ttl=63 time=0.701 ms
64 bytes from 128.223.32.36: icmp_seq=395 ttl=63 time=0.418 ms
64 bytes from 128.223.32.36: icmp_seq=395 ttl=63 time=0.430 ms
64 bytes from 128.223.32.36: icmp_seq=396 ttl=63 time=0.738 ms
64 bytes from 128.223.32.36: icmp_seq=396 ttl=63 time=0.768 ms
64 bytes from 128.223.32.36: icmp_seq=397 ttl=63 time=0.685 ms
64 bytes from 128.223.32.36: icmp_seq=397 ttl=63 time=0.720 ms
64 bytes from 128.223.32.36: icmp_seq=398 ttl=63 time=0.669 ms
64 bytes from 128.223.32.36: icmp_seq=398 ttl=63 time=0.714 ms
64 bytes from 128.223.32.36: icmp_seq=399 ttl=63 time=0.592 ms
64 bytes from 128.223.32.36: icmp_seq=399 ttl=63 time=0.629 ms
64 bytes from 128.223.32.36: icmp_seq=400 ttl=63 time=0.598 ms
64 bytes from 128.223.32.36: icmp_seq=401 ttl=63 time=0.599 ms
64 bytes from 128.223.32.36: icmp_seq=401 ttl=63 time=0.619 ms
64 bytes from 128.223.32.36: icmp_seq=402 ttl=63 time=0.610 ms
64 bytes from 128.223.32.36: icmp_seq=403 ttl=63 time=0.614 ms
64 bytes from 128.223.32.36: icmp_seq=404 ttl=63 time=0.665 ms
64 bytes from 128.223.32.36: icmp_seq=405 ttl=63 time=0.600 ms
64 bytes from 128.223.32.36: icmp_seq=405 ttl=63 time=0.618 ms
64 bytes from 128.223.32.36: icmp_seq=406 ttl=63 time=0.595 ms
64 bytes from 128.223.32.36: icmp_seq=407 ttl=63 time=0.437 ms
64 bytes from 128.223.32.36: icmp_seq=408 ttl=63 time=1.13 ms
64 bytes from 128.223.32.36: icmp_seq=409 ttl=63 time=0.700 ms
64 bytes from 128.223.32.36: icmp_seq=410 ttl=63 time=0.601 ms
64 bytes from 128.223.32.36: icmp_seq=411 ttl=63 time=0.596 ms
64 bytes from 128.223.32.36: icmp_seq=412 ttl=63 time=0.670 ms
64 bytes from 128.223.32.36: icmp_seq=412 ttl=63 time=0.706 ms
64 bytes from 128.223.32.36: icmp_seq=413 ttl=63 time=0.590 ms
64 bytes from 128.223.32.36: icmp_seq=413 ttl=63 time=0.602 ms
64 bytes from 128.223.32.36: icmp_seq=414 ttl=63 time=0.598 ms
64 bytes from 128.223.32.36: icmp_seq=414 ttl=63 time=0.634 ms
64 bytes from 128.223.32.36: icmp_seq=415 ttl=63 time=0.598 ms
64 bytes from 128.223.32.36: icmp_seq=416 ttl=63 time=0.486 ms
64 bytes from 128.223.32.36: icmp_seq=417 ttl=63 time=0.653 ms
64 bytes from 128.223.32.36: icmp_seq=418 ttl=63 time=0.674 ms
64 bytes from 128.223.32.36: icmp_seq=418 ttl=63 time=0.591 ms
64 bytes from 128.223.32.36: icmp_seq=419 ttl=63 time=0.678 ms
64 bytes from 128.223.32.36: icmp_seq=419 ttl=63 time=0.583 ms
64 bytes from 128.223.32.36: icmp_seq=420 ttl=63 time=0.596 ms
64 bytes from 128.223.32.36: icmp_seq=420 ttl=63 time=0.591 ms
64 bytes from 128.223.32.36: icmp_seq=421 ttl=63 time=0.688 ms
64 bytes from 128.223.32.36: icmp_seq=421 ttl=63 time=0.494 ms
64 bytes from 128.223.32.36: icmp_seq=422 ttl=63 time=0.605 ms
64 bytes from 128.223.32.36: icmp_seq=423 ttl=63 time=0.504 ms
64 bytes from 128.223.32.36: icmp_seq=423 ttl=63 time=0.672 ms
64 bytes from 128.223.32.36: icmp_seq=424 ttl=63 time=0.674 ms
64 bytes from 128.223.32.36: icmp_seq=424 ttl=63 time=0.672 ms
64 bytes from 128.223.32.36: icmp_seq=426 ttl=63 time=0.676 ms
64 bytes from 128.223.32.36: icmp_seq=427 ttl=63 time=0.674 ms
64 bytes from 128.223.32.36: icmp_seq=428 ttl=63 time=0.685 ms
64 bytes from 128.223.32.36: icmp_seq=429 ttl=63 time=0.584 ms
64 bytes from 128.223.32.36: icmp_seq=430 ttl=63 time=0.673 ms
64 bytes from 128.223.32.36: icmp_seq=430 ttl=63 time=0.688 ms
64 bytes from 128.223.32.36: icmp_seq=431 ttl=63 time=0.604 ms
64 bytes from 128.223.32.36: icmp_seq=431 ttl=63 time=0.669 ms
64 bytes from 128.223.32.36: icmp_seq=432 ttl=63 time=0.707 ms
64 bytes from 128.223.32.36: icmp_seq=432 ttl=63 time=0.682 ms
64 bytes from 128.223.32.36: icmp_seq=433 ttl=63 time=0.707 ms
64 bytes from 128.223.32.36: icmp_seq=434 ttl=63 time=0.672 ms
64 bytes from 128.223.32.36: icmp_seq=434 ttl=63 time=0.678 ms
64 bytes from 128.223.32.36: icmp_seq=435 ttl=63 time=0.716 ms
64 bytes from 128.223.32.36: icmp_seq=435 ttl=63 time=0.728 ms
64 bytes from 128.223.32.36: icmp_seq=437 ttl=63 time=0.677 ms
64 bytes from 128.223.32.36: icmp_seq=438 ttl=63 time=0.465 ms
64 bytes from 128.223.32.36: icmp_seq=439 ttl=63 time=0.724 ms
64 bytes from 128.223.32.36: icmp_seq=440 ttl=63 time=0.591 ms
64 bytes from 128.223.32.36: icmp_seq=440 ttl=63 time=0.597 ms
64 bytes from 128.223.32.36: icmp_seq=441 ttl=63 time=0.619 ms
64 bytes from 128.223.32.36: icmp_seq=441 ttl=63 time=0.523 ms
64 bytes from 128.223.32.36: icmp_seq=443 ttl=63 time=0.488 ms
64 bytes from 128.223.32.36: icmp_seq=444 ttl=63 time=0.502 ms
64 bytes from 128.223.32.36: icmp_seq=444 ttl=63 time=0.689 ms
64 bytes from 128.223.32.36: icmp_seq=445 ttl=63 time=0.486 ms
64 bytes from 128.223.32.36: icmp_seq=445 ttl=63 time=0.579 ms
64 bytes from 128.223.32.36: icmp_seq=446 ttl=63 time=0.472 ms
64 bytes from 128.223.32.36: icmp_seq=446 ttl=63 time=0.476 ms
64 bytes from 128.223.32.36: icmp_seq=447 ttl=63 time=0.493 ms
64 bytes from 128.223.32.36: icmp_seq=448 ttl=63 time=0.683 ms
64 bytes from 128.223.32.36: icmp_seq=449 ttl=63 time=0.653 ms
64 bytes from 128.223.32.36: icmp_seq=450 ttl=63 time=0.621 ms
64 bytes from 128.223.32.36: icmp_seq=451 ttl=63 time=0.639 ms
64 bytes from 128.223.32.36: icmp_seq=451 ttl=63 time=0.662 ms
64 bytes from 128.223.32.36: icmp_seq=452 ttl=63 time=0.647 ms
64 bytes from 128.223.32.36: icmp_seq=452 ttl=63 time=0.697 ms
64 bytes from 128.223.32.36: icmp_seq=454 ttl=63 time=0.651 ms
64 bytes from 128.223.32.36: icmp_seq=457 ttl=63 time=0.680 ms
64 bytes from 128.223.32.36: icmp_seq=457 ttl=63 time=0.668 ms
64 bytes from 128.223.32.36: icmp_seq=461 ttl=63 time=0.500 ms
64 bytes from 128.223.32.36: icmp_seq=461 ttl=63 time=0.490 ms
64 bytes from 128.223.32.36: icmp_seq=463 ttl=63 time=0.680 ms
64 bytes from 128.223.32.36: icmp_seq=463 ttl=63 time=0.686 ms
64 bytes from 128.223.32.36: icmp_seq=464 ttl=63 time=0.562 ms
64 bytes from 128.223.32.36: icmp_seq=465 ttl=63 time=0.688 ms
64 bytes from 128.223.32.36: icmp_seq=465 ttl=63 time=0.609 ms
64 bytes from 128.223.32.36: icmp_seq=466 ttl=63 time=0.494 ms
64 bytes from 128.223.32.36: icmp_seq=467 ttl=63 time=0.597 ms
64 bytes from 128.223.32.36: icmp_seq=469 ttl=63 time=0.480 ms
64 bytes from 128.223.32.36: icmp_seq=470 ttl=63 time=0.687 ms
64 bytes from 128.223.32.36: icmp_seq=470 ttl=63 time=0.649 ms
64 bytes from 128.223.32.36: icmp_seq=471 ttl=63 time=0.485 ms
64 bytes from 128.223.32.36: icmp_seq=472 ttl=63 time=0.495 ms
64 bytes from 128.223.32.36: icmp_seq=473 ttl=63 time=0.698 ms
64 bytes from 128.223.32.36: icmp_seq=473 ttl=63 time=0.612 ms
64 bytes from 128.223.32.36: icmp_seq=474 ttl=63 time=0.534 ms
64 bytes from 128.223.32.36: icmp_seq=474 ttl=63 time=0.479 ms
64 bytes from 128.223.32.36: icmp_seq=475 ttl=63 time=0.686 ms
64 bytes from 128.223.32.36: icmp_seq=475 ttl=63 time=0.639 ms
64 bytes from 128.223.32.36: icmp_seq=476 ttl=63 time=0.584 ms
64 bytes from 128.223.32.36: icmp_seq=477 ttl=63 time=0.602 ms
64 bytes from 128.223.32.36: icmp_seq=478 ttl=63 time=0.603 ms
64 bytes from 128.223.32.36: icmp_seq=479 ttl=63 time=0.597 ms
64 bytes from 128.223.32.36: icmp_seq=480 ttl=63 time=0.492 ms
64 bytes from 128.223.32.36: icmp_seq=481 ttl=63 time=0.612 ms
64 bytes from 128.223.32.36: icmp_seq=482 ttl=63 time=0.603 ms
64 bytes from 128.223.32.36: icmp_seq=484 ttl=63 time=0.512 ms
64 bytes from 128.223.32.36: icmp_seq=485 ttl=63 time=0.577 ms
64 bytes from 128.223.32.36: icmp_seq=486 ttl=63 time=0.686 ms
64 bytes from 128.223.32.36: icmp_seq=487 ttl=63 time=0.600 ms
64 bytes from 128.223.32.36: icmp_seq=487 ttl=63 time=0.514 ms
64 bytes from 128.223.32.36: icmp_seq=488 ttl=63 time=0.607 ms
64 bytes from 128.223.32.36: icmp_seq=488 ttl=63 time=0.611 ms
64 bytes from 128.223.32.36: icmp_seq=491 ttl=63 time=0.690 ms
64 bytes from 128.223.32.36: icmp_seq=493 ttl=63 time=0.486 ms
64 bytes from 128.223.32.36: icmp_seq=494 ttl=63 time=0.418 ms
64 bytes from 128.223.32.36: icmp_seq=494 ttl=63 time=0.682 ms
64 bytes from 128.223.32.36: icmp_seq=495 ttl=63 time=0.521 ms
64 bytes from 128.223.32.36: icmp_seq=495 ttl=63 time=0.479 ms
64 bytes from 128.223.32.36: icmp_seq=496 ttl=63 time=0.623 ms
64 bytes from 128.223.32.36: icmp_seq=496 ttl=63 time=0.620 ms
64 bytes from 128.223.32.36: icmp_seq=497 ttl=63 time=0.639 ms
64 bytes from 128.223.32.36: icmp_seq=497 ttl=63 time=0.640 ms
64 bytes from 128.223.32.36: icmp_seq=498 ttl=63 time=0.683 ms
64 bytes from 128.223.32.36: icmp_seq=499 ttl=63 time=0.667 ms
64 bytes from 128.223.32.36: icmp_seq=499 ttl=63 time=0.689 ms
64 bytes from 128.223.32.36: icmp_seq=500 ttl=63 time=0.697 ms

--- 128.223.32.36 ping statistics ---
500 packets transmitted, 238 received, 52% packet loss, time 510937ms
rtt min/avg/max/mdev = 0.331/0.631/1.131/0.095 ms

--- 128.223.32.36 ping statistics ---
500 packets transmitted, 232 received, 53% packet loss, time 510969ms
rtt min/avg/max/mdev = 0.373/0.635/0.829/0.104 ms
