ping_6  | round-trip min/avg/max = 21.411/21.633/21.961 ms
ping_40 | round-trip min/avg/max = 21.382/21.539/21.881 ms
ping_20 | round-trip min/avg/max = 21.429/21.985/24.172 ms
ping_17 | round-trip min/avg/max = 21.499/21.830/22.832 ms
ping_9  | round-trip min/avg/max = 21.503/21.663/21.949 ms
ping_34 | round-trip min/avg/max = 21.479/21.724/22.090 ms
ping_7  | round-trip min/avg/max = 21.419/22.489/25.916 ms
ping_15 | round-trip min/avg/max = 21.456/21.690/22.492 ms
ping_26 | round-trip min/avg/max = 21.377/21.632/21.936 ms
ping_25 | round-trip min/avg/max = 21.476/21.707/22.111 ms
ping_29 | round-trip min/avg/max = 21.415/21.656/21.938 ms
ping_2  | round-trip min/avg/max = 21.458/21.619/22.003 ms
ping_19 | round-trip min/avg/max = 21.442/21.654/21.976 ms
ping_37 | round-trip min/avg/max = 21.466/21.598/21.901 ms
ping_5  | round-trip min/avg/max = 21.422/21.602/22.009 ms
ping_16 | round-trip min/avg/max = 21.427/21.640/21.976 ms
ping_11 | round-trip min/avg/max = 21.342/21.524/21.884 ms
ping_28 | round-trip min/avg/max = 21.421/21.597/21.794 ms
ping_31 | round-trip min/avg/max = 21.453/21.618/21.756 ms
ping_18 | round-trip min/avg/max = 21.415/21.681/22.817 ms
ping_33 | round-trip min/avg/max = 21.405/21.577/21.835 ms
ping_4  | round-trip min/avg/max = 21.379/21.694/23.373 ms
ping_23 | round-trip min/avg/max = 21.351/21.608/21.889 ms
ping_3  | round-trip min/avg/max = 21.370/21.612/22.161 ms
ping_30 | round-trip min/avg/max = 21.353/21.557/22.031 ms
ping_1  | round-trip min/avg/max = 21.373/22.040/24.012 ms
ping_32 | round-trip min/avg/max = 21.364/21.482/21.632 ms
ping_13 | round-trip min/avg/max = 21.440/21.562/21.840 ms
ping_12 | round-trip min/avg/max = 21.388/21.476/21.591 ms
ping_27 | round-trip min/avg/max = 21.396/21.682/22.026 ms
ping_35 | round-trip min/avg/max = 21.399/21.535/21.668 ms
ping_8  | round-trip min/avg/max = 21.453/21.623/21.935 ms
ping_10 | round-trip min/avg/max = 21.403/21.547/21.917 ms
ping_14 | round-trip min/avg/max = 21.469/21.625/21.950 ms
ping_22 | round-trip min/avg/max = 21.408/21.801/23.993 ms
ping_46 | round-trip min/avg/max = 21.460/21.792/23.128 ms
ping_38 | round-trip min/avg/max = 21.407/21.499/21.708 ms
ping_36 | round-trip min/avg/max = 21.357/21.944/24.546 ms
ping_21 | round-trip min/avg/max = 21.410/21.896/25.216 ms
ping_39 | round-trip min/avg/max = 21.416/21.987/24.656 ms
ping_50 | round-trip min/avg/max = 21.442/21.861/22.418 ms
ping_78 | round-trip min/avg/max = 21.417/21.909/22.938 ms
ping_45 | round-trip min/avg/max = 21.418/21.784/22.870 ms
ping_24 | round-trip min/avg/max = 21.385/21.839/23.982 ms
ping_60 | round-trip min/avg/max = 21.439/21.733/21.955 ms
ping_79 | round-trip min/avg/max = 21.427/21.695/21.972 ms
ping_65 | round-trip min/avg/max = 21.425/21.613/21.881 ms
ping_87 | round-trip min/avg/max = 21.458/21.666/21.945 ms
ping_71 | round-trip min/avg/max = 21.343/21.789/23.962 ms
ping_95 | round-trip min/avg/max = 21.380/21.562/21.716 ms
ping_99 | round-trip min/avg/max = 21.397/21.634/21.965 ms
ping_43 | round-trip min/avg/max = 21.435/21.623/21.907 ms
ping_56 | round-trip min/avg/max = 21.416/21.628/22.002 ms
ping_53 | round-trip min/avg/max = 21.443/21.591/21.804 ms
ping_77 | round-trip min/avg/max = 21.436/21.744/23.169 ms
ping_69 | round-trip min/avg/max = 21.355/21.566/22.216 ms
ping_48 | round-trip min/avg/max = 21.444/21.622/21.967 ms
ping_81 | round-trip min/avg/max = 21.481/21.670/21.959 ms
ping_70 | round-trip min/avg/max = 21.373/21.851/22.943 ms
ping_51 | round-trip min/avg/max = 21.424/21.637/22.283 ms
ping_94 | round-trip min/avg/max = 21.378/21.608/21.863 ms
ping_63 | round-trip min/avg/max = 21.435/21.631/21.895 ms
ping_57 | round-trip min/avg/max = 21.393/21.670/21.874 ms
ping_62 | round-trip min/avg/max = 21.385/21.527/21.684 ms
ping_86 | round-trip min/avg/max = 21.379/21.834/23.889 ms
ping_73 | round-trip min/avg/max = 21.361/21.929/24.975 ms
ping_74 | round-trip min/avg/max = 21.429/21.666/21.971 ms
ping_59 | round-trip min/avg/max = 21.388/22.627/30.443 ms
ping_47 | round-trip min/avg/max = 21.442/22.000/25.574 ms
ping_97 | round-trip min/avg/max = 21.401/21.595/22.022 ms
ping_66 | round-trip min/avg/max = 21.384/21.584/21.977 ms
ping_96 | round-trip min/avg/max = 21.344/21.816/24.075 ms
ping_41 | round-trip min/avg/max = 21.374/21.598/21.887 ms
ping_44 | round-trip min/avg/max = 21.404/21.713/22.528 ms
ping_82 | round-trip min/avg/max = 21.433/21.675/22.532 ms
ping_58 | round-trip min/avg/max = 21.435/22.031/24.307 ms
ping_55 | round-trip min/avg/max = 21.404/22.517/30.848 ms
ping_93 | round-trip min/avg/max = 21.400/21.495/21.683 ms
ping_85 | round-trip min/avg/max = 21.459/21.904/23.899 ms
ping_84 | round-trip min/avg/max = 21.441/21.742/22.549 ms
ping_83 | round-trip min/avg/max = 21.441/21.622/21.901 ms
ping_90 | round-trip min/avg/max = 21.404/21.671/22.838 ms
ping_49 | round-trip min/avg/max = 21.433/21.564/21.818 ms
ping_75 | round-trip min/avg/max = 21.389/21.579/21.757 ms
ping_52 | round-trip min/avg/max = 21.375/21.703/22.648 ms
ping_54 | round-trip min/avg/max = 21.385/21.625/22.178 ms
ping_72 | round-trip min/avg/max = 21.399/21.651/21.999 ms
ping_76 | round-trip min/avg/max = 21.401/21.644/21.943 ms
ping_88 | round-trip min/avg/max = 21.480/21.583/21.647 ms
ping_92 | round-trip min/avg/max = 21.329/21.497/21.858 ms
ping_98 | round-trip min/avg/max = 21.358/21.537/21.965 ms
ping_80 | round-trip min/avg/max = 21.494/22.490/29.258 ms
ping_67 | round-trip min/avg/max = 21.402/21.620/21.943 ms
ping_91 | round-trip min/avg/max = 21.389/21.518/21.679 ms
ping_64 | round-trip min/avg/max = 21.322/21.553/21.938 ms
ping_100 | round-trip min/avg/max = 21.392/21.594/21.840 ms
ping_68 | round-trip min/avg/max = 21.480/21.810/22.269 ms
ping_61 | round-trip min/avg/max = 21.365/21.823/23.302 ms
ping_89 | round-trip min/avg/max = 21.409/21.851/22.777 ms
ping_42 | round-trip min/avg/max = 21.389/21.721/22.052 ms
