     1	353 
     2	354 
     3	357 
     4	414 
     5	483 
     6	578 
     7	619 
     8	612 
     9	599 
    10	591 
    11	579 
    12	568 
    13	559 
    14	549 
    15	531 
    16	517 
    17	505 
    18	493 
    19	482 
    20	476 
    21	453 
    22	445 
    23	434 
    24	429 
    25	408 
    26	401 
    27	394 
    28	387 
    29	404 
    30	431 
    31	499 
    32	579 
    33	664 
    34	738 
    35	766 
    36	760 
    37	749 
    38	737 
    39	730 
    40	721 
    41	709 
    42	696 
    43	681 
    44	670 
    45	651 
    46	634 
    47	605 
    48	582 
    49	566 
    50	548 
    51	528 
    52	514 
    53	501 
    54	482 
    55	461 
    56	444 
    57	427 
    58	411 
    59	399 
    60	391 
    61	387 
    62	384 
    63	378 
    64	369 
    65	367 
    66	363 
