100 packets transmitted, 100 received, 0% packet loss, time 99148ms
100 packets transmitted, 100 received, 0% packet loss, time 99148ms
100 packets transmitted, 100 received, 0% packet loss, time 99148ms
100 packets transmitted, 100 received, 0% packet loss, time 99148ms
100 packets transmitted, 100 received, 0% packet loss, time 99148ms
100 packets transmitted, 100 received, 0% packet loss, time 99148ms
100 packets transmitted, 100 received, 0% packet loss, time 99148ms
100 packets transmitted, 100 received, 0% packet loss, time 99148ms
100 packets transmitted, 100 received, 0% packet loss, time 99148ms
100 packets transmitted, 100 received, 0% packet loss, time 99148ms
