     1	287 
     2	287 
     3	287 
     4	287 
     5	287 
     6	287 
     7	287 
     8	287 
     9	287 
    10	287 
    11	287 
    12	287 
    13	287 
    14	287 
    15	287 
    16	287 
    17	287 
    18	287 
    19	287 
    20	287 
    21	287 
    22	287 
    23	287 
    24	287 
    25	287 
    26	287 
    27	287 
    28	287 
    29	287 
    30	287 
    31	287 
    32	287 
    33	287 
    34	287 
    35	287 
    36	287 
    37	287 
    38	287 
    39	288 
    40	288 
    41	288 
    42	288 
    43	288 
    44	288 
    45	288 
    46	288 
    47	288 
    48	288 
    49	288 
    50	288 
    51	288 
    52	288 
    53	288 
    54	288 
    55	288 
    56	288 
    57	288 
    58	288 
    59	288 
    60	288 
    61	288 
    62	288 
    63	288 
    64	288 
    65	288 
    66	288 
    67	288 
    68	288 
    69	288 
    70	288 
    71	288 
    72	288 
    73	288 
    74	288 
    75	288 
    76	288 
    77	288 
    78	288 
    79	288 
    80	288 
    81	288 
    82	288 
    83	288 
    84	288 
    85	288 
    86	288 
    87	288 
    88	288 
    89	288 
    90	288 
    91	288 
    92	288 
    93	288 
    94	288 
    95	288 
    96	288 
    97	288 
    98	288 
