top - 21:37:32 up 54 min,  1 user,  load average: 0.03, 0.88, 1.54
Tasks: 285 total,   1 running, 224 sleeping,   0 stopped,   0 zombie
%Cpu(s):  3.9 us,  1.6 sy,  0.1 ni, 94.3 id,  0.1 wa,  0.0 hi,  0.0 si,  0.0 st
KiB Mem : 16278768 total, 12283044 free,  1345500 used,  2650224 buff/cache
KiB Swap: 16630780 total, 16630780 free,        0 used. 14482948 avail Mem 

  PID USER      PR  NI    VIRT    RES    SHR S  %CPU %MEM     TIME+ COMMAND
25912 kenenth   20   0   41932   3708   3048 R  12.5  0.0   0:00.03 top
    8 root      20   0       0      0      0 I   6.2  0.0   0:01.92 rcu_sched
 1985 kenenth   20   0 3537580 241628  96100 S   6.2  1.5   1:51.39 gnome-shell

top - 21:37:33 up 54 min,  1 user,  load average: 0.03, 0.88, 1.54
Tasks: 285 total,   2 running, 223 sleeping,   0 stopped,   0 zombie
%Cpu(s):  0.2 us,  0.0 sy,  0.0 ni, 99.8 id,  0.0 wa,  0.0 hi,  0.0 si,  0.0 st
KiB Mem : 16278768 total, 12283044 free,  1345500 used,  2650224 buff/cache
KiB Swap: 16630780 total, 16630780 free,        0 used. 14482948 avail Mem 

  PID USER      PR  NI    VIRT    RES    SHR S  %CPU %MEM     TIME+ COMMAND
  703 systemd+  20   0   70748   5204   4648 S   1.0  0.0   0:01.74 systemd-re+
 1780 root      20   0  433932  94760  61668 S   1.0  0.6   0:47.95 Xorg

top - 21:37:34 up 54 min,  1 user,  load average: 0.03, 0.88, 1.54
Tasks: 285 total,   1 running, 224 sleeping,   0 stopped,   0 zombie
%Cpu(s):  0.1 us,  0.6 sy,  0.0 ni, 99.3 id,  0.0 wa,  0.0 hi,  0.0 si,  0.0 st
KiB Mem : 16278768 total, 12283044 free,  1345500 used,  2650224 buff/cache
KiB Swap: 16630780 total, 16630780 free,        0 used. 14482948 avail Mem 

  PID USER      PR  NI    VIRT    RES    SHR S  %CPU %MEM     TIME+ COMMAND
25912 kenenth   20   0   41900   3772   3048 R   2.0  0.0   0:00.05 top
  980 root      20   0  179856   9644   8836 S   1.0  0.1   0:01.82 thermald
 1780 root      20   0  433932  94760  61668 S   1.0  0.6   0:47.96 Xorg
 1781 root     -51   0       0      0      0 S   1.0  0.0   0:05.66 irq/135-nv+

top - 21:37:35 up 54 min,  1 user,  load average: 0.03, 0.87, 1.53
Tasks: 285 total,   1 running, 224 sleeping,   0 stopped,   0 zombie
%Cpu(s):  0.1 us,  0.4 sy,  0.0 ni, 99.5 id,  0.0 wa,  0.0 hi,  0.0 si,  0.0 st
KiB Mem : 16278768 total, 12283076 free,  1345460 used,  2650232 buff/cache
KiB Swap: 16630780 total, 16630780 free,        0 used. 14482980 avail Mem 

  PID USER      PR  NI    VIRT    RES    SHR S  %CPU %MEM     TIME+ COMMAND
 1780 root      20   0  433932  94760  61668 S   1.0  0.6   0:47.97 Xorg
 1985 kenenth   20   0 3537580 241628  96100 S   1.0  1.5   1:51.40 gnome-shell
25912 kenenth   20   0   41900   3772   3048 R   1.0  0.0   0:00.06 top

top - 21:37:36 up 54 min,  1 user,  load average: 0.03, 0.87, 1.53
Tasks: 285 total,   1 running, 224 sleeping,   0 stopped,   0 zombie
%Cpu(s):  0.2 us,  0.1 sy,  0.0 ni, 99.6 id,  0.0 wa,  0.0 hi,  0.0 si,  0.0 st
KiB Mem : 16278768 total, 12283076 free,  1345460 used,  2650232 buff/cache
KiB Swap: 16630780 total, 16630780 free,        0 used. 14482980 avail Mem 

  PID USER      PR  NI    VIRT    RES    SHR S  %CPU %MEM     TIME+ COMMAND
 1985 kenenth   20   0 3537580 241628  96100 S   1.0  1.5   1:51.41 gnome-shell
25912 kenenth   20   0   41900   3772   3048 R   1.0  0.0   0:00.07 top

top - 21:37:37 up 54 min,  1 user,  load average: 0.03, 0.87, 1.53
Tasks: 285 total,   1 running, 224 sleeping,   0 stopped,   0 zombie
%Cpu(s):  0.1 us,  0.5 sy,  0.0 ni, 99.4 id,  0.0 wa,  0.0 hi,  0.0 si,  0.0 st
KiB Mem : 16278768 total, 12283076 free,  1345460 used,  2650232 buff/cache
KiB Swap: 16630780 total, 16630780 free,        0 used. 14482980 avail Mem 

  PID USER      PR  NI    VIRT    RES    SHR S  %CPU %MEM     TIME+ COMMAND
 1780 root      20   0  433932  94760  61668 S   2.0  0.6   0:47.99 Xorg
25912 kenenth   20   0   41900   3772   3048 R   2.0  0.0   0:00.09 top
 1985 kenenth   20   0 3537580 241628  96100 S   1.0  1.5   1:51.42 gnome-shell
27967 kenenth   20   0  794420  37656  28220 S   1.0  0.2   0:02.40 gnome-term+

top - 21:37:38 up 54 min,  1 user,  load average: 0.03, 0.87, 1.53
Tasks: 285 total,   1 running, 224 sleeping,   0 stopped,   0 zombie
%Cpu(s):  0.1 us,  0.4 sy,  0.0 ni, 99.5 id,  0.0 wa,  0.0 hi,  0.0 si,  0.0 st
KiB Mem : 16278768 total, 12283012 free,  1345512 used,  2650244 buff/cache
KiB Swap: 16630780 total, 16630780 free,        0 used. 14482916 avail Mem 

  PID USER      PR  NI    VIRT    RES    SHR S  %CPU %MEM     TIME+ COMMAND
 1781 root     -51   0       0      0      0 S   1.0  0.0   0:05.67 irq/135-nv+
25912 kenenth   20   0   41900   3772   3048 R   1.0  0.0   0:00.10 top

top - 21:37:39 up 54 min,  1 user,  load average: 0.03, 0.87, 1.53
Tasks: 285 total,   1 running, 224 sleeping,   0 stopped,   0 zombie
%Cpu(s):  0.1 us,  0.4 sy,  0.0 ni, 99.5 id,  0.0 wa,  0.0 hi,  0.0 si,  0.0 st
KiB Mem : 16278768 total, 12283012 free,  1345512 used,  2650244 buff/cache
KiB Swap: 16630780 total, 16630780 free,        0 used. 14482916 avail Mem 

  PID USER      PR  NI    VIRT    RES    SHR S  %CPU %MEM     TIME+ COMMAND
 1985 kenenth   20   0 3537580 241628  96100 S   1.0  1.5   1:51.43 gnome-shell
25912 kenenth   20   0   41900   3772   3048 R   1.0  0.0   0:00.11 top

top - 21:37:40 up 54 min,  1 user,  load average: 0.03, 0.85, 1.53
Tasks: 285 total,   1 running, 224 sleeping,   0 stopped,   0 zombie
%Cpu(s):  0.2 us,  0.1 sy,  0.0 ni, 99.6 id,  0.0 wa,  0.0 hi,  0.0 si,  0.0 st
KiB Mem : 16278768 total, 12283012 free,  1345512 used,  2650244 buff/cache
KiB Swap: 16630780 total, 16630780 free,        0 used. 14482916 avail Mem 

  PID USER      PR  NI    VIRT    RES    SHR S  %CPU %MEM     TIME+ COMMAND
25912 kenenth   20   0   41900   3772   3048 R   2.0  0.0   0:00.13 top
 1129 root      20   0 4971932  40584  25012 S   1.0  0.2   0:14.77 containerd
 1780 root      20   0  433932  94760  61668 S   1.0  0.6   0:48.00 Xorg

top - 21:37:41 up 54 min,  1 user,  load average: 0.03, 0.85, 1.53
Tasks: 285 total,   1 running, 224 sleeping,   0 stopped,   0 zombie
%Cpu(s):  0.2 us,  0.2 sy,  0.0 ni, 99.5 id,  0.0 wa,  0.0 hi,  0.0 si,  0.0 st
KiB Mem : 16278768 total, 12283044 free,  1345464 used,  2650260 buff/cache
KiB Swap: 16630780 total, 16630780 free,        0 used. 14482948 avail Mem 

  PID USER      PR  NI    VIRT    RES    SHR S  %CPU %MEM     TIME+ COMMAND
 1780 root      20   0  433932  94760  61668 S   1.0  0.6   0:48.01 Xorg
 1985 kenenth   20   0 3537580 241628  96100 S   1.0  1.5   1:51.44 gnome-shell
25912 kenenth   20   0   41900   3772   3048 R   1.0  0.0   0:00.14 top

top - 21:37:42 up 54 min,  1 user,  load average: 0.03, 0.85, 1.53
Tasks: 285 total,   1 running, 224 sleeping,   0 stopped,   0 zombie
%Cpu(s):  0.1 us,  0.2 sy,  0.0 ni, 99.6 id,  0.0 wa,  0.0 hi,  0.0 si,  0.0 st
KiB Mem : 16278768 total, 12283044 free,  1345464 used,  2650260 buff/cache
KiB Swap: 16630780 total, 16630780 free,        0 used. 14482948 avail Mem 

  PID USER      PR  NI    VIRT    RES    SHR S  %CPU %MEM     TIME+ COMMAND
 1781 root     -51   0       0      0      0 S   1.0  0.0   0:05.68 irq/135-nv+
 1985 kenenth   20   0 3537580 241628  96100 S   1.0  1.5   1:51.45 gnome-shell

top - 21:37:44 up 54 min,  1 user,  load average: 0.03, 0.85, 1.53
Tasks: 285 total,   1 running, 224 sleeping,   0 stopped,   0 zombie
%Cpu(s):  0.1 us,  0.2 sy,  0.0 ni, 99.6 id,  0.0 wa,  0.0 hi,  0.0 si,  0.0 st
KiB Mem : 16278768 total, 12283012 free,  1345496 used,  2650260 buff/cache
KiB Swap: 16630780 total, 16630780 free,        0 used. 14482916 avail Mem 

  PID USER      PR  NI    VIRT    RES    SHR S  %CPU %MEM     TIME+ COMMAND
25912 kenenth   20   0   41900   3772   3048 R   2.0  0.0   0:00.16 top
 1780 root      20   0  433932  94760  61668 S   1.0  0.6   0:48.02 Xorg
 1985 kenenth   20   0 3537580 241628  96100 S   1.0  1.5   1:51.46 gnome-shell

top - 21:37:45 up 54 min,  1 user,  load average: 0.03, 0.85, 1.53
Tasks: 285 total,   1 running, 224 sleeping,   0 stopped,   0 zombie
%Cpu(s):  0.1 us,  0.2 sy,  0.0 ni, 99.6 id,  0.0 wa,  0.0 hi,  0.0 si,  0.0 st
KiB Mem : 16278768 total, 12283012 free,  1345496 used,  2650260 buff/cache
KiB Swap: 16630780 total, 16630780 free,        0 used. 14482916 avail Mem 

  PID USER      PR  NI    VIRT    RES    SHR S  %CPU %MEM     TIME+ COMMAND
25912 kenenth   20   0   41900   3772   3048 R   3.0  0.0   0:00.19 top

top - 21:37:46 up 54 min,  1 user,  load average: 0.02, 0.84, 1.52
Tasks: 285 total,   1 running, 224 sleeping,   0 stopped,   0 zombie
%Cpu(s):  0.2 us,  0.0 sy,  0.0 ni, 99.6 id,  0.1 wa,  0.0 hi,  0.0 si,  0.0 st
KiB Mem : 16278768 total, 12283012 free,  1345496 used,  2650260 buff/cache
KiB Swap: 16630780 total, 16630780 free,        0 used. 14482916 avail Mem 

  PID USER      PR  NI    VIRT    RES    SHR S  %CPU %MEM     TIME+ COMMAND
 1780 root      20   0  433932  94760  61668 S   1.0  0.6   0:48.03 Xorg
25912 kenenth   20   0   41900   3772   3048 R   1.0  0.0   0:00.20 top

top - 21:37:47 up 54 min,  1 user,  load average: 0.02, 0.84, 1.52
Tasks: 285 total,   1 running, 224 sleeping,   0 stopped,   0 zombie
%Cpu(s):  0.1 us,  0.1 sy,  0.0 ni, 99.8 id,  0.0 wa,  0.0 hi,  0.0 si,  0.0 st
KiB Mem : 16278768 total, 12282980 free,  1345516 used,  2650272 buff/cache
KiB Swap: 16630780 total, 16630780 free,        0 used. 14482912 avail Mem 

  PID USER      PR  NI    VIRT    RES    SHR S  %CPU %MEM     TIME+ COMMAND
 1129 root      20   0 4971932  40584  25012 S   1.0  0.2   0:14.78 containerd
25912 kenenth   20   0   41900   3772   3048 R   1.0  0.0   0:00.21 top
28466 root      20   0       0      0      0 I   1.0  0.0   0:00.19 kworker/1:1

top - 21:37:48 up 54 min,  1 user,  load average: 0.02, 0.84, 1.52
Tasks: 285 total,   1 running, 224 sleeping,   0 stopped,   0 zombie
%Cpu(s):  0.0 us,  0.2 sy,  0.0 ni, 99.8 id,  0.0 wa,  0.0 hi,  0.0 si,  0.0 st
KiB Mem : 16278768 total, 12282980 free,  1345516 used,  2650272 buff/cache
KiB Swap: 16630780 total, 16630780 free,        0 used. 14482912 avail Mem 

  PID USER      PR  NI    VIRT    RES    SHR S  %CPU %MEM     TIME+ COMMAND
  944 root      20   0  110512   3520   3184 S   1.0  0.0   0:00.55 irqbalance
  972 root      20   0  564896  23572  13716 S   1.0  0.1   0:20.09 NetworkMan+
25912 kenenth   20   0   41900   3772   3048 R   1.0  0.0   0:00.22 top

top - 21:37:49 up 54 min,  1 user,  load average: 0.02, 0.84, 1.52
Tasks: 285 total,   1 running, 224 sleeping,   0 stopped,   0 zombie
%Cpu(s):  0.1 us,  0.1 sy,  0.0 ni, 99.8 id,  0.0 wa,  0.0 hi,  0.0 si,  0.0 st
KiB Mem : 16278768 total, 12282980 free,  1345516 used,  2650272 buff/cache
KiB Swap: 16630780 total, 16630780 free,        0 used. 14482912 avail Mem 

  PID USER      PR  NI    VIRT    RES    SHR S  %CPU %MEM     TIME+ COMMAND
 1780 root      20   0  433932  94760  61668 S   1.0  0.6   0:48.04 Xorg
25912 kenenth   20   0   41900   3772   3048 R   1.0  0.0   0:00.23 top

top - 21:37:50 up 54 min,  1 user,  load average: 0.02, 0.84, 1.52
Tasks: 285 total,   1 running, 224 sleeping,   0 stopped,   0 zombie
%Cpu(s):  0.1 us,  0.2 sy,  0.0 ni, 99.6 id,  0.0 wa,  0.0 hi,  0.0 si,  0.0 st
KiB Mem : 16278768 total, 12283012 free,  1345484 used,  2650272 buff/cache
KiB Swap: 16630780 total, 16630780 free,        0 used. 14482944 avail Mem 

  PID USER      PR  NI    VIRT    RES    SHR S  %CPU %MEM     TIME+ COMMAND
25912 kenenth   20   0   41900   3772   3048 R   2.0  0.0   0:00.25 top

top - 21:37:51 up 54 min,  1 user,  load average: 0.02, 0.82, 1.51
Tasks: 285 total,   1 running, 224 sleeping,   0 stopped,   0 zombie
%Cpu(s):  0.1 us,  0.2 sy,  0.0 ni, 99.6 id,  0.0 wa,  0.0 hi,  0.0 si,  0.0 st
KiB Mem : 16278768 total, 12283012 free,  1345484 used,  2650272 buff/cache
KiB Swap: 16630780 total, 16630780 free,        0 used. 14482944 avail Mem 

  PID USER      PR  NI    VIRT    RES    SHR S  %CPU %MEM     TIME+ COMMAND
 1780 root      20   0  433932  94760  61668 S   1.0  0.6   0:48.05 Xorg
25912 kenenth   20   0   41900   3772   3048 R   1.0  0.0   0:00.26 top

top - 21:37:52 up 54 min,  1 user,  load average: 0.02, 0.82, 1.51
Tasks: 285 total,   1 running, 224 sleeping,   0 stopped,   0 zombie
%Cpu(s):  0.0 us,  0.2 sy,  0.0 ni, 99.8 id,  0.0 wa,  0.0 hi,  0.0 si,  0.0 st
KiB Mem : 16278768 total, 12283012 free,  1345484 used,  2650272 buff/cache
KiB Swap: 16630780 total, 16630780 free,        0 used. 14482944 avail Mem 

  PID USER      PR  NI    VIRT    RES    SHR S  %CPU %MEM     TIME+ COMMAND
25912 kenenth   20   0   41900   3772   3048 R   1.0  0.0   0:00.27 top

top - 21:37:53 up 54 min,  1 user,  load average: 0.02, 0.82, 1.51
Tasks: 285 total,   1 running, 224 sleeping,   0 stopped,   0 zombie
%Cpu(s):  0.2 us,  0.1 sy,  0.0 ni, 99.5 id,  0.0 wa,  0.0 hi,  0.1 si,  0.0 st
KiB Mem : 16278768 total, 12282940 free,  1345548 used,  2650280 buff/cache
KiB Swap: 16630780 total, 16630780 free,        0 used. 14482876 avail Mem 

  PID USER      PR  NI    VIRT    RES    SHR S  %CPU %MEM     TIME+ COMMAND
  997 root      20   0 1090076  30548  18128 S   2.9  0.2   0:06.32 snapd
25912 kenenth   20   0   41900   3772   3048 R   2.0  0.0   0:00.29 top
  950 message+  20   0   51840   6208   3852 S   1.0  0.0   0:35.21 dbus-daemon

top - 21:37:54 up 54 min,  1 user,  load average: 0.02, 0.82, 1.51
Tasks: 285 total,   1 running, 224 sleeping,   0 stopped,   0 zombie
%Cpu(s):  0.1 us,  0.1 sy,  0.0 ni, 99.8 id,  0.0 wa,  0.0 hi,  0.0 si,  0.0 st
KiB Mem : 16278768 total, 12282940 free,  1345548 used,  2650280 buff/cache
KiB Swap: 16630780 total, 16630780 free,        0 used. 14482876 avail Mem 

  PID USER      PR  NI    VIRT    RES    SHR S  %CPU %MEM     TIME+ COMMAND
 1780 root      20   0  433932  94760  61668 S   1.0  0.6   0:48.06 Xorg
25912 kenenth   20   0   41900   3772   3048 R   1.0  0.0   0:00.30 top

top - 21:37:55 up 54 min,  1 user,  load average: 0.02, 0.82, 1.51
Tasks: 285 total,   1 running, 224 sleeping,   0 stopped,   0 zombie
%Cpu(s):  0.0 us,  0.2 sy,  0.0 ni, 99.8 id,  0.0 wa,  0.0 hi,  0.0 si,  0.0 st
KiB Mem : 16278768 total, 12282940 free,  1345548 used,  2650280 buff/cache
KiB Swap: 16630780 total, 16630780 free,        0 used. 14482876 avail Mem 

  PID USER      PR  NI    VIRT    RES    SHR S  %CPU %MEM     TIME+ COMMAND
  980 root      20   0  179856   9644   8836 S   1.0  0.1   0:01.83 thermald
25912 kenenth   20   0   41900   3772   3048 R   1.0  0.0   0:00.31 top

top - 21:37:56 up 54 min,  1 user,  load average: 0.02, 0.81, 1.50
Tasks: 285 total,   1 running, 224 sleeping,   0 stopped,   0 zombie
%Cpu(s):  0.1 us,  0.1 sy,  0.0 ni, 99.8 id,  0.0 wa,  0.0 hi,  0.0 si,  0.0 st
KiB Mem : 16278768 total, 12282940 free,  1345544 used,  2650284 buff/cache
KiB Swap: 16630780 total, 16630780 free,        0 used. 14482876 avail Mem 

  PID USER      PR  NI    VIRT    RES    SHR S  %CPU %MEM     TIME+ COMMAND
 1780 root      20   0  433932  94760  61668 S   1.0  0.6   0:48.07 Xorg
25912 kenenth   20   0   41900   3772   3048 R   1.0  0.0   0:00.32 top

top - 21:37:57 up 54 min,  1 user,  load average: 0.02, 0.81, 1.50
Tasks: 285 total,   1 running, 224 sleeping,   0 stopped,   0 zombie
%Cpu(s):  0.1 us,  0.4 sy,  0.0 ni, 99.5 id,  0.0 wa,  0.0 hi,  0.0 si,  0.0 st
KiB Mem : 16278768 total, 12282940 free,  1345544 used,  2650284 buff/cache
KiB Swap: 16630780 total, 16630780 free,        0 used. 14482876 avail Mem 

  PID USER      PR  NI    VIRT    RES    SHR S  %CPU %MEM     TIME+ COMMAND
25912 kenenth   20   0   41900   3772   3048 R   2.0  0.0   0:00.34 top
  995 avahi     20   0   48148   4680   3344 S   1.0  0.0   0:03.15 avahi-daem+
 2350 kernoops  20   0   56936    424      0 S   1.0  0.0   0:00.14 kerneloops

top - 21:37:58 up 54 min,  1 user,  load average: 0.02, 0.81, 1.50
Tasks: 285 total,   1 running, 224 sleeping,   0 stopped,   0 zombie
%Cpu(s):  0.1 us,  0.2 sy,  0.0 ni, 99.6 id,  0.0 wa,  0.0 hi,  0.0 si,  0.0 st
KiB Mem : 16278768 total, 12282940 free,  1345544 used,  2650284 buff/cache
KiB Swap: 16630780 total, 16630780 free,        0 used. 14482876 avail Mem 

  PID USER      PR  NI    VIRT    RES    SHR S  %CPU %MEM     TIME+ COMMAND
 1780 root      20   0  433932  94760  61668 S   2.0  0.6   0:48.09 Xorg
25912 kenenth   20   0   41900   3772   3048 R   1.0  0.0   0:00.35 top

top - 21:37:59 up 54 min,  1 user,  load average: 0.02, 0.81, 1.50
Tasks: 285 total,   1 running, 224 sleeping,   0 stopped,   0 zombie
%Cpu(s):  0.1 us,  0.2 sy,  0.0 ni, 99.6 id,  0.0 wa,  0.0 hi,  0.0 si,  0.0 st
KiB Mem : 16278768 total, 12282876 free,  1345600 used,  2650292 buff/cache
KiB Swap: 16630780 total, 16630780 free,        0 used. 14482812 avail Mem 

  PID USER      PR  NI    VIRT    RES    SHR S  %CPU %MEM     TIME+ COMMAND
  995 avahi     20   0   48148   4680   3344 S   1.0  0.0   0:03.16 avahi-daem+
 1129 root      20   0 4971932  40584  25012 S   1.0  0.2   0:14.79 containerd
25912 kenenth   20   0   41900   3772   3048 R   1.0  0.0   0:00.36 top

top - 21:38:00 up 54 min,  1 user,  load average: 0.02, 0.81, 1.50
Tasks: 285 total,   1 running, 224 sleeping,   0 stopped,   0 zombie
%Cpu(s):  0.2 us,  0.2 sy,  0.0 ni, 99.5 id,  0.0 wa,  0.0 hi,  0.0 si,  0.0 st
KiB Mem : 16278768 total, 12282876 free,  1345600 used,  2650292 buff/cache
KiB Swap: 16630780 total, 16630780 free,        0 used. 14482812 avail Mem 

  PID USER      PR  NI    VIRT    RES    SHR S  %CPU %MEM     TIME+ COMMAND
25912 kenenth   20   0   41900   3772   3048 R   2.0  0.0   0:00.38 top
 1780 root      20   0  433932  94760  61668 S   1.0  0.6   0:48.10 Xorg
 1985 kenenth   20   0 3537580 241628  96100 S   1.0  1.5   1:51.47 gnome-shell

top - 21:38:01 up 54 min,  1 user,  load average: 0.02, 0.80, 1.49
Tasks: 285 total,   1 running, 224 sleeping,   0 stopped,   0 zombie
%Cpu(s):  0.1 us,  0.0 sy,  0.0 ni, 99.9 id,  0.0 wa,  0.0 hi,  0.0 si,  0.0 st
KiB Mem : 16278768 total, 12282876 free,  1345600 used,  2650292 buff/cache
KiB Swap: 16630780 total, 16630780 free,        0 used. 14482812 avail Mem 

  PID USER      PR  NI    VIRT    RES    SHR S  %CPU %MEM     TIME+ COMMAND
25912 kenenth   20   0   41900   3772   3048 R   2.0  0.0   0:00.40 top

top - 21:38:02 up 54 min,  1 user,  load average: 0.02, 0.80, 1.49
Tasks: 285 total,   1 running, 224 sleeping,   0 stopped,   0 zombie
%Cpu(s):  0.1 us,  0.1 sy,  0.0 ni, 99.8 id,  0.0 wa,  0.0 hi,  0.0 si,  0.0 st
KiB Mem : 16278768 total, 12282908 free,  1345560 used,  2650300 buff/cache
KiB Swap: 16630780 total, 16630780 free,        0 used. 14482852 avail Mem 

  PID USER      PR  NI    VIRT    RES    SHR S  %CPU %MEM     TIME+ COMMAND
 1780 root      20   0  433932  94760  61668 S   1.0  0.6   0:48.11 Xorg
25912 kenenth   20   0   41900   3772   3048 R   1.0  0.0   0:00.41 top

top - 21:38:03 up 54 min,  1 user,  load average: 0.02, 0.80, 1.49
Tasks: 285 total,   1 running, 224 sleeping,   0 stopped,   0 zombie
%Cpu(s):  0.0 us,  0.1 sy,  0.0 ni, 99.9 id,  0.0 wa,  0.0 hi,  0.0 si,  0.0 st
KiB Mem : 16278768 total, 12282908 free,  1345560 used,  2650300 buff/cache
KiB Swap: 16630780 total, 16630780 free,        0 used. 14482852 avail Mem 

  PID USER      PR  NI    VIRT    RES    SHR S  %CPU %MEM     TIME+ COMMAND
    8 root      20   0       0      0      0 I   1.0  0.0   0:01.93 rcu_sched
25912 kenenth   20   0   41900   3772   3048 R   1.0  0.0   0:00.42 top

top - 21:38:04 up 54 min,  1 user,  load average: 0.02, 0.80, 1.49
Tasks: 285 total,   1 running, 224 sleeping,   0 stopped,   0 zombie
%Cpu(s):  0.2 us,  0.1 sy,  0.0 ni, 99.6 id,  0.0 wa,  0.0 hi,  0.0 si,  0.0 st
KiB Mem : 16278768 total, 12282908 free,  1345560 used,  2650300 buff/cache
KiB Swap: 16630780 total, 16630780 free,        0 used. 14482852 avail Mem 

  PID USER      PR  NI    VIRT    RES    SHR S  %CPU %MEM     TIME+ COMMAND
 1129 root      20   0 4971932  40584  25012 S   1.0  0.2   0:14.80 containerd
25912 kenenth   20   0   41900   3772   3048 R   1.0  0.0   0:00.43 top

top - 21:38:05 up 54 min,  1 user,  load average: 0.02, 0.80, 1.49
Tasks: 285 total,   1 running, 224 sleeping,   0 stopped,   0 zombie
%Cpu(s):  0.0 us,  0.1 sy,  0.0 ni, 99.8 id,  0.1 wa,  0.0 hi,  0.0 si,  0.0 st
KiB Mem : 16278768 total, 12282844 free,  1345620 used,  2650304 buff/cache
KiB Swap: 16630780 total, 16630780 free,        0 used. 14482788 avail Mem 

  PID USER      PR  NI    VIRT    RES    SHR S  %CPU %MEM     TIME+ COMMAND
 1780 root      20   0  433932  94760  61668 S   1.0  0.6   0:48.12 Xorg
25912 kenenth   20   0   41900   3772   3048 R   1.0  0.0   0:00.44 top

top - 21:38:06 up 54 min,  1 user,  load average: 0.02, 0.78, 1.48
Tasks: 285 total,   1 running, 224 sleeping,   0 stopped,   0 zombie
%Cpu(s):  0.1 us,  0.1 sy,  0.0 ni, 99.8 id,  0.0 wa,  0.0 hi,  0.0 si,  0.0 st
KiB Mem : 16278768 total, 12282844 free,  1345620 used,  2650304 buff/cache
KiB Swap: 16630780 total, 16630780 free,        0 used. 14482788 avail Mem 

  PID USER      PR  NI    VIRT    RES    SHR S  %CPU %MEM     TIME+ COMMAND
25912 kenenth   20   0   41900   3772   3048 R   2.0  0.0   0:00.46 top
25920 kenenth   20   0   22648   2572   2396 S   1.0  0.0   0:00.01 ping

top - 21:38:07 up 54 min,  1 user,  load average: 0.02, 0.78, 1.48
Tasks: 285 total,   1 running, 224 sleeping,   0 stopped,   0 zombie
%Cpu(s):  0.2 us,  0.1 sy,  0.0 ni, 99.6 id,  0.0 wa,  0.0 hi,  0.0 si,  0.0 st
KiB Mem : 16278768 total, 12282844 free,  1345620 used,  2650304 buff/cache
KiB Swap: 16630780 total, 16630780 free,        0 used. 14482788 avail Mem 

  PID USER      PR  NI    VIRT    RES    SHR S  %CPU %MEM     TIME+ COMMAND
  972 root      20   0  564896  23572  13716 S   1.0  0.1   0:20.10 NetworkMan+

top - 21:38:08 up 54 min,  1 user,  load average: 0.02, 0.78, 1.48
Tasks: 285 total,   1 running, 224 sleeping,   0 stopped,   0 zombie
%Cpu(s):  0.4 us,  0.1 sy,  0.0 ni, 99.5 id,  0.0 wa,  0.0 hi,  0.0 si,  0.0 st
KiB Mem : 16278768 total, 12282876 free,  1345572 used,  2650320 buff/cache
KiB Swap: 16630780 total, 16630780 free,        0 used. 14482820 avail Mem 

  PID USER      PR  NI    VIRT    RES    SHR S  %CPU %MEM     TIME+ COMMAND
 1985 kenenth   20   0 3537580 241628  96100 S   3.0  1.5   1:51.50 gnome-shell
25912 kenenth   20   0   41900   3772   3048 R   2.0  0.0   0:00.48 top
 1780 root      20   0  433932  94760  61668 S   1.0  0.6   0:48.13 Xorg

top - 21:38:09 up 54 min,  1 user,  load average: 0.02, 0.78, 1.48
Tasks: 285 total,   1 running, 224 sleeping,   0 stopped,   0 zombie
%Cpu(s):  0.1 us,  0.2 sy,  0.0 ni, 99.6 id,  0.0 wa,  0.0 hi,  0.0 si,  0.0 st
KiB Mem : 16278768 total, 12282876 free,  1345572 used,  2650320 buff/cache
KiB Swap: 16630780 total, 16630780 free,        0 used. 14482820 avail Mem 

  PID USER      PR  NI    VIRT    RES    SHR S  %CPU %MEM     TIME+ COMMAND
 1781 root     -51   0       0      0      0 S   1.0  0.0   0:05.69 irq/135-nv+
25912 kenenth   20   0   41900   3772   3048 R   1.0  0.0   0:00.49 top

top - 21:38:10 up 54 min,  1 user,  load average: 0.02, 0.78, 1.48
Tasks: 285 total,   1 running, 224 sleeping,   0 stopped,   0 zombie
%Cpu(s):  0.2 us,  0.1 sy,  0.0 ni, 99.6 id,  0.0 wa,  0.0 hi,  0.0 si,  0.0 st
KiB Mem : 16278768 total, 12282876 free,  1345572 used,  2650320 buff/cache
KiB Swap: 16630780 total, 16630780 free,        0 used. 14482820 avail Mem 

  PID USER      PR  NI    VIRT    RES    SHR S  %CPU %MEM     TIME+ COMMAND
 1302 gdm       20   0 3332456 120820  66292 S   2.0  0.7   0:29.28 gnome-shell
 1780 root      20   0  433932  94760  61668 S   1.0  0.6   0:48.14 Xorg
25912 kenenth   20   0   41900   3772   3048 R   1.0  0.0   0:00.50 top
25922 kenenth   20   0   22648   2508   2332 S   1.0  0.0   0:00.01 ping

top - 21:38:11 up 54 min,  1 user,  load average: 0.10, 0.79, 1.48
Tasks: 285 total,   1 running, 224 sleeping,   0 stopped,   0 zombie
%Cpu(s):  0.2 us,  0.5 sy,  0.0 ni, 99.3 id,  0.0 wa,  0.0 hi,  0.0 si,  0.0 st
KiB Mem : 16278768 total, 12282812 free,  1345632 used,  2650324 buff/cache
KiB Swap: 16630780 total, 16630780 free,        0 used. 14482764 avail Mem 

  PID USER      PR  NI    VIRT    RES    SHR S  %CPU %MEM     TIME+ COMMAND
 1129 root      20   0 4971932  40584  25012 S   1.0  0.2   0:14.81 containerd
25912 kenenth   20   0   41900   3772   3048 R   1.0  0.0   0:00.51 top

top - 21:38:12 up 54 min,  1 user,  load average: 0.10, 0.79, 1.48
Tasks: 285 total,   1 running, 224 sleeping,   0 stopped,   0 zombie
%Cpu(s):  0.0 us,  0.2 sy,  0.0 ni, 99.8 id,  0.0 wa,  0.0 hi,  0.0 si,  0.0 st
KiB Mem : 16278768 total, 12282812 free,  1345632 used,  2650324 buff/cache
KiB Swap: 16630780 total, 16630780 free,        0 used. 14482764 avail Mem 

  PID USER      PR  NI    VIRT    RES    SHR S  %CPU %MEM     TIME+ COMMAND
25912 kenenth   20   0   41900   3772   3048 R   2.0  0.0   0:00.53 top
 1780 root      20   0  433932  94760  61668 S   1.0  0.6   0:48.15 Xorg
 2137 kenenth   20   0  661116  23020  17816 S   1.0  0.1   0:00.43 gsd-color

top - 21:38:13 up 54 min,  1 user,  load average: 0.10, 0.79, 1.48
Tasks: 285 total,   1 running, 224 sleeping,   0 stopped,   0 zombie
%Cpu(s):  0.1 us,  0.2 sy,  0.0 ni, 99.6 id,  0.0 wa,  0.0 hi,  0.0 si,  0.0 st
KiB Mem : 16278768 total, 12282812 free,  1345632 used,  2650324 buff/cache
KiB Swap: 16630780 total, 16630780 free,        0 used. 14482764 avail Mem 

  PID USER      PR  NI    VIRT    RES    SHR S  %CPU %MEM     TIME+ COMMAND
  703 systemd+  20   0   70748   5204   4648 S   1.0  0.0   0:01.75 systemd-re+
25912 kenenth   20   0   41900   3772   3048 R   1.0  0.0   0:00.54 top

top - 21:38:14 up 54 min,  1 user,  load average: 0.10, 0.79, 1.48
Tasks: 285 total,   1 running, 224 sleeping,   0 stopped,   0 zombie
%Cpu(s):  0.1 us,  0.2 sy,  0.0 ni, 99.6 id,  0.0 wa,  0.0 hi,  0.0 si,  0.0 st
KiB Mem : 16278768 total, 12282844 free,  1345592 used,  2650332 buff/cache
KiB Swap: 16630780 total, 16630780 free,        0 used. 14482796 avail Mem 

  PID USER      PR  NI    VIRT    RES    SHR S  %CPU %MEM     TIME+ COMMAND
25912 kenenth   20   0   41900   3772   3048 R   2.0  0.0   0:00.56 top

top - 21:38:15 up 54 min,  1 user,  load average: 0.09, 0.77, 1.47
Tasks: 285 total,   1 running, 224 sleeping,   0 stopped,   0 zombie
%Cpu(s):  0.0 us,  0.1 sy,  0.0 ni, 99.9 id,  0.0 wa,  0.0 hi,  0.0 si,  0.0 st
KiB Mem : 16278768 total, 12282844 free,  1345592 used,  2650332 buff/cache
KiB Swap: 16630780 total, 16630780 free,        0 used. 14482796 avail Mem 

  PID USER      PR  NI    VIRT    RES    SHR S  %CPU %MEM     TIME+ COMMAND
 1780 root      20   0  433932  94760  61668 S   1.0  0.6   0:48.16 Xorg

top - 21:38:16 up 54 min,  1 user,  load average: 0.09, 0.77, 1.47
Tasks: 285 total,   1 running, 224 sleeping,   0 stopped,   0 zombie
%Cpu(s):  0.1 us,  0.2 sy,  0.0 ni, 99.6 id,  0.0 wa,  0.0 hi,  0.0 si,  0.0 st
KiB Mem : 16278768 total, 12282844 free,  1345592 used,  2650332 buff/cache
KiB Swap: 16630780 total, 16630780 free,        0 used. 14482796 avail Mem 

  PID USER      PR  NI    VIRT    RES    SHR S  %CPU %MEM     TIME+ COMMAND
  255 root      20   0       0      0      0 S   1.0  0.0   0:00.88 jbd2/nvme0+
25912 kenenth   20   0   41900   3772   3048 R   1.0  0.0   0:00.57 top

top - 21:38:17 up 54 min,  1 user,  load average: 0.09, 0.77, 1.47
Tasks: 285 total,   1 running, 224 sleeping,   0 stopped,   0 zombie
%Cpu(s):  0.0 us,  0.1 sy,  0.0 ni, 99.9 id,  0.0 wa,  0.0 hi,  0.0 si,  0.0 st
KiB Mem : 16278768 total, 12282812 free,  1345620 used,  2650336 buff/cache
KiB Swap: 16630780 total, 16630780 free,        0 used. 14482764 avail Mem 

  PID USER      PR  NI    VIRT    RES    SHR S  %CPU %MEM     TIME+ COMMAND
 1780 root      20   0  433932  94760  61668 S   1.0  0.6   0:48.17 Xorg
 1985 kenenth   20   0 3537580 241628  96100 S   1.0  1.5   1:51.51 gnome-shell
25912 kenenth   20   0   41900   3772   3048 R   1.0  0.0   0:00.58 top

top - 21:38:18 up 54 min,  1 user,  load average: 0.09, 0.77, 1.47
Tasks: 285 total,   1 running, 224 sleeping,   0 stopped,   0 zombie
%Cpu(s):  0.2 us,  0.2 sy,  0.0 ni, 99.5 id,  0.0 wa,  0.0 hi,  0.0 si,  0.0 st
KiB Mem : 16278768 total, 12282812 free,  1345620 used,  2650336 buff/cache
KiB Swap: 16630780 total, 16630780 free,        0 used. 14482764 avail Mem 

  PID USER      PR  NI    VIRT    RES    SHR S  %CPU %MEM     TIME+ COMMAND
 1129 root      20   0 4971932  40584  25012 S   1.0  0.2   0:14.82 containerd
 1780 root      20   0  433932  94760  61668 S   1.0  0.6   0:48.18 Xorg
25912 kenenth   20   0   41900   3772   3048 R   1.0  0.0   0:00.59 top

top - 21:38:19 up 54 min,  1 user,  load average: 0.09, 0.77, 1.47
Tasks: 285 total,   1 running, 224 sleeping,   0 stopped,   0 zombie
%Cpu(s):  0.0 us,  0.1 sy,  0.0 ni, 99.9 id,  0.0 wa,  0.0 hi,  0.0 si,  0.0 st
KiB Mem : 16278768 total, 12282812 free,  1345620 used,  2650336 buff/cache
KiB Swap: 16630780 total, 16630780 free,        0 used. 14482764 avail Mem 

  PID USER      PR  NI    VIRT    RES    SHR S  %CPU %MEM     TIME+ COMMAND
25912 kenenth   20   0   41900   3772   3048 R   2.0  0.0   0:00.61 top

top - 21:38:20 up 54 min,  1 user,  load average: 0.08, 0.76, 1.46
Tasks: 285 total,   1 running, 224 sleeping,   0 stopped,   0 zombie
%Cpu(s):  0.1 us,  0.2 sy,  0.0 ni, 99.6 id,  0.0 wa,  0.0 hi,  0.0 si,  0.0 st
KiB Mem : 16278768 total, 12282748 free,  1345672 used,  2650348 buff/cache
KiB Swap: 16630780 total, 16630780 free,        0 used. 14482700 avail Mem 

  PID USER      PR  NI    VIRT    RES    SHR S  %CPU %MEM     TIME+ COMMAND
25912 kenenth   20   0   41900   3772   3048 R   2.0  0.0   0:00.63 top
25918 kenenth   20   0   22648   2636   2464 S   1.0  0.0   0:00.01 ping
25919 kenenth   20   0   22648   2512   2336 S   1.0  0.0   0:00.01 ping

top - 21:38:21 up 54 min,  1 user,  load average: 0.08, 0.76, 1.46
Tasks: 285 total,   1 running, 224 sleeping,   0 stopped,   0 zombie
%Cpu(s):  0.0 us,  0.1 sy,  0.0 ni, 99.8 id,  0.1 wa,  0.0 hi,  0.0 si,  0.0 st
KiB Mem : 16278768 total, 12282748 free,  1345672 used,  2650348 buff/cache
KiB Swap: 16630780 total, 16630780 free,        0 used. 14482700 avail Mem 

  PID USER      PR  NI    VIRT    RES    SHR S  %CPU %MEM     TIME+ COMMAND
 1780 root      20   0  433932  94760  61668 S   1.0  0.6   0:48.19 Xorg
 2332 root      20   0 6049484 102324  38500 S   1.0  0.6   0:40.93 dockerd
25916 kenenth   20   0   22648   2600   2424 S   1.0  0.0   0:00.01 ping
25917 kenenth   20   0   22648   2392   2220 S   1.0  0.0   0:00.01 ping

top - 21:38:22 up 54 min,  1 user,  load average: 0.08, 0.76, 1.46
Tasks: 285 total,   1 running, 224 sleeping,   0 stopped,   0 zombie
%Cpu(s):  0.1 us,  0.2 sy,  0.0 ni, 99.5 id,  0.0 wa,  0.0 hi,  0.1 si,  0.0 st
KiB Mem : 16278768 total, 12282748 free,  1345672 used,  2650348 buff/cache
KiB Swap: 16630780 total, 16630780 free,        0 used. 14482700 avail Mem 

  PID USER      PR  NI    VIRT    RES    SHR S  %CPU %MEM     TIME+ COMMAND
25912 kenenth   20   0   41900   3772   3048 R   1.0  0.0   0:00.64 top
25915 kenenth   20   0   22648   2468   2296 S   1.0  0.0   0:00.01 ping

top - 21:38:23 up 54 min,  1 user,  load average: 0.08, 0.76, 1.46
Tasks: 285 total,   1 running, 224 sleeping,   0 stopped,   0 zombie
%Cpu(s):  0.0 us,  0.1 sy,  0.0 ni, 99.9 id,  0.0 wa,  0.0 hi,  0.0 si,  0.0 st
KiB Mem : 16278768 total, 12282748 free,  1345668 used,  2650352 buff/cache
KiB Swap: 16630780 total, 16630780 free,        0 used. 14482700 avail Mem 

  PID USER      PR  NI    VIRT    RES    SHR S  %CPU %MEM     TIME+ COMMAND
25912 kenenth   20   0   41900   3772   3048 R   2.0  0.0   0:00.66 top

top - 21:38:24 up 54 min,  1 user,  load average: 0.08, 0.76, 1.46
Tasks: 285 total,   1 running, 224 sleeping,   0 stopped,   0 zombie
%Cpu(s):  0.1 us,  0.2 sy,  0.0 ni, 99.6 id,  0.0 wa,  0.0 hi,  0.0 si,  0.0 st
KiB Mem : 16278768 total, 12282748 free,  1345668 used,  2650352 buff/cache
KiB Swap: 16630780 total, 16630780 free,        0 used. 14482700 avail Mem 

  PID USER      PR  NI    VIRT    RES    SHR S  %CPU %MEM     TIME+ COMMAND
  945 root      20   0  269688   5956   5196 S   1.0  0.0   0:00.62 iio-sensor+
25912 kenenth   20   0   41900   3772   3048 R   1.0  0.0   0:00.67 top
25923 kenenth   20   0   22648   2492   2320 S   1.0  0.0   0:00.01 ping
25924 kenenth   20   0   22648   2652   2480 S   1.0  0.0   0:00.01 ping

top - 21:38:25 up 54 min,  1 user,  load average: 0.07, 0.75, 1.46
Tasks: 285 total,   1 running, 224 sleeping,   0 stopped,   0 zombie
%Cpu(s):  0.2 us,  0.1 sy,  0.0 ni, 99.6 id,  0.0 wa,  0.0 hi,  0.0 si,  0.0 st
KiB Mem : 16278768 total, 12282748 free,  1345668 used,  2650352 buff/cache
KiB Swap: 16630780 total, 16630780 free,        0 used. 14482700 avail Mem 

  PID USER      PR  NI    VIRT    RES    SHR S  %CPU %MEM     TIME+ COMMAND
 1780 root      20   0  433932  94760  61668 S   1.0  0.6   0:48.20 Xorg
25912 kenenth   20   0   41900   3772   3048 R   1.0  0.0   0:00.68 top

top - 21:38:26 up 54 min,  1 user,  load average: 0.07, 0.75, 1.46
Tasks: 285 total,   1 running, 224 sleeping,   0 stopped,   0 zombie
%Cpu(s):  0.1 us,  0.1 sy,  0.0 ni, 99.8 id,  0.0 wa,  0.0 hi,  0.0 si,  0.0 st
KiB Mem : 16278768 total, 12282780 free,  1345636 used,  2650352 buff/cache
KiB Swap: 16630780 total, 16630780 free,        0 used. 14482732 avail Mem 

  PID USER      PR  NI    VIRT    RES    SHR S  %CPU %MEM     TIME+ COMMAND
25912 kenenth   20   0   41900   3772   3048 R   2.0  0.0   0:00.70 top

top - 21:38:27 up 54 min,  1 user,  load average: 0.07, 0.75, 1.46
Tasks: 285 total,   1 running, 224 sleeping,   0 stopped,   0 zombie
%Cpu(s):  0.1 us,  0.1 sy,  0.0 ni, 99.8 id,  0.0 wa,  0.0 hi,  0.0 si,  0.0 st
KiB Mem : 16278768 total, 12282780 free,  1345636 used,  2650352 buff/cache
KiB Swap: 16630780 total, 16630780 free,        0 used. 14482732 avail Mem 

  PID USER      PR  NI    VIRT    RES    SHR S  %CPU %MEM     TIME+ COMMAND
 1780 root      20   0  433932  94760  61668 S   1.0  0.6   0:48.21 Xorg

top - 21:38:28 up 54 min,  1 user,  load average: 0.07, 0.75, 1.46
Tasks: 285 total,   1 running, 224 sleeping,   0 stopped,   0 zombie
%Cpu(s):  0.1 us,  0.2 sy,  0.0 ni, 99.6 id,  0.0 wa,  0.0 hi,  0.0 si,  0.0 st
KiB Mem : 16278768 total, 12282780 free,  1345636 used,  2650352 buff/cache
KiB Swap: 16630780 total, 16630780 free,        0 used. 14482732 avail Mem 

  PID USER      PR  NI    VIRT    RES    SHR S  %CPU %MEM     TIME+ COMMAND
25912 kenenth   20   0   41900   3772   3048 R   2.0  0.0   0:00.72 top
  972 root      20   0  564896  23572  13716 S   1.0  0.1   0:20.11 NetworkMan+
 1129 root      20   0 4971932  40584  25012 S   1.0  0.2   0:14.83 containerd

top - 21:38:29 up 54 min,  1 user,  load average: 0.07, 0.75, 1.46
Tasks: 285 total,   1 running, 224 sleeping,   0 stopped,   0 zombie
%Cpu(s):  0.0 us,  0.2 sy,  0.0 ni, 99.8 id,  0.0 wa,  0.0 hi,  0.0 si,  0.0 st
KiB Mem : 16278768 total, 12282708 free,  1345700 used,  2650360 buff/cache
KiB Swap: 16630780 total, 16630780 free,        0 used. 14482660 avail Mem 

  PID USER      PR  NI    VIRT    RES    SHR S  %CPU %MEM     TIME+ COMMAND
    8 root      20   0       0      0      0 I   1.0  0.0   0:01.94 rcu_sched
 1780 root      20   0  433932  94760  61668 S   1.0  0.6   0:48.22 Xorg
25912 kenenth   20   0   41900   3772   3048 R   1.0  0.0   0:00.73 top

top - 21:38:30 up 54 min,  1 user,  load average: 0.07, 0.73, 1.45
Tasks: 285 total,   1 running, 224 sleeping,   0 stopped,   0 zombie
%Cpu(s):  0.1 us,  0.0 sy,  0.0 ni, 99.9 id,  0.0 wa,  0.0 hi,  0.0 si,  0.0 st
KiB Mem : 16278768 total, 12282708 free,  1345700 used,  2650360 buff/cache
KiB Swap: 16630780 total, 16630780 free,        0 used. 14482660 avail Mem 

  PID USER      PR  NI    VIRT    RES    SHR S  %CPU %MEM     TIME+ COMMAND
 1780 root      20   0  433932  94760  61668 S   1.0  0.6   0:48.23 Xorg
25912 kenenth   20   0   41900   3772   3048 R   1.0  0.0   0:00.74 top

top - 21:38:31 up 54 min,  1 user,  load average: 0.07, 0.73, 1.45
Tasks: 285 total,   1 running, 224 sleeping,   0 stopped,   0 zombie
%Cpu(s):  0.0 us,  0.2 sy,  0.0 ni, 99.8 id,  0.0 wa,  0.0 hi,  0.0 si,  0.0 st
KiB Mem : 16278768 total, 12282708 free,  1345700 used,  2650360 buff/cache
KiB Swap: 16630780 total, 16630780 free,        0 used. 14482660 avail Mem 

  PID USER      PR  NI    VIRT    RES    SHR S  %CPU %MEM     TIME+ COMMAND
25912 kenenth   20   0   41900   3772   3048 R   2.0  0.0   0:00.76 top

top - 21:38:32 up 54 min,  1 user,  load average: 0.07, 0.73, 1.45
Tasks: 285 total,   1 running, 224 sleeping,   0 stopped,   0 zombie
%Cpu(s):  0.1 us,  0.1 sy,  0.0 ni, 99.8 id,  0.0 wa,  0.0 hi,  0.0 si,  0.0 st
KiB Mem : 16278768 total, 12282676 free,  1345728 used,  2650364 buff/cache
KiB Swap: 16630780 total, 16630780 free,        0 used. 14482628 avail Mem 

  PID USER      PR  NI    VIRT    RES    SHR S  %CPU %MEM     TIME+ COMMAND
25912 kenenth   20   0   41900   3772   3048 R   1.0  0.0   0:00.77 top

top - 21:38:33 up 55 min,  1 user,  load average: 0.07, 0.73, 1.45
Tasks: 285 total,   1 running, 224 sleeping,   0 stopped,   0 zombie
%Cpu(s):  0.0 us,  0.1 sy,  0.0 ni, 99.9 id,  0.0 wa,  0.0 hi,  0.0 si,  0.0 st
KiB Mem : 16278768 total, 12282676 free,  1345728 used,  2650364 buff/cache
KiB Swap: 16630780 total, 16630780 free,        0 used. 14482628 avail Mem 

  PID USER      PR  NI    VIRT    RES    SHR S  %CPU %MEM     TIME+ COMMAND
 1129 root      20   0 4971932  40584  25012 S   1.0  0.2   0:14.84 containerd
 1780 root      20   0  433932  94760  61668 S   1.0  0.6   0:48.24 Xorg
25912 kenenth   20   0   41900   3772   3048 R   1.0  0.0   0:00.78 top

top - 21:38:34 up 55 min,  1 user,  load average: 0.07, 0.73, 1.45
Tasks: 285 total,   1 running, 224 sleeping,   0 stopped,   0 zombie
%Cpu(s):  0.1 us,  0.4 sy,  0.0 ni, 99.5 id,  0.0 wa,  0.0 hi,  0.0 si,  0.0 st
KiB Mem : 16278768 total, 12282676 free,  1345728 used,  2650364 buff/cache
KiB Swap: 16630780 total, 16630780 free,        0 used. 14482628 avail Mem 

  PID USER      PR  NI    VIRT    RES    SHR S  %CPU %MEM     TIME+ COMMAND
 1780 root      20   0  433932  94760  61668 S   1.0  0.6   0:48.25 Xorg
25912 kenenth   20   0   41900   3772   3048 R   1.0  0.0   0:00.79 top
25921 kenenth   20   0   22648   2496   2320 S   1.0  0.0   0:00.01 ping

top - 21:38:35 up 55 min,  1 user,  load average: 0.06, 0.72, 1.44
Tasks: 285 total,   1 running, 224 sleeping,   0 stopped,   0 zombie
%Cpu(s):  0.9 us,  0.1 sy,  0.0 ni, 99.0 id,  0.0 wa,  0.0 hi,  0.0 si,  0.0 st
KiB Mem : 16278768 total, 12282644 free,  1345752 used,  2650372 buff/cache
KiB Swap: 16630780 total, 16630780 free,        0 used. 14482596 avail Mem 

  PID USER      PR  NI    VIRT    RES    SHR S  %CPU %MEM     TIME+ COMMAND
 2332 root      20   0 6049484 102324  38500 S   5.9  0.6   0:40.99 dockerd
25867 root      20   0       0      0      0 I   1.0  0.0   0:00.01 kworker/u1+
25912 kenenth   20   0   41900   3772   3048 R   1.0  0.0   0:00.80 top

top - 21:38:36 up 55 min,  1 user,  load average: 0.06, 0.72, 1.44
Tasks: 285 total,   1 running, 224 sleeping,   0 stopped,   0 zombie
%Cpu(s):  0.0 us,  0.2 sy,  0.0 ni, 99.8 id,  0.0 wa,  0.0 hi,  0.0 si,  0.0 st
KiB Mem : 16278768 total, 12282644 free,  1345752 used,  2650372 buff/cache
KiB Swap: 16630780 total, 16630780 free,        0 used. 14482596 avail Mem 

  PID USER      PR  NI    VIRT    RES    SHR S  %CPU %MEM     TIME+ COMMAND
25912 kenenth   20   0   41900   3772   3048 R   2.0  0.0   0:00.82 top

top - 21:38:37 up 55 min,  1 user,  load average: 0.06, 0.72, 1.44
Tasks: 285 total,   1 running, 224 sleeping,   0 stopped,   0 zombie
%Cpu(s):  0.0 us,  0.2 sy,  0.0 ni, 99.8 id,  0.0 wa,  0.0 hi,  0.0 si,  0.0 st
KiB Mem : 16278768 total, 12282644 free,  1345752 used,  2650372 buff/cache
KiB Swap: 16630780 total, 16630780 free,        0 used. 14482596 avail Mem 

  PID USER      PR  NI    VIRT    RES    SHR S  %CPU %MEM     TIME+ COMMAND
 1780 root      20   0  433932  94760  61668 S   1.0  0.6   0:48.26 Xorg
25912 kenenth   20   0   41900   3772   3048 R   1.0  0.0   0:00.83 top
31365 root      20   0       0      0      0 I   1.0  0.0   0:00.27 kworker/2:0

top - 21:38:38 up 55 min,  1 user,  load average: 0.06, 0.72, 1.44
Tasks: 285 total,   1 running, 224 sleeping,   0 stopped,   0 zombie
%Cpu(s):  0.4 us,  0.2 sy,  0.0 ni, 99.4 id,  0.0 wa,  0.0 hi,  0.0 si,  0.0 st
KiB Mem : 16278768 total, 12282552 free,  1345832 used,  2650384 buff/cache
KiB Swap: 16630780 total, 16630780 free,        0 used. 14482508 avail Mem 

  PID USER      PR  NI    VIRT    RES    SHR S  %CPU %MEM     TIME+ COMMAND
25912 kenenth   20   0   41900   3772   3048 R   2.0  0.0   0:00.85 top
 1129 root      20   0 4971932  40584  25012 S   1.0  0.2   0:14.85 containerd

top - 21:38:39 up 55 min,  1 user,  load average: 0.06, 0.72, 1.44
Tasks: 285 total,   1 running, 224 sleeping,   0 stopped,   0 zombie
%Cpu(s):  0.1 us,  0.1 sy,  0.0 ni, 99.8 id,  0.0 wa,  0.0 hi,  0.0 si,  0.0 st
KiB Mem : 16278768 total, 12282552 free,  1345832 used,  2650384 buff/cache
KiB Swap: 16630780 total, 16630780 free,        0 used. 14482508 avail Mem 

  PID USER      PR  NI    VIRT    RES    SHR S  %CPU %MEM     TIME+ COMMAND
 1129 root      20   0 4971932  40584  25012 S   1.0  0.2   0:14.86 containerd
 1780 root      20   0  433932  94760  61668 S   1.0  0.6   0:48.27 Xorg
25912 kenenth   20   0   41900   3772   3048 R   1.0  0.0   0:00.86 top

top - 21:38:40 up 55 min,  1 user,  load average: 0.06, 0.71, 1.43
Tasks: 285 total,   1 running, 224 sleeping,   0 stopped,   0 zombie
%Cpu(s):  0.0 us,  0.1 sy,  0.0 ni, 99.9 id,  0.0 wa,  0.0 hi,  0.0 si,  0.0 st
KiB Mem : 16278768 total, 12282552 free,  1345832 used,  2650384 buff/cache
KiB Swap: 16630780 total, 16630780 free,        0 used. 14482508 avail Mem 

  PID USER      PR  NI    VIRT    RES    SHR S  %CPU %MEM     TIME+ COMMAND
 1129 root      20   0 4971932  40584  25012 S   1.0  0.2   0:14.87 containerd
 1781 root     -51   0       0      0      0 S   1.0  0.0   0:05.70 irq/135-nv+
25912 kenenth   20   0   41900   3772   3048 R   1.0  0.0   0:00.87 top
30071 root      20   0       0      0      0 I   1.0  0.0   0:00.36 kworker/5:3

top - 21:38:41 up 55 min,  1 user,  load average: 0.06, 0.71, 1.43
Tasks: 285 total,   1 running, 224 sleeping,   0 stopped,   0 zombie
%Cpu(s):  0.1 us,  0.1 sy,  0.0 ni, 99.8 id,  0.0 wa,  0.0 hi,  0.0 si,  0.0 st
KiB Mem : 16278768 total, 12282488 free,  1345896 used,  2650384 buff/cache
KiB Swap: 16630780 total, 16630780 free,        0 used. 14482472 avail Mem 

  PID USER      PR  NI    VIRT    RES    SHR S  %CPU %MEM     TIME+ COMMAND
 1780 root      20   0  433932  94760  61668 S   1.0  0.6   0:48.28 Xorg
25912 kenenth   20   0   41900   3772   3048 R   1.0  0.0   0:00.88 top

top - 21:38:42 up 55 min,  1 user,  load average: 0.06, 0.71, 1.43
Tasks: 285 total,   1 running, 224 sleeping,   0 stopped,   0 zombie
%Cpu(s):  0.0 us,  0.1 sy,  0.0 ni, 99.9 id,  0.0 wa,  0.0 hi,  0.0 si,  0.0 st
KiB Mem : 16278768 total, 12282488 free,  1345896 used,  2650384 buff/cache
KiB Swap: 16630780 total, 16630780 free,        0 used. 14482472 avail Mem 

  PID USER      PR  NI    VIRT    RES    SHR S  %CPU %MEM     TIME+ COMMAND
  972 root      20   0  564896  23572  13716 S   1.0  0.1   0:20.12 NetworkMan+
25912 kenenth   20   0   41900   3772   3048 R   1.0  0.0   0:00.89 top

top - 21:38:43 up 55 min,  1 user,  load average: 0.06, 0.71, 1.43
Tasks: 285 total,   1 running, 224 sleeping,   0 stopped,   0 zombie
%Cpu(s):  0.0 us,  0.2 sy,  0.0 ni, 99.8 id,  0.0 wa,  0.0 hi,  0.0 si,  0.0 st
KiB Mem : 16278768 total, 12282488 free,  1345896 used,  2650384 buff/cache
KiB Swap: 16630780 total, 16630780 free,        0 used. 14482472 avail Mem 

  PID USER      PR  NI    VIRT    RES    SHR S  %CPU %MEM     TIME+ COMMAND
25912 kenenth   20   0   41900   3772   3048 R   1.0  0.0   0:00.90 top

top - 21:38:44 up 55 min,  1 user,  load average: 0.06, 0.71, 1.43
Tasks: 285 total,   1 running, 224 sleeping,   0 stopped,   0 zombie
%Cpu(s):  0.0 us,  0.1 sy,  0.0 ni, 99.9 id,  0.0 wa,  0.0 hi,  0.0 si,  0.0 st
KiB Mem : 16278768 total, 12282424 free,  1345948 used,  2650396 buff/cache
KiB Swap: 16630780 total, 16630780 free,        0 used. 14482444 avail Mem 

  PID USER      PR  NI    VIRT    RES    SHR S  %CPU %MEM     TIME+ COMMAND
25912 kenenth   20   0   41900   3772   3048 R   1.0  0.0   0:00.91 top

top - 21:38:45 up 55 min,  1 user,  load average: 0.05, 0.70, 1.42
Tasks: 285 total,   1 running, 224 sleeping,   0 stopped,   0 zombie
%Cpu(s):  0.0 us,  0.1 sy,  0.0 ni, 99.9 id,  0.0 wa,  0.0 hi,  0.0 si,  0.0 st
KiB Mem : 16278768 total, 12282424 free,  1345948 used,  2650396 buff/cache
KiB Swap: 16630780 total, 16630780 free,        0 used. 14482444 avail Mem 

  PID USER      PR  NI    VIRT    RES    SHR S  %CPU %MEM     TIME+ COMMAND
 1780 root      20   0  433932  94760  61668 S   2.0  0.6   0:48.30 Xorg
25912 kenenth   20   0   41900   3772   3048 R   1.0  0.0   0:00.92 top

top - 21:38:46 up 55 min,  1 user,  load average: 0.05, 0.70, 1.42
Tasks: 285 total,   1 running, 224 sleeping,   0 stopped,   0 zombie
%Cpu(s):  0.0 us,  0.2 sy,  0.0 ni, 99.6 id,  0.1 wa,  0.0 hi,  0.0 si,  0.0 st
KiB Mem : 16278768 total, 12282424 free,  1345948 used,  2650396 buff/cache
KiB Swap: 16630780 total, 16630780 free,        0 used. 14482444 avail Mem 

  PID USER      PR  NI    VIRT    RES    SHR S  %CPU %MEM     TIME+ COMMAND
25912 kenenth   20   0   41900   3772   3048 R   1.0  0.0   0:00.93 top

top - 21:38:47 up 55 min,  1 user,  load average: 0.05, 0.70, 1.42
Tasks: 285 total,   2 running, 224 sleeping,   0 stopped,   0 zombie
%Cpu(s):  0.2 us,  0.2 sy,  0.0 ni, 99.5 id,  0.0 wa,  0.0 hi,  0.0 si,  0.0 st
KiB Mem : 16278768 total, 12282424 free,  1345936 used,  2650408 buff/cache
KiB Swap: 16630780 total, 16630780 free,        0 used. 14482444 avail Mem 

  PID USER      PR  NI    VIRT    RES    SHR S  %CPU %MEM     TIME+ COMMAND
25912 kenenth   20   0   41900   3772   3048 R   2.0  0.0   0:00.95 top
 2098 kenenth   20   0  448104  13136   8100 S   1.0  0.1   0:11.60 gsd-sharing

top - 21:38:48 up 55 min,  1 user,  load average: 0.05, 0.70, 1.42
Tasks: 285 total,   1 running, 224 sleeping,   0 stopped,   0 zombie
%Cpu(s):  0.0 us,  0.0 sy,  0.0 ni,100.0 id,  0.0 wa,  0.0 hi,  0.0 si,  0.0 st
KiB Mem : 16278768 total, 12282424 free,  1345936 used,  2650408 buff/cache
KiB Swap: 16630780 total, 16630780 free,        0 used. 14482444 avail Mem 

  PID USER      PR  NI    VIRT    RES    SHR S  %CPU %MEM     TIME+ COMMAND
 1780 root      20   0  433932  94760  61668 S   1.0  0.6   0:48.31 Xorg
 2354 kernoops  20   0   56936    424      0 S   1.0  0.0   0:00.14 kerneloops
25912 kenenth   20   0   41900   3772   3048 R   1.0  0.0   0:00.96 top

top - 21:38:49 up 55 min,  1 user,  load average: 0.05, 0.70, 1.42
Tasks: 285 total,   1 running, 224 sleeping,   0 stopped,   0 zombie
%Cpu(s):  0.2 us,  0.2 sy,  0.0 ni, 99.5 id,  0.0 wa,  0.0 hi,  0.0 si,  0.0 st
KiB Mem : 16278768 total, 12282424 free,  1345936 used,  2650408 buff/cache
KiB Swap: 16630780 total, 16630780 free,        0 used. 14482444 avail Mem 

  PID USER      PR  NI    VIRT    RES    SHR S  %CPU %MEM     TIME+ COMMAND
25912 kenenth   20   0   41900   3772   3048 R   2.0  0.0   0:00.98 top

top - 21:38:50 up 55 min,  1 user,  load average: 0.05, 0.69, 1.42
Tasks: 285 total,   1 running, 224 sleeping,   0 stopped,   0 zombie
%Cpu(s):  0.2 us,  0.0 sy,  0.0 ni, 99.8 id,  0.0 wa,  0.0 hi,  0.0 si,  0.0 st
KiB Mem : 16278768 total, 12282456 free,  1345904 used,  2650408 buff/cache
KiB Swap: 16630780 total, 16630780 free,        0 used. 14482480 avail Mem 

  PID USER      PR  NI    VIRT    RES    SHR S  %CPU %MEM     TIME+ COMMAND
 1780 root      20   0  433932  94760  61668 S   1.0  0.6   0:48.32 Xorg
25912 kenenth   20   0   41900   3772   3048 R   1.0  0.0   0:00.99 top

top - 21:38:51 up 55 min,  1 user,  load average: 0.05, 0.69, 1.42
Tasks: 285 total,   1 running, 224 sleeping,   0 stopped,   0 zombie
%Cpu(s):  0.0 us,  0.1 sy,  0.0 ni, 99.9 id,  0.0 wa,  0.0 hi,  0.0 si,  0.0 st
KiB Mem : 16278768 total, 12282456 free,  1345904 used,  2650408 buff/cache
KiB Swap: 16630780 total, 16630780 free,        0 used. 14482480 avail Mem 

  PID USER      PR  NI    VIRT    RES    SHR S  %CPU %MEM     TIME+ COMMAND

top - 21:38:52 up 55 min,  1 user,  load average: 0.05, 0.69, 1.42
Tasks: 285 total,   1 running, 224 sleeping,   0 stopped,   0 zombie
%Cpu(s):  0.1 us,  0.1 sy,  0.0 ni, 99.8 id,  0.0 wa,  0.0 hi,  0.0 si,  0.0 st
KiB Mem : 16278768 total, 12282456 free,  1345904 used,  2650408 buff/cache
KiB Swap: 16630780 total, 16630780 free,        0 used. 14482480 avail Mem 

  PID USER      PR  NI    VIRT    RES    SHR S  %CPU %MEM     TIME+ COMMAND
25912 kenenth   20   0   41900   3772   3048 R   2.0  0.0   0:01.01 top
 1129 root      20   0 4971932  40584  25012 S   1.0  0.2   0:14.88 containerd

top - 21:38:53 up 55 min,  1 user,  load average: 0.05, 0.69, 1.42
Tasks: 285 total,   1 running, 224 sleeping,   0 stopped,   0 zombie
%Cpu(s):  0.0 us,  0.2 sy,  0.0 ni, 99.8 id,  0.0 wa,  0.0 hi,  0.0 si,  0.0 st
KiB Mem : 16278768 total, 12282424 free,  1345932 used,  2650412 buff/cache
KiB Swap: 16630780 total, 16630780 free,        0 used. 14482448 avail Mem 

  PID USER      PR  NI    VIRT    RES    SHR S  %CPU %MEM     TIME+ COMMAND
 1780 root      20   0  433932  94760  61668 S   1.0  0.6   0:48.33 Xorg
25912 kenenth   20   0   41900   3772   3048 R   1.0  0.0   0:01.02 top

top - 21:38:54 up 55 min,  1 user,  load average: 0.05, 0.69, 1.42
Tasks: 285 total,   1 running, 224 sleeping,   0 stopped,   0 zombie
%Cpu(s):  0.1 us,  0.4 sy,  0.0 ni, 99.5 id,  0.0 wa,  0.0 hi,  0.0 si,  0.0 st
KiB Mem : 16278768 total, 12282424 free,  1345932 used,  2650412 buff/cache
KiB Swap: 16630780 total, 16630780 free,        0 used. 14482448 avail Mem 

  PID USER      PR  NI    VIRT    RES    SHR S  %CPU %MEM     TIME+ COMMAND
25912 kenenth   20   0   41900   3772   3048 R   1.0  0.0   0:01.03 top

top - 21:38:55 up 55 min,  1 user,  load average: 0.04, 0.67, 1.41
Tasks: 285 total,   1 running, 224 sleeping,   0 stopped,   0 zombie
%Cpu(s):  0.0 us,  0.1 sy,  0.0 ni, 99.9 id,  0.0 wa,  0.0 hi,  0.0 si,  0.0 st
KiB Mem : 16278768 total, 12282424 free,  1345932 used,  2650412 buff/cache
KiB Swap: 16630780 total, 16630780 free,        0 used. 14482448 avail Mem 

  PID USER      PR  NI    VIRT    RES    SHR S  %CPU %MEM     TIME+ COMMAND
    8 root      20   0       0      0      0 I   1.0  0.0   0:01.95 rcu_sched
25912 kenenth   20   0   41900   3772   3048 R   1.0  0.0   0:01.04 top

top - 21:38:57 up 55 min,  1 user,  load average: 0.04, 0.67, 1.41
Tasks: 285 total,   1 running, 224 sleeping,   0 stopped,   0 zombie
%Cpu(s):  0.2 us,  0.2 sy,  0.0 ni, 99.5 id,  0.0 wa,  0.0 hi,  0.0 si,  0.0 st
KiB Mem : 16278768 total, 12282236 free,  1346112 used,  2650420 buff/cache
KiB Swap: 16630780 total, 16630780 free,        0 used. 14482276 avail Mem 

  PID USER      PR  NI    VIRT    RES    SHR S  %CPU %MEM     TIME+ COMMAND
25912 kenenth   20   0   41900   3772   3048 R   2.0  0.0   0:01.06 top
 1129 root      20   0 4971932  40584  25012 S   1.0  0.2   0:14.89 containerd
 1780 root      20   0  433932  94760  61668 S   1.0  0.6   0:48.34 Xorg

top - 21:38:58 up 55 min,  1 user,  load average: 0.04, 0.67, 1.41
Tasks: 285 total,   1 running, 224 sleeping,   0 stopped,   0 zombie
%Cpu(s):  0.1 us,  0.1 sy,  0.0 ni, 99.8 id,  0.0 wa,  0.0 hi,  0.0 si,  0.0 st
KiB Mem : 16278768 total, 12282236 free,  1346112 used,  2650420 buff/cache
KiB Swap: 16630780 total, 16630780 free,        0 used. 14482276 avail Mem 

  PID USER      PR  NI    VIRT    RES    SHR S  %CPU %MEM     TIME+ COMMAND
  944 root      20   0  110512   3520   3184 S   1.0  0.0   0:00.56 irqbalance
 1780 root      20   0  433932  94760  61668 S   1.0  0.6   0:48.35 Xorg
 2332 root      20   0 6049484 102324  38500 S   1.0  0.6   0:41.00 dockerd
25912 kenenth   20   0   41900   3772   3048 R   1.0  0.0   0:01.07 top
25922 kenenth   20   0   22648   2508   2332 S   1.0  0.0   0:00.02 ping

top - 21:38:59 up 55 min,  1 user,  load average: 0.04, 0.67, 1.41
Tasks: 285 total,   1 running, 224 sleeping,   0 stopped,   0 zombie
%Cpu(s):  0.0 us,  0.1 sy,  0.0 ni, 99.9 id,  0.0 wa,  0.0 hi,  0.0 si,  0.0 st
KiB Mem : 16278768 total, 12282268 free,  1346072 used,  2650428 buff/cache
KiB Swap: 16630780 total, 16630780 free,        0 used. 14482308 avail Mem 

  PID USER      PR  NI    VIRT    RES    SHR S  %CPU %MEM     TIME+ COMMAND
25912 kenenth   20   0   41900   3772   3048 R   1.0  0.0   0:01.08 top
25920 kenenth   20   0   22648   2572   2396 S   1.0  0.0   0:00.02 ping

top - 21:39:00 up 55 min,  1 user,  load average: 0.04, 0.67, 1.41
Tasks: 285 total,   2 running, 223 sleeping,   0 stopped,   0 zombie
%Cpu(s):  0.4 us,  0.2 sy,  0.0 ni, 99.4 id,  0.0 wa,  0.0 hi,  0.0 si,  0.0 st
KiB Mem : 16278768 total, 12282268 free,  1346072 used,  2650428 buff/cache
KiB Swap: 16630780 total, 16630780 free,        0 used. 14482308 avail Mem 

  PID USER      PR  NI    VIRT    RES    SHR S  %CPU %MEM     TIME+ COMMAND
25912 kenenth   20   0   41900   3772   3048 R   3.0  0.0   0:01.11 top
 1780 root      20   0  433932  94760  61668 R   1.0  0.6   0:48.36 Xorg
 1985 kenenth   20   0 3537580 241628  96100 S   1.0  1.5   1:51.52 gnome-shell

top - 21:39:01 up 55 min,  1 user,  load average: 0.04, 0.66, 1.40
Tasks: 285 total,   1 running, 224 sleeping,   0 stopped,   0 zombie
%Cpu(s):  0.0 us,  0.1 sy,  0.0 ni, 99.9 id,  0.0 wa,  0.0 hi,  0.0 si,  0.0 st
KiB Mem : 16278768 total, 12282268 free,  1346072 used,  2650428 buff/cache
KiB Swap: 16630780 total, 16630780 free,        0 used. 14482308 avail Mem 

  PID USER      PR  NI    VIRT    RES    SHR S  %CPU %MEM     TIME+ COMMAND
25912 kenenth   20   0   41900   3772   3048 R   1.0  0.0   0:01.12 top

top - 21:39:02 up 55 min,  1 user,  load average: 0.04, 0.66, 1.40
Tasks: 285 total,   1 running, 224 sleeping,   0 stopped,   0 zombie
%Cpu(s):  0.0 us,  0.1 sy,  0.0 ni, 99.9 id,  0.0 wa,  0.0 hi,  0.0 si,  0.0 st
KiB Mem : 16278768 total, 12282196 free,  1346140 used,  2650432 buff/cache
KiB Swap: 16630780 total, 16630780 free,        0 used. 14482236 avail Mem 

  PID USER      PR  NI    VIRT    RES    SHR S  %CPU %MEM     TIME+ COMMAND
 1780 root      20   0  433932  94760  61668 S   1.0  0.6   0:48.37 Xorg
25912 kenenth   20   0   41900   3772   3048 R   1.0  0.0   0:01.13 top

top - 21:39:03 up 55 min,  1 user,  load average: 0.04, 0.66, 1.40
Tasks: 285 total,   1 running, 224 sleeping,   0 stopped,   0 zombie
%Cpu(s):  0.1 us,  0.2 sy,  0.0 ni, 99.6 id,  0.0 wa,  0.0 hi,  0.0 si,  0.0 st
KiB Mem : 16278768 total, 12282196 free,  1346140 used,  2650432 buff/cache
KiB Swap: 16630780 total, 16630780 free,        0 used. 14482236 avail Mem 

  PID USER      PR  NI    VIRT    RES    SHR S  %CPU %MEM     TIME+ COMMAND
25912 kenenth   20   0   41900   3772   3048 R   1.0  0.0   0:01.14 top

top - 21:39:04 up 55 min,  1 user,  load average: 0.04, 0.66, 1.40
Tasks: 285 total,   1 running, 224 sleeping,   0 stopped,   0 zombie
%Cpu(s):  0.1 us,  0.2 sy,  0.0 ni, 99.6 id,  0.0 wa,  0.0 hi,  0.0 si,  0.0 st
KiB Mem : 16278768 total, 12282196 free,  1346140 used,  2650432 buff/cache
KiB Swap: 16630780 total, 16630780 free,        0 used. 14482236 avail Mem 

  PID USER      PR  NI    VIRT    RES    SHR S  %CPU %MEM     TIME+ COMMAND
  972 root      20   0  564896  23572  13716 S   1.0  0.1   0:20.13 NetworkMan+
25912 kenenth   20   0   41900   3772   3048 R   1.0  0.0   0:01.15 top

top - 21:39:05 up 55 min,  1 user,  load average: 0.04, 0.66, 1.40
Tasks: 285 total,   1 running, 224 sleeping,   0 stopped,   0 zombie
%Cpu(s):  0.2 us,  0.0 sy,  0.0 ni, 99.8 id,  0.0 wa,  0.0 hi,  0.0 si,  0.0 st
KiB Mem : 16278768 total, 12282196 free,  1346132 used,  2650440 buff/cache
KiB Swap: 16630780 total, 16630780 free,        0 used. 14482236 avail Mem 

  PID USER      PR  NI    VIRT    RES    SHR S  %CPU %MEM     TIME+ COMMAND
25912 kenenth   20   0   41900   3772   3048 R   2.0  0.0   0:01.17 top
 1780 root      20   0  433932  94760  61668 S   1.0  0.6   0:48.38 Xorg

top - 21:39:06 up 55 min,  1 user,  load average: 0.04, 0.65, 1.39
Tasks: 285 total,   1 running, 224 sleeping,   0 stopped,   0 zombie
%Cpu(s):  0.1 us,  0.1 sy,  0.0 ni, 99.8 id,  0.0 wa,  0.0 hi,  0.0 si,  0.0 st
KiB Mem : 16278768 total, 12282196 free,  1346132 used,  2650440 buff/cache
KiB Swap: 16630780 total, 16630780 free,        0 used. 14482236 avail Mem 

  PID USER      PR  NI    VIRT    RES    SHR S  %CPU %MEM     TIME+ COMMAND
25912 kenenth   20   0   41900   3772   3048 R   1.0  0.0   0:01.18 top

top - 21:39:07 up 55 min,  1 user,  load average: 0.04, 0.65, 1.39
Tasks: 285 total,   1 running, 224 sleeping,   0 stopped,   0 zombie
%Cpu(s):  0.1 us,  0.2 sy,  0.0 ni, 99.5 id,  0.1 wa,  0.0 hi,  0.0 si,  0.0 st
KiB Mem : 16278768 total, 12282196 free,  1346132 used,  2650440 buff/cache
KiB Swap: 16630780 total, 16630780 free,        0 used. 14482236 avail Mem 

  PID USER      PR  NI    VIRT    RES    SHR S  %CPU %MEM     TIME+ COMMAND
 1780 root      20   0  433932  94760  61668 S   1.0  0.6   0:48.39 Xorg
25912 kenenth   20   0   41900   3772   3048 R   1.0  0.0   0:01.19 top

top - 21:39:08 up 55 min,  1 user,  load average: 0.04, 0.65, 1.39
Tasks: 285 total,   1 running, 224 sleeping,   0 stopped,   0 zombie
%Cpu(s):  0.2 us,  0.4 sy,  0.0 ni, 99.4 id,  0.0 wa,  0.0 hi,  0.0 si,  0.0 st
KiB Mem : 16278768 total, 12282164 free,  1346160 used,  2650444 buff/cache
KiB Swap: 16630780 total, 16630780 free,        0 used. 14482204 avail Mem 

  PID USER      PR  NI    VIRT    RES    SHR S  %CPU %MEM     TIME+ COMMAND
 1985 kenenth   20   0 3537580 241628  96100 S   2.0  1.5   1:51.54 gnome-shell
25912 kenenth   20   0   41900   3772   3048 R   1.0  0.0   0:01.20 top
25919 kenenth   20   0   22648   2512   2336 S   1.0  0.0   0:00.02 ping

top - 21:39:09 up 55 min,  1 user,  load average: 0.04, 0.65, 1.39
Tasks: 285 total,   1 running, 224 sleeping,   0 stopped,   0 zombie
%Cpu(s):  0.0 us,  0.2 sy,  0.0 ni, 99.8 id,  0.0 wa,  0.0 hi,  0.0 si,  0.0 st
KiB Mem : 16278768 total, 12282164 free,  1346160 used,  2650444 buff/cache
KiB Swap: 16630780 total, 16630780 free,        0 used. 14482204 avail Mem 

  PID USER      PR  NI    VIRT    RES    SHR S  %CPU %MEM     TIME+ COMMAND
25912 kenenth   20   0   41900   3772   3048 R   2.0  0.0   0:01.22 top
25915 kenenth   20   0   22648   2468   2296 S   1.0  0.0   0:00.02 ping
25916 kenenth   20   0   22648   2600   2424 S   1.0  0.0   0:00.02 ping
25917 kenenth   20   0   22648   2392   2220 S   1.0  0.0   0:00.02 ping

top - 21:39:10 up 55 min,  1 user,  load average: 0.04, 0.65, 1.39
Tasks: 285 total,   1 running, 224 sleeping,   0 stopped,   0 zombie
%Cpu(s):  0.1 us,  0.1 sy,  0.0 ni, 99.8 id,  0.0 wa,  0.0 hi,  0.0 si,  0.0 st
KiB Mem : 16278768 total, 12282164 free,  1346160 used,  2650444 buff/cache
KiB Swap: 16630780 total, 16630780 free,        0 used. 14482204 avail Mem 

  PID USER      PR  NI    VIRT    RES    SHR S  %CPU %MEM     TIME+ COMMAND
 1129 root      20   0 4971932  40584  25012 S   2.0  0.2   0:14.91 containerd
 1780 root      20   0  433932  94760  61668 S   1.0  0.6   0:48.40 Xorg
 1781 root     -51   0       0      0      0 S   1.0  0.0   0:05.71 irq/135-nv+
25912 kenenth   20   0   41900   3772   3048 R   1.0  0.0   0:01.23 top

top - 21:39:11 up 55 min,  1 user,  load average: 0.03, 0.64, 1.39
Tasks: 285 total,   1 running, 224 sleeping,   0 stopped,   0 zombie
%Cpu(s):  0.2 us,  0.1 sy,  0.0 ni, 99.6 id,  0.0 wa,  0.0 hi,  0.0 si,  0.0 st
KiB Mem : 16278768 total, 12282172 free,  1346144 used,  2650452 buff/cache
KiB Swap: 16630780 total, 16630780 free,        0 used. 14482220 avail Mem 

  PID USER      PR  NI    VIRT    RES    SHR S  %CPU %MEM     TIME+ COMMAND
 1302 gdm       20   0 3332456 120820  66292 S   2.0  0.7   0:29.30 gnome-shell
25912 kenenth   20   0   41900   3772   3048 R   2.0  0.0   0:01.25 top
25918 kenenth   20   0   22648   2636   2464 S   1.0  0.0   0:00.02 ping

top - 21:39:12 up 55 min,  1 user,  load average: 0.03, 0.64, 1.39
Tasks: 285 total,   1 running, 224 sleeping,   0 stopped,   0 zombie
%Cpu(s):  0.1 us,  0.2 sy,  0.0 ni, 99.6 id,  0.0 wa,  0.0 hi,  0.0 si,  0.0 st
KiB Mem : 16278768 total, 12282172 free,  1346144 used,  2650452 buff/cache
KiB Swap: 16630780 total, 16630780 free,        0 used. 14482220 avail Mem 

  PID USER      PR  NI    VIRT    RES    SHR S  %CPU %MEM     TIME+ COMMAND
 1780 root      20   0  433932  94760  61668 S   1.0  0.6   0:48.41 Xorg
25912 kenenth   20   0   41900   3772   3048 R   1.0  0.0   0:01.26 top