     1	300 
     2	300 
     3	300 
     4	300 
     5	300 
     6	300 
     7	300 
     8	300 
     9	300 
    10	300 
    11	300 
    12	300 
    13	300 
    14	300 
    15	300 
    16	300 
    17	300 
    18	300 
    19	300 
    20	300 
    21	300 
    22	300 
    23	300 
    24	300 
    25	300 
    26	300 
    27	300 
    28	300 
    29	300 
    30	300 
    31	300 
    32	300 
    33	300 
    34	300 
    35	300 
    36	300 
    37	300 
    38	300 
    39	300 
    40	300 
    41	300 
    42	300 
    43	300 
    44	300 
    45	300 
    46	300 
    47	300 
    48	300 
    49	300 
