top - 18:34:23 up  1:20,  1 user,  load average: 0.05, 0.15, 0.13
Tasks: 332 total,   1 running, 264 sleeping,   0 stopped,   0 zombie
%Cpu(s):  0.9 us,  0.5 sy,  0.0 ni, 98.6 id,  0.0 wa,  0.0 hi,  0.0 si,  0.0 st
KiB Mem : 16278772 total, 13777528 free,  1295888 used,  1205356 buff/cache
KiB Swap: 16630780 total, 16630780 free,        0 used. 14588208 avail Mem 

  PID USER      PR  NI    VIRT    RES    SHR S  %CPU %MEM     TIME+ COMMAND
 5073 kenenth   20   0   41908   3804   3212 R  12.5  0.0   0:00.03 top
 2425 kenenth   20   0 3636332 277108  93300 S   6.2  1.7   2:42.65 gnome-shell

top - 18:34:24 up  1:20,  1 user,  load average: 0.05, 0.15, 0.13
Tasks: 332 total,   1 running, 264 sleeping,   0 stopped,   0 zombie
%Cpu(s):  0.1 us,  0.1 sy,  0.0 ni, 99.8 id,  0.0 wa,  0.0 hi,  0.0 si,  0.0 st
KiB Mem : 16278772 total, 13777528 free,  1295888 used,  1205356 buff/cache
KiB Swap: 16630780 total, 16630780 free,        0 used. 14588208 avail Mem 

  PID USER      PR  NI    VIRT    RES    SHR S  %CPU %MEM     TIME+ COMMAND
 5073 kenenth   20   0   41908   3804   3212 R   1.9  0.0   0:00.05 top
 2219 root      20   0  505932 152072  63864 S   1.0  0.9   1:15.29 Xorg
 2220 root     -51   0       0      0      0 S   1.0  0.0   0:08.49 irq/135-nvidia

top - 18:34:25 up  1:20,  1 user,  load average: 0.05, 0.15, 0.13
Tasks: 332 total,   1 running, 264 sleeping,   0 stopped,   0 zombie
%Cpu(s):  0.0 us,  0.1 sy,  0.0 ni, 99.9 id,  0.0 wa,  0.0 hi,  0.0 si,  0.0 st
KiB Mem : 16278772 total, 13777528 free,  1295888 used,  1205356 buff/cache
KiB Swap: 16630780 total, 16630780 free,        0 used. 14588208 avail Mem 

  PID USER      PR  NI    VIRT    RES    SHR S  %CPU %MEM     TIME+ COMMAND
  993 root      20   0  269688   5820   5064 S   1.0  0.0   0:00.75 iio-sensor-prox
 2573 kenenth   20   0  661096  23256  17796 S   1.0  0.1   0:00.53 gsd-color
 5073 kenenth   20   0   41908   3804   3212 R   1.0  0.0   0:00.06 top

top - 18:34:26 up  1:20,  1 user,  load average: 0.05, 0.15, 0.13
Tasks: 332 total,   1 running, 264 sleeping,   0 stopped,   0 zombie
%Cpu(s):  0.2 us,  0.4 sy,  0.0 ni, 99.4 id,  0.0 wa,  0.0 hi,  0.0 si,  0.0 st
KiB Mem : 16278772 total, 13777240 free,  1296060 used,  1205472 buff/cache
KiB Swap: 16630780 total, 16630780 free,        0 used. 14587980 avail Mem 

  PID USER      PR  NI    VIRT    RES    SHR S  %CPU %MEM     TIME+ COMMAND
 5073 kenenth   20   0   41908   3804   3212 R   2.0  0.0   0:00.08 top
 1119 root      20   0 1478700  40092  24868 S   1.0  0.2   0:09.45 containerd
 2219 root      20   0  505932 152072  63864 S   1.0  0.9   1:15.30 Xorg
 2425 kenenth   20   0 3636332 277108  93300 S   1.0  1.7   2:42.66 gnome-shell

top - 18:34:27 up  1:20,  1 user,  load average: 0.05, 0.15, 0.12
Tasks: 332 total,   1 running, 264 sleeping,   0 stopped,   0 zombie
%Cpu(s):  0.2 us,  0.6 sy,  0.0 ni, 98.9 id,  0.1 wa,  0.0 hi,  0.1 si,  0.0 st
KiB Mem : 16278772 total, 13777240 free,  1296060 used,  1205472 buff/cache
KiB Swap: 16630780 total, 16630780 free,        0 used. 14587980 avail Mem 

  PID USER      PR  NI    VIRT    RES    SHR S  %CPU %MEM     TIME+ COMMAND
 2425 kenenth   20   0 3636332 277108  93300 S   2.0  1.7   2:42.68 gnome-shell
 2219 root      20   0  505932 152072  63864 S   1.0  0.9   1:15.31 Xorg
 5073 kenenth   20   0   41908   3804   3212 R   1.0  0.0   0:00.09 top

top - 18:34:28 up  1:20,  1 user,  load average: 0.05, 0.15, 0.12
Tasks: 332 total,   1 running, 264 sleeping,   0 stopped,   0 zombie
%Cpu(s):  0.1 us,  0.2 sy,  0.0 ni, 99.6 id,  0.0 wa,  0.0 hi,  0.0 si,  0.0 st
KiB Mem : 16278772 total, 13777240 free,  1296060 used,  1205472 buff/cache
KiB Swap: 16630780 total, 16630780 free,        0 used. 14587980 avail Mem 

  PID USER      PR  NI    VIRT    RES    SHR S  %CPU %MEM     TIME+ COMMAND
   34 root      20   0       0      0      0 S   1.0  0.0   0:00.04 ksoftirqd/4
 2219 root      20   0  505932 152072  63864 S   1.0  0.9   1:15.32 Xorg
 5073 kenenth   20   0   41908   3804   3212 R   1.0  0.0   0:00.10 top

top - 18:34:29 up  1:20,  1 user,  load average: 0.05, 0.15, 0.12
Tasks: 332 total,   1 running, 264 sleeping,   0 stopped,   0 zombie
%Cpu(s):  0.1 us,  0.1 sy,  0.0 ni, 99.8 id,  0.0 wa,  0.0 hi,  0.0 si,  0.0 st
KiB Mem : 16278772 total, 13776992 free,  1296288 used,  1205492 buff/cache
KiB Swap: 16630780 total, 16630780 free,        0 used. 14587736 avail Mem 

  PID USER      PR  NI    VIRT    RES    SHR S  %CPU %MEM     TIME+ COMMAND
 3692 kenenth   20   0  794860  37664  27916 S   1.0  0.2   0:05.46 gnome-terminal-
 4743 root      20   0       0      0      0 I   1.0  0.0   0:00.31 kworker/7:2
 5073 kenenth   20   0   41908   3804   3212 R   1.0  0.0   0:00.11 top

top - 18:34:30 up  1:20,  1 user,  load average: 0.05, 0.15, 0.12
Tasks: 281 total,   1 running, 213 sleeping,   0 stopped,   0 zombie
%Cpu(s):  0.4 us,  0.5 sy,  0.0 ni, 99.1 id,  0.0 wa,  0.0 hi,  0.0 si,  0.0 st
KiB Mem : 16278772 total, 13776992 free,  1296288 used,  1205492 buff/cache
KiB Swap: 16630780 total, 16630780 free,        0 used. 14587736 avail Mem 

  PID USER      PR  NI    VIRT    RES    SHR S  %CPU %MEM     TIME+ COMMAND
 5073 kenenth   20   0   41908   3804   3212 R   2.0  0.0   0:00.13 top
 1119 root      20   0 1478700  40092  24868 S   1.0  0.2   0:09.46 containerd
 2219 root      20   0  505932 152072  63864 S   1.0  0.9   1:15.33 Xorg
 2425 kenenth   20   0 3636332 277108  93300 S   1.0  1.7   2:42.69 gnome-shell
 3292 root      20   0       0      0      0 I   1.0  0.0   0:00.06 kworker/0:0

top - 18:34:31 up  1:20,  1 user,  load average: 0.05, 0.15, 0.12
Tasks: 283 total,   1 running, 212 sleeping,   0 stopped,   0 zombie
%Cpu(s):  0.9 us,  0.5 sy,  0.0 ni, 98.6 id,  0.0 wa,  0.0 hi,  0.0 si,  0.0 st
KiB Mem : 16278772 total, 13776992 free,  1296288 used,  1205492 buff/cache
KiB Swap: 16630780 total, 16630780 free,        0 used. 14587736 avail Mem 

  PID USER      PR  NI    VIRT    RES    SHR S  %CPU %MEM     TIME+ COMMAND
 1002 root      20   0 1089020  29404  17944 S   2.0  0.2   0:01.44 snapd
    8 root      20   0       0      0      0 I   1.0  0.0   0:01.14 rcu_sched
  938 root      20   0  699064  18528  13812 S   1.0  0.1   0:04.42 NetworkManager
 2425 kenenth   20   0 3636332 277108  93300 S   1.0  1.7   2:42.70 gnome-shell
 2634 kenenth   20   0 1359700  63408  49864 S   1.0  0.4   0:03.02 nautilus-deskto
 4264 root      20   0       0      0      0 I   1.0  0.0   0:00.09 kworker/u16:0
 4538 root      20   0       0      0      0 I   1.0  0.0   0:00.06 kworker/u16:2
 5073 kenenth   20   0   41908   3804   3212 R   1.0  0.0   0:00.14 top
