     1	1428492 
     2	1428492 
     3	1428492 
     4	1428660 
     5	1428660 
     6	1428660 
     7	1428652 
     8	1428652 
     9	1428652 
    10	1428696 
    11	1428696 
    12	1428696 
    13	1425500 
    14	1425500 
    15	1425500 
    16	1425496 
    17	1425496 
    18	1425496 
    19	1425488 
    20	1425488 
    21	1425488 
    22	1425484 
    23	1425484 
    24	1425484 
    25	1425512 
    26	1425512 
    27	1425512 
    28	1425548 
    29	1425548 
    30	1425548 
    31	1425540 
    32	1425540 
    33	1425540 
    34	1425604 
    35	1425604 
    36	1425604 
    37	1425640 
    38	1425640 
    39	1425640 
    40	1425640 
    41	1425640 
    42	1425640 
    43	1425596 
    44	1425596 
    45	1425596 
    46	1425668 
    47	1425668 
    48	1425668 
    49	1426220 
    50	1426220 
    51	1426220 
    52	1425544 
    53	1425544 
    54	1425544 
    55	1424868 
    56	1424868 
    57	1424868 
    58	1427172 
    59	1427172 
    60	1427172 
    61	1427172 
    62	1427172 
    63	1427172 
    64	1427196 
    65	1427196 
    66	1427196 
    67	1427560 
    68	1427560 
    69	1427560 
    70	1427488 
    71	1427488 
    72	1427488 
    73	1427540 
    74	1427540 
    75	1427540 
    76	1427536 
    77	1427536 
    78	1427536 
    79	1427564 
    80	1427564 
    81	1427564 
    82	1427568 
    83	1427568 
    84	1427568 
    85	1427592 
    86	1427592 
    87	1427592 
    88	1427592 
    89	1427592 
    90	1427748 
    91	1427748 
    92	1427748 
    93	1427732 
    94	1427732 
    95	1427732 
    96	1427768 
    97	1427768 
    98	1427768 
    99	1427788 
   100	1427788 
   101	1427788 
