100 packets transmitted, 100 received, 0% packet loss, time 99172ms
100 packets transmitted, 100 received, 0% packet loss, time 99172ms
100 packets transmitted, 100 received, 0% packet loss, time 99172ms
100 packets transmitted, 100 received, 0% packet loss, time 99173ms
100 packets transmitted, 100 received, 0% packet loss, time 99172ms
100 packets transmitted, 100 received, 0% packet loss, time 99172ms
100 packets transmitted, 100 received, 0% packet loss, time 99173ms
100 packets transmitted, 100 received, 0% packet loss, time 99172ms
100 packets transmitted, 100 received, 0% packet loss, time 99181ms
100 packets transmitted, 100 received, 0% packet loss, time 99182ms
