     1	 95.1 
     2	 97.4 
     3	 50.7 
     4	  7.3 
     5	 56.1 
     6	 89.9 
     7	 93.2 
     8	 92.2 
     9	 91.1 
    10	 94.4 
    11	 96.4 
    12	 95.7 
    13	 95.0 
    14	 96.1 
    15	 96.5 
    16	 96.9 
    17	 96.5 
    18	 95.2 
    19	 19.5 
    20	  6.1 
    21	 82.3 
    22	 92.3 
    23	 92.8 
    24	 88.2 
    25	 92.5 
    26	 91.3 
    27	 92.6 
    28	 96.9 
    29	 82.3 
    30	 85.5 
    31	 84.3 
    32	 70.4 
    33	 89.4 
    34	 83.7 
    35	 91.2 
    36	 92.5 
    37	 92.2 
    38	 93.2 
    39	 91.2 
    40	 93.3 
    41	 92.0 
    42	 92.7 
    43	 93.1 
    44	 99.1 
    45	 98.0 
    46	 72.1 
    47	 91.1 
    48	 87.5 
    49	 86.0 
    50	 82.8 
    51	 83.1 
    52	 91.3 
    53	 93.4 
    54	 94.9 
    55	 93.5 
    56	 94.9 
    57	 94.2 
