ping_16 | 25 packets transmitted, 10 packets received, 60% packet loss
ping_7  | 25 packets transmitted, 15 packets received, 40% packet loss
ping_12 | 25 packets transmitted, 21 packets received, 16% packet loss
ping_17 | 25 packets transmitted, 23 packets received, 8% packet loss
ping_13 | 25 packets transmitted, 16 packets received, 36% packet loss
ping_3  | 25 packets transmitted, 20 packets received, 20% packet loss
ping_2  | 25 packets transmitted, 17 packets received, 32% packet loss
ping_10 | 25 packets transmitted, 25 packets received, 0% packet loss
ping_15 | 25 packets transmitted, 10 packets received, 60% packet loss
ping_1  | 25 packets transmitted, 24 packets received, 4% packet loss
ping_14 | 25 packets transmitted, 5 packets received, 80% packet loss
ping_5  | 25 packets transmitted, 23 packets received, 8% packet loss
ping_20 | 25 packets transmitted, 12 packets received, 52% packet loss
ping_18 | 25 packets transmitted, 9 packets received, 64% packet loss
ping_6  | 25 packets transmitted, 9 packets received, 64% packet loss
ping_9  | 25 packets transmitted, 13 packets received, 48% packet loss
ping_8  | 25 packets transmitted, 7 packets received, 72% packet loss
ping_11 | 25 packets transmitted, 24 packets received, 4% packet loss
ping_19 | 25 packets transmitted, 16 packets received, 36% packet loss
ping_4  | 25 packets transmitted, 14 packets received, 44% packet loss
ping_33 | 25 packets transmitted, 25 packets received, 0% packet loss
ping_31 | 25 packets transmitted, 8 packets received, 68% packet loss
ping_40 | 25 packets transmitted, 24 packets received, 4% packet loss
ping_36 | 25 packets transmitted, 22 packets received, 12% packet loss
ping_32 | 25 packets transmitted, 23 packets received, 8% packet loss
ping_38 | 25 packets transmitted, 21 packets received, 16% packet loss
ping_22 | 25 packets transmitted, 23 packets received, 8% packet loss
ping_24 | 25 packets transmitted, 21 packets received, 16% packet loss
ping_35 | 25 packets transmitted, 6 packets received, 76% packet loss
ping_27 | 25 packets transmitted, 5 packets received, 80% packet loss
ping_37 | 25 packets transmitted, 8 packets received, 68% packet loss
ping_28 | 25 packets transmitted, 24 packets received, 4% packet loss
ping_30 | 25 packets transmitted, 16 packets received, 36% packet loss
ping_21 | 25 packets transmitted, 16 packets received, 36% packet loss
ping_34 | 25 packets transmitted, 8 packets received, 68% packet loss
ping_25 | 25 packets transmitted, 7 packets received, 72% packet loss
ping_26 | 25 packets transmitted, 10 packets received, 60% packet loss
ping_29 | 25 packets transmitted, 17 packets received, 32% packet loss
ping_23 | 25 packets transmitted, 24 packets received, 4% packet loss
ping_39 | 25 packets transmitted, 0 packets received, 100% packet loss
