     1	289 
     2	290 
     3	350 
     4	437 
     5	454 
     6	445 
     7	439 
     8	429 
     9	417 
    10	401 
    11	397 
    12	389 
    13	385 
    14	381 
    15	377 
    16	373 
    17	369 
    18	365 
    19	362 
    20	356 
    21	351 
    22	345 
    23	338 
    24	329 
    25	320 
    26	314 
    27	311 
    28	305 
    29	302 
    30	299 
    31	296 
    32	293 
    33	288 
    34	288 
    35	288 
    36	288 
    37	288 
    38	288 
    39	288 
    40	288 
    41	288 
    42	288 
    43	288 
    44	288 
    45	288 
    46	288 
    47	288 
    48	288 
    49	288 
    50	288 
