PING 128.223.32.36 (128.223.32.36) 56(84) bytes of data.
64 bytes from 128.223.32.36: icmp_seq=1 ttl=63 time=0.379 ms
PING 128.223.32.36 (128.223.32.36) 56(84) bytes of data.
64 bytes from 128.223.32.36: icmp_seq=1 ttl=63 time=0.394 ms
PING 128.223.32.36 (128.223.32.36) 56(84) bytes of data.
64 bytes from 128.223.32.36: icmp_seq=1 ttl=63 time=0.363 ms
PING 128.223.32.36 (128.223.32.36) 56(84) bytes of data.
64 bytes from 128.223.32.36: icmp_seq=1 ttl=63 time=0.270 ms
PING 128.223.32.36 (128.223.32.36) 56(84) bytes of data.
64 bytes from 128.223.32.36: icmp_seq=1 ttl=63 time=0.390 ms
64 bytes from 128.223.32.36: icmp_seq=2 ttl=63 time=0.504 ms
PING 128.223.32.36 (128.223.32.36) 56(84) bytes of data.
64 bytes from 128.223.32.36: icmp_seq=2 ttl=63 time=1.30 ms
PING 128.223.32.36 (128.223.32.36) 56(84) bytes of data.
64 bytes from 128.223.32.36: icmp_seq=2 ttl=63 time=1.67 ms
PING 128.223.32.36 (128.223.32.36) 56(84) bytes of data.
64 bytes from 128.223.32.36: icmp_seq=2 ttl=63 time=1.53 ms
PING 128.223.32.36 (128.223.32.36) 56(84) bytes of data.
64 bytes from 128.223.32.36: icmp_seq=2 ttl=63 time=1.87 ms
PING 128.223.32.36 (128.223.32.36) 56(84) bytes of data.
64 bytes from 128.223.32.36: icmp_seq=3 ttl=63 time=0.567 ms
PING 128.223.32.36 (128.223.32.36) 56(84) bytes of data.
64 bytes from 128.223.32.36: icmp_seq=3 ttl=63 time=0.803 ms
64 bytes from 128.223.32.36: icmp_seq=3 ttl=63 time=0.894 ms
PING 128.223.32.36 (128.223.32.36) 56(84) bytes of data.
64 bytes from 128.223.32.36: icmp_seq=3 ttl=63 time=1.04 ms
PING 128.223.32.36 (128.223.32.36) 56(84) bytes of data.
64 bytes from 128.223.32.36: icmp_seq=3 ttl=63 time=1.17 ms
64 bytes from 128.223.32.36: icmp_seq=4 ttl=63 time=0.776 ms
64 bytes from 128.223.32.36: icmp_seq=4 ttl=63 time=0.795 ms
64 bytes from 128.223.32.36: icmp_seq=4 ttl=63 time=0.569 ms
PING 128.223.32.36 (128.223.32.36) 56(84) bytes of data.
64 bytes from 128.223.32.36: icmp_seq=4 ttl=63 time=0.503 ms
PING 128.223.32.36 (128.223.32.36) 56(84) bytes of data.
64 bytes from 128.223.32.36: icmp_seq=4 ttl=63 time=0.478 ms
64 bytes from 128.223.32.36: icmp_seq=5 ttl=63 time=0.637 ms
64 bytes from 128.223.32.36: icmp_seq=5 ttl=63 time=0.758 ms
64 bytes from 128.223.32.36: icmp_seq=5 ttl=63 time=0.512 ms
PING 128.223.32.36 (128.223.32.36) 56(84) bytes of data.
64 bytes from 128.223.32.36: icmp_seq=5 ttl=63 time=0.541 ms
PING 128.223.32.36 (128.223.32.36) 56(84) bytes of data.
64 bytes from 128.223.32.36: icmp_seq=5 ttl=63 time=0.729 ms
PING 128.223.32.36 (128.223.32.36) 56(84) bytes of data.
64 bytes from 128.223.32.36: icmp_seq=5 ttl=63 time=0.526 ms
64 bytes from 128.223.32.36: icmp_seq=6 ttl=63 time=0.832 ms
64 bytes from 128.223.32.36: icmp_seq=6 ttl=63 time=0.930 ms
64 bytes from 128.223.32.36: icmp_seq=6 ttl=63 time=0.601 ms
PING 128.223.32.36 (128.223.32.36) 56(84) bytes of data.
64 bytes from 128.223.32.36: icmp_seq=6 ttl=63 time=0.754 ms
64 bytes from 128.223.32.36: icmp_seq=6 ttl=63 time=0.547 ms
64 bytes from 128.223.32.36: icmp_seq=7 ttl=63 time=0.855 ms
64 bytes from 128.223.32.36: icmp_seq=7 ttl=63 time=0.940 ms
64 bytes from 128.223.32.36: icmp_seq=7 ttl=63 time=0.645 ms
PING 128.223.32.36 (128.223.32.36) 56(84) bytes of data.
64 bytes from 128.223.32.36: icmp_seq=7 ttl=63 time=0.486 ms
PING 128.223.32.36 (128.223.32.36) 56(84) bytes of data.
64 bytes from 128.223.32.36: icmp_seq=7 ttl=63 time=0.679 ms
PING 128.223.32.36 (128.223.32.36) 56(84) bytes of data.
64 bytes from 128.223.32.36: icmp_seq=7 ttl=63 time=0.514 ms
64 bytes from 128.223.32.36: icmp_seq=8 ttl=63 time=0.897 ms
64 bytes from 128.223.32.36: icmp_seq=8 ttl=63 time=0.981 ms
64 bytes from 128.223.32.36: icmp_seq=8 ttl=63 time=0.688 ms
64 bytes from 128.223.32.36: icmp_seq=8 ttl=63 time=0.536 ms
PING 128.223.32.36 (128.223.32.36) 56(84) bytes of data.
64 bytes from 128.223.32.36: icmp_seq=8 ttl=63 time=0.689 ms
PING 128.223.32.36 (128.223.32.36) 56(84) bytes of data.
64 bytes from 128.223.32.36: icmp_seq=8 ttl=63 time=0.793 ms
64 bytes from 128.223.32.36: icmp_seq=9 ttl=63 time=0.885 ms
64 bytes from 128.223.32.36: icmp_seq=9 ttl=63 time=0.978 ms
64 bytes from 128.223.32.36: icmp_seq=9 ttl=63 time=0.655 ms
64 bytes from 128.223.32.36: icmp_seq=9 ttl=63 time=0.628 ms
64 bytes from 128.223.32.36: icmp_seq=9 ttl=63 time=0.517 ms
PING 128.223.32.36 (128.223.32.36) 56(84) bytes of data.
64 bytes from 128.223.32.36: icmp_seq=9 ttl=63 time=0.729 ms
64 bytes from 128.223.32.36: icmp_seq=10 ttl=63 time=0.892 ms
64 bytes from 128.223.32.36: icmp_seq=10 ttl=63 time=0.987 ms
64 bytes from 128.223.32.36: icmp_seq=10 ttl=63 time=0.662 ms
64 bytes from 128.223.32.36: icmp_seq=10 ttl=63 time=0.666 ms
PING 128.223.32.36 (128.223.32.36) 56(84) bytes of data.
64 bytes from 128.223.32.36: icmp_seq=10 ttl=63 time=0.464 ms
PING 128.223.32.36 (128.223.32.36) 56(84) bytes of data.
64 bytes from 128.223.32.36: icmp_seq=10 ttl=63 time=0.730 ms
PING 128.223.32.36 (128.223.32.36) 56(84) bytes of data.
64 bytes from 128.223.32.36: icmp_seq=10 ttl=63 time=0.494 ms



--- 128.223.32.36 ping statistics ---
10 packets transmitted, 8 received, 20% packet loss, time 9051ms
rtt min/avg/max/mdev = 0.758/0.930/1.171/0.123 ms
--- 128.223.32.36 ping statistics ---
10 packets transmitted, 9 received, 10% packet loss, time 9049ms
rtt min/avg/max/mdev = 0.569/0.840/1.674/0.324 ms
--- 128.223.32.36 ping statistics ---
10 packets transmitted, 8 received, 20% packet loss, time 9057ms
rtt min/avg/max/mdev = 0.512/0.781/1.040/0.158 ms

--- 128.223.32.36 ping statistics ---
10 packets transmitted, 3 received, 70% packet loss, time 9149ms
rtt min/avg/max/mdev = 0.628/0.695/0.793/0.076 ms


--- 128.223.32.36 ping statistics ---
10 packets transmitted, 1 received, 90% packet loss, time 9179ms
rtt min/avg/max/mdev = 1.300/1.300/1.300/0.000 ms
--- 128.223.32.36 ping statistics ---
10 packets transmitted, 1 received, 90% packet loss, time 9180ms
rtt min/avg/max/mdev = 0.679/0.679/0.679/0.000 ms

--- 128.223.32.36 ping statistics ---
10 packets transmitted, 1 received, 90% packet loss, time 9177ms
rtt min/avg/max/mdev = 0.541/0.541/0.541/0.000 ms




--- 128.223.32.36 ping statistics ---
10 packets transmitted, 2 received, 80% packet loss, time 9179ms
rtt min/avg/max/mdev = 0.517/1.195/1.873/0.678 ms
--- 128.223.32.36 ping statistics ---
10 packets transmitted, 1 received, 90% packet loss, time 9176ms
rtt min/avg/max/mdev = 1.538/1.538/1.538/0.000 ms

--- 128.223.32.36 ping statistics ---
10 packets transmitted, 1 received, 90% packet loss, time 9181ms
rtt min/avg/max/mdev = 0.486/0.486/0.486/0.000 ms
--- 128.223.32.36 ping statistics ---
10 packets transmitted, 1 received, 90% packet loss, time 9174ms
rtt min/avg/max/mdev = 0.803/0.803/0.803/0.000 ms
--- 128.223.32.36 ping statistics ---
10 packets transmitted, 1 received, 90% packet loss, time 9177ms
rtt min/avg/max/mdev = 0.729/0.729/0.729/0.000 ms

--- 128.223.32.36 ping statistics ---
10 packets transmitted, 1 received, 90% packet loss, time 9182ms
rtt min/avg/max/mdev = 0.567/0.567/0.567/0.000 ms

--- 128.223.32.36 ping statistics ---
10 packets transmitted, 1 received, 90% packet loss, time 9177ms
rtt min/avg/max/mdev = 0.689/0.689/0.689/0.000 ms


--- 128.223.32.36 ping statistics ---
10 packets transmitted, 1 received, 90% packet loss, time 9179ms
rtt min/avg/max/mdev = 0.729/0.729/0.729/0.000 ms
--- 128.223.32.36 ping statistics ---
10 packets transmitted, 2 received, 80% packet loss, time 9182ms
rtt min/avg/max/mdev = 0.503/0.525/0.547/0.022 ms


--- 128.223.32.36 ping statistics ---
10 packets transmitted, 3 received, 70% packet loss, time 9183ms
rtt min/avg/max/mdev = 0.379/0.473/0.536/0.067 ms
--- 128.223.32.36 ping statistics ---
10 packets transmitted, 1 received, 90% packet loss, time 9182ms
rtt min/avg/max/mdev = 0.754/0.754/0.754/0.000 ms


--- 128.223.32.36 ping statistics ---
10 packets transmitted, 1 received, 90% packet loss, time 9207ms
rtt min/avg/max/mdev = 0.526/0.526/0.526/0.000 ms
--- 128.223.32.36 ping statistics ---
10 packets transmitted, 1 received, 90% packet loss, time 9215ms
rtt min/avg/max/mdev = 0.390/0.390/0.390/0.000 ms


--- 128.223.32.36 ping statistics ---
10 packets transmitted, 1 received, 90% packet loss, time 9215ms
rtt min/avg/max/mdev = 0.363/0.363/0.363/0.000 ms
--- 128.223.32.36 ping statistics ---
10 packets transmitted, 1 received, 90% packet loss, time 9207ms
rtt min/avg/max/mdev = 0.514/0.514/0.514/0.000 ms


--- 128.223.32.36 ping statistics ---
10 packets transmitted, 1 received, 90% packet loss, time 9215ms
rtt min/avg/max/mdev = 0.478/0.478/0.478/0.000 ms
--- 128.223.32.36 ping statistics ---
10 packets transmitted, 1 received, 90% packet loss, time 9215ms
rtt min/avg/max/mdev = 0.270/0.270/0.270/0.000 ms

--- 128.223.32.36 ping statistics ---
10 packets transmitted, 1 received, 90% packet loss, time 9216ms
rtt min/avg/max/mdev = 0.394/0.394/0.394/0.000 ms

PING 128.223.32.36 (128.223.32.36) 56(84) bytes of data.

PING 128.223.32.36 (128.223.32.36) 56(84) bytes of data.

PING 128.223.32.36 (128.223.32.36) 56(84) bytes of data.

PING 128.223.32.36 (128.223.32.36) 56(84) bytes of data.

PING 128.223.32.36 (128.223.32.36) 56(84) bytes of data.

PING 128.223.32.36 (128.223.32.36) 56(84) bytes of data.

PING 128.223.32.36 (128.223.32.36) 56(84) bytes of data.

--- 128.223.32.36 ping statistics ---
10 packets transmitted, 1 received, 90% packet loss, time 9170ms
rtt min/avg/max/mdev = 0.464/0.464/0.464/0.000 ms
--- 128.223.32.36 ping statistics ---
10 packets transmitted, 0 received, 100% packet loss, time 9178ms

--- 128.223.32.36 ping statistics ---
10 packets transmitted, 0 received, 100% packet loss, time 9177ms

--- 128.223.32.36 ping statistics ---
10 packets transmitted, 0 received, 100% packet loss, time 9181ms

--- 128.223.32.36 ping statistics ---
10 packets transmitted, 0 received, 100% packet loss, time 9175ms

--- 128.223.32.36 ping statistics ---
10 packets transmitted, 0 received, 100% packet loss, time 9174ms

--- 128.223.32.36 ping statistics ---
10 packets transmitted, 0 received, 100% packet loss, time 9170ms

--- 128.223.32.36 ping statistics ---
10 packets transmitted, 0 received, 100% packet loss, time 9173ms

PING 128.223.32.36 (128.223.32.36) 56(84) bytes of data.

PING 128.223.32.36 (128.223.32.36) 56(84) bytes of data.

PING 128.223.32.36 (128.223.32.36) 56(84) bytes of data.

PING 128.223.32.36 (128.223.32.36) 56(84) bytes of data.

PING 128.223.32.36 (128.223.32.36) 56(84) bytes of data.

PING 128.223.32.36 (128.223.32.36) 56(84) bytes of data.

PING 128.223.32.36 (128.223.32.36) 56(84) bytes of data.

--- 128.223.32.36 ping statistics ---
10 packets transmitted, 0 received, 100% packet loss, time 9179ms

--- 128.223.32.36 ping statistics ---
10 packets transmitted, 0 received, 100% packet loss, time 9182ms

--- 128.223.32.36 ping statistics ---
10 packets transmitted, 0 received, 100% packet loss, time 9181ms

--- 128.223.32.36 ping statistics ---
10 packets transmitted, 0 received, 100% packet loss, time 9181ms

--- 128.223.32.36 ping statistics ---
10 packets transmitted, 0 received, 100% packet loss, time 9169ms

--- 128.223.32.36 ping statistics ---
10 packets transmitted, 0 received, 100% packet loss, time 9178ms

--- 128.223.32.36 ping statistics ---
10 packets transmitted, 0 received, 100% packet loss, time 9177ms

PING 128.223.32.36 (128.223.32.36) 56(84) bytes of data.

--- 128.223.32.36 ping statistics ---
10 packets transmitted, 0 received, 100% packet loss, time 9180ms

PING 128.223.32.36 (128.223.32.36) 56(84) bytes of data.

PING 128.223.32.36 (128.223.32.36) 56(84) bytes of data.


PING 128.223.32.36 (128.223.32.36) 56(84) bytes of data.

PING 128.223.32.36 (128.223.32.36) 56(84) bytes of data.

--- 128.223.32.36 ping statistics ---
10 packets transmitted, 0 received, 100% packet loss, time 9181ms

--- 128.223.32.36 ping statistics ---
10 packets transmitted, 0 received, 100% packet loss, time 9176ms

PING 128.223.32.36 (128.223.32.36) 56(84) bytes of data.

--- 128.223.32.36 ping statistics ---
10 packets transmitted, 1 received, 90% packet loss, time 9171ms
rtt min/avg/max/mdev = 0.730/0.730/0.730/0.000 ms
PING 128.223.32.36 (128.223.32.36) 56(84) bytes of data.

--- 128.223.32.36 ping statistics ---
10 packets transmitted, 0 received, 100% packet loss, time 9175ms

--- 128.223.32.36 ping statistics ---
10 packets transmitted, 0 received, 100% packet loss, time 9174ms

--- 128.223.32.36 ping statistics ---
10 packets transmitted, 0 received, 100% packet loss, time 9178ms

--- 128.223.32.36 ping statistics ---
10 packets transmitted, 0 received, 100% packet loss, time 9177ms

PING 128.223.32.36 (128.223.32.36) 56(84) bytes of data.

--- 128.223.32.36 ping statistics ---
10 packets transmitted, 0 received, 100% packet loss, time 9172ms

PING 128.223.32.36 (128.223.32.36) 56(84) bytes of data.

PING 128.223.32.36 (128.223.32.36) 56(84) bytes of data.

--- 128.223.32.36 ping statistics ---
10 packets transmitted, 0 received, 100% packet loss, time 9179ms

--- 128.223.32.36 ping statistics ---
10 packets transmitted, 0 received, 100% packet loss, time 9177ms

PING 128.223.32.36 (128.223.32.36) 56(84) bytes of data.

PING 128.223.32.36 (128.223.32.36) 56(84) bytes of data.

PING 128.223.32.36 (128.223.32.36) 56(84) bytes of data.

PING 128.223.32.36 (128.223.32.36) 56(84) bytes of data.

--- 128.223.32.36 ping statistics ---
10 packets transmitted, 0 received, 100% packet loss, time 9170ms

--- 128.223.32.36 ping statistics ---
10 packets transmitted, 0 received, 100% packet loss, time 9180ms

--- 128.223.32.36 ping statistics ---
10 packets transmitted, 0 received, 100% packet loss, time 9170ms

--- 128.223.32.36 ping statistics ---
10 packets transmitted, 0 received, 100% packet loss, time 9171ms

PING 128.223.32.36 (128.223.32.36) 56(84) bytes of data.

--- 128.223.32.36 ping statistics ---
10 packets transmitted, 0 received, 100% packet loss, time 9178ms

PING 128.223.32.36 (128.223.32.36) 56(84) bytes of data.

PING 128.223.32.36 (128.223.32.36) 56(84) bytes of data.

PING 128.223.32.36 (128.223.32.36) 56(84) bytes of data.

--- 128.223.32.36 ping statistics ---
10 packets transmitted, 0 received, 100% packet loss, time 9182ms

--- 128.223.32.36 ping statistics ---
10 packets transmitted, 0 received, 100% packet loss, time 9175ms

--- 128.223.32.36 ping statistics ---
10 packets transmitted, 0 received, 100% packet loss, time 9174ms

PING 128.223.32.36 (128.223.32.36) 56(84) bytes of data.

PING 128.223.32.36 (128.223.32.36) 56(84) bytes of data.

PING 128.223.32.36 (128.223.32.36) 56(84) bytes of data.

--- 128.223.32.36 ping statistics ---
10 packets transmitted, 0 received, 100% packet loss, time 9181ms

--- 128.223.32.36 ping statistics ---
10 packets transmitted, 0 received, 100% packet loss, time 9181ms

--- 128.223.32.36 ping statistics ---
10 packets transmitted, 0 received, 100% packet loss, time 9179ms

PING 128.223.32.36 (128.223.32.36) 56(84) bytes of data.

PING 128.223.32.36 (128.223.32.36) 56(84) bytes of data.

PING 128.223.32.36 (128.223.32.36) 56(84) bytes of data.

PING 128.223.32.36 (128.223.32.36) 56(84) bytes of data.

--- 128.223.32.36 ping statistics ---
10 packets transmitted, 0 received, 100% packet loss, time 9201ms

PING 128.223.32.36 (128.223.32.36) 56(84) bytes of data.

--- 128.223.32.36 ping statistics ---
10 packets transmitted, 0 received, 100% packet loss, time 9204ms

--- 128.223.32.36 ping statistics ---
10 packets transmitted, 0 received, 100% packet loss, time 9208ms

--- 128.223.32.36 ping statistics ---
10 packets transmitted, 0 received, 100% packet loss, time 9202ms

--- 128.223.32.36 ping statistics ---
10 packets transmitted, 0 received, 100% packet loss, time 9207ms

PING 128.223.32.36 (128.223.32.36) 56(84) bytes of data.

PING 128.223.32.36 (128.223.32.36) 56(84) bytes of data.

PING 128.223.32.36 (128.223.32.36) 56(84) bytes of data.

--- 128.223.32.36 ping statistics ---
10 packets transmitted, 0 received, 100% packet loss, time 9208ms

--- 128.223.32.36 ping statistics ---
10 packets transmitted, 0 received, 100% packet loss, time 9206ms

--- 128.223.32.36 ping statistics ---
10 packets transmitted, 0 received, 100% packet loss, time 9204ms

PING 128.223.32.36 (128.223.32.36) 56(84) bytes of data.

PING 128.223.32.36 (128.223.32.36) 56(84) bytes of data.

--- 128.223.32.36 ping statistics ---
10 packets transmitted, 0 received, 100% packet loss, time 9205ms

PING 128.223.32.36 (128.223.32.36) 56(84) bytes of data.

PING 128.223.32.36 (128.223.32.36) 56(84) bytes of data.

PING 128.223.32.36 (128.223.32.36) 56(84) bytes of data.

--- 128.223.32.36 ping statistics ---
10 packets transmitted, 0 received, 100% packet loss, time 9205ms

PING 128.223.32.36 (128.223.32.36) 56(84) bytes of data.

--- 128.223.32.36 ping statistics ---
10 packets transmitted, 0 received, 100% packet loss, time 9210ms

--- 128.223.32.36 ping statistics ---
10 packets transmitted, 0 received, 100% packet loss, time 9201ms

--- 128.223.32.36 ping statistics ---
10 packets transmitted, 0 received, 100% packet loss, time 9204ms

PING 128.223.32.36 (128.223.32.36) 56(84) bytes of data.

PING 128.223.32.36 (128.223.32.36) 56(84) bytes of data.

--- 128.223.32.36 ping statistics ---
10 packets transmitted, 0 received, 100% packet loss, time 9206ms

--- 128.223.32.36 ping statistics ---
10 packets transmitted, 0 received, 100% packet loss, time 9203ms

--- 128.223.32.36 ping statistics ---
10 packets transmitted, 0 received, 100% packet loss, time 9210ms

PING 128.223.32.36 (128.223.32.36) 56(84) bytes of data.

PING 128.223.32.36 (128.223.32.36) 56(84) bytes of data.

--- 128.223.32.36 ping statistics ---
10 packets transmitted, 0 received, 100% packet loss, time 9201ms

PING 128.223.32.36 (128.223.32.36) 56(84) bytes of data.

PING 128.223.32.36 (128.223.32.36) 56(84) bytes of data.

--- 128.223.32.36 ping statistics ---
10 packets transmitted, 0 received, 100% packet loss, time 9212ms

PING 128.223.32.36 (128.223.32.36) 56(84) bytes of data.

PING 128.223.32.36 (128.223.32.36) 56(84) bytes of data.

--- 128.223.32.36 ping statistics ---
10 packets transmitted, 0 received, 100% packet loss, time 9204ms

--- 128.223.32.36 ping statistics ---
10 packets transmitted, 0 received, 100% packet loss, time 9202ms

PING 128.223.32.36 (128.223.32.36) 56(84) bytes of data.

--- 128.223.32.36 ping statistics ---
10 packets transmitted, 0 received, 100% packet loss, time 9207ms

--- 128.223.32.36 ping statistics ---
10 packets transmitted, 0 received, 100% packet loss, time 9205ms

PING 128.223.32.36 (128.223.32.36) 56(84) bytes of data.

--- 128.223.32.36 ping statistics ---
10 packets transmitted, 0 received, 100% packet loss, time 9201ms

--- 128.223.32.36 ping statistics ---
10 packets transmitted, 0 received, 100% packet loss, time 9214ms

PING 128.223.32.36 (128.223.32.36) 56(84) bytes of data.

PING 128.223.32.36 (128.223.32.36) 56(84) bytes of data.

--- 128.223.32.36 ping statistics ---
10 packets transmitted, 0 received, 100% packet loss, time 9206ms

--- 128.223.32.36 ping statistics ---
10 packets transmitted, 0 received, 100% packet loss, time 9207ms

PING 128.223.32.36 (128.223.32.36) 56(84) bytes of data.

PING 128.223.32.36 (128.223.32.36) 56(84) bytes of data.

PING 128.223.32.36 (128.223.32.36) 56(84) bytes of data.

PING 128.223.32.36 (128.223.32.36) 56(84) bytes of data.

--- 128.223.32.36 ping statistics ---
10 packets transmitted, 0 received, 100% packet loss, time 9214ms

PING 128.223.32.36 (128.223.32.36) 56(84) bytes of data.

--- 128.223.32.36 ping statistics ---
10 packets transmitted, 0 received, 100% packet loss, time 9202ms

PING 128.223.32.36 (128.223.32.36) 56(84) bytes of data.

--- 128.223.32.36 ping statistics ---
10 packets transmitted, 0 received, 100% packet loss, time 9203ms

--- 128.223.32.36 ping statistics ---
10 packets transmitted, 0 received, 100% packet loss, time 9205ms

--- 128.223.32.36 ping statistics ---
10 packets transmitted, 0 received, 100% packet loss, time 9210ms

--- 128.223.32.36 ping statistics ---
10 packets transmitted, 0 received, 100% packet loss, time 9203ms


PING 128.223.32.36 (128.223.32.36) 56(84) bytes of data.

--- 128.223.32.36 ping statistics ---
10 packets transmitted, 1 received, 90% packet loss, time 9207ms
rtt min/avg/max/mdev = 0.494/0.494/0.494/0.000 ms
--- 128.223.32.36 ping statistics ---
10 packets transmitted, 0 received, 100% packet loss, time 9211ms

PING 128.223.32.36 (128.223.32.36) 56(84) bytes of data.

PING 128.223.32.36 (128.223.32.36) 56(84) bytes of data.

--- 128.223.32.36 ping statistics ---
10 packets transmitted, 0 received, 100% packet loss, time 9203ms

--- 128.223.32.36 ping statistics ---
10 packets transmitted, 0 received, 100% packet loss, time 9208ms

PING 128.223.32.36 (128.223.32.36) 56(84) bytes of data.

--- 128.223.32.36 ping statistics ---
10 packets transmitted, 0 received, 100% packet loss, time 9201ms

PING 128.223.32.36 (128.223.32.36) 56(84) bytes of data.

--- 128.223.32.36 ping statistics ---
10 packets transmitted, 0 received, 100% packet loss, time 9207ms

