     1	1351156 
     2	1351156 
     3	1351156 
     4	1991680 
     5	1991680 
     6	1991680 
     7	2223364 
     8	2223364 
     9	2223364 
    10	1763800 
    11	1763800 
    12	1763800 
    13	1509416 
    14	1509416 
    15	1509416 
    16	2358724 
    17	2358724 
    18	2358724 
    19	2271336 
    20	2271336 
    21	2271336 
    22	1897008 
    23	1897008 
    24	1897008 
    25	1648620 
    26	1648620 
    27	1648620 
    28	1524668 
    29	1524668 
    30	1524668 
    31	1513828 
    32	1513828 
    33	1513828 
    34	1480416 
    35	1480416 
    36	1480416 
    37	1466912 
    38	1466912 
    39	1466912 
    40	1463516 
    41	1463516 
    42	1463516 
    43	1437312 
    44	1437312 
    45	1437312 
    46	1411444 
    47	1411444 
    48	1402972 
    49	1402972 
    50	1402972 
