Attaching to softwareoverhead_ping_17, softwareoverhead_ping_3, softwareoverhead_ping_11, softwareoverhead_ping_9, softwareoverhead_ping_7, softwareoverhead_ping_14, softwareoverhead_ping_6, softwareoverhead_ping_13, softwareoverhead_ping_18, softwareoverhead_ping_20, softwareoverhead_ping_15, softwareoverhead_ping_16, softwareoverhead_ping_2, softwareoverhead_ping_1, softwareoverhead_ping_10, softwareoverhead_ping_8, softwareoverhead_ping_12, softwareoverhead_ping_19, softwareoverhead_ping_4, softwareoverhead_ping_5, softwareoverhead_ping_32, softwareoverhead_ping_36, softwareoverhead_ping_26, softwareoverhead_ping_35, softwareoverhead_ping_39, softwareoverhead_ping_34, softwareoverhead_ping_29, softwareoverhead_ping_31, softwareoverhead_ping_28, softwareoverhead_ping_25, softwareoverhead_ping_37, softwareoverhead_ping_27, softwareoverhead_ping_21, softwareoverhead_ping_22, softwareoverhead_ping_33, softwareoverhead_ping_24, softwareoverhead_ping_23, softwareoverhead_ping_30, softwareoverhead_ping_38, softwareoverhead_ping_40
ping_17 | PING speedtest.softether.co.jp (103.41.63.43): 56 data bytes
ping_3  | PING speedtest.softether.co.jp (103.41.63.43): 56 data bytes
ping_11 | PING speedtest.softether.co.jp (103.41.63.43): 56 data bytes
ping_17 | 64 bytes from 103.41.63.43: seq=0 ttl=52 time=119.458 ms
ping_11 | 64 bytes from 103.41.63.43: seq=0 ttl=52 time=119.499 ms
ping_17 | 64 bytes from 103.41.63.43: seq=1 ttl=52 time=119.537 ms
ping_11 | 64 bytes from 103.41.63.43: seq=1 ttl=52 time=119.492 ms
ping_3  | 64 bytes from 103.41.63.43: seq=0 ttl=52 time=119.561 ms
ping_17 | 64 bytes from 103.41.63.43: seq=2 ttl=52 time=119.855 ms
ping_3  | 64 bytes from 103.41.63.43: seq=1 ttl=52 time=119.898 ms
ping_17 | 64 bytes from 103.41.63.43: seq=3 ttl=52 time=124.687 ms
ping_11 | 64 bytes from 103.41.63.43: seq=2 ttl=52 time=119.441 ms
ping_17 | 64 bytes from 103.41.63.43: seq=4 ttl=52 time=122.137 ms
ping_7  | PING speedtest.softether.co.jp (103.41.63.43): 56 data bytes
ping_17 | 64 bytes from 103.41.63.43: seq=5 ttl=52 time=119.981 ms
ping_11 | 64 bytes from 103.41.63.43: seq=3 ttl=52 time=119.521 ms
ping_17 | 64 bytes from 103.41.63.43: seq=6 ttl=52 time=124.507 ms
ping_3  | 64 bytes from 103.41.63.43: seq=2 ttl=52 time=125.440 ms
ping_7  | 64 bytes from 103.41.63.43: seq=0 ttl=52 time=119.880 ms
ping_9  | PING speedtest.softether.co.jp (103.41.63.43): 56 data bytes
ping_17 | 64 bytes from 103.41.63.43: seq=7 ttl=52 time=126.056 ms
ping_3  | 64 bytes from 103.41.63.43: seq=3 ttl=52 time=119.496 ms
ping_17 | 64 bytes from 103.41.63.43: seq=8 ttl=52 time=119.538 ms
ping_9  | 64 bytes from 103.41.63.43: seq=0 ttl=52 time=119.452 ms
ping_17 | 64 bytes from 103.41.63.43: seq=9 ttl=52 time=119.650 ms
ping_7  | 64 bytes from 103.41.63.43: seq=1 ttl=52 time=119.514 ms
ping_9  | 64 bytes from 103.41.63.43: seq=1 ttl=52 time=119.598 ms
ping_11 | 64 bytes from 103.41.63.43: seq=4 ttl=52 time=119.594 ms
ping_3  | 64 bytes from 103.41.63.43: seq=4 ttl=52 time=119.559 ms
ping_14 | PING speedtest.softether.co.jp (103.41.63.43): 56 data bytes
ping_9  | 64 bytes from 103.41.63.43: seq=2 ttl=52 time=119.608 ms
ping_7  | 64 bytes from 103.41.63.43: seq=2 ttl=52 time=119.536 ms
ping_9  | 64 bytes from 103.41.63.43: seq=3 ttl=52 time=119.785 ms
ping_3  | 64 bytes from 103.41.63.43: seq=5 ttl=52 time=126.108 ms
ping_13 | PING speedtest.softether.co.jp (103.41.63.43): 56 data bytes
ping_9  | 64 bytes from 103.41.63.43: seq=4 ttl=52 time=120.024 ms
ping_14 | 64 bytes from 103.41.63.43: seq=0 ttl=52 time=119.445 ms
ping_6  | PING speedtest.softether.co.jp (103.41.63.43): 56 data bytes
ping_17 | 64 bytes from 103.41.63.43: seq=10 ttl=52 time=119.867 ms
ping_11 | 64 bytes from 103.41.63.43: seq=5 ttl=52 time=119.569 ms
ping_9  | 64 bytes from 103.41.63.43: seq=5 ttl=52 time=119.945 ms
ping_6  | 64 bytes from 103.41.63.43: seq=0 ttl=52 time=119.764 ms
ping_17 | 64 bytes from 103.41.63.43: seq=11 ttl=52 time=119.504 ms
ping_11 | 64 bytes from 103.41.63.43: seq=6 ttl=52 time=119.389 ms
ping_14 | 64 bytes from 103.41.63.43: seq=1 ttl=52 time=119.731 ms
ping_9  | 64 bytes from 103.41.63.43: seq=6 ttl=52 time=119.588 ms
ping_14 | 64 bytes from 103.41.63.43: seq=2 ttl=52 time=119.672 ms
ping_17 | 64 bytes from 103.41.63.43: seq=12 ttl=52 time=119.408 ms
ping_3  | 64 bytes from 103.41.63.43: seq=6 ttl=52 time=119.704 ms
ping_18 | PING speedtest.softether.co.jp (103.41.63.43): 56 data bytes
ping_7  | 64 bytes from 103.41.63.43: seq=3 ttl=52 time=119.475 ms
ping_11 | 64 bytes from 103.41.63.43: seq=7 ttl=52 time=119.466 ms
ping_13 | 64 bytes from 103.41.63.43: seq=0 ttl=52 time=119.695 ms
ping_9  | 64 bytes from 103.41.63.43: seq=7 ttl=52 time=119.951 ms
ping_17 | 64 bytes from 103.41.63.43: seq=13 ttl=52 time=119.408 ms
ping_7  | 64 bytes from 103.41.63.43: seq=4 ttl=52 time=119.654 ms
ping_13 | 64 bytes from 103.41.63.43: seq=1 ttl=52 time=119.596 ms
ping_17 | 64 bytes from 103.41.63.43: seq=14 ttl=52 time=119.765 ms
ping_6  | 64 bytes from 103.41.63.43: seq=1 ttl=52 time=119.564 ms
ping_11 | 64 bytes from 103.41.63.43: seq=9 ttl=52 time=119.605 ms
ping_7  | 64 bytes from 103.41.63.43: seq=5 ttl=52 time=119.549 ms
ping_14 | 64 bytes from 103.41.63.43: seq=3 ttl=52 time=119.805 ms
ping_3  | 64 bytes from 103.41.63.43: seq=7 ttl=52 time=119.657 ms
ping_6  | 64 bytes from 103.41.63.43: seq=2 ttl=52 time=119.544 ms
ping_20 | PING speedtest.softether.co.jp (103.41.63.43): 56 data bytes
ping_18 | 64 bytes from 103.41.63.43: seq=0 ttl=52 time=119.502 ms
ping_15 | PING speedtest.softether.co.jp (103.41.63.43): 56 data bytes
ping_17 | 64 bytes from 103.41.63.43: seq=15 ttl=52 time=119.361 ms
ping_9  | 64 bytes from 103.41.63.43: seq=8 ttl=52 time=119.820 ms
ping_7  | 64 bytes from 103.41.63.43: seq=6 ttl=52 time=119.575 ms
ping_14 | 64 bytes from 103.41.63.43: seq=4 ttl=52 time=119.576 ms
ping_11 | 64 bytes from 103.41.63.43: seq=10 ttl=52 time=119.486 ms
ping_9  | 64 bytes from 103.41.63.43: seq=9 ttl=52 time=119.424 ms
ping_16 | PING speedtest.softether.co.jp (103.41.63.43): 56 data bytes
ping_3  | 64 bytes from 103.41.63.43: seq=8 ttl=52 time=119.759 ms
ping_7  | 64 bytes from 103.41.63.43: seq=7 ttl=52 time=119.720 ms
ping_15 | 64 bytes from 103.41.63.43: seq=0 ttl=52 time=119.914 ms
ping_17 | 64 bytes from 103.41.63.43: seq=16 ttl=52 time=119.685 ms
ping_13 | 64 bytes from 103.41.63.43: seq=2 ttl=52 time=119.593 ms
ping_20 | 64 bytes from 103.41.63.43: seq=0 ttl=52 time=119.591 ms
ping_13 | 64 bytes from 103.41.63.43: seq=3 ttl=52 time=120.120 ms
ping_11 | 64 bytes from 103.41.63.43: seq=11 ttl=52 time=119.358 ms
ping_14 | 64 bytes from 103.41.63.43: seq=5 ttl=52 time=119.946 ms
ping_6  | 64 bytes from 103.41.63.43: seq=3 ttl=52 time=122.857 ms
ping_9  | 64 bytes from 103.41.63.43: seq=10 ttl=52 time=119.377 ms
ping_18 | 64 bytes from 103.41.63.43: seq=1 ttl=52 time=119.662 ms
ping_2  | PING speedtest.softether.co.jp (103.41.63.43): 56 data bytes
ping_7  | 64 bytes from 103.41.63.43: seq=8 ttl=52 time=119.831 ms
ping_16 | 64 bytes from 103.41.63.43: seq=0 ttl=52 time=119.587 ms
ping_13 | 64 bytes from 103.41.63.43: seq=4 ttl=52 time=119.697 ms
ping_15 | 64 bytes from 103.41.63.43: seq=1 ttl=52 time=119.687 ms
ping_18 | 64 bytes from 103.41.63.43: seq=2 ttl=52 time=125.500 ms
ping_9  | 64 bytes from 103.41.63.43: seq=11 ttl=52 time=119.432 ms
ping_6  | 64 bytes from 103.41.63.43: seq=4 ttl=52 time=119.663 ms
ping_2  | 64 bytes from 103.41.63.43: seq=0 ttl=52 time=119.706 ms
ping_20 | 64 bytes from 103.41.63.43: seq=1 ttl=52 time=119.365 ms
ping_14 | 64 bytes from 103.41.63.43: seq=6 ttl=52 time=119.806 ms
ping_11 | 64 bytes from 103.41.63.43: seq=12 ttl=52 time=119.773 ms
ping_7  | 64 bytes from 103.41.63.43: seq=9 ttl=52 time=120.937 ms
ping_15 | 64 bytes from 103.41.63.43: seq=2 ttl=52 time=119.618 ms
ping_16 | 64 bytes from 103.41.63.43: seq=1 ttl=52 time=119.562 ms
ping_3  | 64 bytes from 103.41.63.43: seq=9 ttl=52 time=119.943 ms
ping_18 | 64 bytes from 103.41.63.43: seq=3 ttl=52 time=119.695 ms
ping_14 | 64 bytes from 103.41.63.43: seq=7 ttl=52 time=119.899 ms
ping_6  | 64 bytes from 103.41.63.43: seq=5 ttl=52 time=120.098 ms
ping_7  | 64 bytes from 103.41.63.43: seq=10 ttl=52 time=119.340 ms
ping_9  | 64 bytes from 103.41.63.43: seq=12 ttl=52 time=119.497 ms
ping_3  | 64 bytes from 103.41.63.43: seq=10 ttl=52 time=119.436 ms
ping_18 | 64 bytes from 103.41.63.43: seq=4 ttl=52 time=119.938 ms
ping_20 | 64 bytes from 103.41.63.43: seq=2 ttl=52 time=120.097 ms
ping_1  | PING speedtest.softether.co.jp (103.41.63.43): 56 data bytes
ping_11 | 64 bytes from 103.41.63.43: seq=13 ttl=52 time=119.660 ms
ping_18 | 64 bytes from 103.41.63.43: seq=5 ttl=52 time=119.945 ms
ping_7  | 64 bytes from 103.41.63.43: seq=11 ttl=52 time=119.508 ms
ping_1  | 64 bytes from 103.41.63.43: seq=0 ttl=52 time=119.662 ms
ping_3  | 64 bytes from 103.41.63.43: seq=11 ttl=52 time=120.102 ms
ping_14 | 64 bytes from 103.41.63.43: seq=8 ttl=52 time=119.440 ms
ping_15 | 64 bytes from 103.41.63.43: seq=3 ttl=52 time=119.621 ms
ping_18 | 64 bytes from 103.41.63.43: seq=6 ttl=52 time=119.989 ms
ping_2  | 64 bytes from 103.41.63.43: seq=1 ttl=52 time=119.933 ms
ping_17 | 64 bytes from 103.41.63.43: seq=17 ttl=52 time=119.543 ms
ping_11 | 64 bytes from 103.41.63.43: seq=14 ttl=52 time=119.452 ms
ping_7  | 64 bytes from 103.41.63.43: seq=12 ttl=52 time=119.644 ms
ping_15 | 64 bytes from 103.41.63.43: seq=4 ttl=52 time=119.485 ms
ping_13 | 64 bytes from 103.41.63.43: seq=5 ttl=52 time=119.519 ms
ping_1  | 64 bytes from 103.41.63.43: seq=1 ttl=52 time=119.551 ms
ping_17 | 64 bytes from 103.41.63.43: seq=18 ttl=52 time=119.543 ms
ping_16 | 64 bytes from 103.41.63.43: seq=2 ttl=52 time=119.464 ms
ping_2  | 64 bytes from 103.41.63.43: seq=2 ttl=52 time=119.638 ms
ping_14 | 64 bytes from 103.41.63.43: seq=9 ttl=52 time=119.336 ms
ping_6  | 64 bytes from 103.41.63.43: seq=6 ttl=52 time=119.590 ms
ping_10 | PING speedtest.softether.co.jp (103.41.63.43): 56 data bytes
ping_3  | 64 bytes from 103.41.63.43: seq=12 ttl=52 time=119.578 ms
ping_8  | PING speedtest.softether.co.jp (103.41.63.43): 56 data bytes
ping_16 | 64 bytes from 103.41.63.43: seq=3 ttl=52 time=119.533 ms
ping_20 | 64 bytes from 103.41.63.43: seq=3 ttl=52 time=119.449 ms
ping_2  | 64 bytes from 103.41.63.43: seq=3 ttl=52 time=119.814 ms
ping_7  | 64 bytes from 103.41.63.43: seq=13 ttl=52 time=119.737 ms
ping_17 | 64 bytes from 103.41.63.43: seq=19 ttl=52 time=119.518 ms
ping_9  | 64 bytes from 103.41.63.43: seq=13 ttl=52 time=119.878 ms
ping_8  | 64 bytes from 103.41.63.43: seq=0 ttl=52 time=119.426 ms
ping_6  | 64 bytes from 103.41.63.43: seq=7 ttl=52 time=119.799 ms
ping_20 | 64 bytes from 103.41.63.43: seq=4 ttl=52 time=119.592 ms
ping_14 | 64 bytes from 103.41.63.43: seq=10 ttl=52 time=124.943 ms
ping_18 | 64 bytes from 103.41.63.43: seq=7 ttl=52 time=119.411 ms
ping_15 | 64 bytes from 103.41.63.43: seq=5 ttl=52 time=119.696 ms
ping_8  | 64 bytes from 103.41.63.43: seq=1 ttl=52 time=119.537 ms
ping_13 | 64 bytes from 103.41.63.43: seq=6 ttl=52 time=119.984 ms
ping_3  | 64 bytes from 103.41.63.43: seq=13 ttl=52 time=119.594 ms
ping_10 | 64 bytes from 103.41.63.43: seq=0 ttl=52 time=119.873 ms
ping_1  | 64 bytes from 103.41.63.43: seq=2 ttl=52 time=119.563 ms
ping_14 | 64 bytes from 103.41.63.43: seq=11 ttl=52 time=119.667 ms
ping_11 | 64 bytes from 103.41.63.43: seq=15 ttl=52 time=119.516 ms
ping_6  | 64 bytes from 103.41.63.43: seq=8 ttl=52 time=119.409 ms
ping_20 | 64 bytes from 103.41.63.43: seq=5 ttl=52 time=127.117 ms
ping_17 | 64 bytes from 103.41.63.43: seq=20 ttl=52 time=119.458 ms
ping_12 | PING speedtest.softether.co.jp (103.41.63.43): 56 data bytes
ping_10 | 64 bytes from 103.41.63.43: seq=1 ttl=52 time=119.468 ms
ping_1  | 64 bytes from 103.41.63.43: seq=3 ttl=52 time=119.890 ms
ping_18 | 64 bytes from 103.41.63.43: seq=8 ttl=52 time=119.547 ms
ping_15 | 64 bytes from 103.41.63.43: seq=6 ttl=52 time=119.514 ms
ping_14 | 64 bytes from 103.41.63.43: seq=12 ttl=52 time=119.765 ms
ping_8  | 64 bytes from 103.41.63.43: seq=2 ttl=52 time=119.468 ms
ping_13 | 64 bytes from 103.41.63.43: seq=7 ttl=52 time=119.401 ms
ping_16 | 64 bytes from 103.41.63.43: seq=4 ttl=52 time=127.570 ms
ping_7  | 64 bytes from 103.41.63.43: seq=14 ttl=52 time=119.591 ms
ping_8  | 64 bytes from 103.41.63.43: seq=3 ttl=52 time=119.534 ms
ping_20 | 64 bytes from 103.41.63.43: seq=6 ttl=52 time=119.850 ms
ping_1  | 64 bytes from 103.41.63.43: seq=4 ttl=52 time=119.529 ms
ping_18 | 64 bytes from 103.41.63.43: seq=9 ttl=52 time=119.404 ms
ping_15 | 64 bytes from 103.41.63.43: seq=7 ttl=52 time=119.334 ms
ping_14 | 64 bytes from 103.41.63.43: seq=13 ttl=52 time=119.436 ms
ping_9  | 64 bytes from 103.41.63.43: seq=14 ttl=52 time=119.566 ms
ping_3  | 64 bytes from 103.41.63.43: seq=14 ttl=52 time=119.577 ms
ping_13 | 64 bytes from 103.41.63.43: seq=8 ttl=52 time=119.350 ms
ping_8  | 64 bytes from 103.41.63.43: seq=4 ttl=52 time=119.498 ms
ping_16 | 64 bytes from 103.41.63.43: seq=5 ttl=52 time=119.926 ms
ping_2  | 64 bytes from 103.41.63.43: seq=4 ttl=52 time=119.576 ms
ping_11 | 64 bytes from 103.41.63.43: seq=16 ttl=52 time=119.470 ms
ping_10 | 64 bytes from 103.41.63.43: seq=2 ttl=52 time=119.480 ms
ping_20 | 64 bytes from 103.41.63.43: seq=7 ttl=52 time=120.114 ms
ping_1  | 64 bytes from 103.41.63.43: seq=5 ttl=52 time=119.410 ms
ping_6  | 64 bytes from 103.41.63.43: seq=9 ttl=52 time=119.435 ms
ping_14 | 64 bytes from 103.41.63.43: seq=14 ttl=52 time=125.162 ms
ping_7  | 64 bytes from 103.41.63.43: seq=15 ttl=52 time=119.446 ms
ping_17 | 64 bytes from 103.41.63.43: seq=21 ttl=52 time=119.887 ms
ping_11 | 64 bytes from 103.41.63.43: seq=17 ttl=52 time=119.557 ms
ping_12 | 64 bytes from 103.41.63.43: seq=0 ttl=52 time=119.827 ms
ping_10 | 64 bytes from 103.41.63.43: seq=3 ttl=52 time=119.794 ms
ping_13 | 64 bytes from 103.41.63.43: seq=9 ttl=52 time=119.472 ms
ping_20 | 64 bytes from 103.41.63.43: seq=8 ttl=52 time=119.276 ms
ping_4  | PING speedtest.softether.co.jp (103.41.63.43): 56 data bytes
ping_1  | 64 bytes from 103.41.63.43: seq=6 ttl=52 time=119.437 ms
ping_9  | 64 bytes from 103.41.63.43: seq=15 ttl=52 time=119.412 ms
ping_7  | 64 bytes from 103.41.63.43: seq=16 ttl=52 time=119.583 ms
ping_3  | 64 bytes from 103.41.63.43: seq=15 ttl=52 time=119.461 ms
ping_6  | 64 bytes from 103.41.63.43: seq=10 ttl=52 time=119.475 ms
ping_2  | 64 bytes from 103.41.63.43: seq=5 ttl=52 time=119.369 ms
ping_6  | 64 bytes from 103.41.63.43: seq=11 ttl=52 time=119.846 ms
ping_15 | 64 bytes from 103.41.63.43: seq=8 ttl=52 time=122.260 ms
ping_17 | 64 bytes from 103.41.63.43: seq=22 ttl=52 time=119.636 ms
ping_9  | 64 bytes from 103.41.63.43: seq=16 ttl=52 time=119.713 ms
ping_20 | 64 bytes from 103.41.63.43: seq=9 ttl=52 time=119.557 ms
ping_8  | 64 bytes from 103.41.63.43: seq=5 ttl=52 time=119.373 ms
ping_11 | 64 bytes from 103.41.63.43: seq=18 ttl=52 time=119.546 ms
ping_1  | 64 bytes from 103.41.63.43: seq=7 ttl=52 time=119.502 ms
ping_10 | 64 bytes from 103.41.63.43: seq=4 ttl=52 time=119.515 ms
ping_18 | 64 bytes from 103.41.63.43: seq=10 ttl=52 time=119.497 ms
ping_4  | 64 bytes from 103.41.63.43: seq=0 ttl=52 time=123.041 ms
ping_3  | 64 bytes from 103.41.63.43: seq=16 ttl=52 time=119.610 ms
ping_14 | 64 bytes from 103.41.63.43: seq=15 ttl=52 time=119.509 ms
ping_5  | PING speedtest.softether.co.jp (103.41.63.43): 56 data bytes
ping_6  | 64 bytes from 103.41.63.43: seq=12 ttl=52 time=121.268 ms
ping_16 | 64 bytes from 103.41.63.43: seq=6 ttl=52 time=121.238 ms
ping_15 | 64 bytes from 103.41.63.43: seq=9 ttl=52 time=120.068 ms
ping_7  | 64 bytes from 103.41.63.43: seq=17 ttl=52 time=119.562 ms
ping_3  | 64 bytes from 103.41.63.43: seq=17 ttl=52 time=119.905 ms
ping_17 | 64 bytes from 103.41.63.43: seq=23 ttl=52 time=119.640 ms
ping_2  | 64 bytes from 103.41.63.43: seq=6 ttl=52 time=119.402 ms
ping_13 | 64 bytes from 103.41.63.43: seq=10 ttl=52 time=119.423 ms
ping_12 | 64 bytes from 103.41.63.43: seq=1 ttl=52 time=119.630 ms
ping_11 | 64 bytes from 103.41.63.43: seq=19 ttl=52 time=119.494 ms
ping_9  | 64 bytes from 103.41.63.43: seq=17 ttl=52 time=120.060 ms
ping_15 | 64 bytes from 103.41.63.43: seq=10 ttl=52 time=119.947 ms
ping_1  | 64 bytes from 103.41.63.43: seq=8 ttl=52 time=119.703 ms
ping_19 | PING speedtest.softether.co.jp (103.41.63.43): 56 data bytes
ping_10 | 64 bytes from 103.41.63.43: seq=5 ttl=52 time=119.548 ms
ping_20 | 64 bytes from 103.41.63.43: seq=10 ttl=52 time=119.737 ms
ping_2  | 64 bytes from 103.41.63.43: seq=7 ttl=52 time=119.826 ms
ping_14 | 64 bytes from 103.41.63.43: seq=16 ttl=52 time=119.867 ms
ping_13 | 64 bytes from 103.41.63.43: seq=11 ttl=52 time=121.210 ms
ping_6  | 64 bytes from 103.41.63.43: seq=13 ttl=52 time=119.935 ms
ping_4  | 64 bytes from 103.41.63.43: seq=1 ttl=52 time=119.426 ms
ping_16 | 64 bytes from 103.41.63.43: seq=7 ttl=52 time=123.550 ms
ping_8  | 64 bytes from 103.41.63.43: seq=6 ttl=52 time=119.773 ms
ping_32 | PING speedtest.softether.co.jp (103.41.63.43): 56 data bytes
ping_18 | 64 bytes from 103.41.63.43: seq=11 ttl=52 time=119.698 ms
ping_1  | 64 bytes from 103.41.63.43: seq=9 ttl=52 time=119.744 ms
ping_7  | 64 bytes from 103.41.63.43: seq=18 ttl=52 time=119.547 ms
ping_32 | 64 bytes from 103.41.63.43: seq=0 ttl=52 time=119.462 ms
ping_10 | 64 bytes from 103.41.63.43: seq=6 ttl=52 time=119.395 ms
ping_20 | 64 bytes from 103.41.63.43: seq=11 ttl=52 time=119.515 ms
ping_2  | 64 bytes from 103.41.63.43: seq=8 ttl=52 time=119.618 ms
ping_15 | 64 bytes from 103.41.63.43: seq=11 ttl=52 time=119.882 ms
ping_13 | 64 bytes from 103.41.63.43: seq=12 ttl=52 time=119.515 ms
ping_18 | 64 bytes from 103.41.63.43: seq=12 ttl=52 time=119.653 ms
ping_5  | 64 bytes from 103.41.63.43: seq=0 ttl=52 time=119.309 ms
ping_1  | 64 bytes from 103.41.63.43: seq=10 ttl=52 time=122.358 ms
ping_4  | 64 bytes from 103.41.63.43: seq=2 ttl=52 time=119.378 ms
ping_16 | 64 bytes from 103.41.63.43: seq=8 ttl=52 time=119.815 ms
ping_8  | 64 bytes from 103.41.63.43: seq=7 ttl=52 time=119.633 ms
ping_7  | 64 bytes from 103.41.63.43: seq=19 ttl=52 time=119.570 ms
ping_9  | 64 bytes from 103.41.63.43: seq=18 ttl=52 time=120.005 ms
ping_10 | 64 bytes from 103.41.63.43: seq=7 ttl=52 time=119.640 ms
ping_36 | PING speedtest.softether.co.jp (103.41.63.43): 56 data bytes
ping_2  | 64 bytes from 103.41.63.43: seq=9 ttl=52 time=119.572 ms
ping_15 | 64 bytes from 103.41.63.43: seq=12 ttl=52 time=126.721 ms
ping_5  | 64 bytes from 103.41.63.43: seq=1 ttl=52 time=119.573 ms
ping_13 | 64 bytes from 103.41.63.43: seq=13 ttl=52 time=119.463 ms
ping_18 | 64 bytes from 103.41.63.43: seq=13 ttl=52 time=119.844 ms
ping_20 | 64 bytes from 103.41.63.43: seq=12 ttl=52 time=119.718 ms
ping_16 | 64 bytes from 103.41.63.43: seq=9 ttl=52 time=119.878 ms
ping_8  | 64 bytes from 103.41.63.43: seq=8 ttl=52 time=119.409 ms
ping_7  | 64 bytes from 103.41.63.43: seq=20 ttl=52 time=120.019 ms
ping_9  | 64 bytes from 103.41.63.43: seq=19 ttl=52 time=119.983 ms
ping_10 | 64 bytes from 103.41.63.43: seq=8 ttl=52 time=119.633 ms
ping_36 | 64 bytes from 103.41.63.43: seq=0 ttl=52 time=119.536 ms
ping_5  | 64 bytes from 103.41.63.43: seq=2 ttl=52 time=119.338 ms
ping_32 | 64 bytes from 103.41.63.43: seq=1 ttl=52 time=119.507 ms
ping_15 | 64 bytes from 103.41.63.43: seq=13 ttl=52 time=119.951 ms
ping_18 | 64 bytes from 103.41.63.43: seq=14 ttl=52 time=119.953 ms
ping_10 | 64 bytes from 103.41.63.43: seq=9 ttl=52 time=119.464 ms
ping_1  | 64 bytes from 103.41.63.43: seq=11 ttl=52 time=119.448 ms
ping_36 | 64 bytes from 103.41.63.43: seq=1 ttl=52 time=119.877 ms
ping_4  | 64 bytes from 103.41.63.43: seq=3 ttl=52 time=120.783 ms
ping_5  | 64 bytes from 103.41.63.43: seq=3 ttl=52 time=119.458 ms
ping_20 | 64 bytes from 103.41.63.43: seq=13 ttl=52 time=119.395 ms
ping_16 | 64 bytes from 103.41.63.43: seq=10 ttl=52 time=119.759 ms
ping_32 | 64 bytes from 103.41.63.43: seq=2 ttl=52 time=119.519 ms
ping_13 | 64 bytes from 103.41.63.43: seq=14 ttl=52 time=119.546 ms
ping_7  | 64 bytes from 103.41.63.43: seq=21 ttl=52 time=119.808 ms
ping_1  | 64 bytes from 103.41.63.43: seq=12 ttl=52 time=119.848 ms
ping_14 | 64 bytes from 103.41.63.43: seq=17 ttl=52 time=119.761 ms
ping_4  | 64 bytes from 103.41.63.43: seq=4 ttl=52 time=119.492 ms
ping_5  | 64 bytes from 103.41.63.43: seq=4 ttl=52 time=119.641 ms
ping_20 | 64 bytes from 103.41.63.43: seq=14 ttl=52 time=119.522 ms
ping_12 | 64 bytes from 103.41.63.43: seq=2 ttl=52 time=120.235 ms
ping_11 | 64 bytes from 103.41.63.43: seq=20 ttl=52 time=119.632 ms
ping_9  | 64 bytes from 103.41.63.43: seq=20 ttl=52 time=119.581 ms
ping_2  | 64 bytes from 103.41.63.43: seq=10 ttl=52 time=119.530 ms
ping_19 | 64 bytes from 103.41.63.43: seq=0 ttl=52 time=119.830 ms
ping_10 | 64 bytes from 103.41.63.43: seq=10 ttl=52 time=119.639 ms
ping_15 | 64 bytes from 103.41.63.43: seq=14 ttl=52 time=119.835 ms
ping_36 | 64 bytes from 103.41.63.43: seq=2 ttl=52 time=119.973 ms
ping_3  | 64 bytes from 103.41.63.43: seq=18 ttl=52 time=119.879 ms
ping_8  | 64 bytes from 103.41.63.43: seq=9 ttl=52 time=119.516 ms
ping_16 | 64 bytes from 103.41.63.43: seq=11 ttl=52 time=119.371 ms
ping_6  | 64 bytes from 103.41.63.43: seq=14 ttl=52 time=119.491 ms
ping_32 | 64 bytes from 103.41.63.43: seq=3 ttl=52 time=119.876 ms
ping_12 | 64 bytes from 103.41.63.43: seq=3 ttl=52 time=119.353 ms
ping_1  | 64 bytes from 103.41.63.43: seq=13 ttl=52 time=121.627 ms
ping_36 | 64 bytes from 103.41.63.43: seq=3 ttl=52 time=119.514 ms
ping_3  | 64 bytes from 103.41.63.43: seq=19 ttl=52 time=119.984 ms
ping_20 | 64 bytes from 103.41.63.43: seq=15 ttl=52 time=119.436 ms
ping_11 | 64 bytes from 103.41.63.43: seq=21 ttl=52 time=119.661 ms
ping_9  | 64 bytes from 103.41.63.43: seq=21 ttl=52 time=119.467 ms
ping_8  | 64 bytes from 103.41.63.43: seq=10 ttl=52 time=119.490 ms
ping_19 | 64 bytes from 103.41.63.43: seq=1 ttl=52 time=119.711 ms
ping_10 | 64 bytes from 103.41.63.43: seq=11 ttl=52 time=119.666 ms
ping_15 | 64 bytes from 103.41.63.43: seq=15 ttl=52 time=119.581 ms
ping_6  | 64 bytes from 103.41.63.43: seq=15 ttl=52 time=119.603 ms
ping_18 | 64 bytes from 103.41.63.43: seq=15 ttl=52 time=119.735 ms
ping_14 | 64 bytes from 103.41.63.43: seq=18 ttl=52 time=119.862 ms
ping_2  | 64 bytes from 103.41.63.43: seq=11 ttl=52 time=119.482 ms
ping_4  | 64 bytes from 103.41.63.43: seq=5 ttl=52 time=119.483 ms
ping_3  | 64 bytes from 103.41.63.43: seq=20 ttl=52 time=119.728 ms
ping_32 | 64 bytes from 103.41.63.43: seq=4 ttl=52 time=119.649 ms
ping_12 | 64 bytes from 103.41.63.43: seq=4 ttl=52 time=119.454 ms
ping_26 | PING speedtest.softether.co.jp (103.41.63.43): 56 data bytes
ping_15 | 64 bytes from 103.41.63.43: seq=16 ttl=52 time=119.708 ms
ping_2  | 64 bytes from 103.41.63.43: seq=12 ttl=52 time=119.516 ms
ping_8  | 64 bytes from 103.41.63.43: seq=11 ttl=52 time=119.526 ms
ping_12 | 64 bytes from 103.41.63.43: seq=5 ttl=52 time=119.471 ms
ping_14 | 64 bytes from 103.41.63.43: seq=19 ttl=52 time=119.325 ms
ping_20 | 64 bytes from 103.41.63.43: seq=16 ttl=52 time=119.375 ms
ping_36 | 64 bytes from 103.41.63.43: seq=4 ttl=52 time=119.784 ms
ping_11 | 64 bytes from 103.41.63.43: seq=22 ttl=52 time=119.687 ms
ping_5  | 64 bytes from 103.41.63.43: seq=5 ttl=52 time=119.988 ms
ping_3  | 64 bytes from 103.41.63.43: seq=21 ttl=52 time=120.313 ms
ping_8  | 64 bytes from 103.41.63.43: seq=12 ttl=52 time=119.662 ms
ping_13 | 64 bytes from 103.41.63.43: seq=15 ttl=52 time=119.937 ms
ping_2  | 64 bytes from 103.41.63.43: seq=13 ttl=52 time=119.971 ms
ping_20 | 64 bytes from 103.41.63.43: seq=17 ttl=52 time=119.449 ms
ping_36 | 64 bytes from 103.41.63.43: seq=5 ttl=52 time=119.726 ms
ping_3  | 64 bytes from 103.41.63.43: seq=22 ttl=52 time=119.759 ms
ping_1  | 64 bytes from 103.41.63.43: seq=14 ttl=52 time=119.480 ms
ping_8  | 64 bytes from 103.41.63.43: seq=13 ttl=52 time=119.457 ms
ping_19 | 64 bytes from 103.41.63.43: seq=2 ttl=52 time=119.481 ms
ping_18 | 64 bytes from 103.41.63.43: seq=16 ttl=52 time=119.712 ms
ping_4  | 64 bytes from 103.41.63.43: seq=6 ttl=52 time=119.750 ms
ping_14 | 64 bytes from 103.41.63.43: seq=20 ttl=52 time=119.757 ms
ping_13 | 64 bytes from 103.41.63.43: seq=16 ttl=52 time=120.065 ms
ping_10 | 64 bytes from 103.41.63.43: seq=12 ttl=52 time=119.913 ms
ping_6  | 64 bytes from 103.41.63.43: seq=16 ttl=52 time=119.978 ms
ping_16 | 64 bytes from 103.41.63.43: seq=12 ttl=52 time=119.471 ms
ping_36 | 64 bytes from 103.41.63.43: seq=6 ttl=52 time=119.528 ms
ping_12 | 64 bytes from 103.41.63.43: seq=6 ttl=52 time=120.052 ms
ping_2  | 64 bytes from 103.41.63.43: seq=14 ttl=52 time=119.770 ms
ping_10 | 64 bytes from 103.41.63.43: seq=13 ttl=52 time=119.737 ms
ping_35 | PING speedtest.softether.co.jp (103.41.63.43): 56 data bytes
ping_32 | 64 bytes from 103.41.63.43: seq=5 ttl=52 time=119.444 ms
ping_1  | 64 bytes from 103.41.63.43: seq=15 ttl=52 time=119.753 ms
ping_26 | 64 bytes from 103.41.63.43: seq=0 ttl=52 time=119.452 ms
ping_16 | 64 bytes from 103.41.63.43: seq=13 ttl=52 time=119.547 ms
ping_36 | 64 bytes from 103.41.63.43: seq=7 ttl=52 time=120.127 ms
ping_13 | 64 bytes from 103.41.63.43: seq=17 ttl=52 time=120.060 ms
ping_10 | 64 bytes from 103.41.63.43: seq=14 ttl=52 time=119.566 ms
ping_4  | 64 bytes from 103.41.63.43: seq=7 ttl=52 time=119.456 ms
ping_39 | PING speedtest.softether.co.jp (103.41.63.43): 56 data bytes
ping_15 | 64 bytes from 103.41.63.43: seq=17 ttl=52 time=119.508 ms
ping_6  | 64 bytes from 103.41.63.43: seq=17 ttl=52 time=119.815 ms
ping_1  | 64 bytes from 103.41.63.43: seq=16 ttl=52 time=119.936 ms
ping_16 | 64 bytes from 103.41.63.43: seq=14 ttl=52 time=119.709 ms
ping_36 | 64 bytes from 103.41.63.43: seq=8 ttl=52 time=120.031 ms
ping_34 | PING speedtest.softether.co.jp (103.41.63.43): 56 data bytes
ping_35 | 64 bytes from 103.41.63.43: seq=0 ttl=52 time=119.914 ms
ping_15 | 64 bytes from 103.41.63.43: seq=18 ttl=52 time=119.656 ms
ping_10 | 64 bytes from 103.41.63.43: seq=15 ttl=52 time=119.383 ms
ping_4  | 64 bytes from 103.41.63.43: seq=8 ttl=52 time=119.933 ms
ping_32 | 64 bytes from 103.41.63.43: seq=6 ttl=52 time=119.663 ms
ping_6  | 64 bytes from 103.41.63.43: seq=18 ttl=52 time=119.745 ms
ping_39 | 64 bytes from 103.41.63.43: seq=0 ttl=52 time=119.859 ms
ping_2  | 64 bytes from 103.41.63.43: seq=15 ttl=52 time=119.712 ms
ping_26 | 64 bytes from 103.41.63.43: seq=1 ttl=52 time=119.489 ms
ping_13 | 64 bytes from 103.41.63.43: seq=18 ttl=52 time=119.545 ms
ping_36 | 64 bytes from 103.41.63.43: seq=9 ttl=52 time=119.569 ms
ping_18 | 64 bytes from 103.41.63.43: seq=17 ttl=52 time=119.816 ms
ping_34 | 64 bytes from 103.41.63.43: seq=0 ttl=52 time=119.553 ms
ping_1  | 64 bytes from 103.41.63.43: seq=17 ttl=52 time=119.816 ms
ping_10 | 64 bytes from 103.41.63.43: seq=16 ttl=52 time=119.591 ms
ping_20 | 64 bytes from 103.41.63.43: seq=18 ttl=52 time=119.559 ms
ping_15 | 64 bytes from 103.41.63.43: seq=19 ttl=52 time=119.656 ms
ping_14 | 64 bytes from 103.41.63.43: seq=21 ttl=52 time=119.510 ms
ping_12 | 64 bytes from 103.41.63.43: seq=7 ttl=52 time=119.579 ms
ping_26 | 64 bytes from 103.41.63.43: seq=2 ttl=52 time=119.555 ms
ping_4  | 64 bytes from 103.41.63.43: seq=9 ttl=52 time=119.883 ms
ping_5  | 64 bytes from 103.41.63.43: seq=6 ttl=52 time=119.879 ms
ping_35 | 64 bytes from 103.41.63.43: seq=1 ttl=52 time=119.525 ms
ping_8  | 64 bytes from 103.41.63.43: seq=14 ttl=52 time=119.629 ms
ping_12 | 64 bytes from 103.41.63.43: seq=8 ttl=52 time=119.583 ms
ping_32 | 64 bytes from 103.41.63.43: seq=7 ttl=52 time=120.055 ms
ping_18 | 64 bytes from 103.41.63.43: seq=18 ttl=52 time=120.067 ms
ping_6  | 64 bytes from 103.41.63.43: seq=19 ttl=52 time=119.913 ms
ping_4  | 64 bytes from 103.41.63.43: seq=10 ttl=52 time=119.976 ms
ping_5  | 64 bytes from 103.41.63.43: seq=7 ttl=52 time=119.990 ms
ping_34 | 64 bytes from 103.41.63.43: seq=1 ttl=52 time=122.101 ms
ping_10 | 64 bytes from 103.41.63.43: seq=17 ttl=52 time=119.368 ms
ping_26 | 64 bytes from 103.41.63.43: seq=3 ttl=52 time=119.818 ms
ping_19 | 64 bytes from 103.41.63.43: seq=3 ttl=52 time=119.513 ms
ping_39 | 64 bytes from 103.41.63.43: seq=1 ttl=52 time=119.510 ms
ping_13 | 64 bytes from 103.41.63.43: seq=19 ttl=52 time=119.877 ms
ping_2  | 64 bytes from 103.41.63.43: seq=16 ttl=52 time=119.686 ms
ping_18 | 64 bytes from 103.41.63.43: seq=19 ttl=52 time=119.945 ms
ping_16 | 64 bytes from 103.41.63.43: seq=15 ttl=52 time=119.409 ms
ping_8  | 64 bytes from 103.41.63.43: seq=15 ttl=52 time=119.668 ms
ping_35 | 64 bytes from 103.41.63.43: seq=2 ttl=52 time=119.466 ms
ping_29 | PING speedtest.softether.co.jp (103.41.63.43): 56 data bytes
ping_39 | 64 bytes from 103.41.63.43: seq=2 ttl=52 time=119.494 ms
ping_32 | 64 bytes from 103.41.63.43: seq=8 ttl=52 time=119.740 ms
ping_5  | 64 bytes from 103.41.63.43: seq=8 ttl=52 time=120.039 ms
ping_4  | 64 bytes from 103.41.63.43: seq=11 ttl=52 time=119.542 ms
ping_13 | 64 bytes from 103.41.63.43: seq=20 ttl=52 time=119.455 ms
ping_19 | 64 bytes from 103.41.63.43: seq=4 ttl=52 time=120.464 ms
ping_35 | 64 bytes from 103.41.63.43: seq=3 ttl=52 time=119.589 ms
ping_26 | 64 bytes from 103.41.63.43: seq=4 ttl=52 time=119.501 ms
ping_8  | 64 bytes from 103.41.63.43: seq=16 ttl=52 time=119.672 ms
ping_31 | PING speedtest.softether.co.jp (103.41.63.43): 56 data bytes
ping_6  | 64 bytes from 103.41.63.43: seq=20 ttl=52 time=119.657 ms
ping_34 | 64 bytes from 103.41.63.43: seq=2 ttl=52 time=119.760 ms
ping_12 | 64 bytes from 103.41.63.43: seq=9 ttl=52 time=119.533 ms
ping_16 | 64 bytes from 103.41.63.43: seq=16 ttl=52 time=119.609 ms
ping_20 | 64 bytes from 103.41.63.43: seq=19 ttl=52 time=119.568 ms
ping_4  | 64 bytes from 103.41.63.43: seq=12 ttl=52 time=119.400 ms
ping_34 | 64 bytes from 103.41.63.43: seq=3 ttl=52 time=119.514 ms
ping_39 | 64 bytes from 103.41.63.43: seq=3 ttl=52 time=119.895 ms
ping_32 | 64 bytes from 103.41.63.43: seq=9 ttl=52 time=119.857 ms
ping_4  | 64 bytes from 103.41.63.43: seq=13 ttl=52 time=119.628 ms
ping_2  | 64 bytes from 103.41.63.43: seq=17 ttl=52 time=119.426 ms
ping_25 | PING speedtest.softether.co.jp (103.41.63.43): 56 data bytes
ping_26 | 64 bytes from 103.41.63.43: seq=5 ttl=52 time=119.923 ms
ping_5  | 64 bytes from 103.41.63.43: seq=9 ttl=52 time=119.671 ms
ping_29 | 64 bytes from 103.41.63.43: seq=0 ttl=52 time=119.454 ms
ping_4  | 64 bytes from 103.41.63.43: seq=14 ttl=52 time=119.593 ms
ping_39 | 64 bytes from 103.41.63.43: seq=4 ttl=52 time=119.895 ms
ping_16 | 64 bytes from 103.41.63.43: seq=17 ttl=52 time=119.684 ms
ping_19 | 64 bytes from 103.41.63.43: seq=5 ttl=52 time=119.594 ms
ping_34 | 64 bytes from 103.41.63.43: seq=4 ttl=52 time=119.958 ms
ping_5  | 64 bytes from 103.41.63.43: seq=10 ttl=52 time=119.839 ms
ping_28 | PING speedtest.softether.co.jp (103.41.63.43): 56 data bytes
ping_31 | 64 bytes from 103.41.63.43: seq=0 ttl=52 time=119.611 ms
ping_26 | 64 bytes from 103.41.63.43: seq=6 ttl=52 time=119.892 ms
ping_35 | 64 bytes from 103.41.63.43: seq=4 ttl=52 time=119.778 ms
ping_2  | 64 bytes from 103.41.63.43: seq=18 ttl=52 time=119.486 ms
ping_16 | 64 bytes from 103.41.63.43: seq=18 ttl=52 time=119.562 ms
ping_25 | 64 bytes from 103.41.63.43: seq=0 ttl=52 time=119.711 ms
ping_32 | 64 bytes from 103.41.63.43: seq=10 ttl=52 time=119.422 ms
ping_28 | 64 bytes from 103.41.63.43: seq=0 ttl=52 time=119.820 ms
ping_12 | 64 bytes from 103.41.63.43: seq=10 ttl=52 time=119.533 ms
ping_29 | 64 bytes from 103.41.63.43: seq=1 ttl=52 time=119.474 ms
ping_26 | 64 bytes from 103.41.63.43: seq=7 ttl=52 time=119.922 ms
ping_19 | 64 bytes from 103.41.63.43: seq=6 ttl=52 time=119.684 ms
ping_34 | 64 bytes from 103.41.63.43: seq=5 ttl=52 time=120.037 ms
ping_25 | 64 bytes from 103.41.63.43: seq=1 ttl=52 time=119.810 ms
ping_37 | PING speedtest.softether.co.jp (103.41.63.43): 56 data bytes
ping_35 | 64 bytes from 103.41.63.43: seq=5 ttl=52 time=119.606 ms
ping_5  | 64 bytes from 103.41.63.43: seq=11 ttl=52 time=119.846 ms
ping_19 | 64 bytes from 103.41.63.43: seq=7 ttl=52 time=119.610 ms
ping_29 | 64 bytes from 103.41.63.43: seq=2 ttl=52 time=120.312 ms
ping_25 | 64 bytes from 103.41.63.43: seq=2 ttl=52 time=119.929 ms
ping_37 | 64 bytes from 103.41.63.43: seq=0 ttl=52 time=119.567 ms
ping_19 | 64 bytes from 103.41.63.43: seq=8 ttl=52 time=119.542 ms
ping_34 | 64 bytes from 103.41.63.43: seq=6 ttl=52 time=119.867 ms
ping_35 | 64 bytes from 103.41.63.43: seq=6 ttl=52 time=119.772 ms
ping_39 | 64 bytes from 103.41.63.43: seq=5 ttl=52 time=119.721 ms
ping_28 | 64 bytes from 103.41.63.43: seq=1 ttl=52 time=119.521 ms
ping_12 | 64 bytes from 103.41.63.43: seq=11 ttl=52 time=119.840 ms
ping_5  | 64 bytes from 103.41.63.43: seq=12 ttl=52 time=119.517 ms
ping_31 | 64 bytes from 103.41.63.43: seq=1 ttl=52 time=119.820 ms
ping_29 | 64 bytes from 103.41.63.43: seq=3 ttl=52 time=119.446 ms
ping_35 | 64 bytes from 103.41.63.43: seq=7 ttl=52 time=119.616 ms
ping_39 | 64 bytes from 103.41.63.43: seq=6 ttl=52 time=119.431 ms
ping_35 | 64 bytes from 103.41.63.43: seq=8 ttl=52 time=119.560 ms
ping_37 | 64 bytes from 103.41.63.43: seq=1 ttl=52 time=119.502 ms
ping_21 | PING speedtest.softether.co.jp (103.41.63.43): 56 data bytes
ping_27 | PING speedtest.softether.co.jp (103.41.63.43): 56 data bytes
ping_12 | 64 bytes from 103.41.63.43: seq=12 ttl=52 time=119.922 ms
ping_31 | 64 bytes from 103.41.63.43: seq=2 ttl=52 time=119.898 ms
ping_34 | 64 bytes from 103.41.63.43: seq=7 ttl=52 time=119.654 ms
ping_39 | 64 bytes from 103.41.63.43: seq=7 ttl=52 time=120.049 ms
ping_5  | 64 bytes from 103.41.63.43: seq=13 ttl=52 time=119.463 ms
ping_22 | PING speedtest.softether.co.jp (103.41.63.43): 56 data bytes
ping_19 | 64 bytes from 103.41.63.43: seq=9 ttl=52 time=119.534 ms
ping_25 | 64 bytes from 103.41.63.43: seq=3 ttl=52 time=119.706 ms
ping_39 | 64 bytes from 103.41.63.43: seq=8 ttl=52 time=119.850 ms
ping_34 | 64 bytes from 103.41.63.43: seq=8 ttl=52 time=119.766 ms
ping_27 | 64 bytes from 103.41.63.43: seq=0 ttl=52 time=119.803 ms
ping_29 | 64 bytes from 103.41.63.43: seq=4 ttl=52 time=119.447 ms
ping_12 | 64 bytes from 103.41.63.43: seq=13 ttl=52 time=119.870 ms
ping_31 | 64 bytes from 103.41.63.43: seq=3 ttl=52 time=120.012 ms
ping_22 | 64 bytes from 103.41.63.43: seq=0 ttl=52 time=119.455 ms
ping_21 | 64 bytes from 103.41.63.43: seq=0 ttl=52 time=119.625 ms
ping_25 | 64 bytes from 103.41.63.43: seq=4 ttl=52 time=119.658 ms
ping_31 | 64 bytes from 103.41.63.43: seq=4 ttl=52 time=119.885 ms
ping_21 | 64 bytes from 103.41.63.43: seq=1 ttl=52 time=119.915 ms
ping_37 | 64 bytes from 103.41.63.43: seq=2 ttl=52 time=120.138 ms
ping_25 | 64 bytes from 103.41.63.43: seq=5 ttl=52 time=119.875 ms
ping_22 | 64 bytes from 103.41.63.43: seq=1 ttl=52 time=119.376 ms
ping_29 | 64 bytes from 103.41.63.43: seq=5 ttl=52 time=119.404 ms
ping_12 | 64 bytes from 103.41.63.43: seq=14 ttl=52 time=119.890 ms
ping_33 | PING speedtest.softether.co.jp (103.41.63.43): 56 data bytes
ping_27 | 64 bytes from 103.41.63.43: seq=1 ttl=52 time=119.625 ms
ping_35 | 64 bytes from 103.41.63.43: seq=9 ttl=52 time=119.840 ms
ping_37 | 64 bytes from 103.41.63.43: seq=3 ttl=52 time=119.799 ms
ping_31 | 64 bytes from 103.41.63.43: seq=5 ttl=52 time=119.514 ms
ping_29 | 64 bytes from 103.41.63.43: seq=6 ttl=52 time=119.557 ms
ping_19 | 64 bytes from 103.41.63.43: seq=10 ttl=52 time=119.850 ms
ping_21 | 64 bytes from 103.41.63.43: seq=2 ttl=52 time=119.494 ms
ping_37 | 64 bytes from 103.41.63.43: seq=4 ttl=52 time=119.541 ms
ping_33 | 64 bytes from 103.41.63.43: seq=0 ttl=52 time=119.464 ms
ping_29 | 64 bytes from 103.41.63.43: seq=7 ttl=52 time=119.572 ms
ping_19 | 64 bytes from 103.41.63.43: seq=11 ttl=52 time=119.895 ms
ping_31 | 64 bytes from 103.41.63.43: seq=6 ttl=52 time=119.447 ms
ping_28 | 64 bytes from 103.41.63.43: seq=2 ttl=52 time=119.814 ms
ping_22 | 64 bytes from 103.41.63.43: seq=2 ttl=52 time=119.843 ms
ping_24 | PING speedtest.softether.co.jp (103.41.63.43): 56 data bytes
ping_25 | 64 bytes from 103.41.63.43: seq=6 ttl=52 time=119.862 ms
ping_31 | 64 bytes from 103.41.63.43: seq=7 ttl=52 time=119.591 ms
ping_12 | 64 bytes from 103.41.63.43: seq=15 ttl=52 time=119.970 ms
ping_37 | 64 bytes from 103.41.63.43: seq=5 ttl=52 time=119.743 ms
ping_28 | 64 bytes from 103.41.63.43: seq=3 ttl=52 time=119.874 ms
ping_21 | 64 bytes from 103.41.63.43: seq=3 ttl=52 time=119.883 ms
ping_22 | 64 bytes from 103.41.63.43: seq=3 ttl=52 time=119.405 ms
ping_24 | 64 bytes from 103.41.63.43: seq=0 ttl=52 time=119.826 ms
ping_37 | 64 bytes from 103.41.63.43: seq=6 ttl=52 time=119.527 ms
ping_23 | PING speedtest.softether.co.jp (103.41.63.43): 56 data bytes
ping_21 | 64 bytes from 103.41.63.43: seq=4 ttl=52 time=119.718 ms
ping_22 | 64 bytes from 103.41.63.43: seq=4 ttl=52 time=119.610 ms
ping_25 | 64 bytes from 103.41.63.43: seq=7 ttl=52 time=119.577 ms
ping_19 | 64 bytes from 103.41.63.43: seq=12 ttl=52 time=119.570 ms
ping_33 | 64 bytes from 103.41.63.43: seq=1 ttl=52 time=119.490 ms
ping_28 | 64 bytes from 103.41.63.43: seq=4 ttl=52 time=119.935 ms
ping_31 | 64 bytes from 103.41.63.43: seq=8 ttl=52 time=119.603 ms
ping_24 | 64 bytes from 103.41.63.43: seq=1 ttl=52 time=119.690 ms
ping_29 | 64 bytes from 103.41.63.43: seq=8 ttl=52 time=119.649 ms
ping_23 | 64 bytes from 103.41.63.43: seq=0 ttl=52 time=119.485 ms
ping_21 | 64 bytes from 103.41.63.43: seq=5 ttl=52 time=119.920 ms
ping_22 | 64 bytes from 103.41.63.43: seq=5 ttl=52 time=119.481 ms
ping_27 | 64 bytes from 103.41.63.43: seq=2 ttl=52 time=119.813 ms
ping_28 | 64 bytes from 103.41.63.43: seq=5 ttl=52 time=119.866 ms
ping_23 | 64 bytes from 103.41.63.43: seq=1 ttl=52 time=119.547 ms
ping_24 | 64 bytes from 103.41.63.43: seq=2 ttl=52 time=119.760 ms
ping_30 | PING speedtest.softether.co.jp (103.41.63.43): 56 data bytes
ping_28 | 64 bytes from 103.41.63.43: seq=6 ttl=52 time=120.038 ms
ping_27 | 64 bytes from 103.41.63.43: seq=3 ttl=52 time=119.510 ms
ping_23 | 64 bytes from 103.41.63.43: seq=2 ttl=52 time=119.489 ms
ping_21 | 64 bytes from 103.41.63.43: seq=6 ttl=52 time=119.524 ms
ping_19 | 64 bytes from 103.41.63.43: seq=13 ttl=52 time=119.503 ms
ping_33 | 64 bytes from 103.41.63.43: seq=2 ttl=52 time=119.414 ms
ping_37 | 64 bytes from 103.41.63.43: seq=7 ttl=52 time=119.403 ms
ping_30 | 64 bytes from 103.41.63.43: seq=0 ttl=52 time=119.464 ms
ping_33 | 64 bytes from 103.41.63.43: seq=3 ttl=52 time=119.956 ms
ping_24 | 64 bytes from 103.41.63.43: seq=3 ttl=52 time=119.967 ms
ping_28 | 64 bytes from 103.41.63.43: seq=7 ttl=52 time=119.661 ms
ping_19 | 64 bytes from 103.41.63.43: seq=14 ttl=52 time=119.456 ms
ping_33 | 64 bytes from 103.41.63.43: seq=4 ttl=52 time=119.874 ms
ping_38 | PING speedtest.softether.co.jp (103.41.63.43): 56 data bytes
ping_23 | 64 bytes from 103.41.63.43: seq=3 ttl=52 time=119.574 ms
ping_27 | 64 bytes from 103.41.63.43: seq=4 ttl=52 time=119.559 ms
ping_30 | 64 bytes from 103.41.63.43: seq=1 ttl=52 time=119.400 ms
ping_24 | 64 bytes from 103.41.63.43: seq=4 ttl=52 time=119.344 ms
ping_27 | 64 bytes from 103.41.63.43: seq=5 ttl=52 time=119.629 ms
ping_38 | 64 bytes from 103.41.63.43: seq=0 ttl=52 time=119.836 ms
ping_19 | 64 bytes from 103.41.63.43: seq=15 ttl=52 time=119.402 ms
ping_27 | 64 bytes from 103.41.63.43: seq=6 ttl=52 time=119.956 ms
ping_30 | 64 bytes from 103.41.63.43: seq=2 ttl=52 time=119.385 ms
ping_40 | PING speedtest.softether.co.jp (103.41.63.43): 56 data bytes
ping_40 | 64 bytes from 103.41.63.43: seq=0 ttl=52 time=119.486 ms
ping_36 | 64 bytes from 103.41.63.43: seq=10 ttl=52 time=119.735 ms
ping_39 | 64 bytes from 103.41.63.43: seq=9 ttl=52 time=119.443 ms
ping_38 | 64 bytes from 103.41.63.43: seq=1 ttl=52 time=119.553 ms
ping_9  | 64 bytes from 103.41.63.43: seq=22 ttl=52 time=119.437 ms
ping_12 | 64 bytes from 103.41.63.43: seq=16 ttl=52 time=119.453 ms
ping_3  | 64 bytes from 103.41.63.43: seq=23 ttl=52 time=119.619 ms
ping_18 | 64 bytes from 103.41.63.43: seq=20 ttl=52 time=119.575 ms
ping_27 | 64 bytes from 103.41.63.43: seq=7 ttl=52 time=119.609 ms
ping_34 | 64 bytes from 103.41.63.43: seq=9 ttl=52 time=119.769 ms
ping_6  | 64 bytes from 103.41.63.43: seq=21 ttl=52 time=119.874 ms
ping_28 | 64 bytes from 103.41.63.43: seq=8 ttl=52 time=119.861 ms
ping_35 | 64 bytes from 103.41.63.43: seq=10 ttl=52 time=119.838 ms
ping_17 | 64 bytes from 103.41.63.43: seq=24 ttl=52 time=119.937 ms
ping_17 | 
ping_17 | --- speedtest.softether.co.jp ping statistics ---
ping_17 | 25 packets transmitted, 25 packets received, 0% packet loss
ping_17 | round-trip min/avg/max = 119.361/120.382/126.056 ms
ping_1  | 64 bytes from 103.41.63.43: seq=18 ttl=52 time=119.524 ms
ping_7  | 64 bytes from 103.41.63.43: seq=22 ttl=52 time=119.699 ms
ping_26 | 64 bytes from 103.41.63.43: seq=8 ttl=52 time=119.493 ms
ping_16 | 64 bytes from 103.41.63.43: seq=19 ttl=52 time=119.873 ms
ping_20 | 64 bytes from 103.41.63.43: seq=20 ttl=52 time=119.851 ms
ping_29 | 64 bytes from 103.41.63.43: seq=9 ttl=52 time=119.794 ms
ping_33 | 64 bytes from 103.41.63.43: seq=5 ttl=52 time=119.626 ms
ping_32 | 64 bytes from 103.41.63.43: seq=11 ttl=52 time=119.465 ms
ping_25 | 64 bytes from 103.41.63.43: seq=8 ttl=52 time=119.418 ms
ping_21 | 64 bytes from 103.41.63.43: seq=7 ttl=52 time=119.493 ms
ping_11 | 64 bytes from 103.41.63.43: seq=23 ttl=52 time=119.270 ms
ping_8  | 64 bytes from 103.41.63.43: seq=17 ttl=52 time=119.228 ms
ping_23 | 64 bytes from 103.41.63.43: seq=4 ttl=52 time=119.471 ms
ping_22 | 64 bytes from 103.41.63.43: seq=6 ttl=52 time=120.080 ms
softwareoverhead_ping_17 exited with code 0
ping_15 | 64 bytes from 103.41.63.43: seq=20 ttl=52 time=119.432 ms
ping_14 | 64 bytes from 103.41.63.43: seq=22 ttl=52 time=119.606 ms
ping_10 | 64 bytes from 103.41.63.43: seq=18 ttl=52 time=119.501 ms
ping_31 | 64 bytes from 103.41.63.43: seq=9 ttl=52 time=119.641 ms
ping_4  | 64 bytes from 103.41.63.43: seq=15 ttl=52 time=119.701 ms
ping_2  | 64 bytes from 103.41.63.43: seq=19 ttl=52 time=119.789 ms
ping_24 | 64 bytes from 103.41.63.43: seq=5 ttl=52 time=119.657 ms
ping_19 | 64 bytes from 103.41.63.43: seq=16 ttl=52 time=119.557 ms
ping_37 | 64 bytes from 103.41.63.43: seq=8 ttl=52 time=119.540 ms
ping_13 | 64 bytes from 103.41.63.43: seq=21 ttl=52 time=119.609 ms
ping_5  | 64 bytes from 103.41.63.43: seq=14 ttl=52 time=119.732 ms
ping_30 | 64 bytes from 103.41.63.43: seq=3 ttl=52 time=119.745 ms
ping_40 | 64 bytes from 103.41.63.43: seq=1 ttl=52 time=119.922 ms
ping_36 | 64 bytes from 103.41.63.43: seq=11 ttl=52 time=119.912 ms
ping_39 | 64 bytes from 103.41.63.43: seq=10 ttl=52 time=119.620 ms
ping_38 | 64 bytes from 103.41.63.43: seq=2 ttl=52 time=119.979 ms
ping_9  | 64 bytes from 103.41.63.43: seq=23 ttl=52 time=119.598 ms
ping_12 | 64 bytes from 103.41.63.43: seq=17 ttl=52 time=119.556 ms
ping_3  | 64 bytes from 103.41.63.43: seq=24 ttl=52 time=119.926 ms
ping_3  | 
ping_3  | --- speedtest.softether.co.jp ping statistics ---
ping_3  | 25 packets transmitted, 25 packets received, 0% packet loss
ping_3  | round-trip min/avg/max = 119.436/120.223/126.108 ms
ping_18 | 64 bytes from 103.41.63.43: seq=21 ttl=52 time=119.971 ms
ping_27 | 64 bytes from 103.41.63.43: seq=8 ttl=52 time=119.801 ms
ping_34 | 64 bytes from 103.41.63.43: seq=10 ttl=52 time=119.431 ms
ping_6  | 64 bytes from 103.41.63.43: seq=22 ttl=52 time=119.429 ms
ping_28 | 64 bytes from 103.41.63.43: seq=9 ttl=52 time=119.702 ms
ping_35 | 64 bytes from 103.41.63.43: seq=11 ttl=52 time=119.478 ms
ping_1  | 64 bytes from 103.41.63.43: seq=19 ttl=52 time=119.606 ms
ping_7  | 64 bytes from 103.41.63.43: seq=23 ttl=52 time=119.393 ms
ping_26 | 64 bytes from 103.41.63.43: seq=9 ttl=52 time=119.425 ms
ping_16 | 64 bytes from 103.41.63.43: seq=20 ttl=52 time=119.302 ms
ping_20 | 64 bytes from 103.41.63.43: seq=21 ttl=52 time=119.336 ms
ping_29 | 64 bytes from 103.41.63.43: seq=10 ttl=52 time=119.341 ms
softwareoverhead_ping_3 exited with code 0
ping_33 | 64 bytes from 103.41.63.43: seq=6 ttl=52 time=120.045 ms
ping_32 | 64 bytes from 103.41.63.43: seq=12 ttl=52 time=119.865 ms
ping_25 | 64 bytes from 103.41.63.43: seq=9 ttl=52 time=119.736 ms
ping_21 | 64 bytes from 103.41.63.43: seq=8 ttl=52 time=119.810 ms
ping_8  | 64 bytes from 103.41.63.43: seq=18 ttl=52 time=119.589 ms
ping_11 | 64 bytes from 103.41.63.43: seq=24 ttl=52 time=119.628 ms
ping_23 | 64 bytes from 103.41.63.43: seq=5 ttl=52 time=119.714 ms
ping_22 | 64 bytes from 103.41.63.43: seq=7 ttl=52 time=119.524 ms
ping_15 | 64 bytes from 103.41.63.43: seq=21 ttl=52 time=119.910 ms
ping_14 | 64 bytes from 103.41.63.43: seq=23 ttl=52 time=119.816 ms
ping_31 | 64 bytes from 103.41.63.43: seq=10 ttl=52 time=119.575 ms
ping_10 | 64 bytes from 103.41.63.43: seq=19 ttl=52 time=119.573 ms
ping_4  | 64 bytes from 103.41.63.43: seq=16 ttl=52 time=119.575 ms
ping_2  | 64 bytes from 103.41.63.43: seq=20 ttl=52 time=119.852 ms
ping_24 | 64 bytes from 103.41.63.43: seq=6 ttl=52 time=120.013 ms
ping_19 | 64 bytes from 103.41.63.43: seq=17 ttl=52 time=119.457 ms
ping_37 | 64 bytes from 103.41.63.43: seq=9 ttl=52 time=119.492 ms
ping_13 | 64 bytes from 103.41.63.43: seq=22 ttl=52 time=119.535 ms
ping_5  | 64 bytes from 103.41.63.43: seq=15 ttl=52 time=119.557 ms
ping_30 | 64 bytes from 103.41.63.43: seq=4 ttl=52 time=119.468 ms
ping_40 | 64 bytes from 103.41.63.43: seq=2 ttl=52 time=119.841 ms
ping_36 | 64 bytes from 103.41.63.43: seq=12 ttl=52 time=119.730 ms
ping_39 | 64 bytes from 103.41.63.43: seq=11 ttl=52 time=119.994 ms
ping_38 | 64 bytes from 103.41.63.43: seq=3 ttl=52 time=119.614 ms
ping_9  | 64 bytes from 103.41.63.43: seq=24 ttl=52 time=119.631 ms
ping_9  | 
ping_9  | --- speedtest.softether.co.jp ping statistics ---
ping_9  | 25 packets transmitted, 25 packets received, 0% packet loss
ping_9  | round-trip min/avg/max = 119.377/119.673/120.060 ms
ping_12 | 64 bytes from 103.41.63.43: seq=18 ttl=52 time=119.531 ms
ping_18 | 64 bytes from 103.41.63.43: seq=22 ttl=52 time=119.924 ms
ping_27 | 64 bytes from 103.41.63.43: seq=9 ttl=52 time=119.560 ms
ping_34 | 64 bytes from 103.41.63.43: seq=11 ttl=52 time=119.588 ms
ping_6  | 64 bytes from 103.41.63.43: seq=23 ttl=52 time=119.488 ms
ping_28 | 64 bytes from 103.41.63.43: seq=10 ttl=52 time=119.528 ms
ping_35 | 64 bytes from 103.41.63.43: seq=12 ttl=52 time=119.331 ms
softwareoverhead_ping_9 exited with code 0
ping_1  | 64 bytes from 103.41.63.43: seq=20 ttl=52 time=119.536 ms
ping_7  | 64 bytes from 103.41.63.43: seq=24 ttl=52 time=119.890 ms
ping_7  | 
ping_7  | --- speedtest.softether.co.jp ping statistics ---
ping_7  | 25 packets transmitted, 25 packets received, 0% packet loss
ping_7  | round-trip min/avg/max = 119.340/119.680/120.937 ms
ping_26 | 64 bytes from 103.41.63.43: seq=10 ttl=52 time=120.108 ms
ping_16 | 64 bytes from 103.41.63.43: seq=21 ttl=52 time=119.498 ms
ping_20 | 64 bytes from 103.41.63.43: seq=22 ttl=52 time=120.176 ms
ping_29 | 64 bytes from 103.41.63.43: seq=11 ttl=52 time=119.613 ms
ping_11 | 
ping_11 | --- speedtest.softether.co.jp ping statistics ---
ping_11 | 25 packets transmitted, 24 packets received, 4% packet loss
ping_11 | round-trip min/avg/max = 119.270/119.531/119.773 ms
ping_33 | 64 bytes from 103.41.63.43: seq=7 ttl=52 time=119.508 ms
ping_32 | 64 bytes from 103.41.63.43: seq=13 ttl=52 time=119.477 ms
ping_25 | 64 bytes from 103.41.63.43: seq=10 ttl=52 time=119.383 ms
ping_21 | 64 bytes from 103.41.63.43: seq=9 ttl=52 time=119.354 ms
ping_8  | 64 bytes from 103.41.63.43: seq=19 ttl=52 time=119.630 ms
ping_23 | 64 bytes from 103.41.63.43: seq=6 ttl=52 time=119.516 ms
ping_22 | 64 bytes from 103.41.63.43: seq=8 ttl=52 time=121.862 ms
ping_15 | 64 bytes from 103.41.63.43: seq=22 ttl=52 time=119.701 ms
ping_14 | 64 bytes from 103.41.63.43: seq=24 ttl=52 time=119.811 ms
ping_14 | 
ping_14 | --- speedtest.softether.co.jp ping statistics ---
ping_14 | 25 packets transmitted, 25 packets received, 0% packet loss
ping_14 | round-trip min/avg/max = 119.325/120.098/125.162 ms
ping_10 | 64 bytes from 103.41.63.43: seq=20 ttl=52 time=119.416 ms
ping_31 | 64 bytes from 103.41.63.43: seq=11 ttl=52 time=119.417 ms
ping_4  | 64 bytes from 103.41.63.43: seq=17 ttl=52 time=119.513 ms
ping_2  | 64 bytes from 103.41.63.43: seq=21 ttl=52 time=119.600 ms
ping_24 | 64 bytes from 103.41.63.43: seq=7 ttl=52 time=119.561 ms
ping_19 | 64 bytes from 103.41.63.43: seq=18 ttl=52 time=119.547 ms
ping_37 | 64 bytes from 103.41.63.43: seq=10 ttl=52 time=119.715 ms
ping_13 | 64 bytes from 103.41.63.43: seq=23 ttl=52 time=119.508 ms
ping_5  | 64 bytes from 103.41.63.43: seq=16 ttl=52 time=119.571 ms
ping_30 | 64 bytes from 103.41.63.43: seq=5 ttl=52 time=119.446 ms
softwareoverhead_ping_7 exited with code 0
ping_40 | 64 bytes from 103.41.63.43: seq=3 ttl=52 time=119.568 ms
ping_36 | 64 bytes from 103.41.63.43: seq=13 ttl=52 time=119.535 ms
ping_39 | 64 bytes from 103.41.63.43: seq=12 ttl=52 time=119.431 ms
softwareoverhead_ping_11 exited with code 0
ping_38 | 64 bytes from 103.41.63.43: seq=4 ttl=52 time=119.293 ms
ping_12 | 64 bytes from 103.41.63.43: seq=19 ttl=52 time=119.428 ms
ping_18 | 64 bytes from 103.41.63.43: seq=23 ttl=52 time=119.470 ms
ping_27 | 64 bytes from 103.41.63.43: seq=10 ttl=52 time=119.451 ms
softwareoverhead_ping_14 exited with code 0
ping_34 | 64 bytes from 103.41.63.43: seq=12 ttl=52 time=119.743 ms
ping_6  | 64 bytes from 103.41.63.43: seq=24 ttl=52 time=119.631 ms
ping_6  | 
ping_6  | --- speedtest.softether.co.jp ping statistics ---
ping_6  | 25 packets transmitted, 25 packets received, 0% packet loss
ping_6  | round-trip min/avg/max = 119.409/119.874/122.857 ms
ping_28 | 64 bytes from 103.41.63.43: seq=11 ttl=52 time=119.613 ms
ping_35 | 64 bytes from 103.41.63.43: seq=13 ttl=52 time=119.547 ms
ping_1  | 64 bytes from 103.41.63.43: seq=21 ttl=52 time=119.486 ms
ping_26 | 64 bytes from 103.41.63.43: seq=11 ttl=52 time=119.585 ms
ping_16 | 64 bytes from 103.41.63.43: seq=22 ttl=52 time=119.381 ms
ping_20 | 64 bytes from 103.41.63.43: seq=23 ttl=52 time=119.332 ms
ping_29 | 64 bytes from 103.41.63.43: seq=12 ttl=52 time=119.364 ms
ping_33 | 64 bytes from 103.41.63.43: seq=8 ttl=52 time=119.448 ms
ping_32 | 64 bytes from 103.41.63.43: seq=14 ttl=52 time=119.710 ms
ping_25 | 64 bytes from 103.41.63.43: seq=11 ttl=52 time=119.462 ms
ping_21 | 64 bytes from 103.41.63.43: seq=10 ttl=52 time=119.599 ms
ping_8  | 64 bytes from 103.41.63.43: seq=20 ttl=52 time=119.419 ms
ping_23 | 64 bytes from 103.41.63.43: seq=7 ttl=52 time=119.380 ms
ping_22 | 64 bytes from 103.41.63.43: seq=9 ttl=52 time=119.324 ms
softwareoverhead_ping_6 exited with code 0
ping_15 | 64 bytes from 103.41.63.43: seq=23 ttl=52 time=119.443 ms
ping_10 | 64 bytes from 103.41.63.43: seq=21 ttl=52 time=119.471 ms
ping_31 | 64 bytes from 103.41.63.43: seq=12 ttl=52 time=119.480 ms
ping_4  | 64 bytes from 103.41.63.43: seq=18 ttl=52 time=119.833 ms
ping_2  | 64 bytes from 103.41.63.43: seq=22 ttl=52 time=119.794 ms
ping_24 | 64 bytes from 103.41.63.43: seq=8 ttl=52 time=119.584 ms
ping_19 | 64 bytes from 103.41.63.43: seq=19 ttl=52 time=119.790 ms
ping_37 | 64 bytes from 103.41.63.43: seq=11 ttl=52 time=119.980 ms
ping_13 | 64 bytes from 103.41.63.43: seq=24 ttl=52 time=120.085 ms
ping_13 | 
ping_13 | --- speedtest.softether.co.jp ping statistics ---
ping_13 | 25 packets transmitted, 25 packets received, 0% packet loss
ping_13 | round-trip min/avg/max = 119.350/119.730/121.210 ms
ping_5  | 64 bytes from 103.41.63.43: seq=17 ttl=52 time=119.915 ms
ping_30 | 64 bytes from 103.41.63.43: seq=6 ttl=52 time=119.481 ms
ping_40 | 64 bytes from 103.41.63.43: seq=4 ttl=52 time=119.539 ms
ping_36 | 64 bytes from 103.41.63.43: seq=14 ttl=52 time=119.413 ms
ping_39 | 64 bytes from 103.41.63.43: seq=13 ttl=52 time=119.639 ms
ping_38 | 64 bytes from 103.41.63.43: seq=5 ttl=52 time=119.868 ms
ping_12 | 64 bytes from 103.41.63.43: seq=20 ttl=52 time=119.463 ms
ping_18 | 64 bytes from 103.41.63.43: seq=24 ttl=52 time=119.459 ms
ping_18 | 
ping_18 | --- speedtest.softether.co.jp ping statistics ---
ping_18 | 25 packets transmitted, 25 packets received, 0% packet loss
ping_18 | round-trip min/avg/max = 119.404/119.956/125.500 ms
ping_27 | 64 bytes from 103.41.63.43: seq=11 ttl=52 time=119.441 ms
softwareoverhead_ping_13 exited with code 0
ping_34 | 64 bytes from 103.41.63.43: seq=13 ttl=52 time=119.489 ms
ping_28 | 64 bytes from 103.41.63.43: seq=12 ttl=52 time=119.773 ms
ping_35 | 64 bytes from 103.41.63.43: seq=14 ttl=52 time=119.503 ms
ping_1  | 64 bytes from 103.41.63.43: seq=22 ttl=52 time=119.543 ms
ping_26 | 64 bytes from 103.41.63.43: seq=12 ttl=52 time=119.603 ms
ping_16 | 64 bytes from 103.41.63.43: seq=23 ttl=52 time=119.881 ms
ping_20 | 64 bytes from 103.41.63.43: seq=24 ttl=52 time=119.438 ms
ping_20 | 
ping_20 | --- speedtest.softether.co.jp ping statistics ---
ping_20 | 25 packets transmitted, 25 packets received, 0% packet loss
ping_20 | round-trip min/avg/max = 119.276/119.896/127.117 ms
ping_29 | 64 bytes from 103.41.63.43: seq=13 ttl=52 time=119.433 ms
softwareoverhead_ping_18 exited with code 0
ping_33 | 64 bytes from 103.41.63.43: seq=9 ttl=52 time=119.465 ms
ping_32 | 64 bytes from 103.41.63.43: seq=15 ttl=52 time=119.414 ms
ping_25 | 64 bytes from 103.41.63.43: seq=12 ttl=52 time=119.606 ms
ping_21 | 64 bytes from 103.41.63.43: seq=11 ttl=52 time=119.526 ms
ping_8  | 64 bytes from 103.41.63.43: seq=21 ttl=52 time=119.557 ms
ping_23 | 64 bytes from 103.41.63.43: seq=8 ttl=52 time=119.406 ms
ping_22 | 64 bytes from 103.41.63.43: seq=10 ttl=52 time=119.443 ms
ping_15 | 64 bytes from 103.41.63.43: seq=24 ttl=52 time=119.606 ms
ping_15 | 
ping_15 | --- speedtest.softether.co.jp ping statistics ---
ping_15 | 25 packets transmitted, 25 packets received, 0% packet loss
ping_15 | round-trip min/avg/max = 119.334/120.069/126.721 ms
ping_31 | 64 bytes from 103.41.63.43: seq=13 ttl=52 time=119.465 ms
ping_4  | 64 bytes from 103.41.63.43: seq=19 ttl=52 time=119.374 ms
ping_2  | 64 bytes from 103.41.63.43: seq=23 ttl=52 time=119.470 ms
ping_24 | 64 bytes from 103.41.63.43: seq=9 ttl=52 time=119.482 ms
ping_19 | 64 bytes from 103.41.63.43: seq=20 ttl=52 time=119.357 ms
ping_37 | 64 bytes from 103.41.63.43: seq=12 ttl=52 time=119.388 ms
softwareoverhead_ping_20 exited with code 0
ping_5  | 64 bytes from 103.41.63.43: seq=18 ttl=52 time=119.446 ms
ping_30 | 64 bytes from 103.41.63.43: seq=7 ttl=52 time=119.784 ms
ping_40 | 64 bytes from 103.41.63.43: seq=5 ttl=52 time=119.467 ms
ping_36 | 64 bytes from 103.41.63.43: seq=15 ttl=52 time=119.370 ms
ping_39 | 64 bytes from 103.41.63.43: seq=14 ttl=52 time=119.527 ms
ping_38 | 64 bytes from 103.41.63.43: seq=6 ttl=52 time=119.676 ms
ping_12 | 64 bytes from 103.41.63.43: seq=21 ttl=52 time=119.498 ms
softwareoverhead_ping_15 exited with code 0
ping_27 | 64 bytes from 103.41.63.43: seq=12 ttl=52 time=119.892 ms
ping_34 | 64 bytes from 103.41.63.43: seq=14 ttl=52 time=119.708 ms
ping_28 | 64 bytes from 103.41.63.43: seq=13 ttl=52 time=119.564 ms
ping_35 | 64 bytes from 103.41.63.43: seq=15 ttl=52 time=119.478 ms
ping_1  | 64 bytes from 103.41.63.43: seq=23 ttl=52 time=119.947 ms
ping_26 | 64 bytes from 103.41.63.43: seq=13 ttl=52 time=120.149 ms
ping_16 | 64 bytes from 103.41.63.43: seq=24 ttl=52 time=119.732 ms
ping_16 | 
ping_16 | --- speedtest.softether.co.jp ping statistics ---
ping_16 | 25 packets transmitted, 25 packets received, 0% packet loss
ping_16 | round-trip min/avg/max = 119.302/120.156/127.570 ms
ping_29 | 64 bytes from 103.41.63.43: seq=14 ttl=52 time=119.770 ms
ping_33 | 64 bytes from 103.41.63.43: seq=10 ttl=52 time=119.539 ms
ping_32 | 64 bytes from 103.41.63.43: seq=16 ttl=52 time=119.480 ms
ping_25 | 64 bytes from 103.41.63.43: seq=13 ttl=52 time=119.620 ms
ping_21 | 64 bytes from 103.41.63.43: seq=12 ttl=52 time=119.400 ms
ping_8  | 64 bytes from 103.41.63.43: seq=22 ttl=52 time=119.537 ms
ping_23 | 64 bytes from 103.41.63.43: seq=9 ttl=52 time=119.602 ms
ping_22 | 64 bytes from 103.41.63.43: seq=11 ttl=52 time=119.575 ms
ping_10 | 64 bytes from 103.41.63.43: seq=23 ttl=52 time=119.589 ms
ping_31 | 64 bytes from 103.41.63.43: seq=14 ttl=52 time=119.566 ms
ping_4  | 64 bytes from 103.41.63.43: seq=20 ttl=52 time=119.543 ms
ping_2  | 64 bytes from 103.41.63.43: seq=24 ttl=52 time=119.637 ms
ping_2  | 
ping_2  | --- speedtest.softether.co.jp ping statistics ---
ping_2  | 25 packets transmitted, 25 packets received, 0% packet loss
ping_2  | round-trip min/avg/max = 119.369/119.647/119.971 ms
ping_24 | 64 bytes from 103.41.63.43: seq=10 ttl=52 time=119.372 ms
ping_19 | 64 bytes from 103.41.63.43: seq=21 ttl=52 time=119.369 ms
ping_37 | 64 bytes from 103.41.63.43: seq=13 ttl=52 time=119.413 ms
ping_5  | 64 bytes from 103.41.63.43: seq=19 ttl=52 time=119.452 ms
softwareoverhead_ping_16 exited with code 0
ping_30 | 64 bytes from 103.41.63.43: seq=8 ttl=52 time=119.401 ms
ping_40 | 64 bytes from 103.41.63.43: seq=6 ttl=52 time=119.565 ms
ping_36 | 64 bytes from 103.41.63.43: seq=16 ttl=52 time=119.365 ms
ping_39 | 64 bytes from 103.41.63.43: seq=15 ttl=52 time=119.761 ms
ping_38 | 64 bytes from 103.41.63.43: seq=7 ttl=52 time=119.587 ms
ping_12 | 64 bytes from 103.41.63.43: seq=22 ttl=52 time=119.907 ms
ping_27 | 64 bytes from 103.41.63.43: seq=13 ttl=52 time=119.438 ms
softwareoverhead_ping_2 exited with code 0
ping_34 | 64 bytes from 103.41.63.43: seq=15 ttl=52 time=119.461 ms
ping_35 | 64 bytes from 103.41.63.43: seq=16 ttl=52 time=119.523 ms
ping_28 | 64 bytes from 103.41.63.43: seq=14 ttl=52 time=119.908 ms
ping_1  | 64 bytes from 103.41.63.43: seq=24 ttl=52 time=119.648 ms
ping_1  | 
ping_1  | --- speedtest.softether.co.jp ping statistics ---
ping_1  | 25 packets transmitted, 25 packets received, 0% packet loss
ping_1  | round-trip min/avg/max = 119.410/119.821/122.358 ms
ping_26 | 64 bytes from 103.41.63.43: seq=14 ttl=52 time=119.515 ms
ping_29 | 64 bytes from 103.41.63.43: seq=15 ttl=52 time=119.494 ms
ping_33 | 64 bytes from 103.41.63.43: seq=11 ttl=52 time=119.408 ms
ping_32 | 64 bytes from 103.41.63.43: seq=17 ttl=52 time=119.571 ms
ping_25 | 64 bytes from 103.41.63.43: seq=14 ttl=52 time=119.694 ms
ping_21 | 64 bytes from 103.41.63.43: seq=13 ttl=52 time=119.483 ms
ping_8  | 64 bytes from 103.41.63.43: seq=23 ttl=52 time=119.439 ms
ping_23 | 64 bytes from 103.41.63.43: seq=10 ttl=52 time=119.432 ms
ping_22 | 64 bytes from 103.41.63.43: seq=12 ttl=52 time=119.570 ms
ping_31 | 64 bytes from 103.41.63.43: seq=15 ttl=52 time=119.445 ms
ping_10 | 64 bytes from 103.41.63.43: seq=24 ttl=52 time=119.445 ms
ping_4  | 64 bytes from 103.41.63.43: seq=21 ttl=52 time=119.419 ms
softwareoverhead_ping_1 exited with code 0
ping_24 | 64 bytes from 103.41.63.43: seq=11 ttl=52 time=119.544 ms
ping_19 | 64 bytes from 103.41.63.43: seq=22 ttl=52 time=119.532 ms
ping_37 | 64 bytes from 103.41.63.43: seq=14 ttl=52 time=119.569 ms
ping_5  | 64 bytes from 103.41.63.43: seq=20 ttl=52 time=119.756 ms
ping_30 | 64 bytes from 103.41.63.43: seq=9 ttl=52 time=119.798 ms
ping_40 | 64 bytes from 103.41.63.43: seq=7 ttl=52 time=119.651 ms
ping_36 | 64 bytes from 103.41.63.43: seq=17 ttl=52 time=119.781 ms
ping_39 | 64 bytes from 103.41.63.43: seq=16 ttl=52 time=119.938 ms
ping_38 | 64 bytes from 103.41.63.43: seq=8 ttl=52 time=119.908 ms
ping_12 | 64 bytes from 103.41.63.43: seq=23 ttl=52 time=119.985 ms
ping_27 | 64 bytes from 103.41.63.43: seq=14 ttl=52 time=119.723 ms
ping_34 | 64 bytes from 103.41.63.43: seq=16 ttl=52 time=119.667 ms
ping_35 | 64 bytes from 103.41.63.43: seq=17 ttl=52 time=119.815 ms
ping_28 | 64 bytes from 103.41.63.43: seq=15 ttl=52 time=120.062 ms
ping_26 | 64 bytes from 103.41.63.43: seq=15 ttl=52 time=119.620 ms
ping_29 | 64 bytes from 103.41.63.43: seq=16 ttl=52 time=120.108 ms
ping_33 | 64 bytes from 103.41.63.43: seq=12 ttl=52 time=119.988 ms
ping_32 | 64 bytes from 103.41.63.43: seq=18 ttl=52 time=119.906 ms
ping_25 | 64 bytes from 103.41.63.43: seq=15 ttl=52 time=119.926 ms
ping_21 | 64 bytes from 103.41.63.43: seq=14 ttl=52 time=120.073 ms
ping_8  | 64 bytes from 103.41.63.43: seq=24 ttl=52 time=120.049 ms
ping_8  | 
ping_8  | --- speedtest.softether.co.jp ping statistics ---
ping_8  | 25 packets transmitted, 25 packets received, 0% packet loss
ping_8  | round-trip min/avg/max = 119.228/119.548/120.049 ms
ping_10 | 
ping_10 | --- speedtest.softether.co.jp ping statistics ---
ping_10 | 25 packets transmitted, 24 packets received, 4% packet loss
ping_10 | round-trip min/avg/max = 119.368/119.569/119.913 ms
ping_23 | 64 bytes from 103.41.63.43: seq=11 ttl=52 time=119.732 ms
ping_22 | 64 bytes from 103.41.63.43: seq=13 ttl=52 time=119.452 ms
ping_31 | 64 bytes from 103.41.63.43: seq=16 ttl=52 time=119.426 ms
ping_4  | 64 bytes from 103.41.63.43: seq=22 ttl=52 time=119.567 ms
ping_24 | 64 bytes from 103.41.63.43: seq=12 ttl=52 time=119.648 ms
ping_19 | 64 bytes from 103.41.63.43: seq=23 ttl=52 time=119.577 ms
ping_37 | 64 bytes from 103.41.63.43: seq=15 ttl=52 time=119.389 ms
ping_5  | 64 bytes from 103.41.63.43: seq=21 ttl=52 time=119.454 ms
ping_30 | 64 bytes from 103.41.63.43: seq=10 ttl=52 time=119.321 ms
ping_40 | 64 bytes from 103.41.63.43: seq=8 ttl=52 time=119.489 ms
ping_36 | 64 bytes from 103.41.63.43: seq=18 ttl=52 time=119.658 ms
ping_39 | 64 bytes from 103.41.63.43: seq=17 ttl=52 time=119.617 ms
ping_38 | 64 bytes from 103.41.63.43: seq=9 ttl=52 time=119.617 ms
ping_12 | 64 bytes from 103.41.63.43: seq=24 ttl=52 time=119.618 ms
ping_12 | 
ping_12 | --- speedtest.softether.co.jp ping statistics ---
ping_12 | 25 packets transmitted, 25 packets received, 0% packet loss
ping_12 | round-trip min/avg/max = 119.353/119.687/120.235 ms
softwareoverhead_ping_10 exited with code 0
ping_27 | 64 bytes from 103.41.63.43: seq=15 ttl=52 time=119.409 ms
softwareoverhead_ping_8 exited with code 0
ping_34 | 64 bytes from 103.41.63.43: seq=17 ttl=52 time=119.539 ms
ping_35 | 64 bytes from 103.41.63.43: seq=18 ttl=52 time=119.370 ms
ping_28 | 64 bytes from 103.41.63.43: seq=16 ttl=52 time=119.379 ms
ping_26 | 64 bytes from 103.41.63.43: seq=16 ttl=52 time=119.480 ms
softwareoverhead_ping_12 exited with code 0
ping_29 | 64 bytes from 103.41.63.43: seq=17 ttl=52 time=119.417 ms
ping_33 | 64 bytes from 103.41.63.43: seq=13 ttl=52 time=119.899 ms
ping_32 | 64 bytes from 103.41.63.43: seq=19 ttl=52 time=119.582 ms
ping_25 | 64 bytes from 103.41.63.43: seq=16 ttl=52 time=119.702 ms
ping_21 | 64 bytes from 103.41.63.43: seq=15 ttl=52 time=119.518 ms
ping_23 | 64 bytes from 103.41.63.43: seq=12 ttl=52 time=119.722 ms
ping_22 | 64 bytes from 103.41.63.43: seq=14 ttl=52 time=119.426 ms
ping_31 | 64 bytes from 103.41.63.43: seq=17 ttl=52 time=119.751 ms
ping_4  | 64 bytes from 103.41.63.43: seq=23 ttl=52 time=119.952 ms
ping_24 | 64 bytes from 103.41.63.43: seq=13 ttl=52 time=119.790 ms
ping_19 | 64 bytes from 103.41.63.43: seq=24 ttl=52 time=119.570 ms
ping_19 | 
ping_19 | --- speedtest.softether.co.jp ping statistics ---
ping_19 | 25 packets transmitted, 25 packets received, 0% packet loss
ping_19 | round-trip min/avg/max = 119.357/119.615/120.464 ms
ping_37 | 64 bytes from 103.41.63.43: seq=16 ttl=52 time=119.614 ms
ping_5  | 64 bytes from 103.41.63.43: seq=22 ttl=52 time=119.607 ms
ping_30 | 64 bytes from 103.41.63.43: seq=11 ttl=52 time=119.418 ms
ping_40 | 64 bytes from 103.41.63.43: seq=9 ttl=52 time=119.779 ms
ping_36 | 64 bytes from 103.41.63.43: seq=19 ttl=52 time=119.438 ms
ping_39 | 64 bytes from 103.41.63.43: seq=18 ttl=52 time=120.011 ms
ping_38 | 64 bytes from 103.41.63.43: seq=10 ttl=52 time=119.403 ms
ping_27 | 64 bytes from 103.41.63.43: seq=16 ttl=52 time=119.373 ms
softwareoverhead_ping_19 exited with code 0
ping_34 | 64 bytes from 103.41.63.43: seq=18 ttl=52 time=119.479 ms
ping_28 | 64 bytes from 103.41.63.43: seq=17 ttl=52 time=119.539 ms
ping_35 | 64 bytes from 103.41.63.43: seq=19 ttl=52 time=119.589 ms
ping_26 | 64 bytes from 103.41.63.43: seq=17 ttl=52 time=119.920 ms
ping_29 | 64 bytes from 103.41.63.43: seq=18 ttl=52 time=119.918 ms
ping_33 | 64 bytes from 103.41.63.43: seq=14 ttl=52 time=119.981 ms
ping_32 | 64 bytes from 103.41.63.43: seq=20 ttl=52 time=119.755 ms
ping_25 | 64 bytes from 103.41.63.43: seq=17 ttl=52 time=119.788 ms
ping_21 | 64 bytes from 103.41.63.43: seq=16 ttl=52 time=119.962 ms
ping_23 | 64 bytes from 103.41.63.43: seq=13 ttl=52 time=119.729 ms
ping_22 | 64 bytes from 103.41.63.43: seq=15 ttl=52 time=119.453 ms
ping_31 | 64 bytes from 103.41.63.43: seq=18 ttl=52 time=119.970 ms
ping_4  | 64 bytes from 103.41.63.43: seq=24 ttl=52 time=119.934 ms
ping_4  | 
ping_4  | --- speedtest.softether.co.jp ping statistics ---
ping_4  | 25 packets transmitted, 25 packets received, 0% packet loss
ping_4  | round-trip min/avg/max = 119.374/119.807/123.041 ms
ping_24 | 64 bytes from 103.41.63.43: seq=14 ttl=52 time=119.607 ms
ping_37 | 64 bytes from 103.41.63.43: seq=17 ttl=52 time=119.463 ms
ping_5  | 64 bytes from 103.41.63.43: seq=23 ttl=52 time=119.422 ms
ping_30 | 64 bytes from 103.41.63.43: seq=12 ttl=52 time=119.452 ms
ping_40 | 64 bytes from 103.41.63.43: seq=10 ttl=52 time=119.326 ms
ping_36 | 64 bytes from 103.41.63.43: seq=20 ttl=52 time=119.484 ms
ping_39 | 64 bytes from 103.41.63.43: seq=19 ttl=52 time=119.528 ms
ping_38 | 64 bytes from 103.41.63.43: seq=11 ttl=52 time=119.362 ms
softwareoverhead_ping_4 exited with code 0
ping_27 | 64 bytes from 103.41.63.43: seq=17 ttl=52 time=119.310 ms
ping_34 | 64 bytes from 103.41.63.43: seq=19 ttl=52 time=119.615 ms
ping_35 | 64 bytes from 103.41.63.43: seq=20 ttl=52 time=119.603 ms
ping_28 | 64 bytes from 103.41.63.43: seq=18 ttl=52 time=119.605 ms
ping_26 | 64 bytes from 103.41.63.43: seq=18 ttl=52 time=119.841 ms
ping_29 | 64 bytes from 103.41.63.43: seq=19 ttl=52 time=119.633 ms
ping_33 | 64 bytes from 103.41.63.43: seq=15 ttl=52 time=119.578 ms
ping_32 | 64 bytes from 103.41.63.43: seq=21 ttl=52 time=119.819 ms
ping_25 | 64 bytes from 103.41.63.43: seq=18 ttl=52 time=120.002 ms
ping_21 | 64 bytes from 103.41.63.43: seq=17 ttl=52 time=119.581 ms
ping_23 | 64 bytes from 103.41.63.43: seq=14 ttl=52 time=119.615 ms
ping_22 | 64 bytes from 103.41.63.43: seq=16 ttl=52 time=119.599 ms
ping_31 | 64 bytes from 103.41.63.43: seq=19 ttl=52 time=119.423 ms
ping_24 | 64 bytes from 103.41.63.43: seq=15 ttl=52 time=120.069 ms
ping_37 | 64 bytes from 103.41.63.43: seq=18 ttl=52 time=119.687 ms
ping_5  | 64 bytes from 103.41.63.43: seq=24 ttl=52 time=119.827 ms
ping_5  | 
ping_5  | --- speedtest.softether.co.jp ping statistics ---
ping_5  | 25 packets transmitted, 25 packets received, 0% packet loss
ping_5  | round-trip min/avg/max = 119.309/119.651/120.039 ms
ping_30 | 64 bytes from 103.41.63.43: seq=13 ttl=52 time=119.950 ms
ping_40 | 64 bytes from 103.41.63.43: seq=11 ttl=52 time=119.540 ms
ping_36 | 64 bytes from 103.41.63.43: seq=21 ttl=52 time=119.384 ms
ping_39 | 64 bytes from 103.41.63.43: seq=20 ttl=52 time=119.762 ms
ping_38 | 64 bytes from 103.41.63.43: seq=12 ttl=52 time=119.642 ms
ping_27 | 64 bytes from 103.41.63.43: seq=18 ttl=52 time=119.514 ms
softwareoverhead_ping_5 exited with code 0
ping_34 | 64 bytes from 103.41.63.43: seq=20 ttl=52 time=119.512 ms
ping_35 | 64 bytes from 103.41.63.43: seq=21 ttl=52 time=119.587 ms
ping_28 | 64 bytes from 103.41.63.43: seq=19 ttl=52 time=119.567 ms
ping_26 | 64 bytes from 103.41.63.43: seq=19 ttl=52 time=119.962 ms
ping_29 | 64 bytes from 103.41.63.43: seq=20 ttl=52 time=119.561 ms
ping_33 | 64 bytes from 103.41.63.43: seq=16 ttl=52 time=119.991 ms
ping_32 | 64 bytes from 103.41.63.43: seq=22 ttl=52 time=120.023 ms
ping_25 | 64 bytes from 103.41.63.43: seq=19 ttl=52 time=119.481 ms
ping_21 | 64 bytes from 103.41.63.43: seq=18 ttl=52 time=120.148 ms
ping_23 | 64 bytes from 103.41.63.43: seq=15 ttl=52 time=119.681 ms
ping_22 | 64 bytes from 103.41.63.43: seq=17 ttl=52 time=119.483 ms
ping_31 | 64 bytes from 103.41.63.43: seq=20 ttl=52 time=119.435 ms
ping_24 | 64 bytes from 103.41.63.43: seq=16 ttl=52 time=119.419 ms
ping_37 | 64 bytes from 103.41.63.43: seq=19 ttl=52 time=119.905 ms
ping_30 | 64 bytes from 103.41.63.43: seq=14 ttl=52 time=119.536 ms
ping_40 | 64 bytes from 103.41.63.43: seq=12 ttl=52 time=120.089 ms
ping_36 | 64 bytes from 103.41.63.43: seq=22 ttl=52 time=119.521 ms
ping_39 | 64 bytes from 103.41.63.43: seq=21 ttl=52 time=119.910 ms
ping_38 | 64 bytes from 103.41.63.43: seq=13 ttl=52 time=119.700 ms
ping_27 | 64 bytes from 103.41.63.43: seq=19 ttl=52 time=119.946 ms
ping_34 | 64 bytes from 103.41.63.43: seq=21 ttl=52 time=120.008 ms
ping_28 | 64 bytes from 103.41.63.43: seq=20 ttl=52 time=119.695 ms
ping_35 | 64 bytes from 103.41.63.43: seq=22 ttl=52 time=119.704 ms
ping_26 | 64 bytes from 103.41.63.43: seq=20 ttl=52 time=119.879 ms
ping_29 | 64 bytes from 103.41.63.43: seq=21 ttl=52 time=119.665 ms
ping_33 | 64 bytes from 103.41.63.43: seq=17 ttl=52 time=119.844 ms
ping_32 | 64 bytes from 103.41.63.43: seq=23 ttl=52 time=119.933 ms
ping_25 | 64 bytes from 103.41.63.43: seq=20 ttl=52 time=119.875 ms
ping_21 | 64 bytes from 103.41.63.43: seq=19 ttl=52 time=119.538 ms
ping_23 | 64 bytes from 103.41.63.43: seq=16 ttl=52 time=119.507 ms
ping_22 | 64 bytes from 103.41.63.43: seq=18 ttl=52 time=119.652 ms
ping_31 | 64 bytes from 103.41.63.43: seq=21 ttl=52 time=119.953 ms
ping_24 | 64 bytes from 103.41.63.43: seq=17 ttl=52 time=120.043 ms
ping_37 | 64 bytes from 103.41.63.43: seq=20 ttl=52 time=119.969 ms
ping_30 | 64 bytes from 103.41.63.43: seq=15 ttl=52 time=119.809 ms
ping_40 | 64 bytes from 103.41.63.43: seq=13 ttl=52 time=120.049 ms
ping_36 | 64 bytes from 103.41.63.43: seq=23 ttl=52 time=119.511 ms
ping_39 | 64 bytes from 103.41.63.43: seq=22 ttl=52 time=120.176 ms
ping_38 | 64 bytes from 103.41.63.43: seq=14 ttl=52 time=119.930 ms
ping_27 | 64 bytes from 103.41.63.43: seq=20 ttl=52 time=119.808 ms
ping_34 | 64 bytes from 103.41.63.43: seq=22 ttl=52 time=119.921 ms
ping_35 | 64 bytes from 103.41.63.43: seq=23 ttl=52 time=119.982 ms
ping_28 | 64 bytes from 103.41.63.43: seq=21 ttl=52 time=120.016 ms
ping_26 | 64 bytes from 103.41.63.43: seq=21 ttl=52 time=120.064 ms
ping_29 | 64 bytes from 103.41.63.43: seq=22 ttl=52 time=119.869 ms
ping_33 | 64 bytes from 103.41.63.43: seq=18 ttl=52 time=119.724 ms
ping_32 | 64 bytes from 103.41.63.43: seq=24 ttl=52 time=119.825 ms
ping_32 | 
ping_32 | --- speedtest.softether.co.jp ping statistics ---
ping_32 | 25 packets transmitted, 25 packets received, 0% packet loss
ping_32 | round-trip min/avg/max = 119.414/119.680/120.055 ms
ping_25 | 64 bytes from 103.41.63.43: seq=21 ttl=52 time=119.727 ms
ping_21 | 64 bytes from 103.41.63.43: seq=20 ttl=52 time=119.433 ms
ping_23 | 64 bytes from 103.41.63.43: seq=17 ttl=52 time=119.810 ms
ping_22 | 64 bytes from 103.41.63.43: seq=19 ttl=52 time=119.691 ms
ping_31 | 64 bytes from 103.41.63.43: seq=22 ttl=52 time=119.318 ms
ping_24 | 64 bytes from 103.41.63.43: seq=18 ttl=52 time=119.638 ms
ping_37 | 64 bytes from 103.41.63.43: seq=21 ttl=52 time=119.747 ms
ping_30 | 64 bytes from 103.41.63.43: seq=16 ttl=52 time=119.350 ms
softwareoverhead_ping_32 exited with code 0
ping_40 | 64 bytes from 103.41.63.43: seq=14 ttl=52 time=119.543 ms
ping_36 | 64 bytes from 103.41.63.43: seq=24 ttl=52 time=119.477 ms
ping_36 | 
ping_36 | --- speedtest.softether.co.jp ping statistics ---
ping_36 | 25 packets transmitted, 25 packets received, 0% packet loss
ping_36 | round-trip min/avg/max = 119.365/119.639/120.127 ms
ping_39 | 64 bytes from 103.41.63.43: seq=23 ttl=52 time=119.466 ms
ping_38 | 64 bytes from 103.41.63.43: seq=15 ttl=52 time=119.473 ms
ping_27 | 64 bytes from 103.41.63.43: seq=21 ttl=52 time=119.715 ms
ping_34 | 64 bytes from 103.41.63.43: seq=23 ttl=52 time=119.552 ms
ping_28 | 64 bytes from 103.41.63.43: seq=22 ttl=52 time=119.544 ms
ping_35 | 64 bytes from 103.41.63.43: seq=24 ttl=52 time=119.511 ms
ping_35 | 
ping_35 | --- speedtest.softether.co.jp ping statistics ---
ping_35 | 25 packets transmitted, 25 packets received, 0% packet loss
ping_35 | round-trip min/avg/max = 119.331/119.621/119.982 ms
softwareoverhead_ping_36 exited with code 0
ping_26 | 64 bytes from 103.41.63.43: seq=22 ttl=52 time=119.476 ms
ping_29 | 64 bytes from 103.41.63.43: seq=23 ttl=52 time=119.536 ms
ping_33 | 64 bytes from 103.41.63.43: seq=19 ttl=52 time=119.399 ms
ping_25 | 64 bytes from 103.41.63.43: seq=22 ttl=52 time=119.487 ms
ping_21 | 64 bytes from 103.41.63.43: seq=21 ttl=52 time=119.641 ms
ping_23 | 64 bytes from 103.41.63.43: seq=18 ttl=52 time=119.521 ms
softwareoverhead_ping_35 exited with code 0
ping_22 | 64 bytes from 103.41.63.43: seq=20 ttl=52 time=119.504 ms
ping_31 | 64 bytes from 103.41.63.43: seq=23 ttl=52 time=119.982 ms
ping_24 | 64 bytes from 103.41.63.43: seq=19 ttl=52 time=119.635 ms
ping_37 | 64 bytes from 103.41.63.43: seq=22 ttl=52 time=119.882 ms
ping_30 | 64 bytes from 103.41.63.43: seq=17 ttl=52 time=119.967 ms
ping_40 | 64 bytes from 103.41.63.43: seq=15 ttl=52 time=119.831 ms
ping_39 | 64 bytes from 103.41.63.43: seq=24 ttl=52 time=119.887 ms
ping_39 | 
ping_39 | --- speedtest.softether.co.jp ping statistics ---
ping_39 | 25 packets transmitted, 25 packets received, 0% packet loss
ping_39 | round-trip min/avg/max = 119.431/119.736/120.176 ms
ping_38 | 64 bytes from 103.41.63.43: seq=16 ttl=52 time=119.574 ms
ping_27 | 64 bytes from 103.41.63.43: seq=22 ttl=52 time=119.648 ms
ping_34 | 64 bytes from 103.41.63.43: seq=24 ttl=52 time=119.481 ms
ping_34 | 
ping_34 | --- speedtest.softether.co.jp ping statistics ---
ping_34 | 25 packets transmitted, 25 packets received, 0% packet loss
ping_34 | round-trip min/avg/max = 119.431/119.766/122.101 ms
softwareoverhead_ping_39 exited with code 0
ping_28 | 64 bytes from 103.41.63.43: seq=23 ttl=52 time=119.508 ms
ping_26 | 64 bytes from 103.41.63.43: seq=23 ttl=52 time=119.468 ms
ping_29 | 64 bytes from 103.41.63.43: seq=24 ttl=52 time=119.425 ms
ping_29 | 
ping_29 | --- speedtest.softether.co.jp ping statistics ---
ping_29 | 25 packets transmitted, 25 packets received, 0% packet loss
ping_29 | round-trip min/avg/max = 119.341/119.610/120.312 ms
ping_33 | 64 bytes from 103.41.63.43: seq=20 ttl=52 time=119.629 ms
ping_25 | 64 bytes from 103.41.63.43: seq=23 ttl=52 time=119.439 ms
ping_21 | 64 bytes from 103.41.63.43: seq=22 ttl=52 time=119.336 ms
ping_23 | 64 bytes from 103.41.63.43: seq=19 ttl=52 time=119.570 ms
softwareoverhead_ping_34 exited with code 0
ping_22 | 64 bytes from 103.41.63.43: seq=21 ttl=52 time=119.894 ms
ping_31 | 64 bytes from 103.41.63.43: seq=24 ttl=52 time=119.439 ms
ping_31 | 
ping_31 | --- speedtest.softether.co.jp ping statistics ---
ping_31 | 25 packets transmitted, 25 packets received, 0% packet loss
ping_31 | round-trip min/avg/max = 119.318/119.626/120.012 ms
ping_24 | 64 bytes from 103.41.63.43: seq=20 ttl=52 time=119.766 ms
ping_37 | 64 bytes from 103.41.63.43: seq=23 ttl=52 time=119.624 ms
ping_30 | 64 bytes from 103.41.63.43: seq=18 ttl=52 time=119.530 ms
softwareoverhead_ping_29 exited with code 0
ping_40 | 64 bytes from 103.41.63.43: seq=16 ttl=52 time=119.692 ms
ping_38 | 64 bytes from 103.41.63.43: seq=17 ttl=52 time=119.487 ms
ping_27 | 64 bytes from 103.41.63.43: seq=23 ttl=52 time=119.472 ms
softwareoverhead_ping_31 exited with code 0
ping_28 | 64 bytes from 103.41.63.43: seq=24 ttl=52 time=120.168 ms
ping_28 | 
ping_28 | --- speedtest.softether.co.jp ping statistics ---
ping_28 | 25 packets transmitted, 25 packets received, 0% packet loss
ping_28 | round-trip min/avg/max = 119.379/119.742/120.168 ms
ping_26 | 64 bytes from 103.41.63.43: seq=24 ttl=52 time=119.397 ms
ping_26 | 
ping_26 | --- speedtest.softether.co.jp ping statistics ---
ping_26 | 25 packets transmitted, 25 packets received, 0% packet loss
ping_26 | round-trip min/avg/max = 119.397/119.701/120.149 ms
ping_33 | 64 bytes from 103.41.63.43: seq=21 ttl=52 time=119.433 ms
ping_25 | 64 bytes from 103.41.63.43: seq=24 ttl=52 time=119.388 ms
ping_25 | 
ping_25 | --- speedtest.softether.co.jp ping statistics ---
ping_25 | 25 packets transmitted, 25 packets received, 0% packet loss
ping_25 | round-trip min/avg/max = 119.383/119.674/120.002 ms
ping_21 | 64 bytes from 103.41.63.43: seq=23 ttl=52 time=119.436 ms
ping_23 | 64 bytes from 103.41.63.43: seq=20 ttl=52 time=119.422 ms
ping_22 | 64 bytes from 103.41.63.43: seq=22 ttl=52 time=119.373 ms
softwareoverhead_ping_28 exited with code 0
ping_24 | 64 bytes from 103.41.63.43: seq=21 ttl=52 time=119.362 ms
ping_37 | 64 bytes from 103.41.63.43: seq=24 ttl=52 time=119.602 ms
ping_37 | 
ping_37 | --- speedtest.softether.co.jp ping statistics ---
ping_37 | 25 packets transmitted, 25 packets received, 0% packet loss
ping_37 | round-trip min/avg/max = 119.388/119.647/120.138 ms
ping_30 | 64 bytes from 103.41.63.43: seq=19 ttl=52 time=119.739 ms
ping_40 | 64 bytes from 103.41.63.43: seq=17 ttl=52 time=119.538 ms
softwareoverhead_ping_26 exited with code 0
ping_38 | 64 bytes from 103.41.63.43: seq=18 ttl=52 time=119.403 ms
softwareoverhead_ping_25 exited with code 0
ping_27 | 64 bytes from 103.41.63.43: seq=24 ttl=52 time=119.539 ms
ping_27 | 
ping_27 | --- speedtest.softether.co.jp ping statistics ---
ping_27 | 25 packets transmitted, 25 packets received, 0% packet loss
ping_27 | round-trip min/avg/max = 119.310/119.621/119.956 ms
softwareoverhead_ping_37 exited with code 0
ping_33 | 64 bytes from 103.41.63.43: seq=22 ttl=52 time=119.944 ms
ping_21 | 64 bytes from 103.41.63.43: seq=24 ttl=52 time=119.615 ms
ping_21 | 
ping_21 | --- speedtest.softether.co.jp ping statistics ---
ping_21 | 25 packets transmitted, 25 packets received, 0% packet loss
ping_21 | round-trip min/avg/max = 119.336/119.641/120.148 ms
softwareoverhead_ping_27 exited with code 0
ping_23 | 64 bytes from 103.41.63.43: seq=21 ttl=52 time=119.512 ms
ping_22 | 64 bytes from 103.41.63.43: seq=23 ttl=52 time=119.401 ms
ping_24 | 64 bytes from 103.41.63.43: seq=22 ttl=52 time=119.620 ms
ping_30 | 64 bytes from 103.41.63.43: seq=20 ttl=52 time=119.480 ms
ping_40 | 64 bytes from 103.41.63.43: seq=18 ttl=52 time=119.374 ms
softwareoverhead_ping_21 exited with code 0
ping_38 | 64 bytes from 103.41.63.43: seq=19 ttl=52 time=119.609 ms
ping_33 | 64 bytes from 103.41.63.43: seq=23 ttl=52 time=119.721 ms
ping_23 | 64 bytes from 103.41.63.43: seq=22 ttl=52 time=119.795 ms
ping_22 | 64 bytes from 103.41.63.43: seq=24 ttl=52 time=119.504 ms
ping_22 | 
ping_22 | --- speedtest.softether.co.jp ping statistics ---
ping_22 | 25 packets transmitted, 25 packets received, 0% packet loss
ping_22 | round-trip min/avg/max = 119.324/119.639/121.862 ms
ping_24 | 64 bytes from 103.41.63.43: seq=23 ttl=52 time=119.567 ms
ping_30 | 64 bytes from 103.41.63.43: seq=21 ttl=52 time=119.565 ms
ping_40 | 64 bytes from 103.41.63.43: seq=19 ttl=52 time=119.735 ms
ping_38 | 64 bytes from 103.41.63.43: seq=20 ttl=52 time=119.431 ms
softwareoverhead_ping_22 exited with code 0
ping_33 | 64 bytes from 103.41.63.43: seq=24 ttl=52 time=119.681 ms
ping_33 | 
ping_33 | --- speedtest.softether.co.jp ping statistics ---
ping_33 | 25 packets transmitted, 25 packets received, 0% packet loss
ping_33 | round-trip min/avg/max = 119.399/119.681/120.045 ms
ping_23 | 64 bytes from 103.41.63.43: seq=23 ttl=52 time=119.531 ms
ping_24 | 64 bytes from 103.41.63.43: seq=24 ttl=52 time=119.458 ms
ping_24 | 
ping_24 | --- speedtest.softether.co.jp ping statistics ---
ping_24 | 25 packets transmitted, 25 packets received, 0% packet loss
ping_24 | round-trip min/avg/max = 119.344/119.656/120.069 ms
ping_30 | 64 bytes from 103.41.63.43: seq=22 ttl=52 time=119.415 ms
softwareoverhead_ping_33 exited with code 0
ping_40 | 64 bytes from 103.41.63.43: seq=20 ttl=52 time=120.950 ms
ping_38 | 64 bytes from 103.41.63.43: seq=21 ttl=52 time=119.470 ms
softwareoverhead_ping_24 exited with code 0
ping_23 | 64 bytes from 103.41.63.43: seq=24 ttl=52 time=120.091 ms
ping_23 | 
ping_23 | --- speedtest.softether.co.jp ping statistics ---
ping_23 | 25 packets transmitted, 25 packets received, 0% packet loss
ping_23 | round-trip min/avg/max = 119.380/119.594/120.091 ms
ping_30 | 64 bytes from 103.41.63.43: seq=23 ttl=52 time=119.834 ms
ping_40 | 64 bytes from 103.41.63.43: seq=21 ttl=52 time=119.867 ms
softwareoverhead_ping_23 exited with code 0
ping_38 | 64 bytes from 103.41.63.43: seq=22 ttl=52 time=119.539 ms
ping_30 | 64 bytes from 103.41.63.43: seq=24 ttl=52 time=119.947 ms
ping_30 | 
ping_30 | --- speedtest.softether.co.jp ping statistics ---
ping_30 | 25 packets transmitted, 25 packets received, 0% packet loss
ping_30 | round-trip min/avg/max = 119.321/119.587/119.967 ms
ping_40 | 64 bytes from 103.41.63.43: seq=22 ttl=52 time=119.374 ms
ping_38 | 64 bytes from 103.41.63.43: seq=23 ttl=52 time=119.725 ms
softwareoverhead_ping_30 exited with code 0
ping_40 | 64 bytes from 103.41.63.43: seq=23 ttl=52 time=119.960 ms
ping_38 | 64 bytes from 103.41.63.43: seq=24 ttl=52 time=119.821 ms
ping_38 | 
ping_38 | --- speedtest.softether.co.jp ping statistics ---
ping_38 | 25 packets transmitted, 25 packets received, 0% packet loss
ping_38 | round-trip min/avg/max = 119.293/119.620/119.979 ms
softwareoverhead_ping_38 exited with code 0
ping_40 | 64 bytes from 103.41.63.43: seq=24 ttl=52 time=119.995 ms
ping_40 | 
ping_40 | --- speedtest.softether.co.jp ping statistics ---
ping_40 | 25 packets transmitted, 25 packets received, 0% packet loss
ping_40 | round-trip min/avg/max = 119.326/119.726/120.950 ms
softwareoverhead_ping_40 exited with code 0
