     1	300 
     2	300 
     3	300 
     4	300 
     5	300 
     6	300 
     7	300 
     8	300 
     9	299 
    10	299 
    11	299 
    12	299 
    13	299 
    14	299 
    15	299 
    16	299 
    17	299 
    18	299 
    19	299 
    20	299 
    21	298 
    22	298 
    23	297 
    24	297 
    25	297 
    26	297 
    27	297 
    28	297 
    29	297 
    30	297 
    31	297 
    32	297 
    33	297 
    34	297 
    35	297 
    36	297 
    37	297 
    38	297 
    39	297 
    40	297 
    41	297 
    42	297 
    43	297 
    44	297 
    45	297 
    46	297 
    47	297 
    48	297 
    49	297 
    50	297 
    51	297 
    52	297 
    53	297 
    54	297 
    55	297 
    56	297 
    57	297 
    58	297 
    59	297 
    60	297 
    61	297 
    62	297 
    63	297 
    64	297 
    65	297 
    66	297 
    67	297 
    68	297 
    69	297 
    70	297 
    71	297 
    72	297 
    73	297 
    74	297 
    75	297 
    76	297 
    77	297 
    78	297 
    79	297 
    80	297 
    81	297 
    82	297 
    83	297 
    84	297 
    85	297 
    86	297 
    87	297 
    88	296 
    89	296 
    90	296 
    91	296 
    92	296 
    93	296 
    94	296 
    95	296 
    96	296 
    97	296 
    98	296 
    99	296 
   100	296 
   101	296 
   102	296 
   103	296 
   104	296 
   105	296 
   106	296 
   107	296 
   108	296 
   109	296 
   110	296 
   111	296 
   112	296 
   113	296 
   114	296 
   115	296 
   116	296 
   117	296 
   118	296 
   119	296 
   120	296 
   121	296 
   122	296 
   123	296 
   124	296 
   125	296 
   126	296 
   127	296 
   128	296 
   129	296 
   130	296 
   131	296 
   132	296 
   133	296 
   134	296 
   135	296 
   136	296 
   137	296 
   138	296 
   139	296 
   140	296 
   141	296 
   142	296 
   143	296 
   144	296 
   145	296 
   146	296 
   147	296 
   148	296 
   149	296 
   150	296 
   151	296 
   152	296 
   153	296 
   154	296 
   155	296 
   156	296 
   157	296 
   158	296 
   159	296 
   160	296 
   161	296 
   162	296 
   163	296 
   164	296 
   165	296 
   166	294 
   167	294 
   168	294 
   169	294 
   170	294 
   171	294 
   172	294 
   173	294 
   174	294 
   175	294 
   176	293 
   177	293 
   178	293 
   179	293 
   180	293 
   181	293 
   182	293 
   183	293 
   184	293 
   185	293 
   186	293 
   187	293 
   188	293 
   189	293 
   190	293 
   191	293 
   192	293 
   193	293 
   194	293 
   195	293 
   196	293 
   197	293 
   198	293 
   199	293 
   200	293 
   201	293 
   202	293 
   203	293 
   204	293 
   205	293 
   206	293 
   207	292 
   208	292 
   209	292 
   210	292 
   211	292 
   212	292 
   213	292 
   214	292 
   215	292 
   216	292 
   217	292 
   218	292 
   219	292 
   220	292 
   221	291 
   222	291 
   223	291 
   224	290 
   225	290 
   226	290 
   227	290 
   228	290 
   229	290 
   230	286 
   231	285 
   232	285 
   233	283 
   234	283 
   235	283 
   236	283 
   237	283 
   238	282 
   239	282 
   240	282 
   241	282 
   242	282 
   243	282 
   244	282 
   245	282 
   246	282 
   247	280 
   248	280 
   249	280 
   250	280 
   251	280 
   252	280 
   253	280 
   254	280 
   255	280 
   256	280 
   257	280 
   258	280 
   259	280 
   260	280 
   261	280 
   262	280 
   263	280 
   264	280 
   265	280 
   266	280 
   267	280 
   268	280 
   269	280 
   270	280 
   271	280 
   272	280 
   273	280 
   274	280 
   275	280 
   276	280 
   277	280 
   278	280 
   279	280 
   280	280 
   281	280 
   282	280 
   283	280 
   284	280 
   285	280 
   286	280 
   287	280 
   288	280 
   289	279 
   290	279 
   291	279 
   292	279 
   293	279 
   294	279 
   295	279 
   296	278 
   297	278 
   298	278 
   299	278 
   300	278 
   301	278 
   302	278 
   303	278 
   304	278 
   305	278 
   306	278 
   307	278 
   308	278 
   309	278 
   310	278 
   311	278 
   312	278 
   313	278 
   314	278 
   315	278 
   316	278 
   317	278 
   318	278 
   319	278 
   320	278 
   321	278 
   322	278 
   323	278 
   324	278 
   325	278 
   326	278 
   327	278 
   328	278 
   329	278 
   330	278 
   331	278 
   332	278 
   333	278 
   334	278 
   335	278 
   336	278 
   337	278 
   338	278 
   339	278 
   340	278 
   341	278 
   342	278 
   343	278 
   344	278 
   345	278 
   346	278 
   347	278 
   348	278 
   349	278 
   350	278 
   351	278 
   352	278 
   353	278 
   354	278 
   355	278 
   356	278 
   357	278 
   358	278 
   359	278 
   360	278 
   361	278 
   362	278 
   363	278 
   364	278 
   365	278 
   366	278 
   367	278 
   368	278 
   369	278 
   370	278 
   371	278 
   372	278 
   373	278 
   374	278 
   375	278 
   376	278 
   377	278 
   378	278 
   379	278 
   380	278 
   381	278 
   382	278 
   383	278 
   384	278 
   385	278 
   386	278 
   387	278 
   388	278 
   389	278 
   390	278 
   391	278 
   392	278 
   393	278 
   394	278 
   395	278 
   396	278 
   397	278 
   398	278 
   399	278 
   400	278 
   401	278 
   402	278 
   403	278 
   404	278 
   405	278 
   406	278 
   407	278 
   408	278 
   409	278 
   410	278 
   411	278 
   412	278 
   413	278 
   414	278 
   415	278 
   416	278 
   417	278 
   418	278 
   419	278 
   420	278 
   421	278 
   422	278 
   423	278 
   424	278 
   425	278 
   426	278 
   427	278 
   428	278 
   429	278 
   430	278 
   431	278 
   432	278 
   433	278 
   434	278 
   435	278 
   436	278 
   437	278 
   438	278 
   439	278 
   440	278 
   441	278 
   442	278 
   443	278 
   444	278 
   445	278 
   446	278 
   447	278 
   448	278 
   449	278 
   450	278 
   451	278 
   452	278 
   453	278 
   454	278 
   455	278 
   456	278 
   457	278 
   458	278 
   459	278 
   460	278 
   461	278 
   462	278 
   463	278 
   464	278 
   465	278 
   466	278 
   467	278 
   468	278 
   469	278 
   470	278 
   471	278 
   472	278 
   473	278 
   474	278 
   475	278 
   476	278 
   477	278 
   478	278 
   479	278 
   480	278 
   481	278 
   482	278 
   483	278 
   484	278 
   485	278 
   486	278 
   487	278 
   488	278 
   489	278 
   490	278 
   491	278 
   492	278 
   493	278 
   494	278 
