     1	 96.0 
     2	 97.5 
     3	 49.1 
     4	  6.6 
     5	 64.5 
     6	 91.9 
     7	 91.4 
     8	 89.9 
     9	 92.0 
    10	 90.5 
    11	 96.1 
    12	 95.9 
    13	 95.1 
    14	 96.2 
    15	 96.3 
    16	 95.7 
    17	 78.9 
    18	 14.9 
    19	  9.4 
    20	 91.5 
    21	 93.3 
    22	 93.8 
    23	 95.6 
    24	 95.5 
    25	 95.6 
    26	 92.2 
    27	 91.7 
    28	 83.4 
    29	 91.2 
    30	 72.3 
    31	 69.5 
    32	 73.3 
    33	 78.8 
    34	 77.6 
    35	 89.4 
    36	 92.4 
    37	 92.5 
    38	 91.9 
    39	 93.8 
    40	 93.2 
    41	 94.3 
    42	 98.9 
    43	 93.3 
    44	 88.0 
    45	 89.1 
    46	 91.2 
    47	 94.1 
    48	 95.4 
    49	 95.7 
    50	 96.8 
    51	 92.4 
    52	 94.0 
    53	 95.2 
    54	 98.0 
    55	 92.9 
    56	 93.1 
    57	 96.6 
    58	 87.8 
