Attaching to softwareoverhead_ping_2, softwareoverhead_ping_1
ping_2  | PING speedtest.xsmedia.com (199.66.198.2): 56 data bytes
ping_1  | PING speedtest.xsmedia.com (199.66.198.2): 56 data bytes
ping_1  | 64 bytes from 199.66.198.2: seq=0 ttl=55 time=21.381 ms
ping_2  | 64 bytes from 199.66.198.2: seq=0 ttl=55 time=21.836 ms
ping_2  | 64 bytes from 199.66.198.2: seq=1 ttl=55 time=21.414 ms
ping_1  | 64 bytes from 199.66.198.2: seq=1 ttl=55 time=21.839 ms
ping_2  | 64 bytes from 199.66.198.2: seq=2 ttl=55 time=22.132 ms
ping_1  | 64 bytes from 199.66.198.2: seq=2 ttl=55 time=21.625 ms
ping_2  | 64 bytes from 199.66.198.2: seq=3 ttl=55 time=22.070 ms
ping_1  | 64 bytes from 199.66.198.2: seq=3 ttl=55 time=21.872 ms
ping_2  | 64 bytes from 199.66.198.2: seq=4 ttl=55 time=21.589 ms
ping_1  | 64 bytes from 199.66.198.2: seq=4 ttl=55 time=21.775 ms
ping_2  | 64 bytes from 199.66.198.2: seq=5 ttl=55 time=21.828 ms
ping_1  | 64 bytes from 199.66.198.2: seq=5 ttl=55 time=22.090 ms
ping_2  | 64 bytes from 199.66.198.2: seq=6 ttl=55 time=21.593 ms
ping_1  | 64 bytes from 199.66.198.2: seq=6 ttl=55 time=21.936 ms
ping_2  | 64 bytes from 199.66.198.2: seq=7 ttl=55 time=21.898 ms
ping_1  | 64 bytes from 199.66.198.2: seq=7 ttl=55 time=21.954 ms
ping_2  | 64 bytes from 199.66.198.2: seq=8 ttl=55 time=21.891 ms
ping_1  | 64 bytes from 199.66.198.2: seq=8 ttl=55 time=21.974 ms
ping_2  | 64 bytes from 199.66.198.2: seq=9 ttl=55 time=21.887 ms
ping_1  | 64 bytes from 199.66.198.2: seq=9 ttl=55 time=21.910 ms
ping_2  | 64 bytes from 199.66.198.2: seq=10 ttl=55 time=21.904 ms
ping_1  | 64 bytes from 199.66.198.2: seq=10 ttl=55 time=22.090 ms
ping_2  | 64 bytes from 199.66.198.2: seq=11 ttl=55 time=21.909 ms
ping_1  | 64 bytes from 199.66.198.2: seq=11 ttl=55 time=22.112 ms
ping_2  | 64 bytes from 199.66.198.2: seq=12 ttl=55 time=22.069 ms
ping_1  | 64 bytes from 199.66.198.2: seq=12 ttl=55 time=21.793 ms
ping_2  | 64 bytes from 199.66.198.2: seq=13 ttl=55 time=21.671 ms
ping_1  | 64 bytes from 199.66.198.2: seq=13 ttl=55 time=22.097 ms
ping_2  | 64 bytes from 199.66.198.2: seq=14 ttl=55 time=22.022 ms
ping_1  | 64 bytes from 199.66.198.2: seq=14 ttl=55 time=21.890 ms
ping_2  | 64 bytes from 199.66.198.2: seq=15 ttl=55 time=21.919 ms
ping_1  | 64 bytes from 199.66.198.2: seq=15 ttl=55 time=21.882 ms
ping_2  | 64 bytes from 199.66.198.2: seq=16 ttl=55 time=21.671 ms
ping_1  | 64 bytes from 199.66.198.2: seq=16 ttl=55 time=22.033 ms
ping_2  | 64 bytes from 199.66.198.2: seq=17 ttl=55 time=22.085 ms
ping_1  | 64 bytes from 199.66.198.2: seq=17 ttl=55 time=22.084 ms
ping_2  | 64 bytes from 199.66.198.2: seq=18 ttl=55 time=22.052 ms
ping_1  | 64 bytes from 199.66.198.2: seq=18 ttl=55 time=21.511 ms
ping_2  | 64 bytes from 199.66.198.2: seq=19 ttl=55 time=21.911 ms
ping_1  | 64 bytes from 199.66.198.2: seq=19 ttl=55 time=21.973 ms
ping_2  | 64 bytes from 199.66.198.2: seq=20 ttl=55 time=21.905 ms
ping_1  | 64 bytes from 199.66.198.2: seq=20 ttl=55 time=21.981 ms
ping_2  | 64 bytes from 199.66.198.2: seq=21 ttl=55 time=21.846 ms
ping_1  | 64 bytes from 199.66.198.2: seq=21 ttl=55 time=22.128 ms
ping_2  | 64 bytes from 199.66.198.2: seq=22 ttl=55 time=22.081 ms
ping_1  | 64 bytes from 199.66.198.2: seq=22 ttl=55 time=22.031 ms
ping_2  | 64 bytes from 199.66.198.2: seq=23 ttl=55 time=22.182 ms
ping_1  | 64 bytes from 199.66.198.2: seq=23 ttl=55 time=22.177 ms
ping_2  | 64 bytes from 199.66.198.2: seq=24 ttl=55 time=22.213 ms
ping_1  | 64 bytes from 199.66.198.2: seq=24 ttl=55 time=22.169 ms
ping_2  | 64 bytes from 199.66.198.2: seq=25 ttl=55 time=21.873 ms
ping_1  | 64 bytes from 199.66.198.2: seq=25 ttl=55 time=21.678 ms
ping_2  | 64 bytes from 199.66.198.2: seq=26 ttl=55 time=21.653 ms
ping_1  | 64 bytes from 199.66.198.2: seq=26 ttl=55 time=21.979 ms
ping_2  | 64 bytes from 199.66.198.2: seq=27 ttl=55 time=22.077 ms
ping_1  | 64 bytes from 199.66.198.2: seq=27 ttl=55 time=22.077 ms
ping_2  | 64 bytes from 199.66.198.2: seq=28 ttl=55 time=22.040 ms
ping_1  | 64 bytes from 199.66.198.2: seq=28 ttl=55 time=21.919 ms
ping_2  | 64 bytes from 199.66.198.2: seq=29 ttl=55 time=21.582 ms
ping_1  | 64 bytes from 199.66.198.2: seq=29 ttl=55 time=22.013 ms
ping_2  | 64 bytes from 199.66.198.2: seq=30 ttl=55 time=21.881 ms
ping_1  | 64 bytes from 199.66.198.2: seq=30 ttl=55 time=21.967 ms
ping_2  | 64 bytes from 199.66.198.2: seq=31 ttl=55 time=21.955 ms
ping_1  | 64 bytes from 199.66.198.2: seq=31 ttl=55 time=21.900 ms
ping_2  | 64 bytes from 199.66.198.2: seq=32 ttl=55 time=22.070 ms
ping_1  | 64 bytes from 199.66.198.2: seq=32 ttl=55 time=21.804 ms
ping_2  | 64 bytes from 199.66.198.2: seq=33 ttl=55 time=21.935 ms
ping_1  | 64 bytes from 199.66.198.2: seq=33 ttl=55 time=21.917 ms
ping_2  | 64 bytes from 199.66.198.2: seq=34 ttl=55 time=21.618 ms
ping_1  | 64 bytes from 199.66.198.2: seq=34 ttl=55 time=22.069 ms
ping_2  | 64 bytes from 199.66.198.2: seq=35 ttl=55 time=21.712 ms
ping_1  | 64 bytes from 199.66.198.2: seq=35 ttl=55 time=22.106 ms
ping_2  | 64 bytes from 199.66.198.2: seq=36 ttl=55 time=21.647 ms
ping_1  | 64 bytes from 199.66.198.2: seq=36 ttl=55 time=22.052 ms
ping_2  | 64 bytes from 199.66.198.2: seq=37 ttl=55 time=21.603 ms
ping_1  | 64 bytes from 199.66.198.2: seq=37 ttl=55 time=21.994 ms
ping_2  | 64 bytes from 199.66.198.2: seq=38 ttl=55 time=21.916 ms
ping_1  | 64 bytes from 199.66.198.2: seq=38 ttl=55 time=22.084 ms
ping_2  | 64 bytes from 199.66.198.2: seq=39 ttl=55 time=21.633 ms
ping_1  | 64 bytes from 199.66.198.2: seq=39 ttl=55 time=22.043 ms
ping_2  | 64 bytes from 199.66.198.2: seq=40 ttl=55 time=22.067 ms
ping_1  | 64 bytes from 199.66.198.2: seq=40 ttl=55 time=22.270 ms
ping_2  | 64 bytes from 199.66.198.2: seq=41 ttl=55 time=22.145 ms
ping_1  | 64 bytes from 199.66.198.2: seq=41 ttl=55 time=21.951 ms
ping_2  | 64 bytes from 199.66.198.2: seq=42 ttl=55 time=22.161 ms
ping_1  | 64 bytes from 199.66.198.2: seq=42 ttl=55 time=22.062 ms
ping_2  | 64 bytes from 199.66.198.2: seq=43 ttl=55 time=22.060 ms
ping_1  | 64 bytes from 199.66.198.2: seq=43 ttl=55 time=22.075 ms
ping_2  | 64 bytes from 199.66.198.2: seq=44 ttl=55 time=21.889 ms
ping_1  | 64 bytes from 199.66.198.2: seq=44 ttl=55 time=21.867 ms
ping_2  | 64 bytes from 199.66.198.2: seq=45 ttl=55 time=22.139 ms
ping_1  | 64 bytes from 199.66.198.2: seq=45 ttl=55 time=22.165 ms
ping_2  | 64 bytes from 199.66.198.2: seq=46 ttl=55 time=21.639 ms
ping_1  | 64 bytes from 199.66.198.2: seq=46 ttl=55 time=21.871 ms
ping_2  | 64 bytes from 199.66.198.2: seq=47 ttl=55 time=21.623 ms
ping_1  | 64 bytes from 199.66.198.2: seq=47 ttl=55 time=22.144 ms
ping_2  | 64 bytes from 199.66.198.2: seq=48 ttl=55 time=22.150 ms
ping_1  | 64 bytes from 199.66.198.2: seq=48 ttl=55 time=22.080 ms
ping_2  | 64 bytes from 199.66.198.2: seq=49 ttl=55 time=22.138 ms
ping_1  | 64 bytes from 199.66.198.2: seq=49 ttl=55 time=21.497 ms
ping_2  | 64 bytes from 199.66.198.2: seq=50 ttl=55 time=21.513 ms
ping_1  | 64 bytes from 199.66.198.2: seq=50 ttl=55 time=21.935 ms
ping_2  | 64 bytes from 199.66.198.2: seq=51 ttl=55 time=21.580 ms
ping_1  | 64 bytes from 199.66.198.2: seq=51 ttl=55 time=22.009 ms
ping_2  | 64 bytes from 199.66.198.2: seq=52 ttl=55 time=21.977 ms
ping_1  | 64 bytes from 199.66.198.2: seq=52 ttl=55 time=22.008 ms
ping_2  | 64 bytes from 199.66.198.2: seq=53 ttl=55 time=21.938 ms
ping_1  | 64 bytes from 199.66.198.2: seq=53 ttl=55 time=21.823 ms
ping_2  | 64 bytes from 199.66.198.2: seq=54 ttl=55 time=22.140 ms
ping_1  | 64 bytes from 199.66.198.2: seq=54 ttl=55 time=21.912 ms
ping_2  | 64 bytes from 199.66.198.2: seq=55 ttl=55 time=21.882 ms
ping_1  | 64 bytes from 199.66.198.2: seq=55 ttl=55 time=22.095 ms
ping_2  | 64 bytes from 199.66.198.2: seq=56 ttl=55 time=22.081 ms
ping_1  | 64 bytes from 199.66.198.2: seq=56 ttl=55 time=21.535 ms
ping_2  | 64 bytes from 199.66.198.2: seq=57 ttl=55 time=21.993 ms
ping_1  | 64 bytes from 199.66.198.2: seq=57 ttl=55 time=21.906 ms
ping_2  | 64 bytes from 199.66.198.2: seq=58 ttl=55 time=22.101 ms
ping_1  | 64 bytes from 199.66.198.2: seq=58 ttl=55 time=22.119 ms
ping_2  | 64 bytes from 199.66.198.2: seq=59 ttl=55 time=21.999 ms
ping_1  | 64 bytes from 199.66.198.2: seq=59 ttl=55 time=21.892 ms
ping_2  | 64 bytes from 199.66.198.2: seq=60 ttl=55 time=21.876 ms
ping_1  | 64 bytes from 199.66.198.2: seq=60 ttl=55 time=22.004 ms
ping_2  | 64 bytes from 199.66.198.2: seq=61 ttl=55 time=22.134 ms
ping_1  | 64 bytes from 199.66.198.2: seq=61 ttl=55 time=22.169 ms
ping_2  | 64 bytes from 199.66.198.2: seq=62 ttl=55 time=21.987 ms
ping_1  | 64 bytes from 199.66.198.2: seq=62 ttl=55 time=21.895 ms
ping_2  | 64 bytes from 199.66.198.2: seq=63 ttl=55 time=21.888 ms
ping_1  | 64 bytes from 199.66.198.2: seq=63 ttl=55 time=21.904 ms
ping_2  | 64 bytes from 199.66.198.2: seq=64 ttl=55 time=22.161 ms
ping_1  | 64 bytes from 199.66.198.2: seq=64 ttl=55 time=22.204 ms
ping_2  | 64 bytes from 199.66.198.2: seq=65 ttl=55 time=22.106 ms
ping_1  | 64 bytes from 199.66.198.2: seq=65 ttl=55 time=21.945 ms
ping_2  | 64 bytes from 199.66.198.2: seq=66 ttl=55 time=21.906 ms
ping_1  | 64 bytes from 199.66.198.2: seq=66 ttl=55 time=21.936 ms
ping_2  | 64 bytes from 199.66.198.2: seq=67 ttl=55 time=22.081 ms
ping_1  | 64 bytes from 199.66.198.2: seq=67 ttl=55 time=21.888 ms
ping_2  | 64 bytes from 199.66.198.2: seq=68 ttl=55 time=22.166 ms
ping_1  | 64 bytes from 199.66.198.2: seq=68 ttl=55 time=22.108 ms
ping_2  | 64 bytes from 199.66.198.2: seq=69 ttl=55 time=22.163 ms
ping_1  | 64 bytes from 199.66.198.2: seq=69 ttl=55 time=22.011 ms
ping_2  | 64 bytes from 199.66.198.2: seq=70 ttl=55 time=21.899 ms
ping_1  | 64 bytes from 199.66.198.2: seq=70 ttl=55 time=21.750 ms
ping_2  | 64 bytes from 199.66.198.2: seq=71 ttl=55 time=21.806 ms
ping_1  | 64 bytes from 199.66.198.2: seq=71 ttl=55 time=21.823 ms
ping_2  | 64 bytes from 199.66.198.2: seq=72 ttl=55 time=22.026 ms
ping_1  | 64 bytes from 199.66.198.2: seq=72 ttl=55 time=21.905 ms
ping_2  | 64 bytes from 199.66.198.2: seq=73 ttl=55 time=22.047 ms
ping_1  | 64 bytes from 199.66.198.2: seq=73 ttl=55 time=21.590 ms
ping_2  | 64 bytes from 199.66.198.2: seq=74 ttl=55 time=21.976 ms
ping_1  | 64 bytes from 199.66.198.2: seq=74 ttl=55 time=21.849 ms
ping_2  | 64 bytes from 199.66.198.2: seq=75 ttl=55 time=21.560 ms
ping_1  | 64 bytes from 199.66.198.2: seq=75 ttl=55 time=21.991 ms
ping_2  | 64 bytes from 199.66.198.2: seq=76 ttl=55 time=22.025 ms
ping_1  | 64 bytes from 199.66.198.2: seq=76 ttl=55 time=21.958 ms
ping_2  | 64 bytes from 199.66.198.2: seq=77 ttl=55 time=21.619 ms
ping_1  | 64 bytes from 199.66.198.2: seq=77 ttl=55 time=22.068 ms
ping_2  | 64 bytes from 199.66.198.2: seq=78 ttl=55 time=21.576 ms
ping_1  | 64 bytes from 199.66.198.2: seq=78 ttl=55 time=21.980 ms
ping_2  | 64 bytes from 199.66.198.2: seq=79 ttl=55 time=22.028 ms
ping_1  | 64 bytes from 199.66.198.2: seq=79 ttl=55 time=21.825 ms
ping_2  | 64 bytes from 199.66.198.2: seq=80 ttl=55 time=21.677 ms
ping_1  | 64 bytes from 199.66.198.2: seq=80 ttl=55 time=22.056 ms
ping_2  | 64 bytes from 199.66.198.2: seq=81 ttl=55 time=21.970 ms
ping_1  | 64 bytes from 199.66.198.2: seq=81 ttl=55 time=21.985 ms
ping_2  | 64 bytes from 199.66.198.2: seq=82 ttl=55 time=22.006 ms
ping_1  | 64 bytes from 199.66.198.2: seq=82 ttl=55 time=21.888 ms
ping_2  | 64 bytes from 199.66.198.2: seq=83 ttl=55 time=21.610 ms
ping_1  | 64 bytes from 199.66.198.2: seq=83 ttl=55 time=21.592 ms
ping_2  | 64 bytes from 199.66.198.2: seq=84 ttl=55 time=21.966 ms
ping_1  | 64 bytes from 199.66.198.2: seq=84 ttl=55 time=21.791 ms
ping_2  | 64 bytes from 199.66.198.2: seq=85 ttl=55 time=22.037 ms
ping_1  | 64 bytes from 199.66.198.2: seq=85 ttl=55 time=22.038 ms
ping_2  | 64 bytes from 199.66.198.2: seq=86 ttl=55 time=21.696 ms
ping_1  | 64 bytes from 199.66.198.2: seq=86 ttl=55 time=22.085 ms
ping_2  | 64 bytes from 199.66.198.2: seq=87 ttl=55 time=22.040 ms
ping_1  | 64 bytes from 199.66.198.2: seq=87 ttl=55 time=21.603 ms
ping_2  | 64 bytes from 199.66.198.2: seq=88 ttl=55 time=21.632 ms
ping_1  | 64 bytes from 199.66.198.2: seq=88 ttl=55 time=21.963 ms
ping_2  | 64 bytes from 199.66.198.2: seq=89 ttl=55 time=22.441 ms
ping_1  | 64 bytes from 199.66.198.2: seq=89 ttl=55 time=21.598 ms
ping_2  | 64 bytes from 199.66.198.2: seq=90 ttl=55 time=21.926 ms
ping_1  | 64 bytes from 199.66.198.2: seq=90 ttl=55 time=22.021 ms
ping_2  | 64 bytes from 199.66.198.2: seq=91 ttl=55 time=22.252 ms
ping_1  | 64 bytes from 199.66.198.2: seq=91 ttl=55 time=21.944 ms
ping_2  | 64 bytes from 199.66.198.2: seq=92 ttl=55 time=22.000 ms
ping_1  | 64 bytes from 199.66.198.2: seq=92 ttl=55 time=22.003 ms
ping_2  | 64 bytes from 199.66.198.2: seq=93 ttl=55 time=21.655 ms
ping_1  | 64 bytes from 199.66.198.2: seq=93 ttl=55 time=21.657 ms
ping_2  | 64 bytes from 199.66.198.2: seq=94 ttl=55 time=22.024 ms
ping_1  | 64 bytes from 199.66.198.2: seq=94 ttl=55 time=21.880 ms
ping_2  | 64 bytes from 199.66.198.2: seq=95 ttl=55 time=21.921 ms
ping_1  | 64 bytes from 199.66.198.2: seq=95 ttl=55 time=21.620 ms
ping_2  | 64 bytes from 199.66.198.2: seq=96 ttl=55 time=21.600 ms
ping_1  | 64 bytes from 199.66.198.2: seq=96 ttl=55 time=21.843 ms
ping_2  | 64 bytes from 199.66.198.2: seq=97 ttl=55 time=21.960 ms
ping_1  | 64 bytes from 199.66.198.2: seq=97 ttl=55 time=22.036 ms
ping_2  | 64 bytes from 199.66.198.2: seq=98 ttl=55 time=21.951 ms
ping_1  | 64 bytes from 199.66.198.2: seq=98 ttl=55 time=22.056 ms
ping_2  | 64 bytes from 199.66.198.2: seq=99 ttl=55 time=21.985 ms
ping_1  | 64 bytes from 199.66.198.2: seq=99 ttl=55 time=21.645 ms
ping_2  | 64 bytes from 199.66.198.2: seq=100 ttl=55 time=21.526 ms
ping_1  | 64 bytes from 199.66.198.2: seq=100 ttl=55 time=21.631 ms
ping_2  | 64 bytes from 199.66.198.2: seq=101 ttl=55 time=21.967 ms
ping_1  | 64 bytes from 199.66.198.2: seq=101 ttl=55 time=22.071 ms
ping_2  | 64 bytes from 199.66.198.2: seq=102 ttl=55 time=22.185 ms
ping_1  | 64 bytes from 199.66.198.2: seq=102 ttl=55 time=22.002 ms
ping_2  | 64 bytes from 199.66.198.2: seq=103 ttl=55 time=22.241 ms
ping_1  | 64 bytes from 199.66.198.2: seq=103 ttl=55 time=22.064 ms
ping_2  | 64 bytes from 199.66.198.2: seq=104 ttl=55 time=21.963 ms
ping_1  | 64 bytes from 199.66.198.2: seq=104 ttl=55 time=21.975 ms
ping_2  | 64 bytes from 199.66.198.2: seq=105 ttl=55 time=21.672 ms
ping_1  | 64 bytes from 199.66.198.2: seq=105 ttl=55 time=22.187 ms
ping_2  | 64 bytes from 199.66.198.2: seq=106 ttl=55 time=22.164 ms
ping_1  | 64 bytes from 199.66.198.2: seq=106 ttl=55 time=22.009 ms
ping_2  | 64 bytes from 199.66.198.2: seq=107 ttl=55 time=21.868 ms
ping_1  | 64 bytes from 199.66.198.2: seq=107 ttl=55 time=21.976 ms
ping_2  | 64 bytes from 199.66.198.2: seq=108 ttl=55 time=21.759 ms
ping_1  | 64 bytes from 199.66.198.2: seq=108 ttl=55 time=21.815 ms
ping_2  | 64 bytes from 199.66.198.2: seq=109 ttl=55 time=22.082 ms
ping_1  | 64 bytes from 199.66.198.2: seq=109 ttl=55 time=22.112 ms
ping_2  | 64 bytes from 199.66.198.2: seq=110 ttl=55 time=21.515 ms
ping_1  | 64 bytes from 199.66.198.2: seq=110 ttl=55 time=21.993 ms
ping_2  | 64 bytes from 199.66.198.2: seq=111 ttl=55 time=21.756 ms
ping_1  | 64 bytes from 199.66.198.2: seq=111 ttl=55 time=22.054 ms
ping_2  | 64 bytes from 199.66.198.2: seq=112 ttl=55 time=21.887 ms
ping_1  | 64 bytes from 199.66.198.2: seq=112 ttl=55 time=22.011 ms
ping_2  | 64 bytes from 199.66.198.2: seq=113 ttl=55 time=21.909 ms
ping_1  | 64 bytes from 199.66.198.2: seq=113 ttl=55 time=21.994 ms
ping_2  | 64 bytes from 199.66.198.2: seq=114 ttl=55 time=21.968 ms
ping_1  | 64 bytes from 199.66.198.2: seq=114 ttl=55 time=21.684 ms
ping_2  | 64 bytes from 199.66.198.2: seq=115 ttl=55 time=21.923 ms
ping_1  | 64 bytes from 199.66.198.2: seq=115 ttl=55 time=21.522 ms
ping_2  | 64 bytes from 199.66.198.2: seq=116 ttl=55 time=22.017 ms
ping_1  | 64 bytes from 199.66.198.2: seq=116 ttl=55 time=21.910 ms
ping_2  | 64 bytes from 199.66.198.2: seq=117 ttl=55 time=22.122 ms
ping_1  | 64 bytes from 199.66.198.2: seq=117 ttl=55 time=22.157 ms
ping_2  | 64 bytes from 199.66.198.2: seq=118 ttl=55 time=22.201 ms
ping_1  | 64 bytes from 199.66.198.2: seq=118 ttl=55 time=21.583 ms
ping_2  | 64 bytes from 199.66.198.2: seq=119 ttl=55 time=21.505 ms
ping_1  | 64 bytes from 199.66.198.2: seq=119 ttl=55 time=21.972 ms
ping_2  | 64 bytes from 199.66.198.2: seq=120 ttl=55 time=21.746 ms
ping_1  | 64 bytes from 199.66.198.2: seq=120 ttl=55 time=22.188 ms
ping_2  | 64 bytes from 199.66.198.2: seq=121 ttl=55 time=21.917 ms
ping_1  | 64 bytes from 199.66.198.2: seq=121 ttl=55 time=22.006 ms
ping_2  | 64 bytes from 199.66.198.2: seq=122 ttl=55 time=21.964 ms
ping_1  | 64 bytes from 199.66.198.2: seq=122 ttl=55 time=21.928 ms
ping_2  | 64 bytes from 199.66.198.2: seq=123 ttl=55 time=21.916 ms
ping_1  | 64 bytes from 199.66.198.2: seq=123 ttl=55 time=21.767 ms
ping_2  | 64 bytes from 199.66.198.2: seq=124 ttl=55 time=22.132 ms
ping_1  | 64 bytes from 199.66.198.2: seq=124 ttl=55 time=22.063 ms
ping_2  | 64 bytes from 199.66.198.2: seq=125 ttl=55 time=21.969 ms
ping_1  | 64 bytes from 199.66.198.2: seq=125 ttl=55 time=21.849 ms
ping_2  | 64 bytes from 199.66.198.2: seq=126 ttl=55 time=22.116 ms
ping_1  | 64 bytes from 199.66.198.2: seq=126 ttl=55 time=22.151 ms
ping_2  | 64 bytes from 199.66.198.2: seq=127 ttl=55 time=22.143 ms
ping_1  | 64 bytes from 199.66.198.2: seq=127 ttl=55 time=21.853 ms
ping_2  | 64 bytes from 199.66.198.2: seq=128 ttl=55 time=21.940 ms
ping_1  | 64 bytes from 199.66.198.2: seq=128 ttl=55 time=21.637 ms
ping_2  | 64 bytes from 199.66.198.2: seq=129 ttl=55 time=21.860 ms
ping_1  | 64 bytes from 199.66.198.2: seq=129 ttl=55 time=21.765 ms
ping_2  | 64 bytes from 199.66.198.2: seq=130 ttl=55 time=21.928 ms
ping_1  | 64 bytes from 199.66.198.2: seq=130 ttl=55 time=21.911 ms
ping_2  | 64 bytes from 199.66.198.2: seq=131 ttl=55 time=21.907 ms
ping_1  | 64 bytes from 199.66.198.2: seq=131 ttl=55 time=22.046 ms
ping_2  | 64 bytes from 199.66.198.2: seq=132 ttl=55 time=22.105 ms
ping_1  | 64 bytes from 199.66.198.2: seq=132 ttl=55 time=22.074 ms
ping_2  | 64 bytes from 199.66.198.2: seq=133 ttl=55 time=21.981 ms
ping_1  | 64 bytes from 199.66.198.2: seq=133 ttl=55 time=21.871 ms
ping_2  | 64 bytes from 199.66.198.2: seq=134 ttl=55 time=21.892 ms
ping_1  | 64 bytes from 199.66.198.2: seq=134 ttl=55 time=21.846 ms
ping_2  | 64 bytes from 199.66.198.2: seq=135 ttl=55 time=22.122 ms
ping_1  | 64 bytes from 199.66.198.2: seq=135 ttl=55 time=22.092 ms
ping_2  | 64 bytes from 199.66.198.2: seq=136 ttl=55 time=21.881 ms
ping_1  | 64 bytes from 199.66.198.2: seq=136 ttl=55 time=21.893 ms
ping_2  | 64 bytes from 199.66.198.2: seq=137 ttl=55 time=22.168 ms
ping_1  | 64 bytes from 199.66.198.2: seq=137 ttl=55 time=22.000 ms
ping_2  | 64 bytes from 199.66.198.2: seq=138 ttl=55 time=21.962 ms
ping_1  | 64 bytes from 199.66.198.2: seq=138 ttl=55 time=21.830 ms
ping_2  | 64 bytes from 199.66.198.2: seq=139 ttl=55 time=22.009 ms
ping_1  | 64 bytes from 199.66.198.2: seq=139 ttl=55 time=21.798 ms
ping_2  | 64 bytes from 199.66.198.2: seq=140 ttl=55 time=21.987 ms
ping_1  | 64 bytes from 199.66.198.2: seq=140 ttl=55 time=22.020 ms
ping_2  | 64 bytes from 199.66.198.2: seq=141 ttl=55 time=21.764 ms
ping_1  | 64 bytes from 199.66.198.2: seq=141 ttl=55 time=22.087 ms
ping_2  | 64 bytes from 199.66.198.2: seq=142 ttl=55 time=22.127 ms
ping_1  | 64 bytes from 199.66.198.2: seq=142 ttl=55 time=21.980 ms
ping_2  | 64 bytes from 199.66.198.2: seq=143 ttl=55 time=21.836 ms
ping_1  | 64 bytes from 199.66.198.2: seq=143 ttl=55 time=22.283 ms
ping_2  | 64 bytes from 199.66.198.2: seq=144 ttl=55 time=22.016 ms
ping_1  | 64 bytes from 199.66.198.2: seq=144 ttl=55 time=21.789 ms
ping_2  | 64 bytes from 199.66.198.2: seq=145 ttl=55 time=21.870 ms
ping_1  | 64 bytes from 199.66.198.2: seq=145 ttl=55 time=21.809 ms
ping_2  | 64 bytes from 199.66.198.2: seq=146 ttl=55 time=21.966 ms
ping_1  | 64 bytes from 199.66.198.2: seq=146 ttl=55 time=21.853 ms
ping_2  | 64 bytes from 199.66.198.2: seq=147 ttl=55 time=21.887 ms
ping_1  | 64 bytes from 199.66.198.2: seq=147 ttl=55 time=21.509 ms
ping_2  | 64 bytes from 199.66.198.2: seq=148 ttl=55 time=21.760 ms
ping_1  | 64 bytes from 199.66.198.2: seq=148 ttl=55 time=21.594 ms
ping_2  | 64 bytes from 199.66.198.2: seq=149 ttl=55 time=21.525 ms
ping_1  | 64 bytes from 199.66.198.2: seq=149 ttl=55 time=21.593 ms
ping_2  | 64 bytes from 199.66.198.2: seq=150 ttl=55 time=21.900 ms
ping_1  | 64 bytes from 199.66.198.2: seq=150 ttl=55 time=21.923 ms
ping_2  | 64 bytes from 199.66.198.2: seq=151 ttl=55 time=21.970 ms
ping_1  | 64 bytes from 199.66.198.2: seq=151 ttl=55 time=22.219 ms
ping_2  | 64 bytes from 199.66.198.2: seq=152 ttl=55 time=22.050 ms
ping_1  | 64 bytes from 199.66.198.2: seq=152 ttl=55 time=22.145 ms
ping_2  | 64 bytes from 199.66.198.2: seq=153 ttl=55 time=21.539 ms
ping_1  | 64 bytes from 199.66.198.2: seq=153 ttl=55 time=21.713 ms
ping_2  | 64 bytes from 199.66.198.2: seq=154 ttl=55 time=22.097 ms
ping_1  | 64 bytes from 199.66.198.2: seq=154 ttl=55 time=21.908 ms
ping_2  | 64 bytes from 199.66.198.2: seq=155 ttl=55 time=21.958 ms
ping_1  | 64 bytes from 199.66.198.2: seq=155 ttl=55 time=22.006 ms
ping_2  | 64 bytes from 199.66.198.2: seq=156 ttl=55 time=21.960 ms
ping_1  | 64 bytes from 199.66.198.2: seq=156 ttl=55 time=21.682 ms
ping_2  | 64 bytes from 199.66.198.2: seq=157 ttl=55 time=21.665 ms
ping_1  | 64 bytes from 199.66.198.2: seq=157 ttl=55 time=21.689 ms
ping_2  | 64 bytes from 199.66.198.2: seq=158 ttl=55 time=21.584 ms
ping_1  | 64 bytes from 199.66.198.2: seq=158 ttl=55 time=21.662 ms
ping_2  | 64 bytes from 199.66.198.2: seq=159 ttl=55 time=21.587 ms
ping_1  | 64 bytes from 199.66.198.2: seq=159 ttl=55 time=21.928 ms
ping_2  | 64 bytes from 199.66.198.2: seq=160 ttl=55 time=21.624 ms
ping_1  | 64 bytes from 199.66.198.2: seq=160 ttl=55 time=21.647 ms
ping_2  | 64 bytes from 199.66.198.2: seq=161 ttl=55 time=21.563 ms
ping_1  | 64 bytes from 199.66.198.2: seq=161 ttl=55 time=22.047 ms
ping_2  | 64 bytes from 199.66.198.2: seq=162 ttl=55 time=21.937 ms
ping_1  | 64 bytes from 199.66.198.2: seq=162 ttl=55 time=21.617 ms
ping_2  | 64 bytes from 199.66.198.2: seq=163 ttl=55 time=21.865 ms
ping_1  | 64 bytes from 199.66.198.2: seq=163 ttl=55 time=22.172 ms
ping_2  | 64 bytes from 199.66.198.2: seq=164 ttl=55 time=21.955 ms
ping_1  | 64 bytes from 199.66.198.2: seq=164 ttl=55 time=22.221 ms
ping_2  | 64 bytes from 199.66.198.2: seq=165 ttl=55 time=22.161 ms
ping_1  | 64 bytes from 199.66.198.2: seq=165 ttl=55 time=22.016 ms
ping_2  | 64 bytes from 199.66.198.2: seq=166 ttl=55 time=22.118 ms
ping_1  | 64 bytes from 199.66.198.2: seq=166 ttl=55 time=22.052 ms
ping_2  | 64 bytes from 199.66.198.2: seq=167 ttl=55 time=21.652 ms
ping_1  | 64 bytes from 199.66.198.2: seq=167 ttl=55 time=22.032 ms
ping_2  | 64 bytes from 199.66.198.2: seq=168 ttl=55 time=21.915 ms
ping_1  | 64 bytes from 199.66.198.2: seq=168 ttl=55 time=21.904 ms
ping_2  | 64 bytes from 199.66.198.2: seq=169 ttl=55 time=21.943 ms
ping_1  | 64 bytes from 199.66.198.2: seq=169 ttl=55 time=21.893 ms
ping_2  | 64 bytes from 199.66.198.2: seq=170 ttl=55 time=21.623 ms
ping_1  | 64 bytes from 199.66.198.2: seq=170 ttl=55 time=22.232 ms
ping_2  | 64 bytes from 199.66.198.2: seq=171 ttl=55 time=22.197 ms
ping_1  | 64 bytes from 199.66.198.2: seq=171 ttl=55 time=21.899 ms
ping_2  | 64 bytes from 199.66.198.2: seq=172 ttl=55 time=21.988 ms
ping_1  | 64 bytes from 199.66.198.2: seq=172 ttl=55 time=21.935 ms
ping_2  | 64 bytes from 199.66.198.2: seq=173 ttl=55 time=21.847 ms
ping_1  | 64 bytes from 199.66.198.2: seq=173 ttl=55 time=22.185 ms
ping_2  | 64 bytes from 199.66.198.2: seq=174 ttl=55 time=21.950 ms
ping_1  | 64 bytes from 199.66.198.2: seq=174 ttl=55 time=21.943 ms
ping_2  | 64 bytes from 199.66.198.2: seq=175 ttl=55 time=21.973 ms
ping_1  | 64 bytes from 199.66.198.2: seq=175 ttl=55 time=22.079 ms
ping_2  | 64 bytes from 199.66.198.2: seq=176 ttl=55 time=22.092 ms
ping_1  | 64 bytes from 199.66.198.2: seq=176 ttl=55 time=21.997 ms
ping_2  | 64 bytes from 199.66.198.2: seq=177 ttl=55 time=21.690 ms
ping_1  | 64 bytes from 199.66.198.2: seq=177 ttl=55 time=22.005 ms
ping_2  | 64 bytes from 199.66.198.2: seq=178 ttl=55 time=22.089 ms
ping_1  | 64 bytes from 199.66.198.2: seq=178 ttl=55 time=22.193 ms
ping_2  | 64 bytes from 199.66.198.2: seq=179 ttl=55 time=21.806 ms
ping_1  | 64 bytes from 199.66.198.2: seq=179 ttl=55 time=21.830 ms
ping_2  | 64 bytes from 199.66.198.2: seq=180 ttl=55 time=21.945 ms
ping_1  | 64 bytes from 199.66.198.2: seq=180 ttl=55 time=22.062 ms
ping_2  | 64 bytes from 199.66.198.2: seq=181 ttl=55 time=22.181 ms
ping_1  | 64 bytes from 199.66.198.2: seq=181 ttl=55 time=22.118 ms
ping_2  | 64 bytes from 199.66.198.2: seq=182 ttl=55 time=22.025 ms
ping_1  | 64 bytes from 199.66.198.2: seq=182 ttl=55 time=22.166 ms
ping_2  | 64 bytes from 199.66.198.2: seq=183 ttl=55 time=21.965 ms
ping_1  | 64 bytes from 199.66.198.2: seq=183 ttl=55 time=22.038 ms
ping_2  | 64 bytes from 199.66.198.2: seq=184 ttl=55 time=21.981 ms
ping_1  | 64 bytes from 199.66.198.2: seq=184 ttl=55 time=22.126 ms
ping_2  | 64 bytes from 199.66.198.2: seq=185 ttl=55 time=22.232 ms
ping_1  | 64 bytes from 199.66.198.2: seq=185 ttl=55 time=21.565 ms
ping_2  | 64 bytes from 199.66.198.2: seq=186 ttl=55 time=22.073 ms
ping_1  | 64 bytes from 199.66.198.2: seq=186 ttl=55 time=21.669 ms
ping_2  | 64 bytes from 199.66.198.2: seq=187 ttl=55 time=22.031 ms
ping_1  | 64 bytes from 199.66.198.2: seq=187 ttl=55 time=21.812 ms
ping_2  | 64 bytes from 199.66.198.2: seq=188 ttl=55 time=22.164 ms
ping_1  | 64 bytes from 199.66.198.2: seq=188 ttl=55 time=22.136 ms
ping_2  | 64 bytes from 199.66.198.2: seq=189 ttl=55 time=22.060 ms
ping_1  | 64 bytes from 199.66.198.2: seq=189 ttl=55 time=21.955 ms
ping_2  | 64 bytes from 199.66.198.2: seq=190 ttl=55 time=21.960 ms
ping_1  | 64 bytes from 199.66.198.2: seq=190 ttl=55 time=22.131 ms
ping_2  | 64 bytes from 199.66.198.2: seq=191 ttl=55 time=21.941 ms
ping_1  | 64 bytes from 199.66.198.2: seq=191 ttl=55 time=21.997 ms
ping_2  | 64 bytes from 199.66.198.2: seq=192 ttl=55 time=22.133 ms
ping_1  | 64 bytes from 199.66.198.2: seq=192 ttl=55 time=22.160 ms
ping_2  | 64 bytes from 199.66.198.2: seq=193 ttl=55 time=22.156 ms
ping_1  | 64 bytes from 199.66.198.2: seq=193 ttl=55 time=22.205 ms
ping_2  | 64 bytes from 199.66.198.2: seq=194 ttl=55 time=21.901 ms
ping_1  | 64 bytes from 199.66.198.2: seq=194 ttl=55 time=21.972 ms
ping_2  | 64 bytes from 199.66.198.2: seq=195 ttl=55 time=21.768 ms
ping_1  | 64 bytes from 199.66.198.2: seq=195 ttl=55 time=22.420 ms
ping_2  | 64 bytes from 199.66.198.2: seq=196 ttl=55 time=21.865 ms
ping_1  | 64 bytes from 199.66.198.2: seq=196 ttl=55 time=22.202 ms
ping_2  | 64 bytes from 199.66.198.2: seq=197 ttl=55 time=22.144 ms
ping_1  | 64 bytes from 199.66.198.2: seq=197 ttl=55 time=22.564 ms
ping_2  | 64 bytes from 199.66.198.2: seq=198 ttl=55 time=22.292 ms
ping_1  | 64 bytes from 199.66.198.2: seq=198 ttl=55 time=22.017 ms
ping_2  | 64 bytes from 199.66.198.2: seq=199 ttl=55 time=21.980 ms
ping_1  | 64 bytes from 199.66.198.2: seq=199 ttl=55 time=22.852 ms
ping_2  | 64 bytes from 199.66.198.2: seq=200 ttl=55 time=22.048 ms
ping_1  | 64 bytes from 199.66.198.2: seq=200 ttl=55 time=22.012 ms
ping_2  | 64 bytes from 199.66.198.2: seq=201 ttl=55 time=21.847 ms
ping_1  | 64 bytes from 199.66.198.2: seq=201 ttl=55 time=22.115 ms
ping_2  | 64 bytes from 199.66.198.2: seq=202 ttl=55 time=22.043 ms
ping_1  | 64 bytes from 199.66.198.2: seq=202 ttl=55 time=21.983 ms
ping_2  | 64 bytes from 199.66.198.2: seq=203 ttl=55 time=22.143 ms
ping_1  | 64 bytes from 199.66.198.2: seq=203 ttl=55 time=21.532 ms
ping_2  | 64 bytes from 199.66.198.2: seq=204 ttl=55 time=22.045 ms
ping_1  | 64 bytes from 199.66.198.2: seq=204 ttl=55 time=22.184 ms
ping_2  | 64 bytes from 199.66.198.2: seq=205 ttl=55 time=21.601 ms
ping_1  | 64 bytes from 199.66.198.2: seq=205 ttl=55 time=21.577 ms
ping_2  | 64 bytes from 199.66.198.2: seq=206 ttl=55 time=21.482 ms
ping_1  | 64 bytes from 199.66.198.2: seq=206 ttl=55 time=21.990 ms
ping_2  | 64 bytes from 199.66.198.2: seq=207 ttl=55 time=22.208 ms
ping_1  | 64 bytes from 199.66.198.2: seq=207 ttl=55 time=22.093 ms
ping_2  | 64 bytes from 199.66.198.2: seq=208 ttl=55 time=22.174 ms
ping_1  | 64 bytes from 199.66.198.2: seq=208 ttl=55 time=22.173 ms
ping_2  | 64 bytes from 199.66.198.2: seq=209 ttl=55 time=21.954 ms
ping_1  | 64 bytes from 199.66.198.2: seq=209 ttl=55 time=22.195 ms
ping_2  | 64 bytes from 199.66.198.2: seq=210 ttl=55 time=22.074 ms
ping_1  | 64 bytes from 199.66.198.2: seq=210 ttl=55 time=21.844 ms
ping_2  | 64 bytes from 199.66.198.2: seq=211 ttl=55 time=21.799 ms
ping_1  | 64 bytes from 199.66.198.2: seq=211 ttl=55 time=22.134 ms
ping_2  | 64 bytes from 199.66.198.2: seq=212 ttl=55 time=22.176 ms
ping_1  | 64 bytes from 199.66.198.2: seq=212 ttl=55 time=22.033 ms
ping_2  | 64 bytes from 199.66.198.2: seq=213 ttl=55 time=22.010 ms
ping_1  | 64 bytes from 199.66.198.2: seq=213 ttl=55 time=21.526 ms
ping_2  | 64 bytes from 199.66.198.2: seq=214 ttl=55 time=22.110 ms
ping_1  | 64 bytes from 199.66.198.2: seq=214 ttl=55 time=22.007 ms
ping_2  | 64 bytes from 199.66.198.2: seq=215 ttl=55 time=21.870 ms
ping_1  | 64 bytes from 199.66.198.2: seq=215 ttl=55 time=21.659 ms
ping_2  | 64 bytes from 199.66.198.2: seq=216 ttl=55 time=21.562 ms
ping_1  | 64 bytes from 199.66.198.2: seq=216 ttl=55 time=21.595 ms
ping_2  | 64 bytes from 199.66.198.2: seq=217 ttl=55 time=21.940 ms
ping_1  | 64 bytes from 199.66.198.2: seq=217 ttl=55 time=21.860 ms
ping_2  | 64 bytes from 199.66.198.2: seq=218 ttl=55 time=21.858 ms
ping_1  | 64 bytes from 199.66.198.2: seq=218 ttl=55 time=22.098 ms
ping_2  | 64 bytes from 199.66.198.2: seq=219 ttl=55 time=22.017 ms
ping_1  | 64 bytes from 199.66.198.2: seq=219 ttl=55 time=22.125 ms
ping_2  | 64 bytes from 199.66.198.2: seq=220 ttl=55 time=21.675 ms
ping_1  | 64 bytes from 199.66.198.2: seq=220 ttl=55 time=21.990 ms
ping_2  | 64 bytes from 199.66.198.2: seq=221 ttl=55 time=21.945 ms
ping_1  | 64 bytes from 199.66.198.2: seq=221 ttl=55 time=21.530 ms
ping_2  | 64 bytes from 199.66.198.2: seq=222 ttl=55 time=22.086 ms
ping_1  | 64 bytes from 199.66.198.2: seq=222 ttl=55 time=21.740 ms
ping_2  | 64 bytes from 199.66.198.2: seq=223 ttl=55 time=21.752 ms
ping_1  | 64 bytes from 199.66.198.2: seq=223 ttl=55 time=21.632 ms
ping_2  | 64 bytes from 199.66.198.2: seq=224 ttl=55 time=21.846 ms
ping_1  | 64 bytes from 199.66.198.2: seq=224 ttl=55 time=21.538 ms
ping_2  | 64 bytes from 199.66.198.2: seq=225 ttl=55 time=21.536 ms
ping_1  | 64 bytes from 199.66.198.2: seq=225 ttl=55 time=22.029 ms
ping_2  | 64 bytes from 199.66.198.2: seq=226 ttl=55 time=21.669 ms
ping_1  | 64 bytes from 199.66.198.2: seq=226 ttl=55 time=22.019 ms
ping_2  | 64 bytes from 199.66.198.2: seq=227 ttl=55 time=21.938 ms
ping_1  | 64 bytes from 199.66.198.2: seq=227 ttl=55 time=22.037 ms
ping_2  | 64 bytes from 199.66.198.2: seq=228 ttl=55 time=21.832 ms
ping_1  | 64 bytes from 199.66.198.2: seq=228 ttl=55 time=21.930 ms
ping_2  | 64 bytes from 199.66.198.2: seq=229 ttl=55 time=22.207 ms
ping_1  | 64 bytes from 199.66.198.2: seq=229 ttl=55 time=21.973 ms
ping_2  | 64 bytes from 199.66.198.2: seq=230 ttl=55 time=21.708 ms
ping_1  | 64 bytes from 199.66.198.2: seq=230 ttl=55 time=21.858 ms
ping_2  | 64 bytes from 199.66.198.2: seq=231 ttl=55 time=21.881 ms
ping_1  | 64 bytes from 199.66.198.2: seq=231 ttl=55 time=21.599 ms
ping_2  | 64 bytes from 199.66.198.2: seq=232 ttl=55 time=21.598 ms
ping_1  | 64 bytes from 199.66.198.2: seq=232 ttl=55 time=21.667 ms
ping_2  | 64 bytes from 199.66.198.2: seq=233 ttl=55 time=22.001 ms
ping_1  | 64 bytes from 199.66.198.2: seq=233 ttl=55 time=21.646 ms
ping_2  | 64 bytes from 199.66.198.2: seq=234 ttl=55 time=22.143 ms
ping_1  | 64 bytes from 199.66.198.2: seq=234 ttl=55 time=22.150 ms
ping_2  | 64 bytes from 199.66.198.2: seq=235 ttl=55 time=22.087 ms
ping_1  | 64 bytes from 199.66.198.2: seq=235 ttl=55 time=22.134 ms
ping_2  | 64 bytes from 199.66.198.2: seq=236 ttl=55 time=22.029 ms
ping_1  | 64 bytes from 199.66.198.2: seq=236 ttl=55 time=21.942 ms
ping_2  | 64 bytes from 199.66.198.2: seq=237 ttl=55 time=22.064 ms
ping_1  | 64 bytes from 199.66.198.2: seq=237 ttl=55 time=22.167 ms
ping_2  | 64 bytes from 199.66.198.2: seq=238 ttl=55 time=21.984 ms
ping_1  | 64 bytes from 199.66.198.2: seq=238 ttl=55 time=21.688 ms
ping_2  | 64 bytes from 199.66.198.2: seq=239 ttl=55 time=21.837 ms
ping_1  | 64 bytes from 199.66.198.2: seq=239 ttl=55 time=22.184 ms
ping_2  | 64 bytes from 199.66.198.2: seq=240 ttl=55 time=21.870 ms
ping_1  | 64 bytes from 199.66.198.2: seq=240 ttl=55 time=21.644 ms
ping_2  | 64 bytes from 199.66.198.2: seq=241 ttl=55 time=21.609 ms
ping_1  | 64 bytes from 199.66.198.2: seq=241 ttl=55 time=22.108 ms
ping_2  | 64 bytes from 199.66.198.2: seq=242 ttl=55 time=22.067 ms
ping_1  | 64 bytes from 199.66.198.2: seq=242 ttl=55 time=21.723 ms
ping_2  | 64 bytes from 199.66.198.2: seq=243 ttl=55 time=21.806 ms
ping_1  | 64 bytes from 199.66.198.2: seq=243 ttl=55 time=22.170 ms
ping_2  | 64 bytes from 199.66.198.2: seq=244 ttl=55 time=22.180 ms
ping_1  | 64 bytes from 199.66.198.2: seq=244 ttl=55 time=21.657 ms
ping_2  | 64 bytes from 199.66.198.2: seq=245 ttl=55 time=21.646 ms
ping_1  | 64 bytes from 199.66.198.2: seq=245 ttl=55 time=22.202 ms
ping_2  | 64 bytes from 199.66.198.2: seq=246 ttl=55 time=22.216 ms
ping_1  | 64 bytes from 199.66.198.2: seq=246 ttl=55 time=21.658 ms
ping_2  | 64 bytes from 199.66.198.2: seq=247 ttl=55 time=21.855 ms
ping_1  | 64 bytes from 199.66.198.2: seq=247 ttl=55 time=21.615 ms
ping_2  | 64 bytes from 199.66.198.2: seq=248 ttl=55 time=22.039 ms
ping_1  | 64 bytes from 199.66.198.2: seq=248 ttl=55 time=21.854 ms
ping_2  | 64 bytes from 199.66.198.2: seq=249 ttl=55 time=21.928 ms
ping_1  | 64 bytes from 199.66.198.2: seq=249 ttl=55 time=22.184 ms
ping_2  | 64 bytes from 199.66.198.2: seq=250 ttl=55 time=21.885 ms
ping_1  | 64 bytes from 199.66.198.2: seq=250 ttl=55 time=21.588 ms
ping_2  | 64 bytes from 199.66.198.2: seq=251 ttl=55 time=21.567 ms
ping_1  | 64 bytes from 199.66.198.2: seq=251 ttl=55 time=21.944 ms
ping_2  | 64 bytes from 199.66.198.2: seq=252 ttl=55 time=21.966 ms
ping_1  | 64 bytes from 199.66.198.2: seq=252 ttl=55 time=21.619 ms
ping_2  | 64 bytes from 199.66.198.2: seq=253 ttl=55 time=22.088 ms
ping_1  | 64 bytes from 199.66.198.2: seq=253 ttl=55 time=22.196 ms
ping_2  | 64 bytes from 199.66.198.2: seq=254 ttl=55 time=22.151 ms
ping_1  | 64 bytes from 199.66.198.2: seq=254 ttl=55 time=21.951 ms
ping_2  | 64 bytes from 199.66.198.2: seq=255 ttl=55 time=21.955 ms
ping_1  | 64 bytes from 199.66.198.2: seq=255 ttl=55 time=21.957 ms
ping_2  | 64 bytes from 199.66.198.2: seq=256 ttl=55 time=21.958 ms
ping_1  | 64 bytes from 199.66.198.2: seq=256 ttl=55 time=21.961 ms
ping_2  | 64 bytes from 199.66.198.2: seq=257 ttl=55 time=22.075 ms
ping_1  | 64 bytes from 199.66.198.2: seq=257 ttl=55 time=21.573 ms
ping_2  | 64 bytes from 199.66.198.2: seq=258 ttl=55 time=21.748 ms
ping_1  | 64 bytes from 199.66.198.2: seq=258 ttl=55 time=21.680 ms
ping_2  | 64 bytes from 199.66.198.2: seq=259 ttl=55 time=21.904 ms
ping_1  | 64 bytes from 199.66.198.2: seq=259 ttl=55 time=22.008 ms
ping_2  | 64 bytes from 199.66.198.2: seq=260 ttl=55 time=21.939 ms
ping_1  | 64 bytes from 199.66.198.2: seq=260 ttl=55 time=22.087 ms
ping_2  | 64 bytes from 199.66.198.2: seq=261 ttl=55 time=21.855 ms
ping_1  | 64 bytes from 199.66.198.2: seq=261 ttl=55 time=21.975 ms
ping_2  | 64 bytes from 199.66.198.2: seq=262 ttl=55 time=21.506 ms
ping_1  | 64 bytes from 199.66.198.2: seq=262 ttl=55 time=21.914 ms
ping_2  | 64 bytes from 199.66.198.2: seq=263 ttl=55 time=22.175 ms
ping_1  | 64 bytes from 199.66.198.2: seq=263 ttl=55 time=21.908 ms
ping_2  | 64 bytes from 199.66.198.2: seq=264 ttl=55 time=21.944 ms
ping_1  | 64 bytes from 199.66.198.2: seq=264 ttl=55 time=22.119 ms
ping_2  | 64 bytes from 199.66.198.2: seq=265 ttl=55 time=21.620 ms
ping_1  | 64 bytes from 199.66.198.2: seq=265 ttl=55 time=21.909 ms
ping_2  | 64 bytes from 199.66.198.2: seq=266 ttl=55 time=21.906 ms
ping_1  | 64 bytes from 199.66.198.2: seq=266 ttl=55 time=21.860 ms
ping_2  | 64 bytes from 199.66.198.2: seq=267 ttl=55 time=22.016 ms
ping_1  | 64 bytes from 199.66.198.2: seq=267 ttl=55 time=21.958 ms
ping_2  | 64 bytes from 199.66.198.2: seq=268 ttl=55 time=22.157 ms
ping_1  | 64 bytes from 199.66.198.2: seq=268 ttl=55 time=21.603 ms
ping_2  | 64 bytes from 199.66.198.2: seq=269 ttl=55 time=22.007 ms
ping_1  | 64 bytes from 199.66.198.2: seq=269 ttl=55 time=22.027 ms
ping_2  | 64 bytes from 199.66.198.2: seq=270 ttl=55 time=21.616 ms
ping_1  | 64 bytes from 199.66.198.2: seq=270 ttl=55 time=22.039 ms
ping_2  | 64 bytes from 199.66.198.2: seq=271 ttl=55 time=22.078 ms
ping_1  | 64 bytes from 199.66.198.2: seq=271 ttl=55 time=21.904 ms
ping_2  | 64 bytes from 199.66.198.2: seq=272 ttl=55 time=22.135 ms
ping_1  | 64 bytes from 199.66.198.2: seq=272 ttl=55 time=22.059 ms
ping_2  | 64 bytes from 199.66.198.2: seq=273 ttl=55 time=22.026 ms
ping_1  | 64 bytes from 199.66.198.2: seq=273 ttl=55 time=22.072 ms
ping_2  | 64 bytes from 199.66.198.2: seq=274 ttl=55 time=22.205 ms
ping_1  | 64 bytes from 199.66.198.2: seq=274 ttl=55 time=21.715 ms
ping_2  | 64 bytes from 199.66.198.2: seq=275 ttl=55 time=22.001 ms
ping_1  | 64 bytes from 199.66.198.2: seq=275 ttl=55 time=21.614 ms
ping_2  | 64 bytes from 199.66.198.2: seq=276 ttl=55 time=21.925 ms
ping_1  | 64 bytes from 199.66.198.2: seq=276 ttl=55 time=21.770 ms
ping_2  | 64 bytes from 199.66.198.2: seq=277 ttl=55 time=21.938 ms
ping_1  | 64 bytes from 199.66.198.2: seq=277 ttl=55 time=22.152 ms
ping_2  | 64 bytes from 199.66.198.2: seq=278 ttl=55 time=22.017 ms
ping_1  | 64 bytes from 199.66.198.2: seq=278 ttl=55 time=21.610 ms
ping_2  | 64 bytes from 199.66.198.2: seq=279 ttl=55 time=21.510 ms
ping_1  | 64 bytes from 199.66.198.2: seq=279 ttl=55 time=22.157 ms
ping_2  | 64 bytes from 199.66.198.2: seq=280 ttl=55 time=21.716 ms
ping_1  | 64 bytes from 199.66.198.2: seq=280 ttl=55 time=22.159 ms
ping_2  | 64 bytes from 199.66.198.2: seq=281 ttl=55 time=22.008 ms
ping_1  | 64 bytes from 199.66.198.2: seq=281 ttl=55 time=21.750 ms
ping_2  | 64 bytes from 199.66.198.2: seq=282 ttl=55 time=21.945 ms
ping_1  | 64 bytes from 199.66.198.2: seq=282 ttl=55 time=22.005 ms
ping_2  | 64 bytes from 199.66.198.2: seq=283 ttl=55 time=22.119 ms
ping_1  | 64 bytes from 199.66.198.2: seq=283 ttl=55 time=22.170 ms
ping_2  | 64 bytes from 199.66.198.2: seq=284 ttl=55 time=22.010 ms
ping_1  | 64 bytes from 199.66.198.2: seq=284 ttl=55 time=22.055 ms
ping_2  | 64 bytes from 199.66.198.2: seq=285 ttl=55 time=21.815 ms
ping_1  | 64 bytes from 199.66.198.2: seq=285 ttl=55 time=21.992 ms
ping_2  | 64 bytes from 199.66.198.2: seq=286 ttl=55 time=22.187 ms
ping_1  | 64 bytes from 199.66.198.2: seq=286 ttl=55 time=22.157 ms
ping_2  | 64 bytes from 199.66.198.2: seq=287 ttl=55 time=22.014 ms
ping_1  | 64 bytes from 199.66.198.2: seq=287 ttl=55 time=21.892 ms
ping_2  | 64 bytes from 199.66.198.2: seq=288 ttl=55 time=22.020 ms
ping_1  | 64 bytes from 199.66.198.2: seq=288 ttl=55 time=21.886 ms
ping_2  | 64 bytes from 199.66.198.2: seq=289 ttl=55 time=21.890 ms
ping_1  | 64 bytes from 199.66.198.2: seq=289 ttl=55 time=21.978 ms
ping_2  | 64 bytes from 199.66.198.2: seq=290 ttl=55 time=21.790 ms
ping_1  | 64 bytes from 199.66.198.2: seq=290 ttl=55 time=21.936 ms
ping_2  | 64 bytes from 199.66.198.2: seq=291 ttl=55 time=21.922 ms
ping_1  | 64 bytes from 199.66.198.2: seq=291 ttl=55 time=22.130 ms
ping_2  | 64 bytes from 199.66.198.2: seq=292 ttl=55 time=21.857 ms
ping_1  | 64 bytes from 199.66.198.2: seq=292 ttl=55 time=21.610 ms
ping_2  | 64 bytes from 199.66.198.2: seq=293 ttl=55 time=21.986 ms
ping_1  | 64 bytes from 199.66.198.2: seq=293 ttl=55 time=21.887 ms
ping_2  | 64 bytes from 199.66.198.2: seq=294 ttl=55 time=21.934 ms
ping_1  | 64 bytes from 199.66.198.2: seq=294 ttl=55 time=22.160 ms
ping_2  | 64 bytes from 199.66.198.2: seq=295 ttl=55 time=22.099 ms
ping_1  | 64 bytes from 199.66.198.2: seq=295 ttl=55 time=22.070 ms
ping_2  | 64 bytes from 199.66.198.2: seq=296 ttl=55 time=21.980 ms
ping_1  | 64 bytes from 199.66.198.2: seq=296 ttl=55 time=21.859 ms
ping_2  | 64 bytes from 199.66.198.2: seq=297 ttl=55 time=21.995 ms
ping_1  | 64 bytes from 199.66.198.2: seq=297 ttl=55 time=21.906 ms
ping_2  | 64 bytes from 199.66.198.2: seq=298 ttl=55 time=21.610 ms
ping_1  | 64 bytes from 199.66.198.2: seq=298 ttl=55 time=21.569 ms
ping_2  | 64 bytes from 199.66.198.2: seq=299 ttl=55 time=21.612 ms
ping_1  | 64 bytes from 199.66.198.2: seq=299 ttl=55 time=21.882 ms
ping_2  | 64 bytes from 199.66.198.2: seq=300 ttl=55 time=21.768 ms
ping_1  | 64 bytes from 199.66.198.2: seq=300 ttl=55 time=21.620 ms
ping_2  | 64 bytes from 199.66.198.2: seq=301 ttl=55 time=21.665 ms
ping_1  | 64 bytes from 199.66.198.2: seq=301 ttl=55 time=21.656 ms
ping_2  | 64 bytes from 199.66.198.2: seq=302 ttl=55 time=21.514 ms
ping_1  | 64 bytes from 199.66.198.2: seq=302 ttl=55 time=21.882 ms
ping_2  | 64 bytes from 199.66.198.2: seq=303 ttl=55 time=21.917 ms
ping_1  | 64 bytes from 199.66.198.2: seq=303 ttl=55 time=22.084 ms
ping_2  | 64 bytes from 199.66.198.2: seq=304 ttl=55 time=21.967 ms
ping_1  | 64 bytes from 199.66.198.2: seq=304 ttl=55 time=22.027 ms
ping_2  | 64 bytes from 199.66.198.2: seq=305 ttl=55 time=21.841 ms
ping_1  | 64 bytes from 199.66.198.2: seq=305 ttl=55 time=22.043 ms
ping_2  | 64 bytes from 199.66.198.2: seq=306 ttl=55 time=22.195 ms
ping_1  | 64 bytes from 199.66.198.2: seq=306 ttl=55 time=22.005 ms
ping_2  | 64 bytes from 199.66.198.2: seq=307 ttl=55 time=21.979 ms
ping_1  | 64 bytes from 199.66.198.2: seq=307 ttl=55 time=22.159 ms
ping_2  | 64 bytes from 199.66.198.2: seq=308 ttl=55 time=21.975 ms
ping_1  | 64 bytes from 199.66.198.2: seq=308 ttl=55 time=21.921 ms
ping_2  | 64 bytes from 199.66.198.2: seq=309 ttl=55 time=22.047 ms
ping_1  | 64 bytes from 199.66.198.2: seq=309 ttl=55 time=22.021 ms
ping_2  | 64 bytes from 199.66.198.2: seq=310 ttl=55 time=21.836 ms
ping_1  | 64 bytes from 199.66.198.2: seq=310 ttl=55 time=22.151 ms
ping_2  | 64 bytes from 199.66.198.2: seq=311 ttl=55 time=22.019 ms
ping_1  | 64 bytes from 199.66.198.2: seq=311 ttl=55 time=21.565 ms
ping_2  | 64 bytes from 199.66.198.2: seq=312 ttl=55 time=21.553 ms
ping_1  | 64 bytes from 199.66.198.2: seq=312 ttl=55 time=22.044 ms
ping_2  | 64 bytes from 199.66.198.2: seq=313 ttl=55 time=22.462 ms
ping_1  | 64 bytes from 199.66.198.2: seq=313 ttl=55 time=21.523 ms
ping_2  | 64 bytes from 199.66.198.2: seq=314 ttl=55 time=21.924 ms
ping_1  | 64 bytes from 199.66.198.2: seq=314 ttl=55 time=22.158 ms
ping_2  | 64 bytes from 199.66.198.2: seq=315 ttl=55 time=21.959 ms
ping_1  | 64 bytes from 199.66.198.2: seq=315 ttl=55 time=21.846 ms
ping_2  | 64 bytes from 199.66.198.2: seq=316 ttl=55 time=22.047 ms
ping_1  | 64 bytes from 199.66.198.2: seq=316 ttl=55 time=22.076 ms
ping_2  | 64 bytes from 199.66.198.2: seq=317 ttl=55 time=22.026 ms
ping_1  | 64 bytes from 199.66.198.2: seq=317 ttl=55 time=22.055 ms
ping_2  | 64 bytes from 199.66.198.2: seq=318 ttl=55 time=21.864 ms
ping_1  | 64 bytes from 199.66.198.2: seq=318 ttl=55 time=22.037 ms
ping_2  | 64 bytes from 199.66.198.2: seq=319 ttl=55 time=21.505 ms
ping_1  | 64 bytes from 199.66.198.2: seq=319 ttl=55 time=21.974 ms
ping_2  | 64 bytes from 199.66.198.2: seq=320 ttl=55 time=21.999 ms
ping_1  | 64 bytes from 199.66.198.2: seq=320 ttl=55 time=22.079 ms
ping_2  | 64 bytes from 199.66.198.2: seq=321 ttl=55 time=21.887 ms
ping_1  | 64 bytes from 199.66.198.2: seq=321 ttl=55 time=21.899 ms
ping_2  | 64 bytes from 199.66.198.2: seq=322 ttl=55 time=21.870 ms
ping_1  | 64 bytes from 199.66.198.2: seq=322 ttl=55 time=21.904 ms
ping_2  | 64 bytes from 199.66.198.2: seq=323 ttl=55 time=21.915 ms
ping_1  | 64 bytes from 199.66.198.2: seq=323 ttl=55 time=21.562 ms
ping_2  | 64 bytes from 199.66.198.2: seq=324 ttl=55 time=21.541 ms
ping_1  | 64 bytes from 199.66.198.2: seq=324 ttl=55 time=22.204 ms
ping_2  | 64 bytes from 199.66.198.2: seq=325 ttl=55 time=21.672 ms
ping_1  | 64 bytes from 199.66.198.2: seq=325 ttl=55 time=21.489 ms
ping_2  | 64 bytes from 199.66.198.2: seq=326 ttl=55 time=21.797 ms
ping_1  | 64 bytes from 199.66.198.2: seq=326 ttl=55 time=22.079 ms
ping_2  | 64 bytes from 199.66.198.2: seq=327 ttl=55 time=21.890 ms
ping_1  | 64 bytes from 199.66.198.2: seq=327 ttl=55 time=22.072 ms
ping_2  | 64 bytes from 199.66.198.2: seq=328 ttl=55 time=21.622 ms
ping_1  | 64 bytes from 199.66.198.2: seq=328 ttl=55 time=21.675 ms
ping_2  | 64 bytes from 199.66.198.2: seq=329 ttl=55 time=21.574 ms
ping_1  | 64 bytes from 199.66.198.2: seq=329 ttl=55 time=21.909 ms
ping_2  | 64 bytes from 199.66.198.2: seq=330 ttl=55 time=22.047 ms
ping_1  | 64 bytes from 199.66.198.2: seq=330 ttl=55 time=21.977 ms
ping_2  | 64 bytes from 199.66.198.2: seq=331 ttl=55 time=22.083 ms
ping_1  | 64 bytes from 199.66.198.2: seq=331 ttl=55 time=21.970 ms
ping_2  | 64 bytes from 199.66.198.2: seq=332 ttl=55 time=21.913 ms
ping_1  | 64 bytes from 199.66.198.2: seq=332 ttl=55 time=21.959 ms
ping_2  | 64 bytes from 199.66.198.2: seq=333 ttl=55 time=21.883 ms
ping_1  | 64 bytes from 199.66.198.2: seq=333 ttl=55 time=21.897 ms
ping_2  | 64 bytes from 199.66.198.2: seq=334 ttl=55 time=21.716 ms
ping_1  | 64 bytes from 199.66.198.2: seq=334 ttl=55 time=22.076 ms
ping_2  | 64 bytes from 199.66.198.2: seq=335 ttl=55 time=22.115 ms
ping_1  | 64 bytes from 199.66.198.2: seq=335 ttl=55 time=21.833 ms
ping_2  | 64 bytes from 199.66.198.2: seq=336 ttl=55 time=21.892 ms
ping_1  | 64 bytes from 199.66.198.2: seq=336 ttl=55 time=21.877 ms
ping_2  | 64 bytes from 199.66.198.2: seq=337 ttl=55 time=21.766 ms
ping_1  | 64 bytes from 199.66.198.2: seq=337 ttl=55 time=21.937 ms
ping_2  | 64 bytes from 199.66.198.2: seq=338 ttl=55 time=22.001 ms
ping_1  | 64 bytes from 199.66.198.2: seq=338 ttl=55 time=21.917 ms
ping_2  | 64 bytes from 199.66.198.2: seq=339 ttl=55 time=21.974 ms
ping_1  | 64 bytes from 199.66.198.2: seq=339 ttl=55 time=22.106 ms
ping_2  | 64 bytes from 199.66.198.2: seq=340 ttl=55 time=21.942 ms
ping_1  | 64 bytes from 199.66.198.2: seq=340 ttl=55 time=21.841 ms
ping_2  | 64 bytes from 199.66.198.2: seq=341 ttl=55 time=21.615 ms
ping_1  | 64 bytes from 199.66.198.2: seq=341 ttl=55 time=21.671 ms
ping_2  | 64 bytes from 199.66.198.2: seq=342 ttl=55 time=22.027 ms
ping_1  | 64 bytes from 199.66.198.2: seq=342 ttl=55 time=21.939 ms
ping_2  | 64 bytes from 199.66.198.2: seq=343 ttl=55 time=22.098 ms
ping_1  | 64 bytes from 199.66.198.2: seq=343 ttl=55 time=21.993 ms
ping_2  | 64 bytes from 199.66.198.2: seq=344 ttl=55 time=21.795 ms
ping_1  | 64 bytes from 199.66.198.2: seq=344 ttl=55 time=22.040 ms
ping_2  | 64 bytes from 199.66.198.2: seq=345 ttl=55 time=21.565 ms
ping_1  | 64 bytes from 199.66.198.2: seq=345 ttl=55 time=21.938 ms
ping_2  | 64 bytes from 199.66.198.2: seq=346 ttl=55 time=21.926 ms
ping_1  | 64 bytes from 199.66.198.2: seq=346 ttl=55 time=21.837 ms
ping_2  | 64 bytes from 199.66.198.2: seq=347 ttl=55 time=21.679 ms
ping_1  | 64 bytes from 199.66.198.2: seq=347 ttl=55 time=21.569 ms
ping_2  | 64 bytes from 199.66.198.2: seq=348 ttl=55 time=21.455 ms
ping_1  | 64 bytes from 199.66.198.2: seq=348 ttl=55 time=21.533 ms
ping_2  | 64 bytes from 199.66.198.2: seq=349 ttl=55 time=21.391 ms
ping_1  | 64 bytes from 199.66.198.2: seq=349 ttl=55 time=21.936 ms
ping_2  | 64 bytes from 199.66.198.2: seq=350 ttl=55 time=21.954 ms
ping_1  | 64 bytes from 199.66.198.2: seq=350 ttl=55 time=22.017 ms
ping_2  | 64 bytes from 199.66.198.2: seq=351 ttl=55 time=21.883 ms
ping_1  | 64 bytes from 199.66.198.2: seq=351 ttl=55 time=22.196 ms
ping_2  | 64 bytes from 199.66.198.2: seq=352 ttl=55 time=21.977 ms
ping_1  | 64 bytes from 199.66.198.2: seq=352 ttl=55 time=21.974 ms
ping_2  | 64 bytes from 199.66.198.2: seq=353 ttl=55 time=21.891 ms
ping_1  | 64 bytes from 199.66.198.2: seq=353 ttl=55 time=21.866 ms
ping_2  | 64 bytes from 199.66.198.2: seq=354 ttl=55 time=21.748 ms
ping_1  | 64 bytes from 199.66.198.2: seq=354 ttl=55 time=21.628 ms
ping_2  | 64 bytes from 199.66.198.2: seq=355 ttl=55 time=22.155 ms
ping_1  | 64 bytes from 199.66.198.2: seq=355 ttl=55 time=22.067 ms
ping_2  | 64 bytes from 199.66.198.2: seq=356 ttl=55 time=21.947 ms
ping_1  | 64 bytes from 199.66.198.2: seq=356 ttl=55 time=22.159 ms
ping_2  | 64 bytes from 199.66.198.2: seq=357 ttl=55 time=22.006 ms
ping_1  | 64 bytes from 199.66.198.2: seq=357 ttl=55 time=21.985 ms
ping_2  | 64 bytes from 199.66.198.2: seq=358 ttl=55 time=22.200 ms
ping_1  | 64 bytes from 199.66.198.2: seq=358 ttl=55 time=21.596 ms
ping_2  | 64 bytes from 199.66.198.2: seq=359 ttl=55 time=21.529 ms
ping_1  | 64 bytes from 199.66.198.2: seq=359 ttl=55 time=21.898 ms
ping_2  | 64 bytes from 199.66.198.2: seq=360 ttl=55 time=21.986 ms
ping_1  | 64 bytes from 199.66.198.2: seq=360 ttl=55 time=21.972 ms
ping_2  | 64 bytes from 199.66.198.2: seq=361 ttl=55 time=22.192 ms
ping_1  | 64 bytes from 199.66.198.2: seq=361 ttl=55 time=21.978 ms
ping_2  | 64 bytes from 199.66.198.2: seq=362 ttl=55 time=21.736 ms
ping_1  | 64 bytes from 199.66.198.2: seq=362 ttl=55 time=21.978 ms
ping_2  | 64 bytes from 199.66.198.2: seq=363 ttl=55 time=21.716 ms
ping_1  | 64 bytes from 199.66.198.2: seq=363 ttl=55 time=22.101 ms
ping_2  | 64 bytes from 199.66.198.2: seq=364 ttl=55 time=21.592 ms
ping_1  | 64 bytes from 199.66.198.2: seq=364 ttl=55 time=21.924 ms
ping_2  | 64 bytes from 199.66.198.2: seq=365 ttl=55 time=21.920 ms
ping_1  | 64 bytes from 199.66.198.2: seq=365 ttl=55 time=22.049 ms
ping_2  | 64 bytes from 199.66.198.2: seq=366 ttl=55 time=21.902 ms
ping_1  | 64 bytes from 199.66.198.2: seq=366 ttl=55 time=21.650 ms
ping_2  | 64 bytes from 199.66.198.2: seq=367 ttl=55 time=21.957 ms
ping_1  | 64 bytes from 199.66.198.2: seq=367 ttl=55 time=22.191 ms
ping_2  | 64 bytes from 199.66.198.2: seq=368 ttl=55 time=22.188 ms
ping_1  | 64 bytes from 199.66.198.2: seq=368 ttl=55 time=21.929 ms
ping_2  | 64 bytes from 199.66.198.2: seq=369 ttl=55 time=21.948 ms
ping_1  | 64 bytes from 199.66.198.2: seq=369 ttl=55 time=21.967 ms
ping_2  | 64 bytes from 199.66.198.2: seq=370 ttl=55 time=21.981 ms
ping_1  | 64 bytes from 199.66.198.2: seq=370 ttl=55 time=22.014 ms
ping_2  | 64 bytes from 199.66.198.2: seq=371 ttl=55 time=21.940 ms
ping_1  | 64 bytes from 199.66.198.2: seq=371 ttl=55 time=21.485 ms
ping_2  | 64 bytes from 199.66.198.2: seq=372 ttl=55 time=22.029 ms
ping_1  | 64 bytes from 199.66.198.2: seq=372 ttl=55 time=22.021 ms
ping_2  | 64 bytes from 199.66.198.2: seq=373 ttl=55 time=22.160 ms
ping_1  | 64 bytes from 199.66.198.2: seq=373 ttl=55 time=21.861 ms
ping_2  | 64 bytes from 199.66.198.2: seq=374 ttl=55 time=22.135 ms
ping_1  | 64 bytes from 199.66.198.2: seq=374 ttl=55 time=21.971 ms
ping_2  | 64 bytes from 199.66.198.2: seq=375 ttl=55 time=21.938 ms
ping_1  | 64 bytes from 199.66.198.2: seq=375 ttl=55 time=28.587 ms
ping_2  | 64 bytes from 199.66.198.2: seq=376 ttl=55 time=31.480 ms
ping_1  | 64 bytes from 199.66.198.2: seq=376 ttl=55 time=21.905 ms
ping_2  | 64 bytes from 199.66.198.2: seq=377 ttl=55 time=21.834 ms
ping_1  | 64 bytes from 199.66.198.2: seq=377 ttl=55 time=21.810 ms
ping_2  | 64 bytes from 199.66.198.2: seq=378 ttl=55 time=21.881 ms
ping_1  | 64 bytes from 199.66.198.2: seq=378 ttl=55 time=21.812 ms
ping_2  | 64 bytes from 199.66.198.2: seq=379 ttl=55 time=21.647 ms
ping_1  | 64 bytes from 199.66.198.2: seq=379 ttl=55 time=21.984 ms
ping_2  | 64 bytes from 199.66.198.2: seq=380 ttl=55 time=21.541 ms
ping_1  | 64 bytes from 199.66.198.2: seq=380 ttl=55 time=21.694 ms
ping_2  | 64 bytes from 199.66.198.2: seq=381 ttl=55 time=22.171 ms
ping_1  | 64 bytes from 199.66.198.2: seq=381 ttl=55 time=22.070 ms
ping_2  | 64 bytes from 199.66.198.2: seq=382 ttl=55 time=22.178 ms
ping_1  | 64 bytes from 199.66.198.2: seq=382 ttl=55 time=22.202 ms
ping_2  | 64 bytes from 199.66.198.2: seq=383 ttl=55 time=21.997 ms
ping_1  | 64 bytes from 199.66.198.2: seq=383 ttl=55 time=21.996 ms
ping_2  | 64 bytes from 199.66.198.2: seq=384 ttl=55 time=22.186 ms
ping_1  | 64 bytes from 199.66.198.2: seq=384 ttl=55 time=22.121 ms
ping_2  | 64 bytes from 199.66.198.2: seq=385 ttl=55 time=22.114 ms
ping_1  | 64 bytes from 199.66.198.2: seq=385 ttl=55 time=22.121 ms
ping_2  | 64 bytes from 199.66.198.2: seq=386 ttl=55 time=21.577 ms
ping_1  | 64 bytes from 199.66.198.2: seq=386 ttl=55 time=22.180 ms
ping_2  | 64 bytes from 199.66.198.2: seq=387 ttl=55 time=21.990 ms
ping_1  | 64 bytes from 199.66.198.2: seq=387 ttl=55 time=22.088 ms
ping_2  | 64 bytes from 199.66.198.2: seq=388 ttl=55 time=21.937 ms
ping_1  | 64 bytes from 199.66.198.2: seq=388 ttl=55 time=21.614 ms
ping_2  | 64 bytes from 199.66.198.2: seq=389 ttl=55 time=21.605 ms
ping_1  | 64 bytes from 199.66.198.2: seq=389 ttl=55 time=22.090 ms
ping_2  | 64 bytes from 199.66.198.2: seq=390 ttl=55 time=21.962 ms
ping_1  | 64 bytes from 199.66.198.2: seq=390 ttl=55 time=21.949 ms
ping_2  | 64 bytes from 199.66.198.2: seq=391 ttl=55 time=21.643 ms
ping_1  | 64 bytes from 199.66.198.2: seq=391 ttl=55 time=21.999 ms
ping_2  | 64 bytes from 199.66.198.2: seq=392 ttl=55 time=22.150 ms
ping_1  | 64 bytes from 199.66.198.2: seq=392 ttl=55 time=22.158 ms
ping_2  | 64 bytes from 199.66.198.2: seq=393 ttl=55 time=22.192 ms
ping_1  | 64 bytes from 199.66.198.2: seq=393 ttl=55 time=22.136 ms
ping_2  | 64 bytes from 199.66.198.2: seq=394 ttl=55 time=21.995 ms
ping_1  | 64 bytes from 199.66.198.2: seq=394 ttl=55 time=22.003 ms
ping_2  | 64 bytes from 199.66.198.2: seq=395 ttl=55 time=22.140 ms
ping_1  | 64 bytes from 199.66.198.2: seq=395 ttl=55 time=21.924 ms
ping_2  | 64 bytes from 199.66.198.2: seq=396 ttl=55 time=21.920 ms
ping_1  | 64 bytes from 199.66.198.2: seq=396 ttl=55 time=21.834 ms
ping_2  | 64 bytes from 199.66.198.2: seq=397 ttl=55 time=22.129 ms
ping_1  | 64 bytes from 199.66.198.2: seq=397 ttl=55 time=21.674 ms
ping_2  | 64 bytes from 199.66.198.2: seq=398 ttl=55 time=22.052 ms
ping_1  | 64 bytes from 199.66.198.2: seq=398 ttl=55 time=22.045 ms
ping_2  | 64 bytes from 199.66.198.2: seq=399 ttl=55 time=21.636 ms
ping_1  | 64 bytes from 199.66.198.2: seq=399 ttl=55 time=22.106 ms
ping_2  | 64 bytes from 199.66.198.2: seq=400 ttl=55 time=22.042 ms
ping_1  | 64 bytes from 199.66.198.2: seq=400 ttl=55 time=22.058 ms
ping_2  | 64 bytes from 199.66.198.2: seq=401 ttl=55 time=21.806 ms
ping_1  | 64 bytes from 199.66.198.2: seq=401 ttl=55 time=21.937 ms
ping_2  | 64 bytes from 199.66.198.2: seq=402 ttl=55 time=22.192 ms
ping_1  | 64 bytes from 199.66.198.2: seq=402 ttl=55 time=21.792 ms
ping_2  | 64 bytes from 199.66.198.2: seq=403 ttl=55 time=22.000 ms
ping_1  | 64 bytes from 199.66.198.2: seq=403 ttl=55 time=22.158 ms
ping_2  | 64 bytes from 199.66.198.2: seq=404 ttl=55 time=22.135 ms
ping_1  | 64 bytes from 199.66.198.2: seq=404 ttl=55 time=22.340 ms
ping_2  | 64 bytes from 199.66.198.2: seq=405 ttl=55 time=22.026 ms
ping_1  | 64 bytes from 199.66.198.2: seq=405 ttl=55 time=21.856 ms
ping_2  | 64 bytes from 199.66.198.2: seq=406 ttl=55 time=22.112 ms
ping_1  | 64 bytes from 199.66.198.2: seq=406 ttl=55 time=22.162 ms
ping_2  | 64 bytes from 199.66.198.2: seq=407 ttl=55 time=22.015 ms
ping_1  | 64 bytes from 199.66.198.2: seq=407 ttl=55 time=22.171 ms
ping_2  | 64 bytes from 199.66.198.2: seq=408 ttl=55 time=21.968 ms
ping_1  | 64 bytes from 199.66.198.2: seq=408 ttl=55 time=22.056 ms
ping_2  | 64 bytes from 199.66.198.2: seq=409 ttl=55 time=21.931 ms
ping_1  | 64 bytes from 199.66.198.2: seq=409 ttl=55 time=21.831 ms
ping_2  | 64 bytes from 199.66.198.2: seq=410 ttl=55 time=21.893 ms
ping_1  | 64 bytes from 199.66.198.2: seq=410 ttl=55 time=21.996 ms
ping_2  | 64 bytes from 199.66.198.2: seq=411 ttl=55 time=22.199 ms
ping_1  | 64 bytes from 199.66.198.2: seq=411 ttl=55 time=21.593 ms
ping_2  | 64 bytes from 199.66.198.2: seq=412 ttl=55 time=22.004 ms
ping_1  | 64 bytes from 199.66.198.2: seq=412 ttl=55 time=22.176 ms
ping_2  | 64 bytes from 199.66.198.2: seq=413 ttl=55 time=21.916 ms
ping_1  | 64 bytes from 199.66.198.2: seq=413 ttl=55 time=21.992 ms
ping_2  | 64 bytes from 199.66.198.2: seq=414 ttl=55 time=22.204 ms
ping_1  | 64 bytes from 199.66.198.2: seq=414 ttl=55 time=21.577 ms
ping_2  | 64 bytes from 199.66.198.2: seq=415 ttl=55 time=22.049 ms
ping_1  | 64 bytes from 199.66.198.2: seq=415 ttl=55 time=22.084 ms
ping_2  | 64 bytes from 199.66.198.2: seq=416 ttl=55 time=21.969 ms
ping_1  | 64 bytes from 199.66.198.2: seq=416 ttl=55 time=22.019 ms
ping_2  | 64 bytes from 199.66.198.2: seq=417 ttl=55 time=21.975 ms
ping_1  | 64 bytes from 199.66.198.2: seq=417 ttl=55 time=21.875 ms
ping_2  | 64 bytes from 199.66.198.2: seq=418 ttl=55 time=22.173 ms
ping_1  | 64 bytes from 199.66.198.2: seq=418 ttl=55 time=21.605 ms
ping_2  | 64 bytes from 199.66.198.2: seq=419 ttl=55 time=22.069 ms
ping_1  | 64 bytes from 199.66.198.2: seq=419 ttl=55 time=21.537 ms
ping_2  | 64 bytes from 199.66.198.2: seq=420 ttl=55 time=21.734 ms
ping_1  | 64 bytes from 199.66.198.2: seq=420 ttl=55 time=21.801 ms
ping_2  | 64 bytes from 199.66.198.2: seq=421 ttl=55 time=22.070 ms
ping_1  | 64 bytes from 199.66.198.2: seq=421 ttl=55 time=22.043 ms
ping_2  | 64 bytes from 199.66.198.2: seq=422 ttl=55 time=21.829 ms
ping_1  | 64 bytes from 199.66.198.2: seq=422 ttl=55 time=22.161 ms
ping_2  | 64 bytes from 199.66.198.2: seq=423 ttl=55 time=22.188 ms
ping_1  | 64 bytes from 199.66.198.2: seq=423 ttl=55 time=21.971 ms
ping_2  | 64 bytes from 199.66.198.2: seq=424 ttl=55 time=22.027 ms
ping_1  | 64 bytes from 199.66.198.2: seq=424 ttl=55 time=21.907 ms
ping_2  | 64 bytes from 199.66.198.2: seq=425 ttl=55 time=22.106 ms
ping_1  | 64 bytes from 199.66.198.2: seq=425 ttl=55 time=22.098 ms
ping_2  | 64 bytes from 199.66.198.2: seq=426 ttl=55 time=22.191 ms
ping_1  | 64 bytes from 199.66.198.2: seq=426 ttl=55 time=22.133 ms
ping_2  | 64 bytes from 199.66.198.2: seq=427 ttl=55 time=21.894 ms
ping_1  | 64 bytes from 199.66.198.2: seq=427 ttl=55 time=22.056 ms
ping_2  | 64 bytes from 199.66.198.2: seq=428 ttl=55 time=22.145 ms
ping_1  | 64 bytes from 199.66.198.2: seq=428 ttl=55 time=21.942 ms
ping_2  | 64 bytes from 199.66.198.2: seq=429 ttl=55 time=22.140 ms
ping_1  | 64 bytes from 199.66.198.2: seq=429 ttl=55 time=22.185 ms
ping_2  | 64 bytes from 199.66.198.2: seq=430 ttl=55 time=21.892 ms
ping_1  | 64 bytes from 199.66.198.2: seq=430 ttl=55 time=21.651 ms
ping_2  | 64 bytes from 199.66.198.2: seq=431 ttl=55 time=21.939 ms
ping_1  | 64 bytes from 199.66.198.2: seq=431 ttl=55 time=22.236 ms
ping_2  | 64 bytes from 199.66.198.2: seq=432 ttl=55 time=22.057 ms
ping_1  | 64 bytes from 199.66.198.2: seq=432 ttl=55 time=22.016 ms
ping_2  | 64 bytes from 199.66.198.2: seq=433 ttl=55 time=21.991 ms
ping_1  | 64 bytes from 199.66.198.2: seq=433 ttl=55 time=21.695 ms
ping_2  | 64 bytes from 199.66.198.2: seq=434 ttl=55 time=22.228 ms
ping_1  | 64 bytes from 199.66.198.2: seq=434 ttl=55 time=22.197 ms
ping_2  | 64 bytes from 199.66.198.2: seq=435 ttl=55 time=22.018 ms
ping_1  | 64 bytes from 199.66.198.2: seq=435 ttl=55 time=21.854 ms
ping_2  | 64 bytes from 199.66.198.2: seq=436 ttl=55 time=21.926 ms
ping_1  | 64 bytes from 199.66.198.2: seq=436 ttl=55 time=22.122 ms
ping_2  | 64 bytes from 199.66.198.2: seq=437 ttl=55 time=22.092 ms
ping_1  | 64 bytes from 199.66.198.2: seq=437 ttl=55 time=21.882 ms
ping_2  | 64 bytes from 199.66.198.2: seq=438 ttl=55 time=21.939 ms
ping_1  | 64 bytes from 199.66.198.2: seq=438 ttl=55 time=22.131 ms
ping_2  | 64 bytes from 199.66.198.2: seq=439 ttl=55 time=22.053 ms
ping_1  | 64 bytes from 199.66.198.2: seq=439 ttl=55 time=21.898 ms
ping_2  | 64 bytes from 199.66.198.2: seq=440 ttl=55 time=21.693 ms
ping_1  | 64 bytes from 199.66.198.2: seq=440 ttl=55 time=21.963 ms
ping_2  | 64 bytes from 199.66.198.2: seq=441 ttl=55 time=21.984 ms
ping_1  | 64 bytes from 199.66.198.2: seq=441 ttl=55 time=22.234 ms
ping_2  | 64 bytes from 199.66.198.2: seq=442 ttl=55 time=22.018 ms
ping_1  | 64 bytes from 199.66.198.2: seq=442 ttl=55 time=22.110 ms
ping_2  | 64 bytes from 199.66.198.2: seq=443 ttl=55 time=22.063 ms
ping_1  | 64 bytes from 199.66.198.2: seq=443 ttl=55 time=21.947 ms
ping_2  | 64 bytes from 199.66.198.2: seq=444 ttl=55 time=22.171 ms
ping_1  | 64 bytes from 199.66.198.2: seq=444 ttl=55 time=21.876 ms
ping_2  | 64 bytes from 199.66.198.2: seq=445 ttl=55 time=22.165 ms
ping_1  | 64 bytes from 199.66.198.2: seq=445 ttl=55 time=21.959 ms
ping_2  | 64 bytes from 199.66.198.2: seq=446 ttl=55 time=21.958 ms
ping_1  | 64 bytes from 199.66.198.2: seq=446 ttl=55 time=22.084 ms
ping_2  | 64 bytes from 199.66.198.2: seq=447 ttl=55 time=22.203 ms
ping_1  | 64 bytes from 199.66.198.2: seq=447 ttl=55 time=21.849 ms
ping_2  | 64 bytes from 199.66.198.2: seq=448 ttl=55 time=22.004 ms
ping_1  | 64 bytes from 199.66.198.2: seq=448 ttl=55 time=21.840 ms
ping_2  | 64 bytes from 199.66.198.2: seq=449 ttl=55 time=21.840 ms
ping_1  | 64 bytes from 199.66.198.2: seq=449 ttl=55 time=21.891 ms
ping_2  | 64 bytes from 199.66.198.2: seq=450 ttl=55 time=21.922 ms
ping_1  | 64 bytes from 199.66.198.2: seq=450 ttl=55 time=21.638 ms
ping_2  | 64 bytes from 199.66.198.2: seq=451 ttl=55 time=22.160 ms
ping_1  | 64 bytes from 199.66.198.2: seq=451 ttl=55 time=21.803 ms
ping_2  | 64 bytes from 199.66.198.2: seq=452 ttl=55 time=22.075 ms
ping_1  | 64 bytes from 199.66.198.2: seq=452 ttl=55 time=21.845 ms
ping_2  | 64 bytes from 199.66.198.2: seq=453 ttl=55 time=21.798 ms
ping_1  | 64 bytes from 199.66.198.2: seq=453 ttl=55 time=21.935 ms
ping_2  | 64 bytes from 199.66.198.2: seq=454 ttl=55 time=21.943 ms
ping_1  | 64 bytes from 199.66.198.2: seq=454 ttl=55 time=21.851 ms
ping_2  | 64 bytes from 199.66.198.2: seq=455 ttl=55 time=21.983 ms
ping_1  | 64 bytes from 199.66.198.2: seq=455 ttl=55 time=21.545 ms
ping_2  | 64 bytes from 199.66.198.2: seq=456 ttl=55 time=21.908 ms
ping_1  | 64 bytes from 199.66.198.2: seq=456 ttl=55 time=22.057 ms
ping_2  | 64 bytes from 199.66.198.2: seq=457 ttl=55 time=21.529 ms
ping_1  | 64 bytes from 199.66.198.2: seq=457 ttl=55 time=22.110 ms
ping_2  | 64 bytes from 199.66.198.2: seq=458 ttl=55 time=22.090 ms
ping_1  | 64 bytes from 199.66.198.2: seq=458 ttl=55 time=21.982 ms
ping_2  | 64 bytes from 199.66.198.2: seq=459 ttl=55 time=22.060 ms
ping_1  | 64 bytes from 199.66.198.2: seq=459 ttl=55 time=21.990 ms
ping_2  | 64 bytes from 199.66.198.2: seq=460 ttl=55 time=21.926 ms
ping_1  | 64 bytes from 199.66.198.2: seq=460 ttl=55 time=21.978 ms
ping_2  | 64 bytes from 199.66.198.2: seq=461 ttl=55 time=21.898 ms
ping_1  | 64 bytes from 199.66.198.2: seq=461 ttl=55 time=21.982 ms
ping_2  | 64 bytes from 199.66.198.2: seq=462 ttl=55 time=22.037 ms
ping_1  | 64 bytes from 199.66.198.2: seq=462 ttl=55 time=22.018 ms
ping_2  | 64 bytes from 199.66.198.2: seq=463 ttl=55 time=21.622 ms
ping_1  | 64 bytes from 199.66.198.2: seq=463 ttl=55 time=22.194 ms
ping_2  | 64 bytes from 199.66.198.2: seq=464 ttl=55 time=21.844 ms
ping_1  | 64 bytes from 199.66.198.2: seq=464 ttl=55 time=21.646 ms
ping_2  | 64 bytes from 199.66.198.2: seq=465 ttl=55 time=21.751 ms
ping_1  | 64 bytes from 199.66.198.2: seq=465 ttl=55 time=21.927 ms
ping_2  | 64 bytes from 199.66.198.2: seq=466 ttl=55 time=21.821 ms
ping_1  | 64 bytes from 199.66.198.2: seq=466 ttl=55 time=22.161 ms
ping_2  | 64 bytes from 199.66.198.2: seq=467 ttl=55 time=21.981 ms
ping_1  | 64 bytes from 199.66.198.2: seq=467 ttl=55 time=22.057 ms
ping_2  | 64 bytes from 199.66.198.2: seq=468 ttl=55 time=21.933 ms
ping_1  | 64 bytes from 199.66.198.2: seq=468 ttl=55 time=21.967 ms
ping_2  | 64 bytes from 199.66.198.2: seq=469 ttl=55 time=21.984 ms
ping_1  | 64 bytes from 199.66.198.2: seq=469 ttl=55 time=21.932 ms
ping_2  | 64 bytes from 199.66.198.2: seq=470 ttl=55 time=21.919 ms
ping_1  | 64 bytes from 199.66.198.2: seq=470 ttl=55 time=22.205 ms
ping_2  | 64 bytes from 199.66.198.2: seq=471 ttl=55 time=22.139 ms
ping_1  | 64 bytes from 199.66.198.2: seq=471 ttl=55 time=22.052 ms
ping_2  | 64 bytes from 199.66.198.2: seq=472 ttl=55 time=21.872 ms
ping_1  | 64 bytes from 199.66.198.2: seq=472 ttl=55 time=22.172 ms
ping_2  | 64 bytes from 199.66.198.2: seq=473 ttl=55 time=21.924 ms
ping_1  | 64 bytes from 199.66.198.2: seq=473 ttl=55 time=21.889 ms
ping_2  | 64 bytes from 199.66.198.2: seq=474 ttl=55 time=21.916 ms
ping_1  | 64 bytes from 199.66.198.2: seq=474 ttl=55 time=21.931 ms
ping_2  | 64 bytes from 199.66.198.2: seq=475 ttl=55 time=21.705 ms
ping_1  | 64 bytes from 199.66.198.2: seq=475 ttl=55 time=21.654 ms
ping_2  | 64 bytes from 199.66.198.2: seq=476 ttl=55 time=21.976 ms
ping_1  | 64 bytes from 199.66.198.2: seq=476 ttl=55 time=22.014 ms
ping_2  | 64 bytes from 199.66.198.2: seq=477 ttl=55 time=22.134 ms
ping_1  | 64 bytes from 199.66.198.2: seq=477 ttl=55 time=22.083 ms
ping_2  | 64 bytes from 199.66.198.2: seq=478 ttl=55 time=21.821 ms
ping_1  | 64 bytes from 199.66.198.2: seq=478 ttl=55 time=21.688 ms
ping_2  | 64 bytes from 199.66.198.2: seq=479 ttl=55 time=21.554 ms
ping_1  | 64 bytes from 199.66.198.2: seq=479 ttl=55 time=22.098 ms
ping_2  | 64 bytes from 199.66.198.2: seq=480 ttl=55 time=21.958 ms
ping_1  | 64 bytes from 199.66.198.2: seq=480 ttl=55 time=21.912 ms
ping_2  | 64 bytes from 199.66.198.2: seq=481 ttl=55 time=22.164 ms
ping_1  | 64 bytes from 199.66.198.2: seq=481 ttl=55 time=21.704 ms
ping_2  | 64 bytes from 199.66.198.2: seq=482 ttl=55 time=22.079 ms
ping_1  | 64 bytes from 199.66.198.2: seq=482 ttl=55 time=22.156 ms
ping_2  | 64 bytes from 199.66.198.2: seq=483 ttl=55 time=22.172 ms
ping_1  | 64 bytes from 199.66.198.2: seq=483 ttl=55 time=22.047 ms
ping_2  | 64 bytes from 199.66.198.2: seq=484 ttl=55 time=21.700 ms
ping_1  | 64 bytes from 199.66.198.2: seq=484 ttl=55 time=21.899 ms
ping_2  | 64 bytes from 199.66.198.2: seq=485 ttl=55 time=22.033 ms
ping_1  | 64 bytes from 199.66.198.2: seq=485 ttl=55 time=21.678 ms
ping_2  | 64 bytes from 199.66.198.2: seq=486 ttl=55 time=22.084 ms
ping_1  | 64 bytes from 199.66.198.2: seq=486 ttl=55 time=22.085 ms
ping_2  | 64 bytes from 199.66.198.2: seq=487 ttl=55 time=21.801 ms
ping_1  | 64 bytes from 199.66.198.2: seq=487 ttl=55 time=22.015 ms
ping_2  | 64 bytes from 199.66.198.2: seq=488 ttl=55 time=21.950 ms
ping_1  | 64 bytes from 199.66.198.2: seq=488 ttl=55 time=21.884 ms
ping_2  | 64 bytes from 199.66.198.2: seq=489 ttl=55 time=22.162 ms
ping_1  | 64 bytes from 199.66.198.2: seq=489 ttl=55 time=22.104 ms
ping_2  | 64 bytes from 199.66.198.2: seq=490 ttl=55 time=22.071 ms
ping_1  | 64 bytes from 199.66.198.2: seq=490 ttl=55 time=21.776 ms
ping_2  | 64 bytes from 199.66.198.2: seq=491 ttl=55 time=21.963 ms
ping_1  | 64 bytes from 199.66.198.2: seq=491 ttl=55 time=21.931 ms
ping_2  | 64 bytes from 199.66.198.2: seq=492 ttl=55 time=21.664 ms
ping_1  | 64 bytes from 199.66.198.2: seq=492 ttl=55 time=21.650 ms
ping_2  | 64 bytes from 199.66.198.2: seq=493 ttl=55 time=22.172 ms
ping_1  | 64 bytes from 199.66.198.2: seq=493 ttl=55 time=22.108 ms
ping_2  | 64 bytes from 199.66.198.2: seq=494 ttl=55 time=21.968 ms
ping_1  | 64 bytes from 199.66.198.2: seq=494 ttl=55 time=21.996 ms
ping_2  | 64 bytes from 199.66.198.2: seq=495 ttl=55 time=21.998 ms
ping_1  | 64 bytes from 199.66.198.2: seq=495 ttl=55 time=21.905 ms
ping_2  | 64 bytes from 199.66.198.2: seq=496 ttl=55 time=22.186 ms
ping_1  | 64 bytes from 199.66.198.2: seq=496 ttl=55 time=21.958 ms
ping_2  | 64 bytes from 199.66.198.2: seq=497 ttl=55 time=21.816 ms
ping_1  | 64 bytes from 199.66.198.2: seq=497 ttl=55 time=22.024 ms
ping_2  | 64 bytes from 199.66.198.2: seq=498 ttl=55 time=22.080 ms
ping_1  | 64 bytes from 199.66.198.2: seq=498 ttl=55 time=22.011 ms
ping_2  | 64 bytes from 199.66.198.2: seq=499 ttl=55 time=21.718 ms
ping_2  | 
ping_2  | --- speedtest.xsmedia.com ping statistics ---
ping_2  | 500 packets transmitted, 500 packets received, 0% packet loss
ping_2  | round-trip min/avg/max = 21.391/21.949/31.480 ms
softwareoverhead_ping_2 exited with code 0
ping_1  | 64 bytes from 199.66.198.2: seq=499 ttl=55 time=21.703 ms
ping_1  | 
ping_1  | --- speedtest.xsmedia.com ping statistics ---
ping_1  | 500 packets transmitted, 500 packets received, 0% packet loss
ping_1  | round-trip min/avg/max = 21.381/21.953/28.587 ms
softwareoverhead_ping_1 exited with code 0
