Attaching to softwareoverhead_ping_3, softwareoverhead_ping_2, softwareoverhead_ping_6, softwareoverhead_ping_5, softwareoverhead_ping_1, softwareoverhead_ping_8, softwareoverhead_ping_4, softwareoverhead_ping_7, softwareoverhead_ping_16, softwareoverhead_ping_13, softwareoverhead_ping_18, softwareoverhead_ping_20, softwareoverhead_ping_19, softwareoverhead_ping_9, softwareoverhead_ping_14, softwareoverhead_ping_12, softwareoverhead_ping_10, softwareoverhead_ping_11, softwareoverhead_ping_17, softwareoverhead_ping_15
ping_5  | PING futuredeus.ddns.net (218.250.209.212): 56 data bytes
ping_3  | PING futuredeus.ddns.net (218.250.209.212): 56 data bytes
ping_1  | PING futuredeus.ddns.net (218.250.209.212): 56 data bytes
ping_3  | 64 bytes from 218.250.209.212: seq=0 ttl=49 time=170.658 ms
ping_3  | 64 bytes from 218.250.209.212: seq=1 ttl=49 time=170.809 ms
ping_5  | 64 bytes from 218.250.209.212: seq=0 ttl=49 time=170.604 ms
ping_5  | 64 bytes from 218.250.209.212: seq=1 ttl=49 time=173.193 ms
ping_7  | PING futuredeus.ddns.net (218.250.209.212): 56 data bytes
ping_4  | PING futuredeus.ddns.net (218.250.209.212): 56 data bytes
ping_16 | PING futuredeus.ddns.net (218.250.209.212): 56 data bytes
ping_7  | 64 bytes from 218.250.209.212: seq=0 ttl=49 time=173.203 ms
ping_8  | PING futuredeus.ddns.net (218.250.209.212): 56 data bytes
ping_1  | 64 bytes from 218.250.209.212: seq=1 ttl=49 time=173.405 ms
ping_3  | 64 bytes from 218.250.209.212: seq=2 ttl=49 time=171.574 ms
ping_6  | PING futuredeus.ddns.net (218.250.209.212): 56 data bytes
ping_2  | PING futuredeus.ddns.net (218.250.209.212): 56 data bytes
ping_5  | 64 bytes from 218.250.209.212: seq=2 ttl=49 time=170.276 ms
ping_8  | 64 bytes from 218.250.209.212: seq=0 ttl=49 time=170.564 ms
ping_7  | 64 bytes from 218.250.209.212: seq=1 ttl=49 time=173.503 ms
ping_1  | 64 bytes from 218.250.209.212: seq=2 ttl=49 time=170.411 ms
ping_4  | 64 bytes from 218.250.209.212: seq=1 ttl=49 time=172.738 ms
ping_7  | 64 bytes from 218.250.209.212: seq=2 ttl=49 time=180.222 ms
ping_3  | 64 bytes from 218.250.209.212: seq=3 ttl=49 time=174.949 ms
ping_8  | 64 bytes from 218.250.209.212: seq=1 ttl=49 time=170.387 ms
ping_6  | 64 bytes from 218.250.209.212: seq=2 ttl=49 time=171.710 ms
ping_1  | 64 bytes from 218.250.209.212: seq=3 ttl=49 time=171.036 ms
ping_3  | 64 bytes from 218.250.209.212: seq=4 ttl=49 time=172.226 ms
ping_13 | PING futuredeus.ddns.net (218.250.209.212): 56 data bytes
ping_2  | 64 bytes from 218.250.209.212: seq=1 ttl=49 time=170.927 ms
ping_8  | 64 bytes from 218.250.209.212: seq=2 ttl=49 time=178.242 ms
ping_3  | 64 bytes from 218.250.209.212: seq=5 ttl=49 time=171.493 ms
ping_4  | 64 bytes from 218.250.209.212: seq=2 ttl=49 time=172.659 ms
ping_5  | 64 bytes from 218.250.209.212: seq=3 ttl=49 time=171.272 ms
ping_1  | 64 bytes from 218.250.209.212: seq=4 ttl=49 time=170.701 ms
ping_6  | 64 bytes from 218.250.209.212: seq=3 ttl=49 time=170.277 ms
ping_16 | 64 bytes from 218.250.209.212: seq=0 ttl=49 time=180.163 ms
ping_2  | 64 bytes from 218.250.209.212: seq=2 ttl=49 time=173.129 ms
ping_5  | 64 bytes from 218.250.209.212: seq=4 ttl=49 time=171.288 ms
ping_6  | 64 bytes from 218.250.209.212: seq=4 ttl=49 time=171.083 ms
ping_18 | PING futuredeus.ddns.net (218.250.209.212): 56 data bytes
ping_5  | 64 bytes from 218.250.209.212: seq=5 ttl=49 time=170.418 ms
ping_8  | 64 bytes from 218.250.209.212: seq=3 ttl=49 time=174.152 ms
ping_4  | 64 bytes from 218.250.209.212: seq=3 ttl=49 time=183.886 ms
ping_6  | 64 bytes from 218.250.209.212: seq=5 ttl=49 time=177.345 ms
ping_2  | 64 bytes from 218.250.209.212: seq=3 ttl=49 time=170.900 ms
ping_6  | 64 bytes from 218.250.209.212: seq=6 ttl=49 time=179.191 ms
ping_8  | 64 bytes from 218.250.209.212: seq=4 ttl=49 time=186.323 ms
ping_5  | 64 bytes from 218.250.209.212: seq=6 ttl=49 time=179.728 ms
ping_20 | PING futuredeus.ddns.net (218.250.209.212): 56 data bytes
ping_1  | 64 bytes from 218.250.209.212: seq=5 ttl=49 time=182.008 ms
ping_2  | 64 bytes from 218.250.209.212: seq=4 ttl=49 time=171.203 ms
ping_19 | PING futuredeus.ddns.net (218.250.209.212): 56 data bytes
ping_2  | 64 bytes from 218.250.209.212: seq=5 ttl=49 time=171.326 ms
ping_3  | 64 bytes from 218.250.209.212: seq=6 ttl=49 time=175.446 ms
ping_2  | 64 bytes from 218.250.209.212: seq=6 ttl=49 time=170.197 ms
ping_3  | 64 bytes from 218.250.209.212: seq=7 ttl=49 time=179.473 ms
ping_9  | PING futuredeus.ddns.net (218.250.209.212): 56 data bytes
ping_2  | 64 bytes from 218.250.209.212: seq=7 ttl=49 time=179.364 ms
ping_14 | PING futuredeus.ddns.net (218.250.209.212): 56 data bytes
ping_12 | PING futuredeus.ddns.net (218.250.209.212): 56 data bytes
ping_10 | PING futuredeus.ddns.net (218.250.209.212): 56 data bytes
ping_11 | PING futuredeus.ddns.net (218.250.209.212): 56 data bytes
ping_17 | PING futuredeus.ddns.net (218.250.209.212): 56 data bytes
ping_15 | PING futuredeus.ddns.net (218.250.209.212): 56 data bytes
ping_3  | 
ping_3  | --- futuredeus.ddns.net ping statistics ---
ping_3  | 50 packets transmitted, 8 packets received, 84% packet loss
ping_3  | round-trip min/avg/max = 170.658/173.328/179.473 ms
ping_2  | 
ping_2  | --- futuredeus.ddns.net ping statistics ---
ping_2  | 50 packets transmitted, 7 packets received, 86% packet loss
ping_2  | round-trip min/avg/max = 170.197/172.435/179.364 ms
softwareoverhead_ping_3 exited with code 0
softwareoverhead_ping_2 exited with code 0
ping_6  | 
ping_6  | --- futuredeus.ddns.net ping statistics ---
ping_6  | 50 packets transmitted, 5 packets received, 90% packet loss
ping_6  | round-trip min/avg/max = 170.277/173.921/179.191 ms
ping_5  | 
ping_5  | --- futuredeus.ddns.net ping statistics ---
ping_5  | 50 packets transmitted, 7 packets received, 86% packet loss
ping_5  | round-trip min/avg/max = 170.276/172.397/179.728 ms
softwareoverhead_ping_6 exited with code 0
softwareoverhead_ping_5 exited with code 0
ping_1  | 
ping_1  | --- futuredeus.ddns.net ping statistics ---
ping_1  | 50 packets transmitted, 5 packets received, 90% packet loss
ping_1  | round-trip min/avg/max = 170.411/173.512/182.008 ms
softwareoverhead_ping_1 exited with code 0
ping_8  | 
ping_8  | --- futuredeus.ddns.net ping statistics ---
ping_8  | 50 packets transmitted, 5 packets received, 90% packet loss
ping_8  | round-trip min/avg/max = 170.387/175.933/186.323 ms
softwareoverhead_ping_8 exited with code 0
ping_4  | 
ping_4  | --- futuredeus.ddns.net ping statistics ---
ping_4  | 50 packets transmitted, 3 packets received, 94% packet loss
ping_4  | round-trip min/avg/max = 172.659/176.427/183.886 ms
softwareoverhead_ping_4 exited with code 0
ping_7  | 
ping_7  | --- futuredeus.ddns.net ping statistics ---
ping_7  | 50 packets transmitted, 3 packets received, 94% packet loss
ping_7  | round-trip min/avg/max = 173.203/175.642/180.222 ms
softwareoverhead_ping_7 exited with code 0
ping_16 | 
ping_16 | --- futuredeus.ddns.net ping statistics ---
ping_16 | 50 packets transmitted, 1 packets received, 98% packet loss
ping_16 | round-trip min/avg/max = 180.163/180.163/180.163 ms
softwareoverhead_ping_16 exited with code 0
ping_13 | 
ping_13 | --- futuredeus.ddns.net ping statistics ---
ping_13 | 50 packets transmitted, 0 packets received, 100% packet loss
ping_18 | 
ping_18 | --- futuredeus.ddns.net ping statistics ---
ping_18 | 50 packets transmitted, 0 packets received, 100% packet loss
softwareoverhead_ping_13 exited with code 1
softwareoverhead_ping_18 exited with code 1
ping_20 | 
ping_20 | --- futuredeus.ddns.net ping statistics ---
ping_20 | 50 packets transmitted, 0 packets received, 100% packet loss
softwareoverhead_ping_20 exited with code 1
ping_19 | 
ping_19 | --- futuredeus.ddns.net ping statistics ---
ping_19 | 50 packets transmitted, 0 packets received, 100% packet loss
ping_9  | 
ping_9  | --- futuredeus.ddns.net ping statistics ---
ping_9  | 50 packets transmitted, 0 packets received, 100% packet loss
softwareoverhead_ping_19 exited with code 1
ping_14 | 
ping_14 | --- futuredeus.ddns.net ping statistics ---
ping_14 | 50 packets transmitted, 0 packets received, 100% packet loss
softwareoverhead_ping_9 exited with code 1
ping_12 | 
ping_12 | --- futuredeus.ddns.net ping statistics ---
ping_12 | 50 packets transmitted, 0 packets received, 100% packet loss
softwareoverhead_ping_14 exited with code 1
softwareoverhead_ping_12 exited with code 1
ping_10 | 
ping_10 | --- futuredeus.ddns.net ping statistics ---
ping_10 | 50 packets transmitted, 0 packets received, 100% packet loss
softwareoverhead_ping_10 exited with code 1
ping_11 | 
ping_11 | --- futuredeus.ddns.net ping statistics ---
ping_11 | 50 packets transmitted, 0 packets received, 100% packet loss
softwareoverhead_ping_11 exited with code 1
ping_17 | 
ping_17 | --- futuredeus.ddns.net ping statistics ---
ping_17 | 50 packets transmitted, 0 packets received, 100% packet loss
softwareoverhead_ping_17 exited with code 1
ping_15 | 
ping_15 | --- futuredeus.ddns.net ping statistics ---
ping_15 | 50 packets transmitted, 0 packets received, 100% packet loss
softwareoverhead_ping_15 exited with code 1
