     1	1381792 
     2	1381792 
     3	1381792 
     4	1381776 
     5	1381776 
     6	1381776 
     7	1381840 
     8	1381840 
     9	1381840 
    10	1381828 
    11	1381828 
    12	1381828 
    13	1381828 
    14	1381828 
    15	1381828 
    16	1381872 
    17	1381872 
    18	1381872 
    19	1381876 
    20	1381876 
    21	1381988 
    22	1381988 
    23	1381988 
    24	1382004 
    25	1382004 
    26	1382004 
    27	1382012 
    28	1382012 
    29	1382012 
    30	1382020 
    31	1382020 
    32	1382020 
    33	1382004 
    34	1382004 
    35	1382004 
    36	1382020 
    37	1382020 
    38	1382020 
    39	1382028 
    40	1382028 
    41	1382028 
    42	1382044 
    43	1382044 
    44	1382044 
    45	1382044 
    46	1382044 
    47	1382044 
    48	1382064 
    49	1382064 
    50	1382064 
    51	1382068 
    52	1382068 
    53	1382068 
    54	1382060 
    55	1382060 
    56	1382060 
    57	1382100 
    58	1382100 
    59	1382100 
    60	1382092 
    61	1382092 
    62	1382092 
    63	1382120 
    64	1382120 
    65	1382120 
    66	1382112 
    67	1382112 
    68	1382112 
    69	1382112 
    70	1382112 
    71	1382112 
    72	1382120 
    73	1382120 
    74	1382120 
    75	1382128 
    76	1382128 
    77	1382128 
    78	1382112 
    79	1382112 
    80	1382112 
    81	1382120 
    82	1382120 
    83	1382120 
    84	1382136 
    85	1382136 
    86	1382136 
    87	1382144 
    88	1382144 
    89	1382144 
    90	1382152 
    91	1382152 
    92	1382152 
    93	1382012 
    94	1382012 
    95	1382012 
    96	1382016 
    97	1382016 
    98	1382016 
    99	1381904 
   100	1381904 
   101	1381904 
   102	1381876 
   103	1381876 
   104	1381876 
   105	1381868 
   106	1381868 
   107	1381868 
   108	1381908 
   109	1381908 
   110	1381908 
   111	1381904 
   112	1381904 
   113	1381904 
   114	1378816 
   115	1378816 
   116	1378816 
   117	1378704 
   118	1378704 
   119	1378704 
   120	1378700 
   121	1378700 
   122	1378700 
   123	1378724 
   124	1378724 
   125	1378724 
   126	1359532 
   127	1359532 
   128	1359532 
   129	1359528 
   130	1359528 
   131	1359528 
   132	1359556 
   133	1359556 
   134	1359556 
   135	1359548 
   136	1359548 
   137	1359548 
   138	1359580 
   139	1359580 
   140	1359580 
   141	1359600 
   142	1359600 
   143	1359600 
   144	1359600 
   145	1359600 
   146	1359600 
   147	1359616 
   148	1359616 
   149	1359616 
   150	1359604 
   151	1359604 
   152	1359604 
   153	1359600 
   154	1359600 
   155	1359600 
   156	1359632 
   157	1359632 
   158	1359632 
   159	1359640 
   160	1359640 
   161	1359640 
   162	1359656 
   163	1359656 
   164	1359656 
   165	1359648 
   166	1359648 
   167	1359652 
   168	1359652 
   169	1359652 
   170	1359676 
   171	1359676 
   172	1359676 
   173	1359704 
   174	1359704 
   175	1359704 
   176	1359704 
   177	1359704 
   178	1359704 
   179	1359700 
   180	1359700 
   181	1359700 
   182	1359728 
   183	1359728 
   184	1359728 
   185	1359720 
   186	1359720 
   187	1359720 
   188	1359748 
   189	1359748 
   190	1359748 
   191	1359740 
   192	1359740 
   193	1359740 
   194	1359740 
   195	1359740 
   196	1359740 
   197	1359764 
   198	1359764 
   199	1359764 
   200	1359764 
   201	1359764 
   202	1359764 
   203	1359760 
   204	1359760 
   205	1359760 
   206	1359792 
   207	1359792 
   208	1359792 
   209	1359780 
   210	1359780 
   211	1359780 
   212	1359808 
   213	1359808 
   214	1359808 
   215	1359804 
   216	1359804 
   217	1359804 
   218	1359812 
   219	1359812 
   220	1359812 
   221	1359832 
   222	1359832 
   223	1359832 
   224	1359820 
   225	1359820 
   226	1359820 
   227	1359852 
   228	1359852 
   229	1359852 
   230	1359840 
   231	1359840 
   232	1359840 
   233	1359316 
   234	1359316 
   235	1359316 
   236	1359120 
   237	1359120 
   238	1359120 
   239	1359108 
   240	1359108 
   241	1359108 
   242	1359108 
   243	1359108 
   244	1359136 
   245	1359136 
   246	1359136 
   247	1359132 
   248	1359132 
   249	1359132 
   250	1359168 
   251	1359168 
   252	1359168 
   253	1359168 
   254	1359168 
   255	1359168 
   256	1359192 
   257	1359192 
   258	1359192 
   259	1359188 
   260	1359188 
   261	1359188 
   262	1354508 
   263	1354508 
   264	1354508 
   265	1354464 
   266	1354464 
   267	1354464 
   268	1354488 
   269	1354488 
   270	1354488 
   271	1354484 
   272	1354484 
   273	1354484 
   274	1335244 
   275	1335244 
   276	1335244 
   277	1335156 
   278	1335156 
   279	1335156 
   280	1335156 
   281	1335156 
   282	1335156 
   283	1335184 
   284	1335184 
   285	1335184 
   286	1335180 
   287	1335180 
   288	1335180 
   289	1335180 
   290	1335180 
   291	1335180 
   292	1335204 
   293	1335204 
   294	1335204 
   295	1335228 
   296	1335228 
   297	1335228 
   298	1335236 
   299	1335236 
   300	1335236 
   301	1335216 
   302	1335216 
   303	1335216 
   304	1335244 
   305	1335244 
   306	1335244 
   307	1335264 
   308	1335264 
   309	1335264 
   310	1335256 
   311	1335256 
   312	1335256 
   313	1335252 
   314	1335252 
   315	1335280 
   316	1335280 
   317	1335280 
   318	1335280 
   319	1335280 
   320	1335280 
   321	1335284 
   322	1335284 
   323	1335284 
   324	1335304 
   325	1335304 
   326	1335304 
   327	1335328 
   328	1335328 
   329	1335328 
   330	1335328 
   331	1335328 
   332	1335328 
   333	1335324 
   334	1335324 
   335	1335324 
   336	1335320 
   337	1335320 
   338	1335320 
   339	1335348 
   340	1335348 
   341	1335348 
   342	1335340 
   343	1335340 
   344	1335340 
   345	1335340 
   346	1335340 
   347	1335340 
   348	1335356 
   349	1335356 
   350	1335356 
   351	1335388 
   352	1335388 
   353	1335388 
   354	1335420 
   355	1335420 
   356	1335420 
   357	1335452 
   358	1335452 
   359	1335452 
   360	1335444 
   361	1335444 
   362	1335444 
   363	1335436 
   364	1335436 
   365	1335436 
   366	1335468 
   367	1335468 
   368	1335468 
   369	1335472 
   370	1335472 
   371	1335472 
   372	1335484 
   373	1335484 
   374	1335484 
   375	1335476 
   376	1335476 
   377	1335476 
   378	1335508 
   379	1335508 
   380	1335508 
   381	1335504 
   382	1335504 
   383	1335504 
   384	1335504 
   385	1335504 
   386	1335504 
   387	1335532 
   388	1335532 
   389	1335528 
   390	1335528 
   391	1335528 
   392	1335524 
   393	1335524 
   394	1335524 
   395	1335560 
   396	1335560 
   397	1335560 
   398	1335540 
   399	1335540 
   400	1335540 
   401	1335564 
   402	1335564 
   403	1335564 
   404	1335568 
   405	1335568 
   406	1335568 
   407	1335560 
   408	1335560 
   409	1335560 
   410	1335584 
   411	1335584 
   412	1335584 
   413	1333472 
   414	1333472 
   415	1333472 
   416	1333472 
   417	1333472 
   418	1333472 
   419	1333496 
   420	1333496 
   421	1333496 
   422	1333364 
   423	1333364 
   424	1333364 
   425	1333384 
   426	1333384 
   427	1333384 
   428	1333380 
   429	1333380 
   430	1333380 
   431	1333408 
   432	1333408 
   433	1333408 
   434	1333408 
   435	1333408 
   436	1333408 
   437	1333432 
   438	1333432 
   439	1333432 
   440	1333432 
   441	1333432 
   442	1333432 
   443	1333424 
   444	1333424 
   445	1333424 
   446	1333448 
   447	1333448 
   448	1333448 
   449	1333448 
   450	1333448 
   451	1333448 
   452	1333444 
   453	1333444 
   454	1333444 
   455	1333476 
   456	1333476 
   457	1333476 
   458	1333472 
   459	1333472 
   460	1333472 
   461	1333500 
   462	1333500 
   463	1333500 
   464	1333492 
   465	1333492 
   466	1333492 
   467	1333492 
   468	1333492 
   469	1333492 
   470	1333520 
   471	1333520 
   472	1333520 
   473	1333512 
   474	1333512 
   475	1333512 
   476	1333544 
   477	1333544 
   478	1333544 
   479	1333540 
   480	1333540 
   481	1333540 
   482	1333568 
   483	1333568 
   484	1333568 
   485	1333560 
   486	1333560 
   487	1333560 
   488	1333588 
   489	1333588 
   490	1333588 
   491	1333588 
   492	1333588 
   493	1333588 
   494	1333580 
