PING 128.223.32.36 (128.223.32.36) 56(84) bytes of data.
64 bytes from 128.223.32.36: icmp_seq=1 ttl=63 time=0.405 ms
PING 128.223.32.36 (128.223.32.36) 56(84) bytes of data.
64 bytes from 128.223.32.36: icmp_seq=1 ttl=63 time=0.384 ms
PING 128.223.32.36 (128.223.32.36) 56(84) bytes of data.
64 bytes from 128.223.32.36: icmp_seq=1 ttl=63 time=0.385 ms
PING 128.223.32.36 (128.223.32.36) 56(84) bytes of data.
64 bytes from 128.223.32.36: icmp_seq=1 ttl=63 time=0.404 ms
PING 128.223.32.36 (128.223.32.36) 56(84) bytes of data.
64 bytes from 128.223.32.36: icmp_seq=1 ttl=63 time=0.263 ms
PING 128.223.32.36 (128.223.32.36) 56(84) bytes of data.
64 bytes from 128.223.32.36: icmp_seq=2 ttl=63 time=0.599 ms
PING 128.223.32.36 (128.223.32.36) 56(84) bytes of data.
64 bytes from 128.223.32.36: icmp_seq=2 ttl=63 time=2.29 ms
PING 128.223.32.36 (128.223.32.36) 56(84) bytes of data.
64 bytes from 128.223.32.36: icmp_seq=2 ttl=63 time=2.90 ms
PING 128.223.32.36 (128.223.32.36) 56(84) bytes of data.
64 bytes from 128.223.32.36: icmp_seq=2 ttl=63 time=3.20 ms
PING 128.223.32.36 (128.223.32.36) 56(84) bytes of data.
64 bytes from 128.223.32.36: icmp_seq=2 ttl=63 time=2.61 ms
PING 128.223.32.36 (128.223.32.36) 56(84) bytes of data.
64 bytes from 128.223.32.36: icmp_seq=3 ttl=63 time=0.622 ms
PING 128.223.32.36 (128.223.32.36) 56(84) bytes of data.
64 bytes from 128.223.32.36: icmp_seq=3 ttl=63 time=1.13 ms
64 bytes from 128.223.32.36: icmp_seq=3 ttl=63 time=1.43 ms
PING 128.223.32.36 (128.223.32.36) 56(84) bytes of data.
64 bytes from 128.223.32.36: icmp_seq=3 ttl=63 time=1.70 ms
PING 128.223.32.36 (128.223.32.36) 56(84) bytes of data.
64 bytes from 128.223.32.36: icmp_seq=3 ttl=63 time=1.87 ms
64 bytes from 128.223.32.36: icmp_seq=4 ttl=63 time=0.829 ms
64 bytes from 128.223.32.36: icmp_seq=4 ttl=63 time=0.878 ms
64 bytes from 128.223.32.36: icmp_seq=4 ttl=63 time=0.981 ms
64 bytes from 128.223.32.36: icmp_seq=4 ttl=63 time=1.05 ms
64 bytes from 128.223.32.36: icmp_seq=4 ttl=63 time=0.483 ms
64 bytes from 128.223.32.36: icmp_seq=5 ttl=63 time=0.434 ms
64 bytes from 128.223.32.36: icmp_seq=5 ttl=63 time=0.741 ms
64 bytes from 128.223.32.36: icmp_seq=5 ttl=63 time=0.876 ms
64 bytes from 128.223.32.36: icmp_seq=5 ttl=63 time=0.828 ms
PING 128.223.32.36 (128.223.32.36) 56(84) bytes of data.
64 bytes from 128.223.32.36: icmp_seq=5 ttl=63 time=0.493 ms




--- 128.223.32.36 ping statistics ---
5 packets transmitted, 3 received, 40% packet loss, time 4008ms
rtt min/avg/max/mdev = 0.741/0.916/1.130/0.162 ms
--- 128.223.32.36 ping statistics ---
5 packets transmitted, 4 received, 20% packet loss, time 4005ms
rtt min/avg/max/mdev = 0.828/1.486/2.618/0.689 ms
--- 128.223.32.36 ping statistics ---
5 packets transmitted, 3 received, 40% packet loss, time 4021ms
rtt min/avg/max/mdev = 0.434/1.044/1.870/0.606 ms
--- 128.223.32.36 ping statistics ---
5 packets transmitted, 3 received, 40% packet loss, time 4014ms
rtt min/avg/max/mdev = 0.876/1.188/1.707/0.369 ms

--- 128.223.32.36 ping statistics ---
5 packets transmitted, 2 received, 60% packet loss, time 4005ms
rtt min/avg/max/mdev = 0.483/0.552/0.622/0.073 ms

--- 128.223.32.36 ping statistics ---
5 packets transmitted, 1 received, 80% packet loss, time 4047ms
rtt min/avg/max/mdev = 2.903/2.903/2.903/0.000 ms

--- 128.223.32.36 ping statistics ---
5 packets transmitted, 1 received, 80% packet loss, time 4041ms
rtt min/avg/max/mdev = 0.599/0.599/0.599/0.000 ms

--- 128.223.32.36 ping statistics ---
5 packets transmitted, 1 received, 80% packet loss, time 4049ms
rtt min/avg/max/mdev = 3.208/3.208/3.208/0.000 ms

--- 128.223.32.36 ping statistics ---
5 packets transmitted, 1 received, 80% packet loss, time 4051ms
rtt min/avg/max/mdev = 2.291/2.291/2.291/0.000 ms


--- 128.223.32.36 ping statistics ---
5 packets transmitted, 1 received, 80% packet loss, time 4094ms
rtt min/avg/max/mdev = 0.384/0.384/0.384/0.000 ms
--- 128.223.32.36 ping statistics ---
5 packets transmitted, 1 received, 80% packet loss, time 4094ms
rtt min/avg/max/mdev = 0.385/0.385/0.385/0.000 ms

--- 128.223.32.36 ping statistics ---
5 packets transmitted, 1 received, 80% packet loss, time 4094ms
rtt min/avg/max/mdev = 0.404/0.404/0.404/0.000 ms


--- 128.223.32.36 ping statistics ---
5 packets transmitted, 1 received, 80% packet loss, time 4094ms
rtt min/avg/max/mdev = 0.405/0.405/0.405/0.000 ms
--- 128.223.32.36 ping statistics ---
5 packets transmitted, 1 received, 80% packet loss, time 4094ms
rtt min/avg/max/mdev = 0.263/0.263/0.263/0.000 ms
PING 128.223.32.36 (128.223.32.36) 56(84) bytes of data.

PING 128.223.32.36 (128.223.32.36) 56(84) bytes of data.

--- 128.223.32.36 ping statistics ---
5 packets transmitted, 0 received, 100% packet loss, time 4059ms

--- 128.223.32.36 ping statistics ---
5 packets transmitted, 0 received, 100% packet loss, time 4051ms

PING 128.223.32.36 (128.223.32.36) 56(84) bytes of data.

PING 128.223.32.36 (128.223.32.36) 56(84) bytes of data.

--- 128.223.32.36 ping statistics ---
5 packets transmitted, 0 received, 100% packet loss, time 4057ms

--- 128.223.32.36 ping statistics ---
5 packets transmitted, 0 received, 100% packet loss, time 4051ms

PING 128.223.32.36 (128.223.32.36) 56(84) bytes of data.

PING 128.223.32.36 (128.223.32.36) 56(84) bytes of data.

PING 128.223.32.36 (128.223.32.36) 56(84) bytes of data.

--- 128.223.32.36 ping statistics ---
5 packets transmitted, 0 received, 100% packet loss, time 4050ms

--- 128.223.32.36 ping statistics ---
5 packets transmitted, 0 received, 100% packet loss, time 4053ms

PING 128.223.32.36 (128.223.32.36) 56(84) bytes of data.

--- 128.223.32.36 ping statistics ---
5 packets transmitted, 0 received, 100% packet loss, time 4050ms

--- 128.223.32.36 ping statistics ---
5 packets transmitted, 0 received, 100% packet loss, time 4052ms

PING 128.223.32.36 (128.223.32.36) 56(84) bytes of data.

PING 128.223.32.36 (128.223.32.36) 56(84) bytes of data.

--- 128.223.32.36 ping statistics ---
5 packets transmitted, 0 received, 100% packet loss, time 4048ms

--- 128.223.32.36 ping statistics ---
5 packets transmitted, 0 received, 100% packet loss, time 4053ms

PING 128.223.32.36 (128.223.32.36) 56(84) bytes of data.

PING 128.223.32.36 (128.223.32.36) 56(84) bytes of data.

--- 128.223.32.36 ping statistics ---
5 packets transmitted, 0 received, 100% packet loss, time 4043ms

--- 128.223.32.36 ping statistics ---
5 packets transmitted, 0 received, 100% packet loss, time 4059ms

PING 128.223.32.36 (128.223.32.36) 56(84) bytes of data.

PING 128.223.32.36 (128.223.32.36) 56(84) bytes of data.

--- 128.223.32.36 ping statistics ---
5 packets transmitted, 0 received, 100% packet loss, time 4054ms

PING 128.223.32.36 (128.223.32.36) 56(84) bytes of data.

--- 128.223.32.36 ping statistics ---
5 packets transmitted, 0 received, 100% packet loss, time 4055ms

PING 128.223.32.36 (128.223.32.36) 56(84) bytes of data.

--- 128.223.32.36 ping statistics ---
5 packets transmitted, 0 received, 100% packet loss, time 4051ms

--- 128.223.32.36 ping statistics ---
5 packets transmitted, 0 received, 100% packet loss, time 4045ms

PING 128.223.32.36 (128.223.32.36) 56(84) bytes of data.

--- 128.223.32.36 ping statistics ---
5 packets transmitted, 0 received, 100% packet loss, time 4051ms

PING 128.223.32.36 (128.223.32.36) 56(84) bytes of data.

--- 128.223.32.36 ping statistics ---
5 packets transmitted, 0 received, 100% packet loss, time 4052ms

PING 128.223.32.36 (128.223.32.36) 56(84) bytes of data.

--- 128.223.32.36 ping statistics ---
5 packets transmitted, 0 received, 100% packet loss, time 4052ms

PING 128.223.32.36 (128.223.32.36) 56(84) bytes of data.

PING 128.223.32.36 (128.223.32.36) 56(84) bytes of data.

PING 128.223.32.36 (128.223.32.36) 56(84) bytes of data.

--- 128.223.32.36 ping statistics ---
5 packets transmitted, 0 received, 100% packet loss, time 4044ms

--- 128.223.32.36 ping statistics ---
5 packets transmitted, 0 received, 100% packet loss, time 4061ms

PING 128.223.32.36 (128.223.32.36) 56(84) bytes of data.

--- 128.223.32.36 ping statistics ---
5 packets transmitted, 0 received, 100% packet loss, time 4060ms

PING 128.223.32.36 (128.223.32.36) 56(84) bytes of data.

--- 128.223.32.36 ping statistics ---
5 packets transmitted, 0 received, 100% packet loss, time 4059ms

PING 128.223.32.36 (128.223.32.36) 56(84) bytes of data.

PING 128.223.32.36 (128.223.32.36) 56(84) bytes of data.

--- 128.223.32.36 ping statistics ---
5 packets transmitted, 0 received, 100% packet loss, time 4060ms

--- 128.223.32.36 ping statistics ---
5 packets transmitted, 0 received, 100% packet loss, time 4056ms

--- 128.223.32.36 ping statistics ---
5 packets transmitted, 0 received, 100% packet loss, time 4057ms

PING 128.223.32.36 (128.223.32.36) 56(84) bytes of data.

PING 128.223.32.36 (128.223.32.36) 56(84) bytes of data.

--- 128.223.32.36 ping statistics ---
5 packets transmitted, 0 received, 100% packet loss, time 4052ms

PING 128.223.32.36 (128.223.32.36) 56(84) bytes of data.

--- 128.223.32.36 ping statistics ---
5 packets transmitted, 0 received, 100% packet loss, time 4058ms

PING 128.223.32.36 (128.223.32.36) 56(84) bytes of data.

--- 128.223.32.36 ping statistics ---
5 packets transmitted, 0 received, 100% packet loss, time 4058ms

PING 128.223.32.36 (128.223.32.36) 56(84) bytes of data.

--- 128.223.32.36 ping statistics ---
5 packets transmitted, 0 received, 100% packet loss, time 4054ms

--- 128.223.32.36 ping statistics ---
5 packets transmitted, 0 received, 100% packet loss, time 4046ms

PING 128.223.32.36 (128.223.32.36) 56(84) bytes of data.

PING 128.223.32.36 (128.223.32.36) 56(84) bytes of data.

--- 128.223.32.36 ping statistics ---
5 packets transmitted, 0 received, 100% packet loss, time 4051ms

--- 128.223.32.36 ping statistics ---
5 packets transmitted, 0 received, 100% packet loss, time 4054ms

PING 128.223.32.36 (128.223.32.36) 56(84) bytes of data.

--- 128.223.32.36 ping statistics ---
5 packets transmitted, 0 received, 100% packet loss, time 4061ms

PING 128.223.32.36 (128.223.32.36) 56(84) bytes of data.

PING 128.223.32.36 (128.223.32.36) 56(84) bytes of data.

--- 128.223.32.36 ping statistics ---
5 packets transmitted, 0 received, 100% packet loss, time 4044ms

PING 128.223.32.36 (128.223.32.36) 56(84) bytes of data.

--- 128.223.32.36 ping statistics ---
5 packets transmitted, 0 received, 100% packet loss, time 4054ms

--- 128.223.32.36 ping statistics ---
5 packets transmitted, 0 received, 100% packet loss, time 4052ms

PING 128.223.32.36 (128.223.32.36) 56(84) bytes of data.

--- 128.223.32.36 ping statistics ---
5 packets transmitted, 0 received, 100% packet loss, time 4052ms

PING 128.223.32.36 (128.223.32.36) 56(84) bytes of data.

--- 128.223.32.36 ping statistics ---
5 packets transmitted, 0 received, 100% packet loss, time 4050ms

PING 128.223.32.36 (128.223.32.36) 56(84) bytes of data.

PING 128.223.32.36 (128.223.32.36) 56(84) bytes of data.

PING 128.223.32.36 (128.223.32.36) 56(84) bytes of data.

--- 128.223.32.36 ping statistics ---
5 packets transmitted, 0 received, 100% packet loss, time 4061ms

--- 128.223.32.36 ping statistics ---
5 packets transmitted, 0 received, 100% packet loss, time 4052ms

--- 128.223.32.36 ping statistics ---
5 packets transmitted, 0 received, 100% packet loss, time 4053ms

PING 128.223.32.36 (128.223.32.36) 56(84) bytes of data.

PING 128.223.32.36 (128.223.32.36) 56(84) bytes of data.

--- 128.223.32.36 ping statistics ---
5 packets transmitted, 0 received, 100% packet loss, time 4047ms

PING 128.223.32.36 (128.223.32.36) 56(84) bytes of data.

--- 128.223.32.36 ping statistics ---
5 packets transmitted, 0 received, 100% packet loss, time 4060ms

--- 128.223.32.36 ping statistics ---
5 packets transmitted, 0 received, 100% packet loss, time 4060ms

PING 128.223.32.36 (128.223.32.36) 56(84) bytes of data.

PING 128.223.32.36 (128.223.32.36) 56(84) bytes of data.

--- 128.223.32.36 ping statistics ---
5 packets transmitted, 0 received, 100% packet loss, time 4058ms

--- 128.223.32.36 ping statistics ---
5 packets transmitted, 0 received, 100% packet loss, time 4053ms

PING 128.223.32.36 (128.223.32.36) 56(84) bytes of data.

PING 128.223.32.36 (128.223.32.36) 56(84) bytes of data.

--- 128.223.32.36 ping statistics ---
5 packets transmitted, 0 received, 100% packet loss, time 4045ms

PING 128.223.32.36 (128.223.32.36) 56(84) bytes of data.

--- 128.223.32.36 ping statistics ---
5 packets transmitted, 0 received, 100% packet loss, time 4046ms

--- 128.223.32.36 ping statistics ---
5 packets transmitted, 0 received, 100% packet loss, time 4052ms

PING 128.223.32.36 (128.223.32.36) 56(84) bytes of data.

PING 128.223.32.36 (128.223.32.36) 56(84) bytes of data.

--- 128.223.32.36 ping statistics ---
5 packets transmitted, 0 received, 100% packet loss, time 4051ms

PING 128.223.32.36 (128.223.32.36) 56(84) bytes of data.

--- 128.223.32.36 ping statistics ---
5 packets transmitted, 0 received, 100% packet loss, time 4046ms

PING 128.223.32.36 (128.223.32.36) 56(84) bytes of data.

PING 128.223.32.36 (128.223.32.36) 56(84) bytes of data.

--- 128.223.32.36 ping statistics ---
5 packets transmitted, 0 received, 100% packet loss, time 4057ms

--- 128.223.32.36 ping statistics ---
5 packets transmitted, 0 received, 100% packet loss, time 4056ms

--- 128.223.32.36 ping statistics ---
5 packets transmitted, 0 received, 100% packet loss, time 4060ms

PING 128.223.32.36 (128.223.32.36) 56(84) bytes of data.

--- 128.223.32.36 ping statistics ---
5 packets transmitted, 0 received, 100% packet loss, time 4055ms

PING 128.223.32.36 (128.223.32.36) 56(84) bytes of data.

--- 128.223.32.36 ping statistics ---
5 packets transmitted, 0 received, 100% packet loss, time 4048ms

PING 128.223.32.36 (128.223.32.36) 56(84) bytes of data.

PING 128.223.32.36 (128.223.32.36) 56(84) bytes of data.

--- 128.223.32.36 ping statistics ---
5 packets transmitted, 0 received, 100% packet loss, time 4044ms

PING 128.223.32.36 (128.223.32.36) 56(84) bytes of data.

PING 128.223.32.36 (128.223.32.36) 56(84) bytes of data.

--- 128.223.32.36 ping statistics ---
5 packets transmitted, 0 received, 100% packet loss, time 4055ms

PING 128.223.32.36 (128.223.32.36) 56(84) bytes of data.

--- 128.223.32.36 ping statistics ---
5 packets transmitted, 0 received, 100% packet loss, time 4048ms

PING 128.223.32.36 (128.223.32.36) 56(84) bytes of data.

--- 128.223.32.36 ping statistics ---
5 packets transmitted, 0 received, 100% packet loss, time 4055ms

--- 128.223.32.36 ping statistics ---
5 packets transmitted, 0 received, 100% packet loss, time 4056ms

PING 128.223.32.36 (128.223.32.36) 56(84) bytes of data.

--- 128.223.32.36 ping statistics ---
5 packets transmitted, 0 received, 100% packet loss, time 4061ms

--- 128.223.32.36 ping statistics ---
5 packets transmitted, 0 received, 100% packet loss, time 4045ms

PING 128.223.32.36 (128.223.32.36) 56(84) bytes of data.

PING 128.223.32.36 (128.223.32.36) 56(84) bytes of data.

--- 128.223.32.36 ping statistics ---
5 packets transmitted, 0 received, 100% packet loss, time 4056ms

--- 128.223.32.36 ping statistics ---
5 packets transmitted, 0 received, 100% packet loss, time 4052ms

PING 128.223.32.36 (128.223.32.36) 56(84) bytes of data.

PING 128.223.32.36 (128.223.32.36) 56(84) bytes of data.

--- 128.223.32.36 ping statistics ---
5 packets transmitted, 0 received, 100% packet loss, time 4060ms

PING 128.223.32.36 (128.223.32.36) 56(84) bytes of data.

PING 128.223.32.36 (128.223.32.36) 56(84) bytes of data.

--- 128.223.32.36 ping statistics ---
5 packets transmitted, 0 received, 100% packet loss, time 4047ms

--- 128.223.32.36 ping statistics ---
5 packets transmitted, 0 received, 100% packet loss, time 4059ms

PING 128.223.32.36 (128.223.32.36) 56(84) bytes of data.

--- 128.223.32.36 ping statistics ---
5 packets transmitted, 0 received, 100% packet loss, time 4043ms

PING 128.223.32.36 (128.223.32.36) 56(84) bytes of data.

PING 128.223.32.36 (128.223.32.36) 56(84) bytes of data.

--- 128.223.32.36 ping statistics ---
5 packets transmitted, 0 received, 100% packet loss, time 4058ms

--- 128.223.32.36 ping statistics ---
5 packets transmitted, 0 received, 100% packet loss, time 4050ms

--- 128.223.32.36 ping statistics ---
5 packets transmitted, 0 received, 100% packet loss, time 4047ms

PING 128.223.32.36 (128.223.32.36) 56(84) bytes of data.

--- 128.223.32.36 ping statistics ---
5 packets transmitted, 0 received, 100% packet loss, time 4055ms

PING 128.223.32.36 (128.223.32.36) 56(84) bytes of data.

--- 128.223.32.36 ping statistics ---
5 packets transmitted, 0 received, 100% packet loss, time 4053ms

PING 128.223.32.36 (128.223.32.36) 56(84) bytes of data.

PING 128.223.32.36 (128.223.32.36) 56(84) bytes of data.

PING 128.223.32.36 (128.223.32.36) 56(84) bytes of data.

--- 128.223.32.36 ping statistics ---
5 packets transmitted, 0 received, 100% packet loss, time 4045ms

--- 128.223.32.36 ping statistics ---
5 packets transmitted, 0 received, 100% packet loss, time 4042ms

PING 128.223.32.36 (128.223.32.36) 56(84) bytes of data.

PING 128.223.32.36 (128.223.32.36) 56(84) bytes of data.

--- 128.223.32.36 ping statistics ---
5 packets transmitted, 0 received, 100% packet loss, time 4056ms

PING 128.223.32.36 (128.223.32.36) 56(84) bytes of data.

--- 128.223.32.36 ping statistics ---
5 packets transmitted, 0 received, 100% packet loss, time 4061ms

--- 128.223.32.36 ping statistics ---
5 packets transmitted, 0 received, 100% packet loss, time 4042ms

--- 128.223.32.36 ping statistics ---
5 packets transmitted, 0 received, 100% packet loss, time 4054ms

PING 128.223.32.36 (128.223.32.36) 56(84) bytes of data.

--- 128.223.32.36 ping statistics ---
5 packets transmitted, 0 received, 100% packet loss, time 4047ms

PING 128.223.32.36 (128.223.32.36) 56(84) bytes of data.

--- 128.223.32.36 ping statistics ---
5 packets transmitted, 0 received, 100% packet loss, time 4057ms

PING 128.223.32.36 (128.223.32.36) 56(84) bytes of data.

PING 128.223.32.36 (128.223.32.36) 56(84) bytes of data.

--- 128.223.32.36 ping statistics ---
5 packets transmitted, 0 received, 100% packet loss, time 4054ms

PING 128.223.32.36 (128.223.32.36) 56(84) bytes of data.

--- 128.223.32.36 ping statistics ---
5 packets transmitted, 0 received, 100% packet loss, time 4042ms

PING 128.223.32.36 (128.223.32.36) 56(84) bytes of data.

PING 128.223.32.36 (128.223.32.36) 56(84) bytes of data.

--- 128.223.32.36 ping statistics ---
5 packets transmitted, 0 received, 100% packet loss, time 4049ms

PING 128.223.32.36 (128.223.32.36) 56(84) bytes of data.

--- 128.223.32.36 ping statistics ---
5 packets transmitted, 0 received, 100% packet loss, time 4057ms

--- 128.223.32.36 ping statistics ---
5 packets transmitted, 0 received, 100% packet loss, time 4049ms

--- 128.223.32.36 ping statistics ---
5 packets transmitted, 0 received, 100% packet loss, time 4058ms

PING 128.223.32.36 (128.223.32.36) 56(84) bytes of data.

PING 128.223.32.36 (128.223.32.36) 56(84) bytes of data.

--- 128.223.32.36 ping statistics ---
5 packets transmitted, 0 received, 100% packet loss, time 4045ms

--- 128.223.32.36 ping statistics ---
5 packets transmitted, 0 received, 100% packet loss, time 4055ms

PING 128.223.32.36 (128.223.32.36) 56(84) bytes of data.

PING 128.223.32.36 (128.223.32.36) 56(84) bytes of data.

PING 128.223.32.36 (128.223.32.36) 56(84) bytes of data.

--- 128.223.32.36 ping statistics ---
5 packets transmitted, 0 received, 100% packet loss, time 4042ms

PING 128.223.32.36 (128.223.32.36) 56(84) bytes of data.

--- 128.223.32.36 ping statistics ---
5 packets transmitted, 0 received, 100% packet loss, time 4057ms

--- 128.223.32.36 ping statistics ---
5 packets transmitted, 0 received, 100% packet loss, time 4058ms


--- 128.223.32.36 ping statistics ---
5 packets transmitted, 0 received, 100% packet loss, time 4055ms

PING 128.223.32.36 (128.223.32.36) 56(84) bytes of data.

--- 128.223.32.36 ping statistics ---
5 packets transmitted, 1 received, 80% packet loss, time 4048ms
rtt min/avg/max/mdev = 0.493/0.493/0.493/0.000 ms
--- 128.223.32.36 ping statistics ---
5 packets transmitted, 0 received, 100% packet loss, time 4061ms

PING 128.223.32.36 (128.223.32.36) 56(84) bytes of data.

--- 128.223.32.36 ping statistics ---
5 packets transmitted, 0 received, 100% packet loss, time 4050ms

PING 128.223.32.36 (128.223.32.36) 56(84) bytes of data.

PING 128.223.32.36 (128.223.32.36) 56(84) bytes of data.

--- 128.223.32.36 ping statistics ---
5 packets transmitted, 0 received, 100% packet loss, time 4053ms

--- 128.223.32.36 ping statistics ---
5 packets transmitted, 0 received, 100% packet loss, time 4060ms

PING 128.223.32.36 (128.223.32.36) 56(84) bytes of data.

PING 128.223.32.36 (128.223.32.36) 56(84) bytes of data.

PING 128.223.32.36 (128.223.32.36) 56(84) bytes of data.

PING 128.223.32.36 (128.223.32.36) 56(84) bytes of data.

PING 128.223.32.36 (128.223.32.36) 56(84) bytes of data.

PING 128.223.32.36 (128.223.32.36) 56(84) bytes of data.

PING 128.223.32.36 (128.223.32.36) 56(84) bytes of data.

--- 128.223.32.36 ping statistics ---
5 packets transmitted, 0 received, 100% packet loss, time 4092ms

--- 128.223.32.36 ping statistics ---
5 packets transmitted, 0 received, 100% packet loss, time 4066ms

--- 128.223.32.36 ping statistics ---
5 packets transmitted, 0 received, 100% packet loss, time 4068ms

--- 128.223.32.36 ping statistics ---
5 packets transmitted, 0 received, 100% packet loss, time 4070ms

--- 128.223.32.36 ping statistics ---
5 packets transmitted, 0 received, 100% packet loss, time 4073ms

--- 128.223.32.36 ping statistics ---
5 packets transmitted, 0 received, 100% packet loss, time 4074ms

--- 128.223.32.36 ping statistics ---
5 packets transmitted, 0 received, 100% packet loss, time 4091ms

PING 128.223.32.36 (128.223.32.36) 56(84) bytes of data.

--- 128.223.32.36 ping statistics ---
5 packets transmitted, 0 received, 100% packet loss, time 4066ms

PING 128.223.32.36 (128.223.32.36) 56(84) bytes of data.

--- 128.223.32.36 ping statistics ---
5 packets transmitted, 0 received, 100% packet loss, time 4093ms

PING 128.223.32.36 (128.223.32.36) 56(84) bytes of data.

PING 128.223.32.36 (128.223.32.36) 56(84) bytes of data.

PING 128.223.32.36 (128.223.32.36) 56(84) bytes of data.

PING 128.223.32.36 (128.223.32.36) 56(84) bytes of data.

PING 128.223.32.36 (128.223.32.36) 56(84) bytes of data.

--- 128.223.32.36 ping statistics ---
5 packets transmitted, 0 received, 100% packet loss, time 4065ms

PING 128.223.32.36 (128.223.32.36) 56(84) bytes of data.

--- 128.223.32.36 ping statistics ---
5 packets transmitted, 0 received, 100% packet loss, time 4067ms

--- 128.223.32.36 ping statistics ---
5 packets transmitted, 0 received, 100% packet loss, time 4066ms

--- 128.223.32.36 ping statistics ---
5 packets transmitted, 0 received, 100% packet loss, time 4080ms

--- 128.223.32.36 ping statistics ---
5 packets transmitted, 0 received, 100% packet loss, time 4065ms

--- 128.223.32.36 ping statistics ---
5 packets transmitted, 0 received, 100% packet loss, time 4072ms

PING 128.223.32.36 (128.223.32.36) 56(84) bytes of data.

--- 128.223.32.36 ping statistics ---
5 packets transmitted, 0 received, 100% packet loss, time 4067ms

PING 128.223.32.36 (128.223.32.36) 56(84) bytes of data.

--- 128.223.32.36 ping statistics ---
5 packets transmitted, 0 received, 100% packet loss, time 4068ms

PING 128.223.32.36 (128.223.32.36) 56(84) bytes of data.

--- 128.223.32.36 ping statistics ---
5 packets transmitted, 0 received, 100% packet loss, time 4074ms

PING 128.223.32.36 (128.223.32.36) 56(84) bytes of data.

PING 128.223.32.36 (128.223.32.36) 56(84) bytes of data.

PING 128.223.32.36 (128.223.32.36) 56(84) bytes of data.

PING 128.223.32.36 (128.223.32.36) 56(84) bytes of data.

--- 128.223.32.36 ping statistics ---
5 packets transmitted, 0 received, 100% packet loss, time 4079ms

--- 128.223.32.36 ping statistics ---
5 packets transmitted, 0 received, 100% packet loss, time 4067ms

PING 128.223.32.36 (128.223.32.36) 56(84) bytes of data.

--- 128.223.32.36 ping statistics ---
5 packets transmitted, 0 received, 100% packet loss, time 4075ms

PING 128.223.32.36 (128.223.32.36) 56(84) bytes of data.

--- 128.223.32.36 ping statistics ---
5 packets transmitted, 0 received, 100% packet loss, time 4077ms

--- 128.223.32.36 ping statistics ---
5 packets transmitted, 0 received, 100% packet loss, time 4068ms

--- 128.223.32.36 ping statistics ---
5 packets transmitted, 0 received, 100% packet loss, time 4073ms

PING 128.223.32.36 (128.223.32.36) 56(84) bytes of data.

PING 128.223.32.36 (128.223.32.36) 56(84) bytes of data.

--- 128.223.32.36 ping statistics ---
5 packets transmitted, 0 received, 100% packet loss, time 4065ms

--- 128.223.32.36 ping statistics ---
5 packets transmitted, 0 received, 100% packet loss, time 4068ms

PING 128.223.32.36 (128.223.32.36) 56(84) bytes of data.

PING 128.223.32.36 (128.223.32.36) 56(84) bytes of data.

PING 128.223.32.36 (128.223.32.36) 56(84) bytes of data.

PING 128.223.32.36 (128.223.32.36) 56(84) bytes of data.

--- 128.223.32.36 ping statistics ---
5 packets transmitted, 0 received, 100% packet loss, time 4067ms

--- 128.223.32.36 ping statistics ---
5 packets transmitted, 0 received, 100% packet loss, time 4070ms

PING 128.223.32.36 (128.223.32.36) 56(84) bytes of data.

--- 128.223.32.36 ping statistics ---
5 packets transmitted, 0 received, 100% packet loss, time 4067ms

PING 128.223.32.36 (128.223.32.36) 56(84) bytes of data.

--- 128.223.32.36 ping statistics ---
5 packets transmitted, 0 received, 100% packet loss, time 4066ms

--- 128.223.32.36 ping statistics ---
5 packets transmitted, 0 received, 100% packet loss, time 4071ms

--- 128.223.32.36 ping statistics ---
5 packets transmitted, 0 received, 100% packet loss, time 4071ms

PING 128.223.32.36 (128.223.32.36) 56(84) bytes of data.

--- 128.223.32.36 ping statistics ---
5 packets transmitted, 0 received, 100% packet loss, time 4067ms

PING 128.223.32.36 (128.223.32.36) 56(84) bytes of data.

--- 128.223.32.36 ping statistics ---
5 packets transmitted, 0 received, 100% packet loss, time 4070ms

PING 128.223.32.36 (128.223.32.36) 56(84) bytes of data.

PING 128.223.32.36 (128.223.32.36) 56(84) bytes of data.

PING 128.223.32.36 (128.223.32.36) 56(84) bytes of data.

PING 128.223.32.36 (128.223.32.36) 56(84) bytes of data.

PING 128.223.32.36 (128.223.32.36) 56(84) bytes of data.

--- 128.223.32.36 ping statistics ---
5 packets transmitted, 0 received, 100% packet loss, time 4071ms

--- 128.223.32.36 ping statistics ---
5 packets transmitted, 0 received, 100% packet loss, time 4070ms

--- 128.223.32.36 ping statistics ---
5 packets transmitted, 0 received, 100% packet loss, time 4070ms

PING 128.223.32.36 (128.223.32.36) 56(84) bytes of data.

--- 128.223.32.36 ping statistics ---
5 packets transmitted, 0 received, 100% packet loss, time 4077ms

--- 128.223.32.36 ping statistics ---
5 packets transmitted, 0 received, 100% packet loss, time 4070ms

--- 128.223.32.36 ping statistics ---
5 packets transmitted, 0 received, 100% packet loss, time 4070ms

PING 128.223.32.36 (128.223.32.36) 56(84) bytes of data.

--- 128.223.32.36 ping statistics ---
5 packets transmitted, 0 received, 100% packet loss, time 4083ms

PING 128.223.32.36 (128.223.32.36) 56(84) bytes of data.

--- 128.223.32.36 ping statistics ---
5 packets transmitted, 0 received, 100% packet loss, time 4066ms

PING 128.223.32.36 (128.223.32.36) 56(84) bytes of data.

PING 128.223.32.36 (128.223.32.36) 56(84) bytes of data.

PING 128.223.32.36 (128.223.32.36) 56(84) bytes of data.

PING 128.223.32.36 (128.223.32.36) 56(84) bytes of data.

PING 128.223.32.36 (128.223.32.36) 56(84) bytes of data.

PING 128.223.32.36 (128.223.32.36) 56(84) bytes of data.

--- 128.223.32.36 ping statistics ---
5 packets transmitted, 0 received, 100% packet loss, time 4082ms

--- 128.223.32.36 ping statistics ---
5 packets transmitted, 0 received, 100% packet loss, time 4075ms

--- 128.223.32.36 ping statistics ---
5 packets transmitted, 0 received, 100% packet loss, time 4065ms

--- 128.223.32.36 ping statistics ---
5 packets transmitted, 0 received, 100% packet loss, time 4071ms

--- 128.223.32.36 ping statistics ---
5 packets transmitted, 0 received, 100% packet loss, time 4085ms

--- 128.223.32.36 ping statistics ---
5 packets transmitted, 0 received, 100% packet loss, time 4088ms

PING 128.223.32.36 (128.223.32.36) 56(84) bytes of data.

--- 128.223.32.36 ping statistics ---
5 packets transmitted, 0 received, 100% packet loss, time 4075ms

PING 128.223.32.36 (128.223.32.36) 56(84) bytes of data.

--- 128.223.32.36 ping statistics ---
5 packets transmitted, 0 received, 100% packet loss, time 4066ms

PING 128.223.32.36 (128.223.32.36) 56(84) bytes of data.

PING 128.223.32.36 (128.223.32.36) 56(84) bytes of data.

PING 128.223.32.36 (128.223.32.36) 56(84) bytes of data.

PING 128.223.32.36 (128.223.32.36) 56(84) bytes of data.

PING 128.223.32.36 (128.223.32.36) 56(84) bytes of data.

PING 128.223.32.36 (128.223.32.36) 56(84) bytes of data.

--- 128.223.32.36 ping statistics ---
5 packets transmitted, 0 received, 100% packet loss, time 4069ms

--- 128.223.32.36 ping statistics ---
5 packets transmitted, 0 received, 100% packet loss, time 4074ms

--- 128.223.32.36 ping statistics ---
5 packets transmitted, 0 received, 100% packet loss, time 4068ms

--- 128.223.32.36 ping statistics ---
5 packets transmitted, 0 received, 100% packet loss, time 4066ms

--- 128.223.32.36 ping statistics ---
5 packets transmitted, 0 received, 100% packet loss, time 4076ms

--- 128.223.32.36 ping statistics ---
5 packets transmitted, 0 received, 100% packet loss, time 4066ms

PING 128.223.32.36 (128.223.32.36) 56(84) bytes of data.

--- 128.223.32.36 ping statistics ---
5 packets transmitted, 0 received, 100% packet loss, time 4071ms

PING 128.223.32.36 (128.223.32.36) 56(84) bytes of data.

--- 128.223.32.36 ping statistics ---
5 packets transmitted, 0 received, 100% packet loss, time 4070ms

PING 128.223.32.36 (128.223.32.36) 56(84) bytes of data.

PING 128.223.32.36 (128.223.32.36) 56(84) bytes of data.

PING 128.223.32.36 (128.223.32.36) 56(84) bytes of data.

PING 128.223.32.36 (128.223.32.36) 56(84) bytes of data.

--- 128.223.32.36 ping statistics ---
5 packets transmitted, 0 received, 100% packet loss, time 4077ms

--- 128.223.32.36 ping statistics ---
5 packets transmitted, 0 received, 100% packet loss, time 4086ms

--- 128.223.32.36 ping statistics ---
5 packets transmitted, 0 received, 100% packet loss, time 4069ms

PING 128.223.32.36 (128.223.32.36) 56(84) bytes of data.

--- 128.223.32.36 ping statistics ---
5 packets transmitted, 0 received, 100% packet loss, time 4065ms

PING 128.223.32.36 (128.223.32.36) 56(84) bytes of data.

--- 128.223.32.36 ping statistics ---
5 packets transmitted, 0 received, 100% packet loss, time 4071ms

--- 128.223.32.36 ping statistics ---
5 packets transmitted, 0 received, 100% packet loss, time 4066ms

PING 128.223.32.36 (128.223.32.36) 56(84) bytes of data.

--- 128.223.32.36 ping statistics ---
5 packets transmitted, 0 received, 100% packet loss, time 4070ms

PING 128.223.32.36 (128.223.32.36) 56(84) bytes of data.

PING 128.223.32.36 (128.223.32.36) 56(84) bytes of data.

PING 128.223.32.36 (128.223.32.36) 56(84) bytes of data.

--- 128.223.32.36 ping statistics ---
5 packets transmitted, 0 received, 100% packet loss, time 4079ms

PING 128.223.32.36 (128.223.32.36) 56(84) bytes of data.

--- 128.223.32.36 ping statistics ---
5 packets transmitted, 0 received, 100% packet loss, time 4071ms

PING 128.223.32.36 (128.223.32.36) 56(84) bytes of data.

PING 128.223.32.36 (128.223.32.36) 56(84) bytes of data.

--- 128.223.32.36 ping statistics ---
5 packets transmitted, 0 received, 100% packet loss, time 4069ms

--- 128.223.32.36 ping statistics ---
5 packets transmitted, 0 received, 100% packet loss, time 4069ms

--- 128.223.32.36 ping statistics ---
5 packets transmitted, 0 received, 100% packet loss, time 4067ms

--- 128.223.32.36 ping statistics ---
5 packets transmitted, 0 received, 100% packet loss, time 4072ms

PING 128.223.32.36 (128.223.32.36) 56(84) bytes of data.

--- 128.223.32.36 ping statistics ---
5 packets transmitted, 0 received, 100% packet loss, time 4074ms

PING 128.223.32.36 (128.223.32.36) 56(84) bytes of data.

PING 128.223.32.36 (128.223.32.36) 56(84) bytes of data.

PING 128.223.32.36 (128.223.32.36) 56(84) bytes of data.

--- 128.223.32.36 ping statistics ---
5 packets transmitted, 0 received, 100% packet loss, time 4076ms

--- 128.223.32.36 ping statistics ---
5 packets transmitted, 0 received, 100% packet loss, time 4069ms

PING 128.223.32.36 (128.223.32.36) 56(84) bytes of data.

PING 128.223.32.36 (128.223.32.36) 56(84) bytes of data.

PING 128.223.32.36 (128.223.32.36) 56(84) bytes of data.

--- 128.223.32.36 ping statistics ---
5 packets transmitted, 0 received, 100% packet loss, time 4068ms

--- 128.223.32.36 ping statistics ---
5 packets transmitted, 0 received, 100% packet loss, time 4092ms

--- 128.223.32.36 ping statistics ---
5 packets transmitted, 0 received, 100% packet loss, time 4069ms

--- 128.223.32.36 ping statistics ---
5 packets transmitted, 0 received, 100% packet loss, time 4090ms

PING 128.223.32.36 (128.223.32.36) 56(84) bytes of data.

--- 128.223.32.36 ping statistics ---
5 packets transmitted, 0 received, 100% packet loss, time 4072ms

PING 128.223.32.36 (128.223.32.36) 56(84) bytes of data.

PING 128.223.32.36 (128.223.32.36) 56(84) bytes of data.

--- 128.223.32.36 ping statistics ---
5 packets transmitted, 0 received, 100% packet loss, time 4070ms

--- 128.223.32.36 ping statistics ---
5 packets transmitted, 0 received, 100% packet loss, time 4065ms

PING 128.223.32.36 (128.223.32.36) 56(84) bytes of data.

PING 128.223.32.36 (128.223.32.36) 56(84) bytes of data.

PING 128.223.32.36 (128.223.32.36) 56(84) bytes of data.

--- 128.223.32.36 ping statistics ---
5 packets transmitted, 0 received, 100% packet loss, time 4069ms

--- 128.223.32.36 ping statistics ---
5 packets transmitted, 0 received, 100% packet loss, time 4069ms

PING 128.223.32.36 (128.223.32.36) 56(84) bytes of data.

--- 128.223.32.36 ping statistics ---
5 packets transmitted, 0 received, 100% packet loss, time 4070ms

--- 128.223.32.36 ping statistics ---
5 packets transmitted, 0 received, 100% packet loss, time 4073ms

PING 128.223.32.36 (128.223.32.36) 56(84) bytes of data.

--- 128.223.32.36 ping statistics ---
5 packets transmitted, 0 received, 100% packet loss, time 4089ms

