     1	1378684 
     2	1378684 
     3	1378684 
     4	1378848 
     5	1378848 
     6	1378848 
     7	1378856 
     8	1378856 
     9	1378856 
    10	1378856 
    11	1378856 
    12	1378856 
    13	1378908 
    14	1378908 
    15	1378908 
    16	1379060 
    17	1379060 
    18	1379060 
    19	1379036 
    20	1379036 
    21	1379036 
    22	1379064 
    23	1379064 
    24	1379064 
