     1	 95.5 
     2	 99.4 
     3	 99.6 
     4	 99.6 
     5	 99.6 
     6	 99.4 
     7	 99.4 
     8	 98.7 
     9	 99.6 
    10	 99.4 
    11	 99.4 
    12	 99.3 
    13	 99.5 
    14	 99.9 
    15	 99.8 
    16	 99.0 
    17	 99.8 
    18	 99.6 
    19	 99.6 
    20	 99.6 
    21	 99.5 
    22	 99.4 
    23	 99.6 
    24	 99.8 
