     1	.6 
     2	.4 
     3	.9 
     4	.2 
     5	.9 
     6	.2 
     7	.3 
     8	.3 
     9	.9 
    10	.4 
    11	.5 
    12	.7 
    13	.3 
    14	.0 
    15	.3 
    16	.4 
    17	.3 
    18	.7 
    19	.3 
    20	.4 
    21	.5 
    22	.2 
    23	.2 
    24	.1 
    25	.6 
    26	.9 
    27	.2 
    28	.6 
    29	.2 
    30	.8 
    31	.7 
    32	.1 
    33	.3 
    34	.6 
    35	.9 
    36	.8 
    37	.9 
    38	.1 
    39	.1 
    40	.8 
    41	.5 
    42	.2 
    43	.0 
    44	.5 
    45	.9 
    46	.5 
    47	.2 
    48	.0 
    49	.3 
    50	.7 
    51	.2 
    52	.8 
    53	.5 
    54	.7 
    55	.3 
    56	.4 
    57	.9 
    58	.3 
    59	.3 
    60	.5 
    61	.8 
    62	.8 
    63	.4 
    64	.4 
    65	.8 
    66	.1 
    67	.6 
    68	.0 
    69	.6 
    70	.5 
    71	.6 
    72	.6 
    73	.8 
    74	.6 
    75	.6 
    76	.6 
    77	.8 
    78	.6 
    79	.5 
    80	.9 
    81	.1 
    82	.6 
    83	.5 
    84	.0 
    85	.9 
    86	.5 
    87	.6 
    88	.5 
    89	.5 
    90	.6 
    91	.8 
    92	.5 
    93	.5 
    94	.6 
    95	.4 
    96	.5 
    97	.0 
    98	.3 
    99	.3 
   100	.5 
   101	.4 
   102	.5 
   103	.8 
   104	.6 
   105	.4 
   106	.3 
   107	.8 
   108	.5 
   109	.4 
   110	.3 
   111	.6 
   112	.4 
