ping_2  | 100 packets transmitted, 50 packets received, 50% packet loss
ping_1  | 100 packets transmitted, 73 packets received, 27% packet loss
ping_10 | 100 packets transmitted, 47 packets received, 53% packet loss
ping_9  | 100 packets transmitted, 40 packets received, 60% packet loss
ping_8  | 100 packets transmitted, 50 packets received, 50% packet loss
ping_7  | 100 packets transmitted, 41 packets received, 59% packet loss
ping_4  | 100 packets transmitted, 68 packets received, 32% packet loss
ping_6  | 100 packets transmitted, 44 packets received, 56% packet loss
ping_5  | 100 packets transmitted, 46 packets received, 54% packet loss
ping_3  | 100 packets transmitted, 41 packets received, 59% packet loss
