ping_2  | round-trip min/avg/max = 0.569/0.808/0.954 ms
ping_1  | round-trip min/avg/max = 0.458/0.793/0.964 ms
ping_10 | round-trip min/avg/max = 0.462/0.803/0.971 ms
ping_9  | round-trip min/avg/max = 0.433/0.776/0.961 ms
ping_8  | round-trip min/avg/max = 0.468/0.799/0.973 ms
ping_7  | round-trip min/avg/max = 0.445/0.789/0.909 ms
ping_4  | round-trip min/avg/max = 0.449/0.813/0.980 ms
ping_6  | round-trip min/avg/max = 0.416/0.774/0.912 ms
ping_5  | round-trip min/avg/max = 0.421/0.791/0.920 ms
ping_3  | round-trip min/avg/max = 0.480/0.818/0.958 ms
