     1	1220504 
     2	1220504 
     3	1220504 
     4	1927764 
     5	1927764 
     6	1927764 
     7	2011948 
     8	2011948 
     9	1754344 
    10	1754344 
    11	1754344 
    12	1508484 
    13	1508484 
    14	1508484 
    15	1321148 
    16	1321148 
    17	1321148 
    18	2536168 
    19	2536168 
    20	2536168 
    21	2100108 
    22	2100108 
    23	2100108 
    24	1728856 
    25	1728856 
    26	1728856 
    27	1542564 
    28	1542564 
    29	1542564 
    30	1401300 
    31	1401300 
    32	1401300 
    33	1383020 
    34	1383020 
    35	1383020 
    36	1369708 
    37	1369708 
    38	1369708 
    39	1359900 
    40	1359900 
    41	1359900 
    42	1352120 
    43	1352120 
    44	1352120 
    45	1342480 
    46	1342480 
    47	1306544 
    48	1306544 
    49	1306544 
    50	1296536 
    51	1296536 
    52	1296536 
