Attaching to softwareoverhead_ping_1, softwareoverhead_ping_15, softwareoverhead_ping_5, softwareoverhead_ping_10, softwareoverhead_ping_14, softwareoverhead_ping_11, softwareoverhead_ping_16, softwareoverhead_ping_17, softwareoverhead_ping_12, softwareoverhead_ping_7, softwareoverhead_ping_8, softwareoverhead_ping_9, softwareoverhead_ping_4, softwareoverhead_ping_18, softwareoverhead_ping_19, softwareoverhead_ping_13, softwareoverhead_ping_20, softwareoverhead_ping_2, softwareoverhead_ping_3, softwareoverhead_ping_6, softwareoverhead_ping_24, softwareoverhead_ping_35, softwareoverhead_ping_25, softwareoverhead_ping_27, softwareoverhead_ping_34, softwareoverhead_ping_21, softwareoverhead_ping_32, softwareoverhead_ping_26, softwareoverhead_ping_38, softwareoverhead_ping_33, softwareoverhead_ping_37, softwareoverhead_ping_28, softwareoverhead_ping_22, softwareoverhead_ping_31, softwareoverhead_ping_36, softwareoverhead_ping_23, softwareoverhead_ping_30, softwareoverhead_ping_39, softwareoverhead_ping_29, softwareoverhead_ping_40
ping_15 | PING speedtest.softether.co.jp (103.41.63.43): 56 data bytes
ping_15 | 64 bytes from 103.41.63.43: seq=0 ttl=52 time=119.354 ms
ping_1  | PING speedtest.softether.co.jp (103.41.63.43): 56 data bytes
ping_15 | 64 bytes from 103.41.63.43: seq=1 ttl=52 time=119.258 ms
ping_1  | 64 bytes from 103.41.63.43: seq=0 ttl=52 time=119.312 ms
ping_15 | 64 bytes from 103.41.63.43: seq=2 ttl=52 time=119.236 ms
ping_1  | 64 bytes from 103.41.63.43: seq=1 ttl=52 time=119.346 ms
ping_5  | PING speedtest.softether.co.jp (103.41.63.43): 56 data bytes
ping_1  | 64 bytes from 103.41.63.43: seq=2 ttl=52 time=119.439 ms
ping_5  | 64 bytes from 103.41.63.43: seq=0 ttl=52 time=121.542 ms
ping_15 | 64 bytes from 103.41.63.43: seq=3 ttl=52 time=119.297 ms
ping_1  | 64 bytes from 103.41.63.43: seq=3 ttl=52 time=119.607 ms
ping_5  | 64 bytes from 103.41.63.43: seq=1 ttl=52 time=119.708 ms
ping_1  | 64 bytes from 103.41.63.43: seq=4 ttl=52 time=119.487 ms
ping_15 | 64 bytes from 103.41.63.43: seq=4 ttl=52 time=119.664 ms
ping_1  | 64 bytes from 103.41.63.43: seq=5 ttl=52 time=119.754 ms
ping_15 | 64 bytes from 103.41.63.43: seq=5 ttl=52 time=119.655 ms
ping_15 | 64 bytes from 103.41.63.43: seq=6 ttl=52 time=119.218 ms
ping_1  | 64 bytes from 103.41.63.43: seq=6 ttl=52 time=119.249 ms
ping_5  | 64 bytes from 103.41.63.43: seq=2 ttl=52 time=119.349 ms
ping_15 | 64 bytes from 103.41.63.43: seq=7 ttl=52 time=119.203 ms
ping_1  | 64 bytes from 103.41.63.43: seq=7 ttl=52 time=119.389 ms
ping_1  | 64 bytes from 103.41.63.43: seq=8 ttl=52 time=119.658 ms
ping_5  | 64 bytes from 103.41.63.43: seq=3 ttl=52 time=119.350 ms
ping_15 | 64 bytes from 103.41.63.43: seq=8 ttl=52 time=119.606 ms
ping_1  | 64 bytes from 103.41.63.43: seq=9 ttl=52 time=119.542 ms
ping_15 | 64 bytes from 103.41.63.43: seq=9 ttl=52 time=119.220 ms
ping_5  | 64 bytes from 103.41.63.43: seq=4 ttl=52 time=119.694 ms
ping_1  | 64 bytes from 103.41.63.43: seq=10 ttl=52 time=119.665 ms
ping_5  | 64 bytes from 103.41.63.43: seq=5 ttl=52 time=119.591 ms
ping_1  | 64 bytes from 103.41.63.43: seq=11 ttl=52 time=119.517 ms
ping_10 | PING speedtest.softether.co.jp (103.41.63.43): 56 data bytes
ping_15 | 64 bytes from 103.41.63.43: seq=10 ttl=52 time=119.175 ms
ping_5  | 64 bytes from 103.41.63.43: seq=6 ttl=52 time=119.257 ms
ping_15 | 64 bytes from 103.41.63.43: seq=11 ttl=52 time=119.733 ms
ping_14 | PING speedtest.softether.co.jp (103.41.63.43): 56 data bytes
ping_5  | 64 bytes from 103.41.63.43: seq=7 ttl=52 time=119.789 ms
ping_15 | 64 bytes from 103.41.63.43: seq=12 ttl=52 time=119.145 ms
ping_1  | 64 bytes from 103.41.63.43: seq=12 ttl=52 time=119.171 ms
ping_15 | 64 bytes from 103.41.63.43: seq=13 ttl=52 time=119.718 ms
ping_14 | 64 bytes from 103.41.63.43: seq=0 ttl=52 time=119.459 ms
ping_5  | 64 bytes from 103.41.63.43: seq=8 ttl=52 time=119.885 ms
ping_1  | 64 bytes from 103.41.63.43: seq=13 ttl=52 time=119.436 ms
ping_11 | PING speedtest.softether.co.jp (103.41.63.43): 56 data bytes
ping_15 | 64 bytes from 103.41.63.43: seq=14 ttl=52 time=119.645 ms
ping_14 | 64 bytes from 103.41.63.43: seq=1 ttl=52 time=119.715 ms
ping_5  | 64 bytes from 103.41.63.43: seq=9 ttl=52 time=119.394 ms
ping_15 | 64 bytes from 103.41.63.43: seq=15 ttl=52 time=119.651 ms
ping_11 | 64 bytes from 103.41.63.43: seq=0 ttl=52 time=119.345 ms
ping_5  | 64 bytes from 103.41.63.43: seq=10 ttl=52 time=119.275 ms
ping_15 | 64 bytes from 103.41.63.43: seq=16 ttl=52 time=119.770 ms
ping_1  | 64 bytes from 103.41.63.43: seq=14 ttl=52 time=119.513 ms
ping_5  | 64 bytes from 103.41.63.43: seq=11 ttl=52 time=119.196 ms
ping_1  | 64 bytes from 103.41.63.43: seq=15 ttl=52 time=119.580 ms
ping_14 | 64 bytes from 103.41.63.43: seq=2 ttl=52 time=119.437 ms
ping_11 | 64 bytes from 103.41.63.43: seq=1 ttl=52 time=119.601 ms
ping_15 | 64 bytes from 103.41.63.43: seq=17 ttl=52 time=119.380 ms
ping_5  | 64 bytes from 103.41.63.43: seq=12 ttl=52 time=120.177 ms
ping_1  | 64 bytes from 103.41.63.43: seq=16 ttl=52 time=119.289 ms
ping_15 | 64 bytes from 103.41.63.43: seq=18 ttl=52 time=119.444 ms
ping_11 | 64 bytes from 103.41.63.43: seq=2 ttl=52 time=119.510 ms
ping_11 | 64 bytes from 103.41.63.43: seq=3 ttl=52 time=119.605 ms
ping_15 | 64 bytes from 103.41.63.43: seq=19 ttl=52 time=119.391 ms
ping_1  | 64 bytes from 103.41.63.43: seq=17 ttl=52 time=119.352 ms
ping_14 | 64 bytes from 103.41.63.43: seq=3 ttl=52 time=119.450 ms
ping_10 | 64 bytes from 103.41.63.43: seq=0 ttl=52 time=119.490 ms
ping_15 | 64 bytes from 103.41.63.43: seq=20 ttl=52 time=119.386 ms
ping_5  | 64 bytes from 103.41.63.43: seq=13 ttl=52 time=119.264 ms
ping_1  | 64 bytes from 103.41.63.43: seq=18 ttl=52 time=119.382 ms
ping_14 | 64 bytes from 103.41.63.43: seq=4 ttl=52 time=119.399 ms
ping_15 | 64 bytes from 103.41.63.43: seq=21 ttl=52 time=119.615 ms
ping_11 | 64 bytes from 103.41.63.43: seq=4 ttl=52 time=119.392 ms
ping_1  | 64 bytes from 103.41.63.43: seq=19 ttl=52 time=119.320 ms
ping_10 | 64 bytes from 103.41.63.43: seq=1 ttl=52 time=119.213 ms
ping_15 | 64 bytes from 103.41.63.43: seq=22 ttl=52 time=119.225 ms
ping_16 | PING speedtest.softether.co.jp (103.41.63.43): 56 data bytes
ping_14 | 64 bytes from 103.41.63.43: seq=5 ttl=52 time=119.767 ms
ping_15 | 64 bytes from 103.41.63.43: seq=23 ttl=52 time=119.646 ms
ping_11 | 64 bytes from 103.41.63.43: seq=5 ttl=52 time=119.412 ms
ping_10 | 64 bytes from 103.41.63.43: seq=2 ttl=52 time=119.417 ms
ping_17 | PING speedtest.softether.co.jp (103.41.63.43): 56 data bytes
ping_15 | 64 bytes from 103.41.63.43: seq=24 ttl=52 time=119.702 ms
ping_15 | 
ping_15 | --- speedtest.softether.co.jp ping statistics ---
ping_15 | 25 packets transmitted, 25 packets received, 0% packet loss
ping_15 | round-trip min/avg/max = 119.145/119.453/119.770 ms
ping_12 | PING speedtest.softether.co.jp (103.41.63.43): 56 data bytes
ping_14 | 64 bytes from 103.41.63.43: seq=6 ttl=52 time=119.614 ms
ping_10 | 64 bytes from 103.41.63.43: seq=3 ttl=52 time=119.713 ms
ping_11 | 64 bytes from 103.41.63.43: seq=6 ttl=52 time=119.275 ms
ping_5  | 64 bytes from 103.41.63.43: seq=14 ttl=52 time=119.151 ms
ping_17 | 64 bytes from 103.41.63.43: seq=0 ttl=52 time=119.275 ms
ping_1  | 64 bytes from 103.41.63.43: seq=20 ttl=52 time=119.291 ms
ping_14 | 64 bytes from 103.41.63.43: seq=7 ttl=52 time=119.512 ms
ping_16 | 64 bytes from 103.41.63.43: seq=0 ttl=52 time=119.466 ms
ping_7  | PING speedtest.softether.co.jp (103.41.63.43): 56 data bytes
ping_12 | 64 bytes from 103.41.63.43: seq=0 ttl=52 time=119.829 ms
ping_11 | 64 bytes from 103.41.63.43: seq=7 ttl=52 time=119.442 ms
ping_10 | 64 bytes from 103.41.63.43: seq=4 ttl=52 time=119.709 ms
ping_1  | 64 bytes from 103.41.63.43: seq=21 ttl=52 time=119.654 ms
ping_11 | 64 bytes from 103.41.63.43: seq=8 ttl=52 time=119.778 ms
ping_5  | 64 bytes from 103.41.63.43: seq=15 ttl=52 time=119.322 ms
ping_17 | 64 bytes from 103.41.63.43: seq=1 ttl=52 time=119.705 ms
ping_14 | 64 bytes from 103.41.63.43: seq=8 ttl=52 time=119.456 ms
ping_7  | 64 bytes from 103.41.63.43: seq=0 ttl=52 time=119.382 ms
softwareoverhead_ping_15 exited with code 0
ping_17 | 64 bytes from 103.41.63.43: seq=2 ttl=52 time=119.424 ms
ping_10 | 64 bytes from 103.41.63.43: seq=5 ttl=52 time=119.723 ms
ping_11 | 64 bytes from 103.41.63.43: seq=9 ttl=52 time=119.483 ms
ping_16 | 64 bytes from 103.41.63.43: seq=1 ttl=52 time=119.203 ms
ping_5  | 64 bytes from 103.41.63.43: seq=16 ttl=52 time=119.362 ms
ping_9  | PING speedtest.softether.co.jp (103.41.63.43): 56 data bytes
ping_17 | 64 bytes from 103.41.63.43: seq=3 ttl=52 time=119.403 ms
ping_8  | PING speedtest.softether.co.jp (103.41.63.43): 56 data bytes
ping_17 | 64 bytes from 103.41.63.43: seq=4 ttl=52 time=119.673 ms
ping_10 | 64 bytes from 103.41.63.43: seq=6 ttl=52 time=119.695 ms
ping_7  | 64 bytes from 103.41.63.43: seq=1 ttl=52 time=119.573 ms
ping_1  | 64 bytes from 103.41.63.43: seq=22 ttl=52 time=119.713 ms
ping_5  | 64 bytes from 103.41.63.43: seq=17 ttl=52 time=119.223 ms
ping_12 | 64 bytes from 103.41.63.43: seq=1 ttl=52 time=119.431 ms
ping_8  | 64 bytes from 103.41.63.43: seq=0 ttl=52 time=119.559 ms
ping_9  | 64 bytes from 103.41.63.43: seq=0 ttl=52 time=119.274 ms
ping_1  | 64 bytes from 103.41.63.43: seq=23 ttl=52 time=119.310 ms
ping_10 | 64 bytes from 103.41.63.43: seq=7 ttl=52 time=119.635 ms
ping_4  | PING speedtest.softether.co.jp (103.41.63.43): 56 data bytes
ping_16 | 64 bytes from 103.41.63.43: seq=2 ttl=52 time=119.437 ms
ping_11 | 64 bytes from 103.41.63.43: seq=10 ttl=52 time=119.123 ms
ping_1  | 64 bytes from 103.41.63.43: seq=24 ttl=52 time=119.555 ms
ping_1  | 
ping_1  | --- speedtest.softether.co.jp ping statistics ---
ping_1  | 25 packets transmitted, 25 packets received, 0% packet loss
ping_1  | round-trip min/avg/max = 119.171/119.461/119.754 ms
ping_16 | 64 bytes from 103.41.63.43: seq=3 ttl=52 time=119.376 ms
ping_9  | 64 bytes from 103.41.63.43: seq=1 ttl=52 time=119.573 ms
ping_10 | 64 bytes from 103.41.63.43: seq=8 ttl=52 time=119.378 ms
ping_17 | 64 bytes from 103.41.63.43: seq=5 ttl=52 time=119.663 ms
ping_14 | 64 bytes from 103.41.63.43: seq=9 ttl=52 time=119.304 ms
ping_8  | 64 bytes from 103.41.63.43: seq=1 ttl=52 time=119.636 ms
ping_5  | 64 bytes from 103.41.63.43: seq=18 ttl=52 time=119.192 ms
ping_4  | 64 bytes from 103.41.63.43: seq=0 ttl=52 time=119.679 ms
ping_12 | 64 bytes from 103.41.63.43: seq=2 ttl=52 time=119.493 ms
ping_5  | 64 bytes from 103.41.63.43: seq=19 ttl=52 time=119.710 ms
ping_14 | 64 bytes from 103.41.63.43: seq=10 ttl=52 time=119.460 ms
ping_16 | 64 bytes from 103.41.63.43: seq=4 ttl=52 time=119.730 ms
ping_10 | 64 bytes from 103.41.63.43: seq=9 ttl=52 time=119.712 ms
ping_8  | 64 bytes from 103.41.63.43: seq=2 ttl=52 time=119.268 ms
ping_11 | 64 bytes from 103.41.63.43: seq=11 ttl=52 time=119.201 ms
ping_7  | 64 bytes from 103.41.63.43: seq=2 ttl=52 time=119.332 ms
ping_10 | 64 bytes from 103.41.63.43: seq=10 ttl=52 time=119.185 ms
ping_9  | 64 bytes from 103.41.63.43: seq=2 ttl=52 time=119.367 ms
ping_5  | 64 bytes from 103.41.63.43: seq=20 ttl=52 time=119.267 ms
ping_11 | 64 bytes from 103.41.63.43: seq=12 ttl=52 time=119.533 ms
ping_7  | 64 bytes from 103.41.63.43: seq=3 ttl=52 time=119.386 ms
ping_10 | 64 bytes from 103.41.63.43: seq=11 ttl=52 time=119.207 ms
ping_4  | 64 bytes from 103.41.63.43: seq=1 ttl=52 time=119.727 ms
ping_9  | 64 bytes from 103.41.63.43: seq=3 ttl=52 time=119.455 ms
ping_16 | 64 bytes from 103.41.63.43: seq=5 ttl=52 time=119.213 ms
ping_14 | 64 bytes from 103.41.63.43: seq=11 ttl=52 time=125.710 ms
ping_10 | 64 bytes from 103.41.63.43: seq=12 ttl=52 time=119.159 ms
ping_8  | 64 bytes from 103.41.63.43: seq=3 ttl=52 time=119.306 ms
ping_7  | 64 bytes from 103.41.63.43: seq=4 ttl=52 time=119.230 ms
ping_9  | 64 bytes from 103.41.63.43: seq=4 ttl=52 time=119.702 ms
ping_10 | 64 bytes from 103.41.63.43: seq=13 ttl=52 time=119.263 ms
ping_5  | 64 bytes from 103.41.63.43: seq=21 ttl=52 time=119.699 ms
ping_7  | 64 bytes from 103.41.63.43: seq=5 ttl=52 time=119.580 ms
ping_11 | 64 bytes from 103.41.63.43: seq=13 ttl=52 time=119.264 ms
ping_8  | 64 bytes from 103.41.63.43: seq=4 ttl=52 time=119.183 ms
ping_14 | 64 bytes from 103.41.63.43: seq=12 ttl=52 time=119.327 ms
ping_9  | 64 bytes from 103.41.63.43: seq=5 ttl=52 time=119.375 ms
ping_5  | 64 bytes from 103.41.63.43: seq=22 ttl=52 time=119.225 ms
ping_14 | 64 bytes from 103.41.63.43: seq=13 ttl=52 time=119.615 ms
ping_17 | 64 bytes from 103.41.63.43: seq=6 ttl=52 time=119.875 ms
ping_16 | 64 bytes from 103.41.63.43: seq=6 ttl=52 time=119.438 ms
ping_4  | 64 bytes from 103.41.63.43: seq=2 ttl=52 time=119.245 ms
ping_12 | 64 bytes from 103.41.63.43: seq=3 ttl=52 time=119.779 ms
ping_11 | 64 bytes from 103.41.63.43: seq=14 ttl=52 time=119.229 ms
ping_8  | 64 bytes from 103.41.63.43: seq=5 ttl=52 time=119.618 ms
ping_5  | 64 bytes from 103.41.63.43: seq=23 ttl=52 time=119.179 ms
ping_9  | 64 bytes from 103.41.63.43: seq=6 ttl=52 time=119.730 ms
ping_10 | 64 bytes from 103.41.63.43: seq=14 ttl=52 time=119.203 ms
ping_14 | 64 bytes from 103.41.63.43: seq=14 ttl=52 time=119.383 ms
ping_16 | 64 bytes from 103.41.63.43: seq=7 ttl=52 time=119.589 ms
ping_9  | 64 bytes from 103.41.63.43: seq=7 ttl=52 time=119.153 ms
ping_16 | 64 bytes from 103.41.63.43: seq=8 ttl=52 time=119.574 ms
ping_12 | 64 bytes from 103.41.63.43: seq=4 ttl=52 time=119.670 ms
ping_14 | 64 bytes from 103.41.63.43: seq=15 ttl=52 time=119.490 ms
ping_11 | 64 bytes from 103.41.63.43: seq=15 ttl=52 time=119.590 ms
ping_8  | 64 bytes from 103.41.63.43: seq=6 ttl=52 time=119.716 ms
ping_17 | 64 bytes from 103.41.63.43: seq=7 ttl=52 time=119.694 ms
ping_7  | 64 bytes from 103.41.63.43: seq=6 ttl=52 time=119.312 ms
ping_10 | 64 bytes from 103.41.63.43: seq=15 ttl=52 time=119.365 ms
ping_9  | 64 bytes from 103.41.63.43: seq=8 ttl=52 time=119.211 ms
ping_19 | PING speedtest.softether.co.jp (103.41.63.43): 56 data bytes
ping_16 | 64 bytes from 103.41.63.43: seq=9 ttl=52 time=119.180 ms
ping_17 | 64 bytes from 103.41.63.43: seq=8 ttl=52 time=119.843 ms
ping_12 | 64 bytes from 103.41.63.43: seq=5 ttl=52 time=119.756 ms
ping_11 | 64 bytes from 103.41.63.43: seq=16 ttl=52 time=119.361 ms
ping_8  | 64 bytes from 103.41.63.43: seq=7 ttl=52 time=119.249 ms
ping_4  | 64 bytes from 103.41.63.43: seq=3 ttl=52 time=119.247 ms
ping_7  | 64 bytes from 103.41.63.43: seq=7 ttl=52 time=119.218 ms
ping_17 | 64 bytes from 103.41.63.43: seq=9 ttl=52 time=122.288 ms
ping_18 | PING speedtest.softether.co.jp (103.41.63.43): 56 data bytes
ping_4  | 64 bytes from 103.41.63.43: seq=4 ttl=52 time=119.437 ms
ping_19 | 64 bytes from 103.41.63.43: seq=0 ttl=52 time=119.478 ms
ping_10 | 64 bytes from 103.41.63.43: seq=16 ttl=52 time=119.310 ms
ping_9  | 64 bytes from 103.41.63.43: seq=9 ttl=52 time=119.343 ms
ping_8  | 64 bytes from 103.41.63.43: seq=8 ttl=52 time=119.244 ms
ping_12 | 64 bytes from 103.41.63.43: seq=6 ttl=52 time=119.535 ms
ping_19 | 64 bytes from 103.41.63.43: seq=1 ttl=52 time=119.188 ms
ping_11 | 64 bytes from 103.41.63.43: seq=17 ttl=52 time=119.514 ms
ping_4  | 64 bytes from 103.41.63.43: seq=5 ttl=52 time=119.562 ms
ping_16 | 64 bytes from 103.41.63.43: seq=10 ttl=52 time=119.283 ms
softwareoverhead_ping_1 exited with code 0
ping_14 | 64 bytes from 103.41.63.43: seq=16 ttl=52 time=119.450 ms
ping_17 | 64 bytes from 103.41.63.43: seq=10 ttl=52 time=119.383 ms
ping_7  | 64 bytes from 103.41.63.43: seq=8 ttl=52 time=119.111 ms
ping_9  | 64 bytes from 103.41.63.43: seq=10 ttl=52 time=119.500 ms
ping_18 | 64 bytes from 103.41.63.43: seq=0 ttl=52 time=119.254 ms
ping_13 | PING speedtest.softether.co.jp (103.41.63.43): 56 data bytes
ping_12 | 64 bytes from 103.41.63.43: seq=7 ttl=52 time=119.673 ms
ping_10 | 64 bytes from 103.41.63.43: seq=17 ttl=52 time=119.392 ms
ping_4  | 64 bytes from 103.41.63.43: seq=6 ttl=52 time=119.559 ms
ping_9  | 64 bytes from 103.41.63.43: seq=11 ttl=52 time=119.324 ms
ping_11 | 64 bytes from 103.41.63.43: seq=18 ttl=52 time=119.344 ms
ping_8  | 64 bytes from 103.41.63.43: seq=9 ttl=52 time=119.191 ms
ping_16 | 64 bytes from 103.41.63.43: seq=11 ttl=52 time=119.210 ms
ping_12 | 64 bytes from 103.41.63.43: seq=8 ttl=52 time=119.214 ms
ping_14 | 64 bytes from 103.41.63.43: seq=17 ttl=52 time=119.517 ms
ping_18 | 64 bytes from 103.41.63.43: seq=1 ttl=52 time=119.275 ms
ping_19 | 64 bytes from 103.41.63.43: seq=2 ttl=52 time=119.488 ms
ping_8  | 64 bytes from 103.41.63.43: seq=10 ttl=52 time=119.221 ms
ping_7  | 64 bytes from 103.41.63.43: seq=9 ttl=52 time=119.209 ms
ping_10 | 64 bytes from 103.41.63.43: seq=18 ttl=52 time=119.300 ms
ping_8  | 64 bytes from 103.41.63.43: seq=11 ttl=52 time=119.621 ms
ping_13 | 64 bytes from 103.41.63.43: seq=0 ttl=52 time=119.288 ms
ping_16 | 64 bytes from 103.41.63.43: seq=12 ttl=52 time=119.641 ms
ping_11 | 64 bytes from 103.41.63.43: seq=19 ttl=52 time=119.659 ms
ping_4  | 64 bytes from 103.41.63.43: seq=7 ttl=52 time=119.258 ms
ping_9  | 64 bytes from 103.41.63.43: seq=12 ttl=52 time=119.345 ms
ping_20 | PING speedtest.softether.co.jp (103.41.63.43): 56 data bytes
ping_18 | 64 bytes from 103.41.63.43: seq=2 ttl=52 time=119.693 ms
ping_13 | 64 bytes from 103.41.63.43: seq=1 ttl=52 time=119.314 ms
ping_14 | 64 bytes from 103.41.63.43: seq=18 ttl=52 time=119.608 ms
ping_17 | 64 bytes from 103.41.63.43: seq=11 ttl=52 time=119.146 ms
ping_12 | 64 bytes from 103.41.63.43: seq=9 ttl=52 time=119.180 ms
ping_4  | 64 bytes from 103.41.63.43: seq=8 ttl=52 time=119.250 ms
ping_9  | 64 bytes from 103.41.63.43: seq=13 ttl=52 time=119.481 ms
ping_10 | 64 bytes from 103.41.63.43: seq=19 ttl=52 time=119.428 ms
ping_8  | 64 bytes from 103.41.63.43: seq=12 ttl=52 time=119.196 ms
ping_4  | 64 bytes from 103.41.63.43: seq=9 ttl=52 time=119.404 ms
ping_14 | 64 bytes from 103.41.63.43: seq=19 ttl=52 time=119.555 ms
ping_13 | 64 bytes from 103.41.63.43: seq=2 ttl=52 time=119.685 ms
ping_12 | 64 bytes from 103.41.63.43: seq=10 ttl=52 time=120.101 ms
ping_17 | 64 bytes from 103.41.63.43: seq=12 ttl=52 time=119.560 ms
ping_9  | 64 bytes from 103.41.63.43: seq=14 ttl=52 time=119.418 ms
ping_19 | 64 bytes from 103.41.63.43: seq=3 ttl=52 time=119.618 ms
ping_11 | 64 bytes from 103.41.63.43: seq=20 ttl=52 time=119.342 ms
ping_4  | 64 bytes from 103.41.63.43: seq=10 ttl=52 time=119.321 ms
ping_16 | 64 bytes from 103.41.63.43: seq=13 ttl=52 time=119.228 ms
ping_14 | 64 bytes from 103.41.63.43: seq=20 ttl=52 time=119.805 ms
ping_18 | 64 bytes from 103.41.63.43: seq=3 ttl=52 time=119.799 ms
ping_11 | 64 bytes from 103.41.63.43: seq=21 ttl=52 time=119.494 ms
ping_2  | PING speedtest.softether.co.jp (103.41.63.43): 56 data bytes
ping_17 | 64 bytes from 103.41.63.43: seq=13 ttl=52 time=119.212 ms
ping_12 | 64 bytes from 103.41.63.43: seq=11 ttl=52 time=119.562 ms
ping_8  | 64 bytes from 103.41.63.43: seq=13 ttl=52 time=119.489 ms
ping_10 | 64 bytes from 103.41.63.43: seq=20 ttl=52 time=119.745 ms
ping_9  | 64 bytes from 103.41.63.43: seq=15 ttl=52 time=119.619 ms
ping_16 | 64 bytes from 103.41.63.43: seq=14 ttl=52 time=119.662 ms
ping_20 | 64 bytes from 103.41.63.43: seq=0 ttl=52 time=119.276 ms
ping_19 | 64 bytes from 103.41.63.43: seq=4 ttl=52 time=119.201 ms
ping_4  | 64 bytes from 103.41.63.43: seq=11 ttl=52 time=119.228 ms
ping_9  | 64 bytes from 103.41.63.43: seq=16 ttl=52 time=119.534 ms
ping_11 | 64 bytes from 103.41.63.43: seq=22 ttl=52 time=119.337 ms
ping_13 | 64 bytes from 103.41.63.43: seq=3 ttl=52 time=119.302 ms
ping_19 | 64 bytes from 103.41.63.43: seq=5 ttl=52 time=119.267 ms
ping_2  | 64 bytes from 103.41.63.43: seq=0 ttl=52 time=119.188 ms
ping_14 | 64 bytes from 103.41.63.43: seq=21 ttl=52 time=119.589 ms
ping_8  | 64 bytes from 103.41.63.43: seq=14 ttl=52 time=119.347 ms
ping_7  | 64 bytes from 103.41.63.43: seq=10 ttl=52 time=119.310 ms
ping_11 | 64 bytes from 103.41.63.43: seq=23 ttl=52 time=119.357 ms
ping_17 | 64 bytes from 103.41.63.43: seq=14 ttl=52 time=119.608 ms
ping_12 | 64 bytes from 103.41.63.43: seq=12 ttl=52 time=119.291 ms
ping_4  | 64 bytes from 103.41.63.43: seq=12 ttl=52 time=119.296 ms
ping_16 | 64 bytes from 103.41.63.43: seq=15 ttl=52 time=119.344 ms
ping_19 | 64 bytes from 103.41.63.43: seq=6 ttl=52 time=119.124 ms
ping_3  | PING speedtest.softether.co.jp (103.41.63.43): 56 data bytes
ping_9  | 64 bytes from 103.41.63.43: seq=17 ttl=52 time=119.403 ms
ping_2  | 64 bytes from 103.41.63.43: seq=1 ttl=52 time=119.643 ms
ping_4  | 64 bytes from 103.41.63.43: seq=13 ttl=52 time=119.287 ms
ping_18 | 64 bytes from 103.41.63.43: seq=4 ttl=52 time=119.404 ms
ping_8  | 64 bytes from 103.41.63.43: seq=15 ttl=52 time=119.528 ms
ping_5  | 64 bytes from 103.41.63.43: seq=24 ttl=52 time=119.234 ms
ping_5  | 
ping_5  | --- speedtest.softether.co.jp ping statistics ---
ping_5  | 25 packets transmitted, 25 packets received, 0% packet loss
ping_5  | round-trip min/avg/max = 119.151/119.521/121.542 ms
ping_12 | 64 bytes from 103.41.63.43: seq=13 ttl=52 time=119.582 ms
ping_7  | 64 bytes from 103.41.63.43: seq=11 ttl=52 time=119.780 ms
ping_20 | 64 bytes from 103.41.63.43: seq=1 ttl=52 time=119.210 ms
ping_14 | 64 bytes from 103.41.63.43: seq=22 ttl=52 time=119.527 ms
ping_18 | 64 bytes from 103.41.63.43: seq=5 ttl=52 time=119.413 ms
ping_12 | 64 bytes from 103.41.63.43: seq=14 ttl=52 time=119.563 ms
ping_2  | 64 bytes from 103.41.63.43: seq=2 ttl=52 time=119.104 ms
ping_17 | 64 bytes from 103.41.63.43: seq=15 ttl=52 time=119.273 ms
ping_8  | 64 bytes from 103.41.63.43: seq=16 ttl=52 time=119.448 ms
ping_19 | 64 bytes from 103.41.63.43: seq=7 ttl=52 time=119.765 ms
ping_13 | 64 bytes from 103.41.63.43: seq=4 ttl=52 time=119.381 ms
ping_10 | 64 bytes from 103.41.63.43: seq=21 ttl=52 time=119.703 ms
ping_4  | 64 bytes from 103.41.63.43: seq=14 ttl=52 time=119.307 ms
ping_16 | 64 bytes from 103.41.63.43: seq=16 ttl=52 time=119.376 ms
ping_9  | 64 bytes from 103.41.63.43: seq=18 ttl=52 time=119.657 ms
ping_6  | PING speedtest.softether.co.jp (103.41.63.43): 56 data bytes
ping_18 | 64 bytes from 103.41.63.43: seq=6 ttl=52 time=119.170 ms
ping_8  | 64 bytes from 103.41.63.43: seq=17 ttl=52 time=119.375 ms
ping_7  | 64 bytes from 103.41.63.43: seq=12 ttl=52 time=119.208 ms
ping_24 | PING speedtest.softether.co.jp (103.41.63.43): 56 data bytes
ping_3  | 64 bytes from 103.41.63.43: seq=0 ttl=52 time=119.507 ms
ping_19 | 64 bytes from 103.41.63.43: seq=8 ttl=52 time=119.283 ms
ping_14 | 64 bytes from 103.41.63.43: seq=23 ttl=52 time=119.642 ms
ping_8  | 64 bytes from 103.41.63.43: seq=18 ttl=52 time=119.349 ms
ping_13 | 64 bytes from 103.41.63.43: seq=5 ttl=52 time=119.209 ms
ping_16 | 64 bytes from 103.41.63.43: seq=17 ttl=52 time=119.379 ms
ping_35 | PING speedtest.softether.co.jp (103.41.63.43): 56 data bytes
ping_12 | 64 bytes from 103.41.63.43: seq=15 ttl=52 time=119.653 ms
ping_20 | 64 bytes from 103.41.63.43: seq=2 ttl=52 time=119.422 ms
ping_7  | 64 bytes from 103.41.63.43: seq=13 ttl=52 time=119.572 ms
ping_9  | 64 bytes from 103.41.63.43: seq=19 ttl=52 time=119.663 ms
ping_2  | 64 bytes from 103.41.63.43: seq=3 ttl=52 time=119.204 ms
ping_12 | 64 bytes from 103.41.63.43: seq=16 ttl=52 time=119.289 ms
ping_13 | 64 bytes from 103.41.63.43: seq=6 ttl=52 time=120.975 ms
ping_17 | 64 bytes from 103.41.63.43: seq=16 ttl=52 time=119.390 ms
ping_27 | PING speedtest.softether.co.jp (103.41.63.43): 56 data bytes
ping_6  | 64 bytes from 103.41.63.43: seq=0 ttl=52 time=119.155 ms
ping_9  | 64 bytes from 103.41.63.43: seq=20 ttl=52 time=120.776 ms
ping_24 | 64 bytes from 103.41.63.43: seq=0 ttl=52 time=119.196 ms
ping_18 | 64 bytes from 103.41.63.43: seq=7 ttl=52 time=119.257 ms
ping_24 | 64 bytes from 103.41.63.43: seq=1 ttl=52 time=119.281 ms
ping_25 | PING speedtest.softether.co.jp (103.41.63.43): 56 data bytes
ping_2  | 64 bytes from 103.41.63.43: seq=4 ttl=52 time=119.164 ms
ping_10 | 64 bytes from 103.41.63.43: seq=22 ttl=52 time=119.455 ms
ping_17 | 64 bytes from 103.41.63.43: seq=17 ttl=52 time=119.790 ms
ping_27 | 64 bytes from 103.41.63.43: seq=0 ttl=52 time=119.484 ms
ping_12 | 64 bytes from 103.41.63.43: seq=17 ttl=52 time=119.760 ms
ping_20 | 64 bytes from 103.41.63.43: seq=3 ttl=52 time=119.220 ms
ping_13 | 64 bytes from 103.41.63.43: seq=7 ttl=52 time=119.618 ms
ping_2  | 64 bytes from 103.41.63.43: seq=5 ttl=52 time=119.682 ms
ping_8  | 64 bytes from 103.41.63.43: seq=19 ttl=52 time=119.451 ms
ping_18 | 64 bytes from 103.41.63.43: seq=8 ttl=52 time=119.564 ms
ping_6  | 64 bytes from 103.41.63.43: seq=1 ttl=52 time=121.542 ms
ping_12 | 64 bytes from 103.41.63.43: seq=18 ttl=52 time=119.513 ms
ping_17 | 64 bytes from 103.41.63.43: seq=18 ttl=52 time=119.818 ms
ping_27 | 64 bytes from 103.41.63.43: seq=1 ttl=52 time=119.744 ms
ping_25 | 64 bytes from 103.41.63.43: seq=0 ttl=52 time=119.474 ms
ping_10 | 64 bytes from 103.41.63.43: seq=23 ttl=52 time=119.323 ms
ping_4  | 64 bytes from 103.41.63.43: seq=15 ttl=52 time=119.306 ms
ping_3  | 64 bytes from 103.41.63.43: seq=1 ttl=52 time=119.187 ms
ping_20 | 64 bytes from 103.41.63.43: seq=4 ttl=52 time=119.239 ms
ping_20 | 64 bytes from 103.41.63.43: seq=5 ttl=52 time=119.443 ms
ping_19 | 64 bytes from 103.41.63.43: seq=9 ttl=52 time=119.164 ms
ping_35 | 64 bytes from 103.41.63.43: seq=0 ttl=52 time=119.474 ms
ping_20 | 64 bytes from 103.41.63.43: seq=6 ttl=52 time=119.370 ms
ping_18 | 64 bytes from 103.41.63.43: seq=9 ttl=52 time=119.316 ms
ping_24 | 64 bytes from 103.41.63.43: seq=2 ttl=52 time=119.349 ms
ping_2  | 64 bytes from 103.41.63.43: seq=6 ttl=52 time=119.474 ms
ping_25 | 64 bytes from 103.41.63.43: seq=1 ttl=52 time=119.776 ms
ping_4  | 64 bytes from 103.41.63.43: seq=16 ttl=52 time=119.403 ms
ping_27 | 64 bytes from 103.41.63.43: seq=2 ttl=52 time=119.740 ms
ping_12 | 64 bytes from 103.41.63.43: seq=19 ttl=52 time=119.690 ms
ping_3  | 64 bytes from 103.41.63.43: seq=2 ttl=52 time=119.141 ms
ping_16 | 64 bytes from 103.41.63.43: seq=18 ttl=52 time=119.464 ms
ping_13 | 64 bytes from 103.41.63.43: seq=8 ttl=52 time=119.260 ms
ping_35 | 64 bytes from 103.41.63.43: seq=1 ttl=52 time=119.371 ms
ping_20 | 64 bytes from 103.41.63.43: seq=7 ttl=52 time=120.916 ms
ping_6  | 64 bytes from 103.41.63.43: seq=2 ttl=52 time=119.115 ms
ping_7  | 64 bytes from 103.41.63.43: seq=14 ttl=52 time=119.290 ms
ping_25 | 64 bytes from 103.41.63.43: seq=2 ttl=52 time=119.805 ms
ping_16 | 64 bytes from 103.41.63.43: seq=19 ttl=52 time=119.255 ms
ping_18 | 64 bytes from 103.41.63.43: seq=10 ttl=52 time=119.577 ms
ping_25 | 64 bytes from 103.41.63.43: seq=3 ttl=52 time=119.769 ms
ping_8  | 64 bytes from 103.41.63.43: seq=20 ttl=52 time=119.313 ms
ping_3  | 64 bytes from 103.41.63.43: seq=3 ttl=52 time=124.839 ms
ping_2  | 64 bytes from 103.41.63.43: seq=7 ttl=52 time=119.715 ms
ping_13 | 64 bytes from 103.41.63.43: seq=9 ttl=52 time=119.201 ms
ping_7  | 64 bytes from 103.41.63.43: seq=15 ttl=52 time=119.262 ms
ping_20 | 64 bytes from 103.41.63.43: seq=8 ttl=52 time=119.590 ms
ping_17 | 64 bytes from 103.41.63.43: seq=19 ttl=52 time=119.848 ms
ping_6  | 64 bytes from 103.41.63.43: seq=3 ttl=52 time=119.381 ms
ping_8  | 64 bytes from 103.41.63.43: seq=21 ttl=52 time=119.369 ms
ping_18 | 64 bytes from 103.41.63.43: seq=11 ttl=52 time=119.773 ms
ping_25 | 64 bytes from 103.41.63.43: seq=4 ttl=52 time=119.743 ms
ping_2  | 64 bytes from 103.41.63.43: seq=8 ttl=52 time=119.468 ms
ping_24 | 64 bytes from 103.41.63.43: seq=3 ttl=52 time=119.622 ms
ping_27 | 64 bytes from 103.41.63.43: seq=3 ttl=52 time=119.363 ms
ping_12 | 64 bytes from 103.41.63.43: seq=20 ttl=52 time=119.462 ms
ping_25 | 64 bytes from 103.41.63.43: seq=5 ttl=52 time=119.672 ms
ping_20 | 64 bytes from 103.41.63.43: seq=9 ttl=52 time=119.402 ms
ping_4  | 64 bytes from 103.41.63.43: seq=17 ttl=52 time=119.383 ms
ping_35 | 64 bytes from 103.41.63.43: seq=2 ttl=52 time=119.495 ms
ping_2  | 64 bytes from 103.41.63.43: seq=9 ttl=52 time=119.575 ms
ping_7  | 64 bytes from 103.41.63.43: seq=16 ttl=52 time=119.297 ms
ping_3  | 64 bytes from 103.41.63.43: seq=4 ttl=52 time=119.660 ms
ping_19 | 64 bytes from 103.41.63.43: seq=10 ttl=52 time=119.321 ms
ping_21 | PING speedtest.softether.co.jp (103.41.63.43): 56 data bytes
ping_24 | 64 bytes from 103.41.63.43: seq=4 ttl=52 time=119.688 ms
ping_20 | 64 bytes from 103.41.63.43: seq=10 ttl=52 time=119.239 ms
ping_24 | 64 bytes from 103.41.63.43: seq=5 ttl=52 time=119.522 ms
ping_20 | 64 bytes from 103.41.63.43: seq=11 ttl=52 time=119.372 ms
ping_6  | 64 bytes from 103.41.63.43: seq=4 ttl=52 time=119.382 ms
ping_3  | 64 bytes from 103.41.63.43: seq=5 ttl=52 time=119.286 ms
ping_27 | 64 bytes from 103.41.63.43: seq=4 ttl=52 time=119.163 ms
ping_16 | 64 bytes from 103.41.63.43: seq=20 ttl=52 time=119.369 ms
ping_4  | 64 bytes from 103.41.63.43: seq=18 ttl=52 time=121.810 ms
ping_34 | PING speedtest.softether.co.jp (103.41.63.43): 56 data bytes
ping_18 | 64 bytes from 103.41.63.43: seq=12 ttl=52 time=119.334 ms
ping_17 | 64 bytes from 103.41.63.43: seq=20 ttl=52 time=119.734 ms
ping_19 | 64 bytes from 103.41.63.43: seq=11 ttl=52 time=119.207 ms
ping_7  | 64 bytes from 103.41.63.43: seq=17 ttl=52 time=119.278 ms
ping_3  | 64 bytes from 103.41.63.43: seq=6 ttl=52 time=119.514 ms
ping_27 | 64 bytes from 103.41.63.43: seq=5 ttl=52 time=119.443 ms
ping_4  | 64 bytes from 103.41.63.43: seq=19 ttl=52 time=119.338 ms
ping_6  | 64 bytes from 103.41.63.43: seq=5 ttl=52 time=119.367 ms
ping_13 | 64 bytes from 103.41.63.43: seq=10 ttl=52 time=119.297 ms
ping_20 | 64 bytes from 103.41.63.43: seq=12 ttl=52 time=119.635 ms
ping_18 | 64 bytes from 103.41.63.43: seq=13 ttl=52 time=119.610 ms
ping_16 | 64 bytes from 103.41.63.43: seq=21 ttl=52 time=119.240 ms
ping_17 | 64 bytes from 103.41.63.43: seq=21 ttl=52 time=119.785 ms
ping_34 | 64 bytes from 103.41.63.43: seq=0 ttl=52 time=119.288 ms
ping_7  | 64 bytes from 103.41.63.43: seq=18 ttl=52 time=119.376 ms
ping_3  | 64 bytes from 103.41.63.43: seq=7 ttl=52 time=119.285 ms
ping_19 | 64 bytes from 103.41.63.43: seq=12 ttl=52 time=119.210 ms
ping_13 | 64 bytes from 103.41.63.43: seq=11 ttl=52 time=119.244 ms
ping_20 | 64 bytes from 103.41.63.43: seq=13 ttl=52 time=119.492 ms
ping_6  | 64 bytes from 103.41.63.43: seq=6 ttl=52 time=119.335 ms
ping_24 | 64 bytes from 103.41.63.43: seq=6 ttl=52 time=119.464 ms
ping_18 | 64 bytes from 103.41.63.43: seq=14 ttl=52 time=119.560 ms
ping_16 | 64 bytes from 103.41.63.43: seq=22 ttl=52 time=119.271 ms
ping_21 | 64 bytes from 103.41.63.43: seq=0 ttl=52 time=119.332 ms
ping_4  | 64 bytes from 103.41.63.43: seq=20 ttl=52 time=119.610 ms
ping_25 | 64 bytes from 103.41.63.43: seq=6 ttl=52 time=119.458 ms
ping_17 | 64 bytes from 103.41.63.43: seq=22 ttl=52 time=119.598 ms
ping_20 | 64 bytes from 103.41.63.43: seq=14 ttl=52 time=119.623 ms
ping_35 | 64 bytes from 103.41.63.43: seq=3 ttl=52 time=119.485 ms
ping_18 | 64 bytes from 103.41.63.43: seq=15 ttl=52 time=119.763 ms
ping_7  | 64 bytes from 103.41.63.43: seq=19 ttl=52 time=119.536 ms
ping_32 | PING speedtest.softether.co.jp (103.41.63.43): 56 data bytes
ping_3  | 64 bytes from 103.41.63.43: seq=8 ttl=52 time=119.538 ms
ping_34 | 64 bytes from 103.41.63.43: seq=1 ttl=52 time=119.442 ms
ping_27 | 64 bytes from 103.41.63.43: seq=6 ttl=52 time=119.330 ms
ping_21 | 64 bytes from 103.41.63.43: seq=1 ttl=52 time=119.790 ms
ping_2  | 64 bytes from 103.41.63.43: seq=10 ttl=52 time=119.312 ms
ping_20 | 64 bytes from 103.41.63.43: seq=15 ttl=52 time=119.517 ms
ping_13 | 64 bytes from 103.41.63.43: seq=12 ttl=52 time=119.252 ms
ping_7  | 64 bytes from 103.41.63.43: seq=20 ttl=52 time=119.343 ms
ping_32 | 64 bytes from 103.41.63.43: seq=0 ttl=52 time=119.406 ms
ping_27 | 64 bytes from 103.41.63.43: seq=7 ttl=52 time=119.407 ms
ping_2  | 64 bytes from 103.41.63.43: seq=11 ttl=52 time=119.381 ms
ping_12 | 64 bytes from 103.41.63.43: seq=21 ttl=52 time=119.248 ms
ping_7  | 64 bytes from 103.41.63.43: seq=21 ttl=52 time=119.401 ms
ping_21 | 64 bytes from 103.41.63.43: seq=2 ttl=52 time=119.188 ms
ping_20 | 64 bytes from 103.41.63.43: seq=16 ttl=52 time=119.158 ms
ping_18 | 64 bytes from 103.41.63.43: seq=16 ttl=52 time=119.260 ms
ping_27 | 64 bytes from 103.41.63.43: seq=8 ttl=52 time=119.281 ms
ping_3  | 64 bytes from 103.41.63.43: seq=9 ttl=52 time=119.352 ms
ping_2  | 64 bytes from 103.41.63.43: seq=12 ttl=52 time=119.317 ms
ping_34 | 64 bytes from 103.41.63.43: seq=2 ttl=52 time=119.646 ms
ping_25 | 64 bytes from 103.41.63.43: seq=7 ttl=52 time=119.198 ms
ping_20 | 64 bytes from 103.41.63.43: seq=17 ttl=52 time=119.147 ms
ping_6  | 64 bytes from 103.41.63.43: seq=7 ttl=52 time=119.636 ms
ping_24 | 64 bytes from 103.41.63.43: seq=7 ttl=52 time=119.703 ms
ping_32 | 64 bytes from 103.41.63.43: seq=1 ttl=52 time=119.298 ms
ping_13 | 64 bytes from 103.41.63.43: seq=13 ttl=52 time=119.761 ms
ping_19 | 64 bytes from 103.41.63.43: seq=13 ttl=52 time=119.131 ms
ping_35 | 64 bytes from 103.41.63.43: seq=4 ttl=52 time=119.361 ms
ping_21 | 64 bytes from 103.41.63.43: seq=3 ttl=52 time=119.550 ms
ping_26 | PING speedtest.softether.co.jp (103.41.63.43): 56 data bytes
ping_18 | 64 bytes from 103.41.63.43: seq=17 ttl=52 time=119.668 ms
ping_19 | 64 bytes from 103.41.63.43: seq=14 ttl=52 time=119.325 ms
ping_2  | 64 bytes from 103.41.63.43: seq=13 ttl=52 time=119.311 ms
ping_34 | 64 bytes from 103.41.63.43: seq=3 ttl=52 time=119.315 ms
ping_25 | 64 bytes from 103.41.63.43: seq=8 ttl=52 time=119.420 ms
ping_13 | 64 bytes from 103.41.63.43: seq=14 ttl=52 time=119.223 ms
ping_6  | 64 bytes from 103.41.63.43: seq=8 ttl=52 time=119.258 ms
ping_24 | 64 bytes from 103.41.63.43: seq=8 ttl=52 time=119.919 ms
ping_35 | 64 bytes from 103.41.63.43: seq=5 ttl=52 time=119.283 ms
ping_2  | 64 bytes from 103.41.63.43: seq=14 ttl=52 time=119.676 ms
ping_27 | 64 bytes from 103.41.63.43: seq=9 ttl=52 time=119.267 ms
ping_3  | 64 bytes from 103.41.63.43: seq=10 ttl=52 time=119.683 ms
ping_32 | 64 bytes from 103.41.63.43: seq=2 ttl=52 time=119.253 ms
ping_26 | 64 bytes from 103.41.63.43: seq=0 ttl=52 time=119.444 ms
ping_19 | 64 bytes from 103.41.63.43: seq=15 ttl=52 time=119.187 ms
ping_18 | 64 bytes from 103.41.63.43: seq=18 ttl=52 time=119.340 ms
ping_25 | 64 bytes from 103.41.63.43: seq=9 ttl=52 time=119.648 ms
ping_32 | 64 bytes from 103.41.63.43: seq=3 ttl=52 time=119.249 ms
ping_34 | 64 bytes from 103.41.63.43: seq=4 ttl=52 time=119.710 ms
ping_35 | 64 bytes from 103.41.63.43: seq=6 ttl=52 time=119.607 ms
ping_2  | 64 bytes from 103.41.63.43: seq=15 ttl=52 time=119.326 ms
ping_35 | 64 bytes from 103.41.63.43: seq=7 ttl=52 time=119.375 ms
ping_3  | 64 bytes from 103.41.63.43: seq=11 ttl=52 time=119.241 ms
ping_32 | 64 bytes from 103.41.63.43: seq=4 ttl=52 time=119.722 ms
ping_24 | 64 bytes from 103.41.63.43: seq=9 ttl=52 time=119.936 ms
ping_26 | 64 bytes from 103.41.63.43: seq=1 ttl=52 time=119.452 ms
ping_35 | 64 bytes from 103.41.63.43: seq=8 ttl=52 time=119.276 ms
ping_6  | 64 bytes from 103.41.63.43: seq=9 ttl=52 time=120.094 ms
ping_32 | 64 bytes from 103.41.63.43: seq=5 ttl=52 time=119.384 ms
ping_19 | 64 bytes from 103.41.63.43: seq=16 ttl=52 time=119.488 ms
ping_21 | 64 bytes from 103.41.63.43: seq=4 ttl=52 time=119.343 ms
ping_34 | 64 bytes from 103.41.63.43: seq=5 ttl=52 time=119.685 ms
ping_26 | 64 bytes from 103.41.63.43: seq=2 ttl=52 time=119.381 ms
ping_18 | 64 bytes from 103.41.63.43: seq=19 ttl=52 time=119.720 ms
ping_6  | 64 bytes from 103.41.63.43: seq=10 ttl=52 time=119.329 ms
ping_13 | 64 bytes from 103.41.63.43: seq=15 ttl=52 time=119.605 ms
ping_34 | 64 bytes from 103.41.63.43: seq=6 ttl=52 time=119.442 ms
ping_38 | PING speedtest.softether.co.jp (103.41.63.43): 56 data bytes
ping_24 | 64 bytes from 103.41.63.43: seq=10 ttl=52 time=119.798 ms
ping_19 | 64 bytes from 103.41.63.43: seq=17 ttl=52 time=119.291 ms
ping_21 | 64 bytes from 103.41.63.43: seq=5 ttl=52 time=119.773 ms
ping_3  | 64 bytes from 103.41.63.43: seq=12 ttl=52 time=119.642 ms
ping_25 | 64 bytes from 103.41.63.43: seq=10 ttl=52 time=119.354 ms
ping_35 | 64 bytes from 103.41.63.43: seq=9 ttl=52 time=119.310 ms
ping_26 | 64 bytes from 103.41.63.43: seq=3 ttl=52 time=119.347 ms
ping_32 | 64 bytes from 103.41.63.43: seq=6 ttl=52 time=119.428 ms
ping_38 | 64 bytes from 103.41.63.43: seq=0 ttl=52 time=119.378 ms
ping_21 | 64 bytes from 103.41.63.43: seq=6 ttl=52 time=119.487 ms
ping_3  | 64 bytes from 103.41.63.43: seq=13 ttl=52 time=119.287 ms
ping_33 | PING speedtest.softether.co.jp (103.41.63.43): 56 data bytes
ping_26 | 64 bytes from 103.41.63.43: seq=4 ttl=52 time=119.603 ms
ping_24 | 64 bytes from 103.41.63.43: seq=11 ttl=52 time=119.242 ms
ping_13 | 64 bytes from 103.41.63.43: seq=16 ttl=52 time=119.260 ms
ping_21 | 64 bytes from 103.41.63.43: seq=7 ttl=52 time=119.429 ms
ping_35 | 64 bytes from 103.41.63.43: seq=10 ttl=52 time=119.290 ms
ping_16 | 64 bytes from 103.41.63.43: seq=23 ttl=52 time=119.136 ms
ping_6  | 64 bytes from 103.41.63.43: seq=11 ttl=52 time=119.376 ms
ping_35 | 64 bytes from 103.41.63.43: seq=11 ttl=52 time=119.267 ms
ping_28 | PING speedtest.softether.co.jp (103.41.63.43): 56 data bytes
ping_32 | 64 bytes from 103.41.63.43: seq=7 ttl=52 time=119.264 ms
ping_3  | 64 bytes from 103.41.63.43: seq=14 ttl=52 time=119.233 ms
ping_38 | 64 bytes from 103.41.63.43: seq=1 ttl=52 time=119.367 ms
ping_34 | 64 bytes from 103.41.63.43: seq=7 ttl=52 time=119.414 ms
ping_21 | 64 bytes from 103.41.63.43: seq=8 ttl=52 time=119.411 ms
ping_13 | 64 bytes from 103.41.63.43: seq=17 ttl=52 time=119.300 ms
ping_26 | 64 bytes from 103.41.63.43: seq=5 ttl=52 time=119.386 ms
ping_33 | 64 bytes from 103.41.63.43: seq=0 ttl=52 time=119.474 ms
ping_37 | PING speedtest.softether.co.jp (103.41.63.43): 56 data bytes
ping_22 | PING speedtest.softether.co.jp (103.41.63.43): 56 data bytes
ping_32 | 64 bytes from 103.41.63.43: seq=8 ttl=52 time=119.135 ms
ping_34 | 64 bytes from 103.41.63.43: seq=8 ttl=52 time=119.619 ms
ping_37 | 64 bytes from 103.41.63.43: seq=0 ttl=52 time=119.261 ms
ping_13 | 64 bytes from 103.41.63.43: seq=18 ttl=52 time=119.228 ms
ping_26 | 64 bytes from 103.41.63.43: seq=6 ttl=52 time=119.479 ms
ping_6  | 64 bytes from 103.41.63.43: seq=12 ttl=52 time=119.593 ms
ping_21 | 64 bytes from 103.41.63.43: seq=9 ttl=52 time=119.421 ms
ping_19 | 64 bytes from 103.41.63.43: seq=18 ttl=52 time=119.088 ms
ping_34 | 64 bytes from 103.41.63.43: seq=9 ttl=52 time=119.350 ms
ping_33 | 64 bytes from 103.41.63.43: seq=1 ttl=52 time=119.273 ms
ping_28 | 64 bytes from 103.41.63.43: seq=0 ttl=52 time=119.327 ms
ping_37 | 64 bytes from 103.41.63.43: seq=1 ttl=52 time=119.263 ms
ping_33 | 64 bytes from 103.41.63.43: seq=2 ttl=52 time=119.651 ms
ping_32 | 64 bytes from 103.41.63.43: seq=9 ttl=52 time=119.173 ms
ping_26 | 64 bytes from 103.41.63.43: seq=7 ttl=52 time=119.367 ms
ping_38 | 64 bytes from 103.41.63.43: seq=2 ttl=52 time=119.244 ms
ping_19 | 64 bytes from 103.41.63.43: seq=19 ttl=52 time=119.253 ms
ping_22 | 64 bytes from 103.41.63.43: seq=0 ttl=52 time=119.274 ms
ping_38 | 64 bytes from 103.41.63.43: seq=3 ttl=52 time=119.630 ms
ping_37 | 64 bytes from 103.41.63.43: seq=2 ttl=52 time=119.398 ms
ping_26 | 64 bytes from 103.41.63.43: seq=8 ttl=52 time=119.511 ms
ping_6  | 64 bytes from 103.41.63.43: seq=13 ttl=52 time=119.299 ms
ping_22 | 64 bytes from 103.41.63.43: seq=1 ttl=52 time=119.218 ms
ping_28 | 64 bytes from 103.41.63.43: seq=1 ttl=52 time=119.398 ms
ping_38 | 64 bytes from 103.41.63.43: seq=4 ttl=52 time=119.306 ms
ping_33 | 64 bytes from 103.41.63.43: seq=3 ttl=52 time=119.341 ms
ping_37 | 64 bytes from 103.41.63.43: seq=3 ttl=52 time=119.280 ms
ping_31 | PING speedtest.softether.co.jp (103.41.63.43): 56 data bytes
ping_28 | 64 bytes from 103.41.63.43: seq=2 ttl=52 time=119.616 ms
ping_22 | 64 bytes from 103.41.63.43: seq=2 ttl=52 time=119.485 ms
ping_3  | 64 bytes from 103.41.63.43: seq=15 ttl=52 time=119.179 ms
ping_23 | PING speedtest.softether.co.jp (103.41.63.43): 56 data bytes
ping_22 | 64 bytes from 103.41.63.43: seq=3 ttl=52 time=119.409 ms
ping_38 | 64 bytes from 103.41.63.43: seq=5 ttl=52 time=119.611 ms
ping_28 | 64 bytes from 103.41.63.43: seq=3 ttl=52 time=119.785 ms
ping_23 | 64 bytes from 103.41.63.43: seq=0 ttl=52 time=119.296 ms
ping_30 | PING speedtest.softether.co.jp (103.41.63.43): 56 data bytes
ping_31 | 64 bytes from 103.41.63.43: seq=0 ttl=52 time=119.619 ms
ping_38 | 64 bytes from 103.41.63.43: seq=6 ttl=52 time=119.263 ms
ping_36 | PING speedtest.softether.co.jp (103.41.63.43): 56 data bytes
ping_28 | 64 bytes from 103.41.63.43: seq=4 ttl=52 time=119.672 ms
ping_22 | 64 bytes from 103.41.63.43: seq=4 ttl=52 time=119.445 ms
ping_31 | 64 bytes from 103.41.63.43: seq=1 ttl=52 time=119.618 ms
ping_37 | 64 bytes from 103.41.63.43: seq=4 ttl=52 time=119.558 ms
ping_36 | 64 bytes from 103.41.63.43: seq=0 ttl=52 time=119.630 ms
ping_30 | 64 bytes from 103.41.63.43: seq=0 ttl=52 time=119.248 ms
ping_31 | 64 bytes from 103.41.63.43: seq=2 ttl=52 time=119.622 ms
ping_33 | 64 bytes from 103.41.63.43: seq=4 ttl=52 time=119.335 ms
ping_23 | 64 bytes from 103.41.63.43: seq=1 ttl=52 time=119.595 ms
ping_37 | 64 bytes from 103.41.63.43: seq=5 ttl=52 time=119.287 ms
ping_28 | 64 bytes from 103.41.63.43: seq=5 ttl=52 time=119.742 ms
ping_39 | PING speedtest.softether.co.jp (103.41.63.43): 56 data bytes
ping_36 | 64 bytes from 103.41.63.43: seq=1 ttl=52 time=119.676 ms
ping_22 | 64 bytes from 103.41.63.43: seq=5 ttl=52 time=119.273 ms
ping_39 | 64 bytes from 103.41.63.43: seq=0 ttl=52 time=119.631 ms
ping_23 | 64 bytes from 103.41.63.43: seq=2 ttl=52 time=119.344 ms
ping_38 | 64 bytes from 103.41.63.43: seq=7 ttl=52 time=119.140 ms
ping_30 | 64 bytes from 103.41.63.43: seq=1 ttl=52 time=119.275 ms
ping_33 | 64 bytes from 103.41.63.43: seq=5 ttl=52 time=119.337 ms
ping_31 | 64 bytes from 103.41.63.43: seq=3 ttl=52 time=119.380 ms
ping_36 | 64 bytes from 103.41.63.43: seq=2 ttl=52 time=119.382 ms
ping_22 | 64 bytes from 103.41.63.43: seq=6 ttl=52 time=119.356 ms
ping_28 | 64 bytes from 103.41.63.43: seq=6 ttl=52 time=119.427 ms
ping_37 | 64 bytes from 103.41.63.43: seq=6 ttl=52 time=119.189 ms
ping_33 | 64 bytes from 103.41.63.43: seq=6 ttl=52 time=119.298 ms
ping_31 | 64 bytes from 103.41.63.43: seq=4 ttl=52 time=119.505 ms
ping_23 | 64 bytes from 103.41.63.43: seq=3 ttl=52 time=119.253 ms
ping_30 | 64 bytes from 103.41.63.43: seq=2 ttl=52 time=119.251 ms
ping_31 | 64 bytes from 103.41.63.43: seq=5 ttl=52 time=119.406 ms
ping_36 | 64 bytes from 103.41.63.43: seq=3 ttl=52 time=119.855 ms
ping_29 | PING speedtest.softether.co.jp (103.41.63.43): 56 data bytes
ping_36 | 64 bytes from 103.41.63.43: seq=4 ttl=52 time=119.196 ms
ping_39 | 64 bytes from 103.41.63.43: seq=1 ttl=52 time=119.424 ms
ping_29 | 64 bytes from 103.41.63.43: seq=0 ttl=52 time=119.602 ms
ping_33 | 64 bytes from 103.41.63.43: seq=7 ttl=52 time=119.679 ms
ping_36 | 64 bytes from 103.41.63.43: seq=5 ttl=52 time=119.356 ms
ping_40 | PING speedtest.softether.co.jp (103.41.63.43): 56 data bytes
ping_30 | 64 bytes from 103.41.63.43: seq=3 ttl=52 time=119.306 ms
ping_40 | 64 bytes from 103.41.63.43: seq=0 ttl=52 time=119.260 ms
ping_2  | 64 bytes from 103.41.63.43: seq=16 ttl=52 time=119.076 ms
ping_12 | 64 bytes from 103.41.63.43: seq=22 ttl=52 time=119.214 ms
ping_37 | 64 bytes from 103.41.63.43: seq=7 ttl=52 time=119.105 ms
ping_6  | 64 bytes from 103.41.63.43: seq=14 ttl=52 time=119.316 ms
ping_31 | 64 bytes from 103.41.63.43: seq=6 ttl=52 time=119.234 ms
ping_38 | 64 bytes from 103.41.63.43: seq=8 ttl=52 time=119.404 ms
ping_27 | 64 bytes from 103.41.63.43: seq=10 ttl=52 time=119.378 ms
ping_39 | 64 bytes from 103.41.63.43: seq=2 ttl=52 time=119.273 ms
ping_23 | 64 bytes from 103.41.63.43: seq=4 ttl=52 time=119.572 ms
ping_10 | 64 bytes from 103.41.63.43: seq=24 ttl=52 time=119.315 ms
ping_10 | 
ping_10 | --- speedtest.softether.co.jp ping statistics ---
ping_10 | 25 packets transmitted, 25 packets received, 0% packet loss
ping_10 | round-trip min/avg/max = 119.159/119.441/119.745 ms
ping_24 | 64 bytes from 103.41.63.43: seq=12 ttl=52 time=119.289 ms
ping_29 | 64 bytes from 103.41.63.43: seq=1 ttl=52 time=119.215 ms
ping_17 | 64 bytes from 103.41.63.43: seq=23 ttl=52 time=119.252 ms
softwareoverhead_ping_5 exited with code 0
ping_9  | 64 bytes from 103.41.63.43: seq=21 ttl=52 time=119.125 ms
ping_34 | 64 bytes from 103.41.63.43: seq=10 ttl=52 time=119.309 ms
ping_28 | 64 bytes from 103.41.63.43: seq=7 ttl=52 time=119.290 ms
ping_14 | 64 bytes from 103.41.63.43: seq=24 ttl=52 time=119.305 ms
ping_14 | 
ping_14 | --- speedtest.softether.co.jp ping statistics ---
ping_14 | 25 packets transmitted, 25 packets received, 0% packet loss
ping_14 | round-trip min/avg/max = 119.304/119.763/125.710 ms
ping_26 | 64 bytes from 103.41.63.43: seq=9 ttl=52 time=119.382 ms
softwareoverhead_ping_10 exited with code 0
ping_18 | 64 bytes from 103.41.63.43: seq=20 ttl=52 time=119.280 ms
ping_21 | 64 bytes from 103.41.63.43: seq=10 ttl=52 time=119.311 ms
ping_11 | 64 bytes from 103.41.63.43: seq=24 ttl=52 time=119.263 ms
ping_11 | 
ping_11 | --- speedtest.softether.co.jp ping statistics ---
ping_11 | 25 packets transmitted, 25 packets received, 0% packet loss
ping_11 | round-trip min/avg/max = 119.123/119.418/119.778 ms
ping_4  | 64 bytes from 103.41.63.43: seq=21 ttl=52 time=119.675 ms
ping_22 | 64 bytes from 103.41.63.43: seq=7 ttl=52 time=119.352 ms
ping_7  | 64 bytes from 103.41.63.43: seq=22 ttl=52 time=119.554 ms
ping_8  | 64 bytes from 103.41.63.43: seq=22 ttl=52 time=119.271 ms
ping_33 | 64 bytes from 103.41.63.43: seq=8 ttl=52 time=119.306 ms
ping_25 | 64 bytes from 103.41.63.43: seq=11 ttl=52 time=119.299 ms
ping_36 | 64 bytes from 103.41.63.43: seq=6 ttl=52 time=119.180 ms
softwareoverhead_ping_14 exited with code 0
ping_20 | 64 bytes from 103.41.63.43: seq=18 ttl=52 time=119.265 ms
ping_35 | 64 bytes from 103.41.63.43: seq=12 ttl=52 time=119.573 ms
ping_32 | 64 bytes from 103.41.63.43: seq=10 ttl=52 time=119.215 ms
ping_13 | 64 bytes from 103.41.63.43: seq=19 ttl=52 time=119.584 ms
ping_19 | 64 bytes from 103.41.63.43: seq=20 ttl=52 time=119.763 ms
ping_16 | 64 bytes from 103.41.63.43: seq=24 ttl=52 time=119.315 ms
ping_16 | 
ping_16 | --- speedtest.softether.co.jp ping statistics ---
ping_16 | 25 packets transmitted, 25 packets received, 0% packet loss
ping_16 | round-trip min/avg/max = 119.136/119.375/119.730 ms
ping_3  | 64 bytes from 103.41.63.43: seq=16 ttl=52 time=119.166 ms
ping_30 | 64 bytes from 103.41.63.43: seq=4 ttl=52 time=119.183 ms
ping_40 | 64 bytes from 103.41.63.43: seq=1 ttl=52 time=119.262 ms
ping_2  | 64 bytes from 103.41.63.43: seq=17 ttl=52 time=119.455 ms
ping_12 | 64 bytes from 103.41.63.43: seq=23 ttl=52 time=119.288 ms
ping_37 | 64 bytes from 103.41.63.43: seq=8 ttl=52 time=119.177 ms
ping_6  | 64 bytes from 103.41.63.43: seq=15 ttl=52 time=119.338 ms
ping_31 | 64 bytes from 103.41.63.43: seq=7 ttl=52 time=119.264 ms
ping_38 | 64 bytes from 103.41.63.43: seq=9 ttl=52 time=119.249 ms
ping_27 | 64 bytes from 103.41.63.43: seq=11 ttl=52 time=119.317 ms
ping_23 | 64 bytes from 103.41.63.43: seq=5 ttl=52 time=119.276 ms
ping_39 | 64 bytes from 103.41.63.43: seq=3 ttl=52 time=120.862 ms
ping_24 | 64 bytes from 103.41.63.43: seq=13 ttl=52 time=119.375 ms
softwareoverhead_ping_11 exited with code 0
ping_29 | 64 bytes from 103.41.63.43: seq=2 ttl=52 time=119.293 ms
ping_17 | 64 bytes from 103.41.63.43: seq=24 ttl=52 time=119.615 ms
ping_17 | 
ping_17 | --- speedtest.softether.co.jp ping statistics ---
ping_17 | 25 packets transmitted, 25 packets received, 0% packet loss
ping_17 | round-trip min/avg/max = 119.146/119.674/122.288 ms
ping_9  | 64 bytes from 103.41.63.43: seq=22 ttl=52 time=119.394 ms
ping_34 | 64 bytes from 103.41.63.43: seq=11 ttl=52 time=119.262 ms
softwareoverhead_ping_16 exited with code 0
ping_28 | 64 bytes from 103.41.63.43: seq=8 ttl=52 time=119.278 ms
ping_26 | 64 bytes from 103.41.63.43: seq=10 ttl=52 time=119.183 ms
ping_18 | 64 bytes from 103.41.63.43: seq=21 ttl=52 time=119.197 ms
softwareoverhead_ping_17 exited with code 0
ping_21 | 64 bytes from 103.41.63.43: seq=11 ttl=52 time=119.378 ms
ping_4  | 64 bytes from 103.41.63.43: seq=22 ttl=52 time=119.327 ms
ping_22 | 64 bytes from 103.41.63.43: seq=8 ttl=52 time=119.509 ms
ping_7  | 64 bytes from 103.41.63.43: seq=23 ttl=52 time=119.931 ms
ping_8  | 64 bytes from 103.41.63.43: seq=23 ttl=52 time=119.562 ms
ping_33 | 64 bytes from 103.41.63.43: seq=9 ttl=52 time=119.625 ms
ping_25 | 64 bytes from 103.41.63.43: seq=12 ttl=52 time=119.653 ms
ping_36 | 64 bytes from 103.41.63.43: seq=7 ttl=52 time=119.749 ms
ping_20 | 64 bytes from 103.41.63.43: seq=19 ttl=52 time=119.381 ms
ping_35 | 64 bytes from 103.41.63.43: seq=13 ttl=52 time=119.595 ms
ping_32 | 64 bytes from 103.41.63.43: seq=11 ttl=52 time=119.443 ms
ping_13 | 64 bytes from 103.41.63.43: seq=20 ttl=52 time=119.342 ms
ping_19 | 64 bytes from 103.41.63.43: seq=21 ttl=52 time=119.773 ms
ping_3  | 64 bytes from 103.41.63.43: seq=17 ttl=52 time=119.781 ms
ping_30 | 64 bytes from 103.41.63.43: seq=5 ttl=52 time=119.664 ms
ping_40 | 64 bytes from 103.41.63.43: seq=2 ttl=52 time=119.567 ms
ping_2  | 64 bytes from 103.41.63.43: seq=18 ttl=52 time=119.388 ms
ping_12 | 64 bytes from 103.41.63.43: seq=24 ttl=52 time=119.425 ms
ping_12 | 
ping_12 | --- speedtest.softether.co.jp ping statistics ---
ping_12 | 25 packets transmitted, 25 packets received, 0% packet loss
ping_12 | round-trip min/avg/max = 119.180/119.528/120.101 ms
ping_37 | 64 bytes from 103.41.63.43: seq=9 ttl=52 time=119.441 ms
ping_6  | 64 bytes from 103.41.63.43: seq=16 ttl=52 time=119.649 ms
ping_31 | 64 bytes from 103.41.63.43: seq=8 ttl=52 time=119.435 ms
ping_38 | 64 bytes from 103.41.63.43: seq=10 ttl=52 time=119.962 ms
ping_27 | 64 bytes from 103.41.63.43: seq=12 ttl=52 time=119.438 ms
ping_39 | 64 bytes from 103.41.63.43: seq=4 ttl=52 time=119.416 ms
ping_23 | 64 bytes from 103.41.63.43: seq=6 ttl=52 time=119.349 ms
ping_24 | 64 bytes from 103.41.63.43: seq=14 ttl=52 time=119.221 ms
ping_29 | 64 bytes from 103.41.63.43: seq=3 ttl=52 time=119.510 ms
ping_9  | 64 bytes from 103.41.63.43: seq=23 ttl=52 time=119.395 ms
softwareoverhead_ping_12 exited with code 0
ping_34 | 64 bytes from 103.41.63.43: seq=12 ttl=52 time=119.207 ms
ping_28 | 64 bytes from 103.41.63.43: seq=9 ttl=52 time=119.260 ms
ping_26 | 64 bytes from 103.41.63.43: seq=11 ttl=52 time=119.295 ms
ping_18 | 64 bytes from 103.41.63.43: seq=22 ttl=52 time=119.600 ms
ping_21 | 64 bytes from 103.41.63.43: seq=12 ttl=52 time=119.850 ms
ping_4  | 64 bytes from 103.41.63.43: seq=23 ttl=52 time=119.787 ms
ping_22 | 64 bytes from 103.41.63.43: seq=9 ttl=52 time=119.681 ms
ping_7  | 64 bytes from 103.41.63.43: seq=24 ttl=52 time=119.930 ms
ping_7  | 
ping_7  | --- speedtest.softether.co.jp ping statistics ---
ping_7  | 25 packets transmitted, 25 packets received, 0% packet loss
ping_7  | round-trip min/avg/max = 119.111/119.416/119.931 ms
ping_8  | 64 bytes from 103.41.63.43: seq=24 ttl=52 time=119.339 ms
ping_8  | 
ping_8  | --- speedtest.softether.co.jp ping statistics ---
ping_8  | 25 packets transmitted, 25 packets received, 0% packet loss
ping_8  | round-trip min/avg/max = 119.183/119.393/119.716 ms
ping_33 | 64 bytes from 103.41.63.43: seq=10 ttl=52 time=119.509 ms
ping_25 | 64 bytes from 103.41.63.43: seq=13 ttl=52 time=119.305 ms
ping_36 | 64 bytes from 103.41.63.43: seq=8 ttl=52 time=119.222 ms
ping_20 | 64 bytes from 103.41.63.43: seq=20 ttl=52 time=119.642 ms
ping_35 | 64 bytes from 103.41.63.43: seq=14 ttl=52 time=119.561 ms
ping_32 | 64 bytes from 103.41.63.43: seq=12 ttl=52 time=119.452 ms
ping_13 | 64 bytes from 103.41.63.43: seq=21 ttl=52 time=119.692 ms
ping_19 | 64 bytes from 103.41.63.43: seq=22 ttl=52 time=119.364 ms
ping_3  | 64 bytes from 103.41.63.43: seq=18 ttl=52 time=119.251 ms
ping_30 | 64 bytes from 103.41.63.43: seq=6 ttl=52 time=119.234 ms
ping_40 | 64 bytes from 103.41.63.43: seq=3 ttl=52 time=119.555 ms
ping_2  | 64 bytes from 103.41.63.43: seq=19 ttl=52 time=119.436 ms
ping_37 | 64 bytes from 103.41.63.43: seq=10 ttl=52 time=119.288 ms
ping_6  | 64 bytes from 103.41.63.43: seq=17 ttl=52 time=119.277 ms
ping_31 | 64 bytes from 103.41.63.43: seq=9 ttl=52 time=119.219 ms
ping_38 | 64 bytes from 103.41.63.43: seq=11 ttl=52 time=119.185 ms
ping_27 | 64 bytes from 103.41.63.43: seq=13 ttl=52 time=119.145 ms
ping_39 | 64 bytes from 103.41.63.43: seq=5 ttl=52 time=119.168 ms
ping_23 | 64 bytes from 103.41.63.43: seq=7 ttl=52 time=119.278 ms
softwareoverhead_ping_7 exited with code 0
ping_24 | 64 bytes from 103.41.63.43: seq=15 ttl=52 time=119.324 ms
ping_29 | 64 bytes from 103.41.63.43: seq=4 ttl=52 time=119.155 ms
softwareoverhead_ping_8 exited with code 0
ping_9  | 64 bytes from 103.41.63.43: seq=24 ttl=52 time=119.501 ms
ping_9  | 
ping_9  | --- speedtest.softether.co.jp ping statistics ---
ping_9  | 25 packets transmitted, 25 packets received, 0% packet loss
ping_9  | round-trip min/avg/max = 119.125/119.492/120.776 ms
ping_34 | 64 bytes from 103.41.63.43: seq=13 ttl=52 time=119.430 ms
ping_28 | 64 bytes from 103.41.63.43: seq=10 ttl=52 time=119.354 ms
ping_26 | 64 bytes from 103.41.63.43: seq=12 ttl=52 time=119.386 ms
ping_18 | 64 bytes from 103.41.63.43: seq=23 ttl=52 time=119.773 ms
ping_21 | 64 bytes from 103.41.63.43: seq=13 ttl=52 time=119.154 ms
ping_4  | 64 bytes from 103.41.63.43: seq=24 ttl=52 time=119.208 ms
ping_4  | 
ping_4  | --- speedtest.softether.co.jp ping statistics ---
ping_4  | 25 packets transmitted, 25 packets received, 0% packet loss
ping_4  | round-trip min/avg/max = 119.208/119.506/121.810 ms
ping_22 | 64 bytes from 103.41.63.43: seq=10 ttl=52 time=119.342 ms
softwareoverhead_ping_9 exited with code 0
ping_33 | 64 bytes from 103.41.63.43: seq=11 ttl=52 time=119.501 ms
ping_25 | 64 bytes from 103.41.63.43: seq=14 ttl=52 time=119.249 ms
ping_36 | 64 bytes from 103.41.63.43: seq=9 ttl=52 time=119.182 ms
ping_20 | 64 bytes from 103.41.63.43: seq=21 ttl=52 time=119.384 ms
ping_35 | 64 bytes from 103.41.63.43: seq=15 ttl=52 time=119.232 ms
ping_32 | 64 bytes from 103.41.63.43: seq=13 ttl=52 time=119.348 ms
ping_13 | 64 bytes from 103.41.63.43: seq=22 ttl=52 time=119.676 ms
ping_19 | 64 bytes from 103.41.63.43: seq=23 ttl=52 time=119.564 ms
ping_3  | 64 bytes from 103.41.63.43: seq=19 ttl=52 time=119.663 ms
ping_30 | 64 bytes from 103.41.63.43: seq=7 ttl=52 time=119.339 ms
ping_40 | 64 bytes from 103.41.63.43: seq=4 ttl=52 time=119.404 ms
ping_2  | 64 bytes from 103.41.63.43: seq=20 ttl=52 time=119.275 ms
ping_37 | 64 bytes from 103.41.63.43: seq=11 ttl=52 time=119.251 ms
ping_6  | 64 bytes from 103.41.63.43: seq=18 ttl=52 time=119.225 ms
ping_31 | 64 bytes from 103.41.63.43: seq=10 ttl=52 time=119.331 ms
ping_38 | 64 bytes from 103.41.63.43: seq=12 ttl=52 time=119.481 ms
ping_27 | 64 bytes from 103.41.63.43: seq=14 ttl=52 time=119.783 ms
ping_39 | 64 bytes from 103.41.63.43: seq=6 ttl=52 time=119.686 ms
ping_23 | 64 bytes from 103.41.63.43: seq=8 ttl=52 time=119.591 ms
softwareoverhead_ping_4 exited with code 0
ping_24 | 64 bytes from 103.41.63.43: seq=16 ttl=52 time=119.404 ms
ping_29 | 64 bytes from 103.41.63.43: seq=5 ttl=52 time=119.615 ms
ping_34 | 64 bytes from 103.41.63.43: seq=14 ttl=52 time=119.775 ms
ping_28 | 64 bytes from 103.41.63.43: seq=11 ttl=52 time=120.025 ms
ping_26 | 64 bytes from 103.41.63.43: seq=13 ttl=52 time=119.339 ms
ping_18 | 64 bytes from 103.41.63.43: seq=24 ttl=52 time=119.646 ms
ping_18 | 
ping_18 | --- speedtest.softether.co.jp ping statistics ---
ping_18 | 25 packets transmitted, 25 packets received, 0% packet loss
ping_18 | round-trip min/avg/max = 119.170/119.489/119.799 ms
ping_21 | 64 bytes from 103.41.63.43: seq=14 ttl=52 time=119.280 ms
ping_22 | 64 bytes from 103.41.63.43: seq=11 ttl=52 time=119.293 ms
ping_33 | 64 bytes from 103.41.63.43: seq=12 ttl=52 time=119.735 ms
ping_25 | 64 bytes from 103.41.63.43: seq=15 ttl=52 time=119.256 ms
ping_36 | 64 bytes from 103.41.63.43: seq=10 ttl=52 time=119.219 ms
ping_20 | 64 bytes from 103.41.63.43: seq=22 ttl=52 time=119.302 ms
ping_35 | 64 bytes from 103.41.63.43: seq=16 ttl=52 time=119.241 ms
ping_32 | 64 bytes from 103.41.63.43: seq=14 ttl=52 time=119.305 ms
ping_13 | 64 bytes from 103.41.63.43: seq=23 ttl=52 time=119.245 ms
ping_19 | 64 bytes from 103.41.63.43: seq=24 ttl=52 time=119.246 ms
ping_19 | 
ping_19 | --- speedtest.softether.co.jp ping statistics ---
ping_19 | 25 packets transmitted, 25 packets received, 0% packet loss
ping_19 | round-trip min/avg/max = 119.088/119.351/119.773 ms
ping_3  | 64 bytes from 103.41.63.43: seq=20 ttl=52 time=120.012 ms
ping_30 | 64 bytes from 103.41.63.43: seq=8 ttl=52 time=119.198 ms
softwareoverhead_ping_18 exited with code 0
ping_40 | 64 bytes from 103.41.63.43: seq=5 ttl=52 time=119.241 ms
ping_2  | 64 bytes from 103.41.63.43: seq=21 ttl=52 time=119.320 ms
ping_37 | 64 bytes from 103.41.63.43: seq=12 ttl=52 time=119.164 ms
ping_6  | 64 bytes from 103.41.63.43: seq=19 ttl=52 time=119.306 ms
ping_31 | 64 bytes from 103.41.63.43: seq=11 ttl=52 time=119.418 ms
ping_38 | 64 bytes from 103.41.63.43: seq=13 ttl=52 time=119.160 ms
ping_27 | 64 bytes from 103.41.63.43: seq=15 ttl=52 time=119.151 ms
ping_39 | 64 bytes from 103.41.63.43: seq=7 ttl=52 time=119.333 ms
ping_23 | 64 bytes from 103.41.63.43: seq=9 ttl=52 time=119.408 ms
ping_24 | 64 bytes from 103.41.63.43: seq=17 ttl=52 time=119.338 ms
ping_29 | 64 bytes from 103.41.63.43: seq=6 ttl=52 time=119.619 ms
softwareoverhead_ping_19 exited with code 0
ping_34 | 64 bytes from 103.41.63.43: seq=15 ttl=52 time=119.742 ms
ping_28 | 64 bytes from 103.41.63.43: seq=12 ttl=52 time=119.610 ms
ping_26 | 64 bytes from 103.41.63.43: seq=14 ttl=52 time=119.825 ms
ping_21 | 64 bytes from 103.41.63.43: seq=15 ttl=52 time=119.961 ms
ping_22 | 64 bytes from 103.41.63.43: seq=12 ttl=52 time=123.771 ms
ping_33 | 64 bytes from 103.41.63.43: seq=13 ttl=52 time=119.333 ms
ping_25 | 64 bytes from 103.41.63.43: seq=16 ttl=52 time=119.843 ms
ping_36 | 64 bytes from 103.41.63.43: seq=11 ttl=52 time=119.677 ms
ping_20 | 64 bytes from 103.41.63.43: seq=23 ttl=52 time=119.393 ms
ping_35 | 64 bytes from 103.41.63.43: seq=17 ttl=52 time=119.686 ms
ping_32 | 64 bytes from 103.41.63.43: seq=15 ttl=52 time=119.819 ms
ping_13 | 64 bytes from 103.41.63.43: seq=24 ttl=52 time=119.821 ms
ping_13 | 
ping_13 | --- speedtest.softether.co.jp ping statistics ---
ping_13 | 25 packets transmitted, 25 packets received, 0% packet loss
ping_13 | round-trip min/avg/max = 119.201/119.470/120.975 ms
ping_3  | 64 bytes from 103.41.63.43: seq=21 ttl=52 time=119.539 ms
ping_30 | 64 bytes from 103.41.63.43: seq=9 ttl=52 time=119.335 ms
ping_40 | 64 bytes from 103.41.63.43: seq=6 ttl=52 time=119.230 ms
ping_2  | 64 bytes from 103.41.63.43: seq=22 ttl=52 time=119.296 ms
ping_37 | 64 bytes from 103.41.63.43: seq=13 ttl=52 time=119.312 ms
ping_6  | 64 bytes from 103.41.63.43: seq=20 ttl=52 time=119.320 ms
ping_31 | 64 bytes from 103.41.63.43: seq=12 ttl=52 time=119.305 ms
ping_38 | 64 bytes from 103.41.63.43: seq=14 ttl=52 time=119.260 ms
ping_27 | 64 bytes from 103.41.63.43: seq=16 ttl=52 time=119.374 ms
ping_39 | 64 bytes from 103.41.63.43: seq=8 ttl=52 time=119.187 ms
ping_23 | 64 bytes from 103.41.63.43: seq=10 ttl=52 time=119.292 ms
ping_24 | 64 bytes from 103.41.63.43: seq=18 ttl=52 time=119.507 ms
ping_29 | 64 bytes from 103.41.63.43: seq=7 ttl=52 time=119.557 ms
softwareoverhead_ping_13 exited with code 0
ping_34 | 64 bytes from 103.41.63.43: seq=16 ttl=52 time=119.764 ms
ping_28 | 64 bytes from 103.41.63.43: seq=13 ttl=52 time=119.627 ms
ping_26 | 64 bytes from 103.41.63.43: seq=15 ttl=52 time=119.611 ms
ping_21 | 64 bytes from 103.41.63.43: seq=16 ttl=52 time=119.536 ms
ping_22 | 64 bytes from 103.41.63.43: seq=13 ttl=52 time=119.895 ms
ping_33 | 64 bytes from 103.41.63.43: seq=14 ttl=52 time=119.756 ms
ping_25 | 64 bytes from 103.41.63.43: seq=17 ttl=52 time=119.734 ms
ping_36 | 64 bytes from 103.41.63.43: seq=12 ttl=52 time=119.764 ms
ping_20 | 64 bytes from 103.41.63.43: seq=24 ttl=52 time=119.303 ms
ping_20 | 
ping_20 | --- speedtest.softether.co.jp ping statistics ---
ping_20 | 25 packets transmitted, 25 packets received, 0% packet loss
ping_20 | round-trip min/avg/max = 119.147/119.437/120.916 ms
ping_35 | 64 bytes from 103.41.63.43: seq=18 ttl=52 time=119.356 ms
ping_32 | 64 bytes from 103.41.63.43: seq=16 ttl=52 time=119.339 ms
ping_3  | 64 bytes from 103.41.63.43: seq=22 ttl=52 time=119.469 ms
ping_30 | 64 bytes from 103.41.63.43: seq=10 ttl=52 time=119.212 ms
ping_40 | 64 bytes from 103.41.63.43: seq=7 ttl=52 time=119.503 ms
ping_2  | 64 bytes from 103.41.63.43: seq=23 ttl=52 time=119.455 ms
ping_37 | 64 bytes from 103.41.63.43: seq=14 ttl=52 time=119.257 ms
ping_6  | 64 bytes from 103.41.63.43: seq=21 ttl=52 time=119.608 ms
ping_31 | 64 bytes from 103.41.63.43: seq=13 ttl=52 time=119.184 ms
ping_38 | 64 bytes from 103.41.63.43: seq=15 ttl=52 time=119.400 ms
ping_27 | 64 bytes from 103.41.63.43: seq=17 ttl=52 time=119.208 ms
ping_39 | 64 bytes from 103.41.63.43: seq=9 ttl=52 time=119.270 ms
ping_23 | 64 bytes from 103.41.63.43: seq=11 ttl=52 time=119.920 ms
ping_24 | 64 bytes from 103.41.63.43: seq=19 ttl=52 time=119.551 ms
ping_29 | 64 bytes from 103.41.63.43: seq=8 ttl=52 time=119.798 ms
softwareoverhead_ping_20 exited with code 0
ping_34 | 64 bytes from 103.41.63.43: seq=17 ttl=52 time=119.362 ms
ping_28 | 64 bytes from 103.41.63.43: seq=14 ttl=52 time=119.740 ms
ping_26 | 64 bytes from 103.41.63.43: seq=16 ttl=52 time=119.629 ms
ping_21 | 64 bytes from 103.41.63.43: seq=17 ttl=52 time=119.584 ms
ping_22 | 64 bytes from 103.41.63.43: seq=14 ttl=52 time=119.406 ms
ping_33 | 64 bytes from 103.41.63.43: seq=15 ttl=52 time=119.672 ms
ping_25 | 64 bytes from 103.41.63.43: seq=18 ttl=52 time=119.582 ms
ping_36 | 64 bytes from 103.41.63.43: seq=13 ttl=52 time=122.035 ms
ping_35 | 64 bytes from 103.41.63.43: seq=19 ttl=52 time=120.878 ms
ping_32 | 64 bytes from 103.41.63.43: seq=17 ttl=52 time=122.109 ms
ping_3  | 64 bytes from 103.41.63.43: seq=23 ttl=52 time=119.763 ms
ping_30 | 64 bytes from 103.41.63.43: seq=11 ttl=52 time=119.433 ms
ping_40 | 64 bytes from 103.41.63.43: seq=8 ttl=52 time=119.797 ms
ping_2  | 64 bytes from 103.41.63.43: seq=24 ttl=52 time=119.913 ms
ping_2  | 
ping_2  | --- speedtest.softether.co.jp ping statistics ---
ping_2  | 25 packets transmitted, 25 packets received, 0% packet loss
ping_2  | round-trip min/avg/max = 119.076/119.406/119.913 ms
ping_37 | 64 bytes from 103.41.63.43: seq=15 ttl=52 time=119.475 ms
ping_6  | 64 bytes from 103.41.63.43: seq=22 ttl=52 time=119.260 ms
ping_31 | 64 bytes from 103.41.63.43: seq=14 ttl=52 time=119.341 ms
ping_38 | 64 bytes from 103.41.63.43: seq=16 ttl=52 time=119.429 ms
ping_27 | 64 bytes from 103.41.63.43: seq=18 ttl=52 time=119.576 ms
ping_39 | 64 bytes from 103.41.63.43: seq=10 ttl=52 time=119.616 ms
ping_23 | 64 bytes from 103.41.63.43: seq=12 ttl=52 time=119.237 ms
ping_24 | 64 bytes from 103.41.63.43: seq=20 ttl=52 time=119.310 ms
ping_29 | 64 bytes from 103.41.63.43: seq=9 ttl=52 time=119.253 ms
softwareoverhead_ping_2 exited with code 0
ping_34 | 64 bytes from 103.41.63.43: seq=18 ttl=52 time=119.290 ms
ping_28 | 64 bytes from 103.41.63.43: seq=15 ttl=52 time=119.532 ms
ping_26 | 64 bytes from 103.41.63.43: seq=17 ttl=52 time=119.503 ms
ping_21 | 64 bytes from 103.41.63.43: seq=18 ttl=52 time=119.446 ms
ping_22 | 64 bytes from 103.41.63.43: seq=15 ttl=52 time=119.356 ms
ping_33 | 64 bytes from 103.41.63.43: seq=16 ttl=52 time=119.778 ms
ping_25 | 64 bytes from 103.41.63.43: seq=19 ttl=52 time=119.911 ms
ping_36 | 64 bytes from 103.41.63.43: seq=14 ttl=52 time=119.741 ms
ping_35 | 64 bytes from 103.41.63.43: seq=20 ttl=52 time=119.703 ms
ping_32 | 64 bytes from 103.41.63.43: seq=18 ttl=52 time=119.484 ms
ping_3  | 64 bytes from 103.41.63.43: seq=24 ttl=52 time=119.432 ms
ping_3  | 
ping_3  | --- speedtest.softether.co.jp ping statistics ---
ping_3  | 25 packets transmitted, 25 packets received, 0% packet loss
ping_3  | round-trip min/avg/max = 119.141/119.666/124.839 ms
ping_30 | 64 bytes from 103.41.63.43: seq=12 ttl=52 time=119.377 ms
ping_40 | 64 bytes from 103.41.63.43: seq=9 ttl=52 time=119.433 ms
ping_37 | 64 bytes from 103.41.63.43: seq=16 ttl=52 time=119.216 ms
ping_6  | 64 bytes from 103.41.63.43: seq=23 ttl=52 time=119.255 ms
ping_31 | 64 bytes from 103.41.63.43: seq=15 ttl=52 time=119.249 ms
ping_38 | 64 bytes from 103.41.63.43: seq=17 ttl=52 time=119.310 ms
ping_27 | 64 bytes from 103.41.63.43: seq=19 ttl=52 time=119.303 ms
ping_39 | 64 bytes from 103.41.63.43: seq=11 ttl=52 time=119.413 ms
ping_23 | 64 bytes from 103.41.63.43: seq=13 ttl=52 time=119.392 ms
ping_24 | 64 bytes from 103.41.63.43: seq=21 ttl=52 time=119.302 ms
ping_29 | 64 bytes from 103.41.63.43: seq=10 ttl=52 time=119.364 ms
softwareoverhead_ping_3 exited with code 0
ping_34 | 64 bytes from 103.41.63.43: seq=19 ttl=52 time=119.737 ms
ping_28 | 64 bytes from 103.41.63.43: seq=16 ttl=52 time=119.660 ms
ping_26 | 64 bytes from 103.41.63.43: seq=18 ttl=52 time=119.707 ms
ping_21 | 64 bytes from 103.41.63.43: seq=19 ttl=52 time=119.624 ms
ping_22 | 64 bytes from 103.41.63.43: seq=16 ttl=52 time=119.498 ms
ping_33 | 64 bytes from 103.41.63.43: seq=17 ttl=52 time=119.587 ms
ping_25 | 64 bytes from 103.41.63.43: seq=20 ttl=52 time=119.559 ms
ping_36 | 64 bytes from 103.41.63.43: seq=15 ttl=52 time=120.599 ms
ping_35 | 64 bytes from 103.41.63.43: seq=21 ttl=52 time=119.768 ms
ping_32 | 64 bytes from 103.41.63.43: seq=19 ttl=52 time=119.826 ms
ping_30 | 64 bytes from 103.41.63.43: seq=13 ttl=52 time=119.533 ms
ping_40 | 64 bytes from 103.41.63.43: seq=10 ttl=52 time=119.918 ms
ping_37 | 64 bytes from 103.41.63.43: seq=17 ttl=52 time=119.807 ms
ping_6  | 64 bytes from 103.41.63.43: seq=24 ttl=52 time=119.496 ms
ping_6  | 
ping_6  | --- speedtest.softether.co.jp ping statistics ---
ping_6  | 25 packets transmitted, 25 packets received, 0% packet loss
ping_6  | round-trip min/avg/max = 119.115/119.476/121.542 ms
ping_31 | 64 bytes from 103.41.63.43: seq=16 ttl=52 time=119.551 ms
ping_38 | 64 bytes from 103.41.63.43: seq=18 ttl=52 time=119.682 ms
ping_27 | 64 bytes from 103.41.63.43: seq=20 ttl=52 time=119.635 ms
ping_39 | 64 bytes from 103.41.63.43: seq=12 ttl=52 time=119.612 ms
ping_23 | 64 bytes from 103.41.63.43: seq=14 ttl=52 time=119.406 ms
ping_24 | 64 bytes from 103.41.63.43: seq=22 ttl=52 time=119.343 ms
ping_29 | 64 bytes from 103.41.63.43: seq=11 ttl=52 time=119.242 ms
ping_34 | 64 bytes from 103.41.63.43: seq=20 ttl=52 time=119.409 ms
ping_28 | 64 bytes from 103.41.63.43: seq=17 ttl=52 time=119.293 ms
softwareoverhead_ping_6 exited with code 0
ping_26 | 64 bytes from 103.41.63.43: seq=19 ttl=52 time=119.220 ms
ping_21 | 64 bytes from 103.41.63.43: seq=20 ttl=52 time=119.508 ms
ping_22 | 64 bytes from 103.41.63.43: seq=17 ttl=52 time=119.254 ms
ping_33 | 64 bytes from 103.41.63.43: seq=18 ttl=52 time=119.758 ms
ping_25 | 64 bytes from 103.41.63.43: seq=21 ttl=52 time=119.721 ms
ping_36 | 64 bytes from 103.41.63.43: seq=16 ttl=52 time=119.710 ms
ping_35 | 64 bytes from 103.41.63.43: seq=22 ttl=52 time=119.622 ms
ping_32 | 64 bytes from 103.41.63.43: seq=20 ttl=52 time=119.733 ms
ping_30 | 64 bytes from 103.41.63.43: seq=14 ttl=52 time=119.402 ms
ping_40 | 64 bytes from 103.41.63.43: seq=11 ttl=52 time=119.633 ms
ping_37 | 64 bytes from 103.41.63.43: seq=18 ttl=52 time=119.315 ms
ping_31 | 64 bytes from 103.41.63.43: seq=17 ttl=52 time=119.552 ms
ping_38 | 64 bytes from 103.41.63.43: seq=19 ttl=52 time=119.778 ms
ping_27 | 64 bytes from 103.41.63.43: seq=21 ttl=52 time=119.689 ms
ping_39 | 64 bytes from 103.41.63.43: seq=13 ttl=52 time=119.646 ms
ping_23 | 64 bytes from 103.41.63.43: seq=15 ttl=52 time=119.395 ms
ping_24 | 64 bytes from 103.41.63.43: seq=23 ttl=52 time=119.810 ms
ping_29 | 64 bytes from 103.41.63.43: seq=12 ttl=52 time=119.617 ms
ping_34 | 64 bytes from 103.41.63.43: seq=21 ttl=52 time=119.917 ms
ping_28 | 64 bytes from 103.41.63.43: seq=18 ttl=52 time=119.750 ms
ping_26 | 64 bytes from 103.41.63.43: seq=20 ttl=52 time=119.534 ms
ping_21 | 64 bytes from 103.41.63.43: seq=21 ttl=52 time=119.697 ms
ping_22 | 64 bytes from 103.41.63.43: seq=18 ttl=52 time=119.771 ms
ping_33 | 64 bytes from 103.41.63.43: seq=19 ttl=52 time=119.796 ms
ping_25 | 64 bytes from 103.41.63.43: seq=22 ttl=52 time=119.666 ms
ping_36 | 64 bytes from 103.41.63.43: seq=17 ttl=52 time=119.727 ms
ping_35 | 64 bytes from 103.41.63.43: seq=23 ttl=52 time=119.925 ms
ping_32 | 64 bytes from 103.41.63.43: seq=21 ttl=52 time=119.689 ms
ping_30 | 64 bytes from 103.41.63.43: seq=15 ttl=52 time=119.408 ms
ping_40 | 64 bytes from 103.41.63.43: seq=12 ttl=52 time=119.621 ms
ping_37 | 64 bytes from 103.41.63.43: seq=19 ttl=52 time=119.714 ms
ping_31 | 64 bytes from 103.41.63.43: seq=18 ttl=52 time=119.487 ms
ping_38 | 64 bytes from 103.41.63.43: seq=20 ttl=52 time=119.367 ms
ping_27 | 64 bytes from 103.41.63.43: seq=22 ttl=52 time=119.601 ms
ping_39 | 64 bytes from 103.41.63.43: seq=14 ttl=52 time=119.762 ms
ping_23 | 64 bytes from 103.41.63.43: seq=16 ttl=52 time=119.402 ms
ping_24 | 64 bytes from 103.41.63.43: seq=24 ttl=52 time=119.853 ms
ping_24 | 
ping_24 | --- speedtest.softether.co.jp ping statistics ---
ping_24 | 25 packets transmitted, 25 packets received, 0% packet loss
ping_24 | round-trip min/avg/max = 119.196/119.493/119.936 ms
ping_29 | 64 bytes from 103.41.63.43: seq=13 ttl=52 time=119.159 ms
ping_34 | 64 bytes from 103.41.63.43: seq=22 ttl=52 time=119.354 ms
ping_28 | 64 bytes from 103.41.63.43: seq=19 ttl=52 time=119.293 ms
ping_26 | 64 bytes from 103.41.63.43: seq=21 ttl=52 time=119.484 ms
softwareoverhead_ping_24 exited with code 0
ping_21 | 64 bytes from 103.41.63.43: seq=22 ttl=52 time=119.281 ms
ping_22 | 64 bytes from 103.41.63.43: seq=19 ttl=52 time=120.430 ms
ping_33 | 64 bytes from 103.41.63.43: seq=20 ttl=52 time=119.316 ms
ping_25 | 64 bytes from 103.41.63.43: seq=23 ttl=52 time=119.940 ms
ping_36 | 64 bytes from 103.41.63.43: seq=18 ttl=52 time=119.642 ms
ping_35 | 64 bytes from 103.41.63.43: seq=24 ttl=52 time=119.672 ms
ping_35 | 
ping_35 | --- speedtest.softether.co.jp ping statistics ---
ping_35 | 25 packets transmitted, 25 packets received, 0% packet loss
ping_35 | round-trip min/avg/max = 119.232/119.536/120.878 ms
ping_32 | 64 bytes from 103.41.63.43: seq=22 ttl=52 time=119.700 ms
ping_30 | 64 bytes from 103.41.63.43: seq=16 ttl=52 time=119.383 ms
ping_40 | 64 bytes from 103.41.63.43: seq=13 ttl=52 time=119.431 ms
ping_37 | 64 bytes from 103.41.63.43: seq=20 ttl=52 time=119.764 ms
ping_31 | 64 bytes from 103.41.63.43: seq=19 ttl=52 time=119.298 ms
ping_38 | 64 bytes from 103.41.63.43: seq=21 ttl=52 time=119.361 ms
ping_27 | 64 bytes from 103.41.63.43: seq=23 ttl=52 time=119.628 ms
ping_39 | 64 bytes from 103.41.63.43: seq=15 ttl=52 time=119.594 ms
ping_23 | 64 bytes from 103.41.63.43: seq=17 ttl=52 time=119.549 ms
ping_29 | 64 bytes from 103.41.63.43: seq=14 ttl=52 time=119.342 ms
softwareoverhead_ping_35 exited with code 0
ping_34 | 64 bytes from 103.41.63.43: seq=23 ttl=52 time=119.577 ms
ping_28 | 64 bytes from 103.41.63.43: seq=20 ttl=52 time=119.642 ms
ping_26 | 64 bytes from 103.41.63.43: seq=22 ttl=52 time=119.840 ms
ping_21 | 64 bytes from 103.41.63.43: seq=23 ttl=52 time=119.625 ms
ping_22 | 64 bytes from 103.41.63.43: seq=20 ttl=52 time=119.687 ms
ping_33 | 64 bytes from 103.41.63.43: seq=21 ttl=52 time=120.555 ms
ping_25 | 64 bytes from 103.41.63.43: seq=24 ttl=52 time=121.693 ms
ping_25 | 
ping_25 | --- speedtest.softether.co.jp ping statistics ---
ping_25 | 25 packets transmitted, 25 packets received, 0% packet loss
ping_25 | round-trip min/avg/max = 119.198/119.669/121.693 ms
ping_36 | 64 bytes from 103.41.63.43: seq=19 ttl=52 time=119.605 ms
ping_32 | 64 bytes from 103.41.63.43: seq=23 ttl=52 time=119.200 ms
ping_30 | 64 bytes from 103.41.63.43: seq=17 ttl=52 time=119.544 ms
ping_40 | 64 bytes from 103.41.63.43: seq=14 ttl=52 time=122.279 ms
ping_37 | 64 bytes from 103.41.63.43: seq=21 ttl=52 time=120.003 ms
ping_31 | 64 bytes from 103.41.63.43: seq=20 ttl=52 time=119.292 ms
ping_38 | 64 bytes from 103.41.63.43: seq=22 ttl=52 time=119.293 ms
ping_27 | 64 bytes from 103.41.63.43: seq=24 ttl=52 time=119.304 ms
ping_27 | 
ping_27 | --- speedtest.softether.co.jp ping statistics ---
ping_27 | 25 packets transmitted, 25 packets received, 0% packet loss
ping_27 | round-trip min/avg/max = 119.145/119.430/119.783 ms
ping_39 | 64 bytes from 103.41.63.43: seq=16 ttl=52 time=119.303 ms
ping_23 | 64 bytes from 103.41.63.43: seq=18 ttl=52 time=119.329 ms
ping_29 | 64 bytes from 103.41.63.43: seq=15 ttl=52 time=119.250 ms
softwareoverhead_ping_25 exited with code 0
ping_34 | 64 bytes from 103.41.63.43: seq=24 ttl=52 time=119.285 ms
ping_34 | 
ping_34 | --- speedtest.softether.co.jp ping statistics ---
ping_34 | 25 packets transmitted, 25 packets received, 0% packet loss
ping_34 | round-trip min/avg/max = 119.207/119.493/119.917 ms
softwareoverhead_ping_27 exited with code 0
ping_28 | 64 bytes from 103.41.63.43: seq=21 ttl=52 time=119.392 ms
ping_26 | 64 bytes from 103.41.63.43: seq=23 ttl=52 time=119.267 ms
ping_21 | 64 bytes from 103.41.63.43: seq=24 ttl=52 time=119.255 ms
ping_21 | 
ping_21 | --- speedtest.softether.co.jp ping statistics ---
ping_21 | 25 packets transmitted, 25 packets received, 0% packet loss
ping_21 | round-trip min/avg/max = 119.154/119.488/119.961 ms
ping_22 | 64 bytes from 103.41.63.43: seq=21 ttl=52 time=119.631 ms
ping_33 | 64 bytes from 103.41.63.43: seq=22 ttl=52 time=119.294 ms
ping_36 | 64 bytes from 103.41.63.43: seq=20 ttl=52 time=119.212 ms
softwareoverhead_ping_34 exited with code 0
ping_32 | 64 bytes from 103.41.63.43: seq=24 ttl=52 time=119.371 ms
ping_32 | 
ping_32 | --- speedtest.softether.co.jp ping statistics ---
ping_32 | 25 packets transmitted, 25 packets received, 0% packet loss
ping_32 | round-trip min/avg/max = 119.135/119.533/122.109 ms
ping_30 | 64 bytes from 103.41.63.43: seq=18 ttl=52 time=119.183 ms
ping_40 | 64 bytes from 103.41.63.43: seq=15 ttl=52 time=119.385 ms
ping_37 | 64 bytes from 103.41.63.43: seq=22 ttl=52 time=119.354 ms
ping_31 | 64 bytes from 103.41.63.43: seq=21 ttl=52 time=119.225 ms
ping_38 | 64 bytes from 103.41.63.43: seq=23 ttl=52 time=119.338 ms
ping_39 | 64 bytes from 103.41.63.43: seq=17 ttl=52 time=119.744 ms
ping_23 | 64 bytes from 103.41.63.43: seq=19 ttl=52 time=119.237 ms
softwareoverhead_ping_21 exited with code 0
ping_29 | 64 bytes from 103.41.63.43: seq=16 ttl=52 time=119.306 ms
softwareoverhead_ping_32 exited with code 0
ping_28 | 64 bytes from 103.41.63.43: seq=22 ttl=52 time=119.570 ms
ping_26 | 64 bytes from 103.41.63.43: seq=24 ttl=52 time=119.280 ms
ping_26 | 
ping_26 | --- speedtest.softether.co.jp ping statistics ---
ping_26 | 25 packets transmitted, 25 packets received, 0% packet loss
ping_26 | round-trip min/avg/max = 119.183/119.458/119.840 ms
ping_22 | 64 bytes from 103.41.63.43: seq=22 ttl=52 time=119.513 ms
ping_33 | 64 bytes from 103.41.63.43: seq=23 ttl=52 time=119.268 ms
ping_36 | 64 bytes from 103.41.63.43: seq=21 ttl=52 time=119.505 ms
ping_30 | 64 bytes from 103.41.63.43: seq=19 ttl=52 time=119.437 ms
softwareoverhead_ping_26 exited with code 0
ping_40 | 64 bytes from 103.41.63.43: seq=16 ttl=52 time=119.319 ms
ping_37 | 64 bytes from 103.41.63.43: seq=23 ttl=52 time=119.701 ms
ping_31 | 64 bytes from 103.41.63.43: seq=22 ttl=52 time=119.245 ms
ping_38 | 64 bytes from 103.41.63.43: seq=24 ttl=52 time=119.549 ms
ping_38 | 
ping_38 | --- speedtest.softether.co.jp ping statistics ---
ping_38 | 25 packets transmitted, 25 packets received, 0% packet loss
ping_38 | round-trip min/avg/max = 119.140/119.405/119.962 ms
ping_39 | 64 bytes from 103.41.63.43: seq=18 ttl=52 time=119.675 ms
ping_23 | 64 bytes from 103.41.63.43: seq=20 ttl=52 time=119.465 ms
ping_29 | 64 bytes from 103.41.63.43: seq=17 ttl=52 time=119.159 ms
ping_28 | 64 bytes from 103.41.63.43: seq=23 ttl=52 time=119.538 ms
softwareoverhead_ping_38 exited with code 0
ping_22 | 64 bytes from 103.41.63.43: seq=23 ttl=52 time=119.823 ms
ping_33 | 64 bytes from 103.41.63.43: seq=24 ttl=52 time=120.077 ms
ping_33 | 
ping_33 | --- speedtest.softether.co.jp ping statistics ---
ping_33 | 25 packets transmitted, 25 packets received, 0% packet loss
ping_33 | round-trip min/avg/max = 119.268/119.570/120.555 ms
ping_36 | 64 bytes from 103.41.63.43: seq=22 ttl=52 time=119.266 ms
ping_30 | 64 bytes from 103.41.63.43: seq=20 ttl=52 time=119.253 ms
ping_40 | 64 bytes from 103.41.63.43: seq=17 ttl=52 time=119.407 ms
ping_37 | 64 bytes from 103.41.63.43: seq=24 ttl=52 time=119.297 ms
ping_37 | 
ping_37 | --- speedtest.softether.co.jp ping statistics ---
ping_37 | 25 packets transmitted, 25 packets received, 0% packet loss
ping_37 | round-trip min/avg/max = 119.105/119.395/120.003 ms
ping_31 | 64 bytes from 103.41.63.43: seq=23 ttl=52 time=119.212 ms
ping_39 | 64 bytes from 103.41.63.43: seq=19 ttl=52 time=119.260 ms
ping_23 | 64 bytes from 103.41.63.43: seq=21 ttl=52 time=119.230 ms
softwareoverhead_ping_33 exited with code 0
ping_29 | 64 bytes from 103.41.63.43: seq=18 ttl=52 time=119.293 ms
ping_28 | 64 bytes from 103.41.63.43: seq=24 ttl=52 time=119.387 ms
ping_28 | 
ping_28 | --- speedtest.softether.co.jp ping statistics ---
ping_28 | 25 packets transmitted, 25 packets received, 0% packet loss
ping_28 | round-trip min/avg/max = 119.260/119.528/120.025 ms
softwareoverhead_ping_37 exited with code 0
ping_22 | 64 bytes from 103.41.63.43: seq=24 ttl=52 time=119.199 ms
ping_22 | 
ping_22 | --- speedtest.softether.co.jp ping statistics ---
ping_22 | 25 packets transmitted, 25 packets received, 0% packet loss
ping_22 | round-trip min/avg/max = 119.199/119.674/123.771 ms
softwareoverhead_ping_28 exited with code 0
ping_36 | 64 bytes from 103.41.63.43: seq=23 ttl=52 time=119.153 ms
ping_30 | 64 bytes from 103.41.63.43: seq=21 ttl=52 time=119.282 ms
ping_40 | 64 bytes from 103.41.63.43: seq=18 ttl=52 time=119.295 ms
ping_31 | 64 bytes from 103.41.63.43: seq=24 ttl=52 time=119.466 ms
ping_31 | 
ping_31 | --- speedtest.softether.co.jp ping statistics ---
ping_31 | 25 packets transmitted, 25 packets received, 0% packet loss
ping_31 | round-trip min/avg/max = 119.184/119.378/119.622 ms
ping_39 | 64 bytes from 103.41.63.43: seq=20 ttl=52 time=119.199 ms
ping_23 | 64 bytes from 103.41.63.43: seq=22 ttl=52 time=119.148 ms
softwareoverhead_ping_22 exited with code 0
ping_29 | 64 bytes from 103.41.63.43: seq=19 ttl=52 time=119.188 ms
softwareoverhead_ping_31 exited with code 0
ping_36 | 64 bytes from 103.41.63.43: seq=24 ttl=52 time=119.800 ms
ping_36 | 
ping_36 | --- speedtest.softether.co.jp ping statistics ---
ping_36 | 25 packets transmitted, 25 packets received, 0% packet loss
ping_36 | round-trip min/avg/max = 119.153/119.643/122.035 ms
ping_30 | 64 bytes from 103.41.63.43: seq=22 ttl=52 time=119.530 ms
ping_40 | 64 bytes from 103.41.63.43: seq=19 ttl=52 time=119.684 ms
ping_39 | 64 bytes from 103.41.63.43: seq=21 ttl=52 time=119.320 ms
ping_23 | 64 bytes from 103.41.63.43: seq=23 ttl=52 time=119.364 ms
ping_29 | 64 bytes from 103.41.63.43: seq=20 ttl=52 time=119.333 ms
softwareoverhead_ping_36 exited with code 0
ping_30 | 64 bytes from 103.41.63.43: seq=23 ttl=52 time=119.798 ms
ping_40 | 64 bytes from 103.41.63.43: seq=20 ttl=52 time=119.761 ms
ping_39 | 64 bytes from 103.41.63.43: seq=22 ttl=52 time=119.746 ms
ping_23 | 64 bytes from 103.41.63.43: seq=24 ttl=52 time=119.589 ms
ping_23 | 
ping_23 | --- speedtest.softether.co.jp ping statistics ---
ping_23 | 25 packets transmitted, 25 packets received, 0% packet loss
ping_23 | round-trip min/avg/max = 119.148/119.396/119.920 ms
ping_29 | 64 bytes from 103.41.63.43: seq=21 ttl=52 time=119.312 ms
softwareoverhead_ping_23 exited with code 0
ping_30 | 64 bytes from 103.41.63.43: seq=24 ttl=52 time=119.627 ms
ping_30 | 
ping_30 | --- speedtest.softether.co.jp ping statistics ---
ping_30 | 25 packets transmitted, 25 packets received, 0% packet loss
ping_30 | round-trip min/avg/max = 119.183/119.377/119.798 ms
ping_40 | 64 bytes from 103.41.63.43: seq=21 ttl=52 time=119.337 ms
ping_39 | 64 bytes from 103.41.63.43: seq=23 ttl=52 time=119.378 ms
ping_29 | 64 bytes from 103.41.63.43: seq=22 ttl=52 time=119.430 ms
softwareoverhead_ping_30 exited with code 0
ping_40 | 64 bytes from 103.41.63.43: seq=22 ttl=52 time=119.379 ms
ping_39 | 64 bytes from 103.41.63.43: seq=24 ttl=52 time=119.822 ms
ping_39 | 
ping_39 | --- speedtest.softether.co.jp ping statistics ---
ping_39 | 25 packets transmitted, 25 packets received, 0% packet loss
ping_39 | round-trip min/avg/max = 119.168/119.533/120.862 ms
ping_29 | 64 bytes from 103.41.63.43: seq=23 ttl=52 time=119.382 ms
softwareoverhead_ping_39 exited with code 0
ping_40 | 64 bytes from 103.41.63.43: seq=23 ttl=52 time=119.794 ms
ping_29 | 64 bytes from 103.41.63.43: seq=24 ttl=52 time=119.670 ms
ping_29 | 
ping_29 | --- speedtest.softether.co.jp ping statistics ---
ping_29 | 25 packets transmitted, 25 packets received, 0% packet loss
ping_29 | round-trip min/avg/max = 119.155/119.386/119.798 ms
softwareoverhead_ping_29 exited with code 0
ping_40 | 64 bytes from 103.41.63.43: seq=24 ttl=52 time=119.761 ms
ping_40 | 
ping_40 | --- speedtest.softether.co.jp ping statistics ---
ping_40 | 25 packets transmitted, 25 packets received, 0% packet loss
ping_40 | round-trip min/avg/max = 119.230/119.610/122.279 ms
softwareoverhead_ping_40 exited with code 0
