     1	291 
     2	292 
     3	310 
     4	377 
     5	418 
     6	403 
     7	397 
     8	388 
     9	380 
    10	372 
    11	368 
    12	364 
    13	360 
    14	356 
    15	352 
    16	388 
    17	487 
    18	484 
    19	474 
    20	463 
    21	457 
    22	446 
    23	437 
    24	432 
    25	429 
    26	425 
    27	420 
    28	411 
    29	401 
    30	390 
    31	387 
    32	378 
    33	375 
    34	369 
    35	366 
    36	364 
    37	361 
    38	358 
    39	355 
    40	355 
    41	352 
    42	349 
    43	338 
    44	331 
    45	326 
    46	316 
    47	312 
    48	310 
    49	307 
    50	304 
    51	301 
    52	298 
