top - 00:02:45 up  3:19,  1 user,  load average: 0.08, 0.65, 1.41
Tasks: 377 total,   1 running, 315 sleeping,   0 stopped,   0 zombie
%Cpu(s):  3.4 us,  1.7 sy,  0.0 ni, 94.8 id,  0.1 wa,  0.0 hi,  0.0 si,  0.0 st
KiB Mem : 16278768 total, 11532960 free,  1451328 used,  3294480 buff/cache
KiB Swap: 16630780 total, 16630780 free,        0 used. 14377112 avail Mem 

  PID USER      PR  NI    VIRT    RES    SHR S  %CPU %MEM     TIME+ COMMAND
11836 kenenth   20   0   41908   3844   3184 R  11.8  0.0   0:00.03 top

top - 00:02:46 up  3:19,  1 user,  load average: 0.08, 0.65, 1.41
Tasks: 377 total,   1 running, 315 sleeping,   0 stopped,   0 zombie
%Cpu(s):  0.2 us,  0.5 sy,  0.0 ni, 99.3 id,  0.0 wa,  0.0 hi,  0.0 si,  0.0 st
KiB Mem : 16278768 total, 11532960 free,  1451328 used,  3294480 buff/cache
KiB Swap: 16630780 total, 16630780 free,        0 used. 14377112 avail Mem 

  PID USER      PR  NI    VIRT    RES    SHR S  %CPU %MEM     TIME+ COMMAND
11836 kenenth   20   0   42040   3844   3184 R   1.9  0.0   0:00.05 top
 1780 root      20   0  433932  94764  61672 S   1.0  0.6   2:20.12 Xorg
 1985 kenenth   20   0 3550084 250868  96108 S   1.0  1.5   6:15.31 gnome-shell
16843 kenenth   20   0  792204  37248  28120 S   1.0  0.2   0:00.96 gnome-term+

top - 00:02:47 up  3:19,  1 user,  load average: 0.07, 0.64, 1.40
Tasks: 377 total,   1 running, 315 sleeping,   0 stopped,   0 zombie
%Cpu(s):  0.1 us,  0.2 sy,  0.0 ni, 99.6 id,  0.0 wa,  0.0 hi,  0.0 si,  0.0 st
KiB Mem : 16278768 total, 11532960 free,  1451328 used,  3294480 buff/cache
KiB Swap: 16630780 total, 16630780 free,        0 used. 14377112 avail Mem 

  PID USER      PR  NI    VIRT    RES    SHR S  %CPU %MEM     TIME+ COMMAND
11836 kenenth   20   0   42008   4032   3184 R   2.0  0.0   0:00.07 top
  944 root      20   0  110512   3520   3184 S   1.0  0.0   0:02.00 irqbalance

top - 00:02:49 up  3:19,  1 user,  load average: 0.07, 0.64, 1.40
Tasks: 377 total,   1 running, 315 sleeping,   0 stopped,   0 zombie
%Cpu(s):  0.2 us,  0.4 sy,  0.0 ni, 99.4 id,  0.0 wa,  0.0 hi,  0.0 si,  0.0 st
KiB Mem : 16278768 total, 11532508 free,  1451756 used,  3294504 buff/cache
KiB Swap: 16630780 total, 16630780 free,        0 used. 14376684 avail Mem 

  PID USER      PR  NI    VIRT    RES    SHR S  %CPU %MEM     TIME+ COMMAND
11836 kenenth   20   0   42008   4032   3184 R   2.0  0.0   0:00.09 top
 1780 root      20   0  433932  94764  61672 S   1.0  0.6   2:20.13 Xorg
 1781 root     -51   0       0      0      0 S   1.0  0.0   0:16.80 irq/135-nv+
 1985 kenenth   20   0 3550084 250868  96108 S   1.0  1.5   6:15.32 gnome-shell

top - 00:02:50 up  3:19,  1 user,  load average: 0.07, 0.64, 1.40
Tasks: 377 total,   1 running, 315 sleeping,   0 stopped,   0 zombie
%Cpu(s):  0.1 us,  0.1 sy,  0.0 ni, 99.8 id,  0.0 wa,  0.0 hi,  0.0 si,  0.0 st
KiB Mem : 16278768 total, 11532508 free,  1451756 used,  3294504 buff/cache
KiB Swap: 16630780 total, 16630780 free,        0 used. 14376684 avail Mem 

  PID USER      PR  NI    VIRT    RES    SHR S  %CPU %MEM     TIME+ COMMAND
 1780 root      20   0  433932  94764  61672 S   1.0  0.6   2:20.14 Xorg
 1985 kenenth   20   0 3550084 250868  96108 S   1.0  1.5   6:15.33 gnome-shell
11836 kenenth   20   0   42008   4032   3184 R   1.0  0.0   0:00.10 top

top - 00:02:51 up  3:19,  1 user,  load average: 0.07, 0.64, 1.40
Tasks: 377 total,   1 running, 315 sleeping,   0 stopped,   0 zombie
%Cpu(s):  0.2 us,  0.2 sy,  0.0 ni, 99.5 id,  0.0 wa,  0.0 hi,  0.0 si,  0.0 st
KiB Mem : 16278768 total, 11532260 free,  1452004 used,  3294504 buff/cache
KiB Swap: 16630780 total, 16630780 free,        0 used. 14376436 avail Mem 

  PID USER      PR  NI    VIRT    RES    SHR S  %CPU %MEM     TIME+ COMMAND
  972 root      20   0  565024  23700  13716 S   1.0  0.1   1:31.33 NetworkMan+
 1780 root      20   0  433932  94764  61672 S   1.0  0.6   2:20.15 Xorg
11836 kenenth   20   0   42008   4032   3184 R   1.0  0.0   0:00.11 top

top - 00:02:52 up  3:19,  1 user,  load average: 0.07, 0.64, 1.40
Tasks: 377 total,   1 running, 315 sleeping,   0 stopped,   0 zombie
%Cpu(s):  0.1 us,  0.2 sy,  0.0 ni, 99.6 id,  0.0 wa,  0.0 hi,  0.0 si,  0.0 st
KiB Mem : 16278768 total, 11532260 free,  1452004 used,  3294504 buff/cache
KiB Swap: 16630780 total, 16630780 free,        0 used. 14376436 avail Mem 

  PID USER      PR  NI    VIRT    RES    SHR S  %CPU %MEM     TIME+ COMMAND
11836 kenenth   20   0   42008   4032   3184 R   2.0  0.0   0:00.13 top
 1985 kenenth   20   0 3550084 250868  96108 S   1.0  1.5   6:15.34 gnome-shell

top - 00:02:53 up  3:19,  1 user,  load average: 0.07, 0.63, 1.39
Tasks: 377 total,   1 running, 315 sleeping,   0 stopped,   0 zombie
%Cpu(s):  0.2 us,  0.1 sy,  0.0 ni, 99.6 id,  0.0 wa,  0.0 hi,  0.0 si,  0.0 st
KiB Mem : 16278768 total, 11532260 free,  1452004 used,  3294504 buff/cache
KiB Swap: 16630780 total, 16630780 free,        0 used. 14376436 avail Mem 

  PID USER      PR  NI    VIRT    RES    SHR S  %CPU %MEM     TIME+ COMMAND
 1780 root      20   0  433932  94764  61672 S   1.0  0.6   2:20.16 Xorg
 1781 root     -51   0       0      0      0 S   1.0  0.0   0:16.81 irq/135-nv+
 1985 kenenth   20   0 3550084 250868  96108 S   1.0  1.5   6:15.35 gnome-shell
11836 kenenth   20   0   42008   4032   3184 R   1.0  0.0   0:00.14 top
16843 kenenth   20   0  792204  37248  28120 S   1.0  0.2   0:00.97 gnome-term+

top - 00:02:54 up  3:19,  1 user,  load average: 0.07, 0.63, 1.39
Tasks: 377 total,   1 running, 315 sleeping,   0 stopped,   0 zombie
%Cpu(s):  0.0 us,  0.4 sy,  0.0 ni, 99.6 id,  0.0 wa,  0.0 hi,  0.0 si,  0.0 st
KiB Mem : 16278768 total, 11532228 free,  1452032 used,  3294508 buff/cache
KiB Swap: 16630780 total, 16630780 free,        0 used. 14376404 avail Mem 

  PID USER      PR  NI    VIRT    RES    SHR S  %CPU %MEM     TIME+ COMMAND
11836 kenenth   20   0   42008   4032   3184 R   2.0  0.0   0:00.16 top
 1780 root      20   0  433932  94764  61672 S   1.0  0.6   2:20.17 Xorg
16791 root      20   0       0      0      0 I   1.0  0.0   0:02.06 kworker/u1+

top - 00:02:55 up  3:19,  1 user,  load average: 0.07, 0.63, 1.39
Tasks: 377 total,   1 running, 315 sleeping,   0 stopped,   0 zombie
%Cpu(s):  0.1 us,  0.2 sy,  0.0 ni, 99.6 id,  0.0 wa,  0.0 hi,  0.0 si,  0.0 st
KiB Mem : 16278768 total, 11532228 free,  1452032 used,  3294508 buff/cache
KiB Swap: 16630780 total, 16630780 free,        0 used. 14376404 avail Mem 

  PID USER      PR  NI    VIRT    RES    SHR S  %CPU %MEM     TIME+ COMMAND
 1514 gdm       20   0  803904  30996  23380 S   1.0  0.2   0:01.43 gsd-color
 1985 kenenth   20   0 3550084 250868  96108 S   1.0  1.5   6:15.36 gnome-shell
11836 kenenth   20   0   42008   4032   3184 R   1.0  0.0   0:00.17 top

top - 00:02:56 up  3:19,  1 user,  load average: 0.07, 0.63, 1.39
Tasks: 352 total,   1 running, 290 sleeping,   0 stopped,   0 zombie
%Cpu(s):  0.2 us,  0.2 sy,  0.0 ni, 99.5 id,  0.0 wa,  0.0 hi,  0.0 si,  0.0 st
KiB Mem : 16278768 total, 11532228 free,  1452032 used,  3294508 buff/cache
KiB Swap: 16630780 total, 16630780 free,        0 used. 14376404 avail Mem 

  PID USER      PR  NI    VIRT    RES    SHR S  %CPU %MEM     TIME+ COMMAND
  995 avahi     20   0   48328   4916   3344 S   1.0  0.0   0:14.22 avahi-daem+
 1129 root      20   0 5005772  37056  26124 S   1.0  0.2   0:55.93 containerd
 1780 root      20   0  433932  94764  61672 S   1.0  0.6   2:20.18 Xorg
 1985 kenenth   20   0 3550084 250868  96108 S   1.0  1.5   6:15.37 gnome-shell
11836 kenenth   20   0   42008   4032   3184 R   1.0  0.0   0:00.18 top

top - 00:02:57 up  3:19,  1 user,  load average: 0.07, 0.63, 1.39
Tasks: 352 total,   1 running, 290 sleeping,   0 stopped,   0 zombie
%Cpu(s):  0.1 us,  0.1 sy,  0.0 ni, 99.8 id,  0.0 wa,  0.0 hi,  0.0 si,  0.0 st
KiB Mem : 16278768 total, 11538660 free,  1445592 used,  3294516 buff/cache
KiB Swap: 16630780 total, 16630780 free,        0 used. 14382848 avail Mem 

  PID USER      PR  NI    VIRT    RES    SHR S  %CPU %MEM     TIME+ COMMAND
11836 kenenth   20   0   42008   4032   3184 R   2.0  0.0   0:00.20 top
 1780 root      20   0  433932  94764  61672 S   1.0  0.6   2:20.19 Xorg
 1781 root     -51   0       0      0      0 S   1.0  0.0   0:16.82 irq/135-nv+
18509 root      20   0       0      0      0 I   1.0  0.0   0:00.33 kworker/5:0

top - 00:02:58 up  3:19,  1 user,  load average: 0.06, 0.62, 1.38
Tasks: 352 total,   1 running, 290 sleeping,   0 stopped,   0 zombie
%Cpu(s):  0.4 us,  0.2 sy,  0.0 ni, 99.4 id,  0.0 wa,  0.0 hi,  0.0 si,  0.0 st
KiB Mem : 16278768 total, 11538660 free,  1445592 used,  3294516 buff/cache
KiB Swap: 16630780 total, 16630780 free,        0 used. 14382848 avail Mem 

  PID USER      PR  NI    VIRT    RES    SHR S  %CPU %MEM     TIME+ COMMAND
11836 kenenth   20   0   42008   4032   3184 R   2.0  0.0   0:00.22 top
    8 root      20   0       0      0      0 I   1.0  0.0   0:07.56 rcu_sched

top - 00:02:59 up  3:19,  1 user,  load average: 0.06, 0.62, 1.38
Tasks: 352 total,   1 running, 290 sleeping,   0 stopped,   0 zombie
%Cpu(s):  0.0 us,  0.1 sy,  0.0 ni, 99.9 id,  0.0 wa,  0.0 hi,  0.0 si,  0.0 st
KiB Mem : 16278768 total, 11538660 free,  1445592 used,  3294516 buff/cache
KiB Swap: 16630780 total, 16630780 free,        0 used. 14382848 avail Mem 

  PID USER      PR  NI    VIRT    RES    SHR S  %CPU %MEM     TIME+ COMMAND
11836 kenenth   20   0   42008   4032   3184 R   2.0  0.0   0:00.24 top
 1129 root      20   0 5005772  37056  26124 S   1.0  0.2   0:55.94 containerd
 1780 root      20   0  433932  94764  61672 S   1.0  0.6   2:20.20 Xorg

top - 00:03:00 up  3:19,  1 user,  load average: 0.06, 0.62, 1.38
Tasks: 352 total,   1 running, 290 sleeping,   0 stopped,   0 zombie
%Cpu(s):  0.2 us,  0.4 sy,  0.0 ni, 99.4 id,  0.0 wa,  0.0 hi,  0.0 si,  0.0 st
KiB Mem : 16278768 total, 11538760 free,  1445488 used,  3294520 buff/cache
KiB Swap: 16630780 total, 16630780 free,        0 used. 14382948 avail Mem 

  PID USER      PR  NI    VIRT    RES    SHR S  %CPU %MEM     TIME+ COMMAND
11836 kenenth   20   0   42008   4032   3184 R   2.0  0.0   0:00.26 top
 1985 kenenth   20   0 3550084 250868  96108 S   1.0  1.5   6:15.38 gnome-shell
 2137 kenenth   20   0  661116  23020  17816 S   1.0  0.1   0:01.43 gsd-color

top - 00:03:01 up  3:19,  1 user,  load average: 0.06, 0.62, 1.38
Tasks: 352 total,   1 running, 290 sleeping,   0 stopped,   0 zombie
%Cpu(s):  0.0 us,  0.1 sy,  0.0 ni, 99.9 id,  0.0 wa,  0.0 hi,  0.0 si,  0.0 st
KiB Mem : 16278768 total, 11538760 free,  1445488 used,  3294520 buff/cache
KiB Swap: 16630780 total, 16630780 free,        0 used. 14382948 avail Mem 

  PID USER      PR  NI    VIRT    RES    SHR S  %CPU %MEM     TIME+ COMMAND
11836 kenenth   20   0   42008   4032   3184 R   1.0  0.0   0:00.27 top

top - 00:03:02 up  3:19,  1 user,  load average: 0.06, 0.62, 1.38
Tasks: 352 total,   1 running, 290 sleeping,   0 stopped,   0 zombie
%Cpu(s):  0.2 us,  0.1 sy,  0.0 ni, 99.6 id,  0.0 wa,  0.0 hi,  0.0 si,  0.0 st
KiB Mem : 16278768 total, 11538760 free,  1445488 used,  3294520 buff/cache
KiB Swap: 16630780 total, 16630780 free,        0 used. 14382948 avail Mem 

  PID USER      PR  NI    VIRT    RES    SHR S  %CPU %MEM     TIME+ COMMAND
11836 kenenth   20   0   42008   4032   3184 R   2.0  0.0   0:00.29 top
 1780 root      20   0  433932  94764  61672 S   1.0  0.6   2:20.21 Xorg

top - 00:03:03 up  3:19,  1 user,  load average: 0.06, 0.61, 1.37
Tasks: 352 total,   1 running, 290 sleeping,   0 stopped,   0 zombie
%Cpu(s):  0.1 us,  0.1 sy,  0.0 ni, 99.8 id,  0.0 wa,  0.0 hi,  0.0 si,  0.0 st
KiB Mem : 16278768 total, 11538728 free,  1445520 used,  3294520 buff/cache
KiB Swap: 16630780 total, 16630780 free,        0 used. 14382916 avail Mem 

  PID USER      PR  NI    VIRT    RES    SHR S  %CPU %MEM     TIME+ COMMAND
 1302 gdm       20   0 3332456 123072  66292 S   1.0  0.8   2:11.64 gnome-shell
11836 kenenth   20   0   42008   4032   3184 R   1.0  0.0   0:00.30 top

top - 00:03:04 up  3:19,  1 user,  load average: 0.06, 0.61, 1.37
Tasks: 352 total,   1 running, 290 sleeping,   0 stopped,   0 zombie
%Cpu(s):  0.1 us,  0.1 sy,  0.0 ni, 99.6 id,  0.1 wa,  0.0 hi,  0.0 si,  0.0 st
KiB Mem : 16278768 total, 11538728 free,  1445520 used,  3294520 buff/cache
KiB Swap: 16630780 total, 16630780 free,        0 used. 14382916 avail Mem 

  PID USER      PR  NI    VIRT    RES    SHR S  %CPU %MEM     TIME+ COMMAND
11836 kenenth   20   0   42008   4032   3184 R   2.0  0.0   0:00.32 top
 1780 root      20   0  433932  94764  61672 S   1.0  0.6   2:20.22 Xorg