Size,,,Domain,IPv4,Sequence,TTL,Latency
64,bytes,from,sea30s02-in-f14.1e100.net,172.217.14.238,1,53,33.0,ms
64,bytes,from,sea30s02-in-f14.1e100.net,172.217.14.238,2,53,33.1,ms
64,bytes,from,sea30s02-in-f14.1e100.net,172.217.14.238,3,53,33.1,ms
64,bytes,from,sea30s02-in-f14.1e100.net,172.217.14.238,4,53,33.3,ms
64,bytes,from,sea30s02-in-f14.1e100.net,172.217.14.238,5,53,33.4,ms
64,bytes,from,sea30s02-in-f14.1e100.net,172.217.14.238,6,53,33.5,ms
64,bytes,from,sea30s02-in-f14.1e100.net,172.217.14.238,7,53,33.5,ms
64,bytes,from,sea30s02-in-f14.1e100.net,172.217.14.238,8,53,33.4,ms
64,bytes,from,sea30s02-in-f14.1e100.net,172.217.14.238,9,53,33.3,ms
64,bytes,from,sea30s02-in-f14.1e100.net,172.217.14.238,10,53,33.4,ms
64,bytes,from,sea30s02-in-f14.1e100.net,172.217.14.238,11,53,33.3,ms
64,bytes,from,sea30s02-in-f14.1e100.net,172.217.14.238,12,53,33.4,ms
64,bytes,from,sea30s02-in-f14.1e100.net,172.217.14.238,13,53,33.3,ms
64,bytes,from,sea30s02-in-f14.1e100.net,172.217.14.238,14,53,36.2,ms
64,bytes,from,sea30s02-in-f14.1e100.net,172.217.14.238,15,53,33.5,ms
64,bytes,from,sea30s02-in-f14.1e100.net,172.217.14.238,16,53,33.4,ms
64,bytes,from,sea30s02-in-f14.1e100.net,172.217.14.238,17,53,33.1,ms
64,bytes,from,sea30s02-in-f14.1e100.net,172.217.14.238,18,53,33.5,ms
64,bytes,from,sea30s02-in-f14.1e100.net,172.217.14.238,19,53,33.4,ms
64,bytes,from,sea30s02-in-f14.1e100.net,172.217.14.238,20,53,33.5,ms
64,bytes,from,sea30s02-in-f14.1e100.net,172.217.14.238,21,53,33.6,ms
64,bytes,from,sea30s02-in-f14.1e100.net,172.217.14.238,22,53,33.4,ms
64,bytes,from,sea30s02-in-f14.1e100.net,172.217.14.238,23,53,33.3,ms
64,bytes,from,sea30s02-in-f14.1e100.net,172.217.14.238,24,53,33.5,ms
64,bytes,from,sea30s02-in-f14.1e100.net,172.217.14.238,25,53,33.3,ms
64,bytes,from,sea30s02-in-f14.1e100.net,172.217.14.238,26,53,33.6,ms
64,bytes,from,sea30s02-in-f14.1e100.net,172.217.14.238,27,53,33.1,ms
64,bytes,from,sea30s02-in-f14.1e100.net,172.217.14.238,28,53,33.6,ms
64,bytes,from,sea30s02-in-f14.1e100.net,172.217.14.238,29,53,33.5,ms
64,bytes,from,sea30s02-in-f14.1e100.net,172.217.14.238,30,53,33.6,ms
64,bytes,from,sea30s02-in-f14.1e100.net,172.217.14.238,31,53,33.4,ms
64,bytes,from,sea30s02-in-f14.1e100.net,172.217.14.238,32,53,33.4,ms
64,bytes,from,sea30s02-in-f14.1e100.net,172.217.14.238,33,53,33.6,ms
64,bytes,from,sea30s02-in-f14.1e100.net,172.217.14.238,34,53,33.1,ms
64,bytes,from,sea30s02-in-f14.1e100.net,172.217.14.238,35,53,33.1,ms
64,bytes,from,sea30s02-in-f14.1e100.net,172.217.14.238,36,53,33.4,ms
64,bytes,from,sea30s02-in-f14.1e100.net,172.217.14.238,37,53,33.3,ms
64,bytes,from,sea30s02-in-f14.1e100.net,172.217.14.238,38,53,33.3,ms
64,bytes,from,sea30s02-in-f14.1e100.net,172.217.14.238,39,53,33.4,ms
64,bytes,from,sea30s02-in-f14.1e100.net,172.217.14.238,40,53,33.4,ms
64,bytes,from,sea30s02-in-f14.1e100.net,172.217.14.238,41,53,36.2,ms
64,bytes,from,sea30s02-in-f14.1e100.net,172.217.14.238,42,53,33.0,ms
64,bytes,from,sea30s02-in-f14.1e100.net,172.217.14.238,43,53,34.3,ms
64,bytes,from,sea30s02-in-f14.1e100.net,172.217.14.238,44,53,33.4,ms
64,bytes,from,sea30s02-in-f14.1e100.net,172.217.14.238,45,53,33.4,ms
64,bytes,from,sea30s02-in-f14.1e100.net,172.217.14.238,46,53,33.3,ms
64,bytes,from,sea30s02-in-f14.1e100.net,172.217.14.238,47,53,33.3,ms
64,bytes,from,sea30s02-in-f14.1e100.net,172.217.14.238,48,53,33.4,ms
64,bytes,from,sea30s02-in-f14.1e100.net,172.217.14.238,49,53,33.5,ms
64,bytes,from,sea30s02-in-f14.1e100.net,172.217.14.238,50,53,33.4,ms

50,packets,"transmitted,",50,"received,",0%,packet,"loss,",time,49091ms
rtt,min/avg/max/mdev,=,33.041/33.540/36.291/0.627,ms

Size,,,Domain,IPv4,Sequence,TTL,Latency
64,bytes,from,n218250209212.netvigator.com,218.250.209.212,1,50,189,ms
64,bytes,from,n218250209212.netvigator.com,218.250.209.212,2,50,192,ms
64,bytes,from,n218250209212.netvigator.com,218.250.209.212,3,50,197,ms
64,bytes,from,n218250209212.netvigator.com,218.250.209.212,4,50,202,ms
64,bytes,from,n218250209212.netvigator.com,218.250.209.212,5,50,208,ms
64,bytes,from,n218250209212.netvigator.com,218.250.209.212,6,50,197,ms
64,bytes,from,n218250209212.netvigator.com,218.250.209.212,7,50,203,ms
64,bytes,from,n218250209212.netvigator.com,218.250.209.212,8,50,206,ms
64,bytes,from,n218250209212.netvigator.com,218.250.209.212,9,50,196,ms
64,bytes,from,n218250209212.netvigator.com,218.250.209.212,10,50,206,ms

10,packets,"transmitted,",10,"received,",0%,packet,"loss,",time,9014ms
rtt,min/avg/max/mdev,=,189.211/200.035/208.058/5.896,ms

Size,,,Domain,IPv4,Sequence,TTL,Latency
64,bytes,from,sea30s01-in-f14.1e100.net,172.217.14.206,1,56,20.0,ms
64,bytes,from,sea30s01-in-f14.1e100.net,172.217.14.206,2,56,22.7,ms
64,bytes,from,sea30s01-in-f14.1e100.net,172.217.14.206,3,56,22.9,ms
64,bytes,from,sea30s01-in-f14.1e100.net,172.217.14.206,4,56,25.1,ms
64,bytes,from,sea30s01-in-f14.1e100.net,172.217.14.206,5,56,27.5,ms
64,bytes,from,sea30s01-in-f14.1e100.net,172.217.14.206,6,56,22.0,ms
64,bytes,from,sea30s01-in-f14.1e100.net,172.217.14.206,7,56,28.6,ms
64,bytes,from,sea30s01-in-f14.1e100.net,172.217.14.206,8,56,22.7,ms
64,bytes,from,sea30s01-in-f14.1e100.net,172.217.14.206,9,56,23.4,ms
64,bytes,from,sea30s01-in-f14.1e100.net,172.217.14.206,10,56,25.2,ms

10,packets,"transmitted,",10,"received,",0%,packet,"loss,",time,9016ms
rtt,min/avg/max/mdev,=,20.002/24.048/28.609/2.481,ms

Size,,,Domain,IPv4,Sequence,TTL,Latency
64,bytes,from,sea30s01-in-f14.1e100.net,172.217.14.206,1,56,24.3,ms
64,bytes,from,sea30s01-in-f14.1e100.net,172.217.14.206,2,56,22.3,ms
64,bytes,from,sea30s01-in-f14.1e100.net,172.217.14.206,3,56,20.6,ms
64,bytes,from,sea30s01-in-f14.1e100.net,172.217.14.206,4,56,23.7,ms
64,bytes,from,sea30s01-in-f14.1e100.net,172.217.14.206,5,56,21.7,ms
64,bytes,from,sea30s01-in-f14.1e100.net,172.217.14.206,6,56,21.3,ms
64,bytes,from,sea30s01-in-f14.1e100.net,172.217.14.206,7,56,25.6,ms
64,bytes,from,sea30s01-in-f14.1e100.net,172.217.14.206,8,56,21.5,ms
64,bytes,from,sea30s01-in-f14.1e100.net,172.217.14.206,9,56,22.3,ms
64,bytes,from,sea30s01-in-f14.1e100.net,172.217.14.206,10,56,23.5,ms

10,packets,"transmitted,",10,"received,",0%,packet,"loss,",time,9018ms
rtt,min/avg/max/mdev,=,20.630/22.728/25.635/1.484,ms

Size,,,Domain,IPv4,Sequence,TTL,Latency
64,bytes,from,sea15s12-in-f14.1e100.net,172.217.3.206,1,56,20.2,ms
64,bytes,from,sea15s12-in-f14.1e100.net,172.217.3.206,2,56,21.4,ms
64,bytes,from,sea15s12-in-f14.1e100.net,172.217.3.206,3,56,21.9,ms
64,bytes,from,sea15s12-in-f14.1e100.net,172.217.3.206,4,56,22.1,ms
64,bytes,from,sea15s12-in-f14.1e100.net,172.217.3.206,5,56,23.1,ms
64,bytes,from,sea15s12-in-f14.1e100.net,172.217.3.206,6,56,20.6,ms
64,bytes,from,sea15s12-in-f14.1e100.net,172.217.3.206,7,56,23.2,ms
64,bytes,from,sea15s12-in-f14.1e100.net,172.217.3.206,8,56,21.0,ms
64,bytes,from,sea15s12-in-f14.1e100.net,172.217.3.206,9,56,21.5,ms
64,bytes,from,sea15s12-in-f14.1e100.net,172.217.3.206,10,56,21.4,ms

10,packets,"transmitted,",10,"received,",0%,packet,"loss,",time,9016ms
rtt,min/avg/max/mdev,=,20.209/21.680/23.215/0.938,ms

Size,,,Domain,IPv4,Sequence,TTL,Latency
64,bytes,from,sea15s12-in-f206.1e100.net,172.217.3.206,1,56,22.8,ms
64,bytes,from,sea15s12-in-f206.1e100.net,172.217.3.206,2,56,21.9,ms
64,bytes,from,sea15s12-in-f206.1e100.net,172.217.3.206,3,56,22.4,ms
64,bytes,from,sea15s12-in-f206.1e100.net,172.217.3.206,4,56,22.2,ms
64,bytes,from,sea15s12-in-f206.1e100.net,172.217.3.206,5,56,20.8,ms
64,bytes,from,sea15s12-in-f206.1e100.net,172.217.3.206,6,56,22.0,ms
64,bytes,from,sea15s12-in-f206.1e100.net,172.217.3.206,7,56,22.4,ms
64,bytes,from,sea15s12-in-f206.1e100.net,172.217.3.206,8,56,26.3,ms
64,bytes,from,sea15s12-in-f206.1e100.net,172.217.3.206,9,56,23.2,ms
64,bytes,from,sea15s12-in-f206.1e100.net,172.217.3.206,10,56,21.8,ms

10,packets,"transmitted,",10,"received,",0%,packet,"loss,",time,9013ms
rtt,min/avg/max/mdev,=,20.801/22.623/26.394/1.406,ms

Size,,,Domain,IPv4,Sequence,TTL,Latency
64,bytes,from,sea30s01-in-f14.1e100.net,172.217.14.206,1,56,48.5,ms
64,bytes,from,sea30s01-in-f14.1e100.net,172.217.14.206,2,56,25.9,ms
64,bytes,from,sea30s01-in-f14.1e100.net,172.217.14.206,3,56,24.4,ms
64,bytes,from,sea30s01-in-f14.1e100.net,172.217.14.206,4,56,25.7,ms
64,bytes,from,sea30s01-in-f14.1e100.net,172.217.14.206,5,56,24.4,ms
64,bytes,from,sea30s01-in-f14.1e100.net,172.217.14.206,6,56,31.9,ms
64,bytes,from,sea30s01-in-f14.1e100.net,172.217.14.206,7,56,32.0,ms
64,bytes,from,sea30s01-in-f14.1e100.net,172.217.14.206,8,56,24.0,ms
64,bytes,from,sea30s01-in-f14.1e100.net,172.217.14.206,9,56,23.2,ms
64,bytes,from,sea30s01-in-f14.1e100.net,172.217.14.206,10,56,24.9,ms

10,packets,"transmitted,",10,"received,",0%,packet,"loss,",time,9013ms
rtt,min/avg/max/mdev,=,23.274/28.542/48.586/7.313,ms

Size,,,Domain,IPv4,Sequence,TTL,Latency
64,bytes,from,sfo07s16-in-f14.1e100.net,216.58.195.78,1,54,39.7,ms
64,bytes,from,sfo07s16-in-f14.1e100.net,216.58.195.78,2,54,39.9,ms
64,bytes,from,sfo07s16-in-f14.1e100.net,216.58.195.78,3,54,42.9,ms
64,bytes,from,sfo07s16-in-f14.1e100.net,216.58.195.78,4,54,44.8,ms
64,bytes,from,sfo07s16-in-f14.1e100.net,216.58.195.78,5,54,42.8,ms
64,bytes,from,sfo07s16-in-f14.1e100.net,216.58.195.78,6,54,38.9,ms
64,bytes,from,sfo07s16-in-f14.1e100.net,216.58.195.78,7,54,40.3,ms
64,bytes,from,sfo07s16-in-f14.1e100.net,216.58.195.78,8,54,41.2,ms
64,bytes,from,sfo07s16-in-f14.1e100.net,216.58.195.78,9,54,40.0,ms
64,bytes,from,sfo07s16-in-f14.1e100.net,216.58.195.78,10,54,46.9,ms

10,packets,"transmitted,",10,"received,",0%,packet,"loss,",time,9011ms
rtt,min/avg/max/mdev,=,38.970/41.782/46.910/2.437,ms

Size,,,Domain,IPv4,Sequence,TTL,Latency
64,bytes,from,sea30s01-in-f14.1e100.net,172.217.14.206,1,56,24.1,ms
64,bytes,from,sea30s01-in-f14.1e100.net,172.217.14.206,2,56,69.1,ms
64,bytes,from,sea30s01-in-f14.1e100.net,172.217.14.206,3,56,22.2,ms
64,bytes,from,sea30s01-in-f14.1e100.net,172.217.14.206,4,56,23.0,ms
64,bytes,from,sea30s01-in-f14.1e100.net,172.217.14.206,5,56,23.0,ms
64,bytes,from,sea30s01-in-f14.1e100.net,172.217.14.206,6,56,22.8,ms
64,bytes,from,sea30s01-in-f14.1e100.net,172.217.14.206,7,56,27.5,ms
64,bytes,from,sea30s01-in-f14.1e100.net,172.217.14.206,8,56,22.4,ms
64,bytes,from,sea30s01-in-f14.1e100.net,172.217.14.206,9,56,23.2,ms
64,bytes,from,sea30s01-in-f14.1e100.net,172.217.14.206,10,56,23.0,ms

10,packets,"transmitted,",10,"received,",0%,packet,"loss,",time,9011ms
rtt,min/avg/max/mdev,=,22.291/28.081/69.165/13.772,ms

Size,,,Domain,IPv4,Sequence,TTL,Latency
64,bytes,from,sea30s01-in-f14.1e100.net,172.217.14.206,1,56,22.9,ms
64,bytes,from,sea30s01-in-f14.1e100.net,172.217.14.206,2,56,25.2,ms
64,bytes,from,sea30s01-in-f14.1e100.net,172.217.14.206,3,56,26.6,ms
64,bytes,from,sea30s01-in-f14.1e100.net,172.217.14.206,4,56,23.7,ms
64,bytes,from,sea30s01-in-f14.1e100.net,172.217.14.206,5,56,87.6,ms
64,bytes,from,sea30s01-in-f14.1e100.net,172.217.14.206,6,56,21.8,ms
64,bytes,from,sea30s01-in-f14.1e100.net,172.217.14.206,7,56,46.5,ms
64,bytes,from,sea30s01-in-f14.1e100.net,172.217.14.206,8,56,25.2,ms
64,bytes,from,sea30s01-in-f14.1e100.net,172.217.14.206,9,56,26.2,ms
64,bytes,from,sea30s01-in-f14.1e100.net,172.217.14.206,10,56,27.4,ms

10,packets,"transmitted,",10,"received,",0%,packet,"loss,",time,9013ms
rtt,min/avg/max/mdev,=,21.819/33.358/87.680/19.293,ms

Size,,,Domain,IPv4,Sequence,TTL,Latency
64,bytes,from,sea30s01-in-f14.1e100.net,172.217.14.206,1,56,26.7,ms
64,bytes,from,sea30s01-in-f14.1e100.net,172.217.14.206,2,56,25.4,ms
64,bytes,from,sea30s01-in-f14.1e100.net,172.217.14.206,3,56,21.4,ms
64,bytes,from,sea30s01-in-f14.1e100.net,172.217.14.206,4,56,23.9,ms
64,bytes,from,sea30s01-in-f14.1e100.net,172.217.14.206,5,56,29.2,ms
64,bytes,from,sea30s01-in-f14.1e100.net,172.217.14.206,6,56,24.6,ms
64,bytes,from,sea30s01-in-f14.1e100.net,172.217.14.206,7,56,24.3,ms
64,bytes,from,sea30s01-in-f14.1e100.net,172.217.14.206,8,56,27.4,ms
64,bytes,from,sea30s01-in-f14.1e100.net,172.217.14.206,9,56,23.2,ms
64,bytes,from,sea30s01-in-f14.1e100.net,172.217.14.206,10,56,21.7,ms

10,packets,"transmitted,",10,"received,",0%,packet,"loss,",time,9004ms
rtt,min/avg/max/mdev,=,21.462/24.845/29.264/2.355,ms

Size,,,Domain,IPv4,Sequence,TTL,Latency
64,bytes,from,sea30s01-in-f14.1e100.net,172.217.14.206,1,56,30.5,ms
64,bytes,from,sea30s01-in-f14.1e100.net,172.217.14.206,2,56,23.5,ms
64,bytes,from,sea30s01-in-f14.1e100.net,172.217.14.206,3,56,27.1,ms
64,bytes,from,sea30s01-in-f14.1e100.net,172.217.14.206,4,56,21.1,ms
64,bytes,from,sea30s01-in-f14.1e100.net,172.217.14.206,5,56,24.1,ms
64,bytes,from,sea30s01-in-f14.1e100.net,172.217.14.206,6,56,22.4,ms
64,bytes,from,sea30s01-in-f14.1e100.net,172.217.14.206,7,56,22.3,ms
64,bytes,from,sea30s01-in-f14.1e100.net,172.217.14.206,8,56,23.0,ms
64,bytes,from,sea30s01-in-f14.1e100.net,172.217.14.206,9,56,34.4,ms
64,bytes,from,sea30s01-in-f14.1e100.net,172.217.14.206,10,56,22.6,ms

10,packets,"transmitted,",10,"received,",0%,packet,"loss,",time,9012ms
rtt,min/avg/max/mdev,=,21.164/25.145/34.485/4.068,ms

Size,,,Domain,IPv4,Sequence,TTL,Latency
64,bytes,from,sea30s01-in-f14.1e100.net,172.217.14.206,1,56,25.3,ms
64,bytes,from,sea30s01-in-f14.1e100.net,172.217.14.206,2,56,36.2,ms
64,bytes,from,sea30s01-in-f14.1e100.net,172.217.14.206,3,56,22.2,ms
64,bytes,from,sea30s01-in-f14.1e100.net,172.217.14.206,4,56,24.4,ms
64,bytes,from,sea30s01-in-f14.1e100.net,172.217.14.206,5,56,23.6,ms
64,bytes,from,sea30s01-in-f14.1e100.net,172.217.14.206,6,56,31.7,ms
64,bytes,from,sea30s01-in-f14.1e100.net,172.217.14.206,7,56,23.3,ms
64,bytes,from,sea30s01-in-f14.1e100.net,172.217.14.206,8,56,27.3,ms
64,bytes,from,sea30s01-in-f14.1e100.net,172.217.14.206,9,56,25.0,ms
64,bytes,from,sea30s01-in-f14.1e100.net,172.217.14.206,10,56,22.7,ms

10,packets,"transmitted,",10,"received,",0%,packet,"loss,",time,9013ms
rtt,min/avg/max/mdev,=,22.270/26.215/36.226/4.239,ms

Size,,,Domain,IPv4,Sequence,TTL,Latency
64,bytes,from,sea30s01-in-f14.1e100.net,172.217.14.206,1,56,25.6,ms
64,bytes,from,sea30s01-in-f14.1e100.net,172.217.14.206,2,56,24.7,ms
64,bytes,from,sea30s01-in-f14.1e100.net,172.217.14.206,3,56,21.8,ms
64,bytes,from,sea30s01-in-f14.1e100.net,172.217.14.206,4,56,24.0,ms
64,bytes,from,sea30s01-in-f14.1e100.net,172.217.14.206,5,56,24.3,ms
64,bytes,from,sea30s01-in-f14.1e100.net,172.217.14.206,6,56,30.5,ms
64,bytes,from,sea30s01-in-f14.1e100.net,172.217.14.206,7,56,23.3,ms
64,bytes,from,sea30s01-in-f14.1e100.net,172.217.14.206,8,56,21.7,ms
64,bytes,from,sea30s01-in-f14.1e100.net,172.217.14.206,9,56,30.0,ms
64,bytes,from,sea30s01-in-f14.1e100.net,172.217.14.206,10,56,27.2,ms

10,packets,"transmitted,",10,"received,",0%,packet,"loss,",time,9013ms
rtt,min/avg/max/mdev,=,21.797/25.359/30.548/2.902,ms

Size,,,Domain,IPv4,Sequence,TTL,Latency
64,bytes,from,sea30s02-in-f14.1e100.net,172.217.14.238,1,56,38.5,ms
64,bytes,from,sea30s02-in-f14.1e100.net,172.217.14.238,2,56,25.4,ms
64,bytes,from,sea30s02-in-f14.1e100.net,172.217.14.238,3,56,23.0,ms
64,bytes,from,sea30s02-in-f14.1e100.net,172.217.14.238,4,56,25.6,ms
64,bytes,from,sea30s02-in-f14.1e100.net,172.217.14.238,5,56,21.3,ms
64,bytes,from,sea30s02-in-f14.1e100.net,172.217.14.238,6,56,22.4,ms
64,bytes,from,sea30s02-in-f14.1e100.net,172.217.14.238,7,56,33.4,ms
64,bytes,from,sea30s02-in-f14.1e100.net,172.217.14.238,8,56,28.0,ms
64,bytes,from,sea30s02-in-f14.1e100.net,172.217.14.238,9,56,25.8,ms
64,bytes,from,sea30s02-in-f14.1e100.net,172.217.14.238,10,56,22.5,ms

10,packets,"transmitted,",10,"received,",0%,packet,"loss,",time,9011ms
rtt,min/avg/max/mdev,=,21.359/26.635/38.594/5.188,ms

Size,,,Domain,IPv4,Sequence,TTL,Latency
64,bytes,from,sea30s02-in-f14.1e100.net,172.217.14.238,1,56,27.6,ms
64,bytes,from,sea30s02-in-f14.1e100.net,172.217.14.238,2,56,22.3,ms
64,bytes,from,sea30s02-in-f14.1e100.net,172.217.14.238,3,56,24.2,ms
64,bytes,from,sea30s02-in-f14.1e100.net,172.217.14.238,4,56,24.8,ms
64,bytes,from,sea30s02-in-f14.1e100.net,172.217.14.238,5,56,26.8,ms
64,bytes,from,sea30s02-in-f14.1e100.net,172.217.14.238,6,56,23.4,ms
64,bytes,from,sea30s02-in-f14.1e100.net,172.217.14.238,7,56,30.4,ms
64,bytes,from,sea30s02-in-f14.1e100.net,172.217.14.238,8,56,24.6,ms
64,bytes,from,sea30s02-in-f14.1e100.net,172.217.14.238,9,56,23.4,ms
64,bytes,from,sea30s02-in-f14.1e100.net,172.217.14.238,10,56,22.3,ms

10,packets,"transmitted,",10,"received,",0%,packet,"loss,",time,9012ms
rtt,min/avg/max/mdev,=,22.300/25.028/30.444/2.450,ms

Size,,,Domain,IPv4,Sequence,TTL,Latency
64,bytes,from,sea30s02-in-f14.1e100.net,172.217.14.238,1,56,42.0,ms
64,bytes,from,sea30s02-in-f14.1e100.net,172.217.14.238,2,56,24.3,ms
64,bytes,from,sea30s02-in-f14.1e100.net,172.217.14.238,3,56,22.9,ms
64,bytes,from,sea30s02-in-f14.1e100.net,172.217.14.238,4,56,24.2,ms
64,bytes,from,sea30s02-in-f14.1e100.net,172.217.14.238,5,56,23.0,ms
64,bytes,from,sea30s02-in-f14.1e100.net,172.217.14.238,6,56,23.5,ms
64,bytes,from,sea30s02-in-f14.1e100.net,172.217.14.238,7,56,22.5,ms
64,bytes,from,sea30s02-in-f14.1e100.net,172.217.14.238,8,56,23.7,ms
64,bytes,from,sea30s02-in-f14.1e100.net,172.217.14.238,9,56,24.8,ms
64,bytes,from,sea30s02-in-f14.1e100.net,172.217.14.238,10,56,24.3,ms

10,packets,"transmitted,",10,"received,",0%,packet,"loss,",time,9015ms
rtt,min/avg/max/mdev,=,22.535/25.563/42.051/5.541,ms

Size,,,Domain,IPv4,Sequence,TTL,Latency
64,bytes,from,sea30s01-in-f14.1e100.net,172.217.14.206,1,56,24.1,ms
64,bytes,from,sea30s01-in-f14.1e100.net,172.217.14.206,2,56,22.7,ms
64,bytes,from,sea30s01-in-f14.1e100.net,172.217.14.206,3,56,26.2,ms
64,bytes,from,sea30s01-in-f14.1e100.net,172.217.14.206,4,56,22.0,ms
64,bytes,from,sea30s01-in-f14.1e100.net,172.217.14.206,5,56,23.8,ms
64,bytes,from,sea30s01-in-f14.1e100.net,172.217.14.206,6,56,23.4,ms
64,bytes,from,sea30s01-in-f14.1e100.net,172.217.14.206,7,56,26.7,ms
64,bytes,from,sea30s01-in-f14.1e100.net,172.217.14.206,8,56,22.8,ms
64,bytes,from,sea30s01-in-f14.1e100.net,172.217.14.206,9,56,29.1,ms
64,bytes,from,sea30s01-in-f14.1e100.net,172.217.14.206,10,56,25.8,ms

10,packets,"transmitted,",10,"received,",0%,packet,"loss,",time,9012ms
rtt,min/avg/max/mdev,=,22.020/24.722/29.146/2.112,ms

Size,,,Domain,IPv4,Sequence,TTL,Latency
64,bytes,from,sea30s01-in-f14.1e100.net,172.217.14.206,1,56,26.6,ms
64,bytes,from,sea30s01-in-f14.1e100.net,172.217.14.206,2,56,26.9,ms
64,bytes,from,sea30s01-in-f14.1e100.net,172.217.14.206,3,56,27.0,ms
64,bytes,from,sea30s01-in-f14.1e100.net,172.217.14.206,4,56,24.3,ms
64,bytes,from,sea30s01-in-f14.1e100.net,172.217.14.206,5,56,25.6,ms
64,bytes,from,sea30s01-in-f14.1e100.net,172.217.14.206,6,56,23.4,ms
64,bytes,from,sea30s01-in-f14.1e100.net,172.217.14.206,7,56,23.8,ms
64,bytes,from,sea30s01-in-f14.1e100.net,172.217.14.206,8,56,30.7,ms
64,bytes,from,sea30s01-in-f14.1e100.net,172.217.14.206,9,56,22.5,ms
64,bytes,from,sea30s01-in-f14.1e100.net,172.217.14.206,10,56,24.0,ms

10,packets,"transmitted,",10,"received,",0%,packet,"loss,",time,9010ms
rtt,min/avg/max/mdev,=,22.500/25.522/30.704/2.294,ms

Size,,,Domain,IPv4,Sequence,TTL,Latency
64,bytes,from,sea30s01-in-f14.1e100.net,172.217.14.206,1,56,28.9,ms
64,bytes,from,sea30s01-in-f14.1e100.net,172.217.14.206,2,56,24.6,ms
64,bytes,from,sea30s01-in-f14.1e100.net,172.217.14.206,3,56,27.3,ms
64,bytes,from,sea30s01-in-f14.1e100.net,172.217.14.206,4,56,23.1,ms
64,bytes,from,sea30s01-in-f14.1e100.net,172.217.14.206,5,56,24.6,ms
64,bytes,from,sea30s01-in-f14.1e100.net,172.217.14.206,6,56,25.3,ms
64,bytes,from,sea30s01-in-f14.1e100.net,172.217.14.206,7,56,25.9,ms
64,bytes,from,sea30s01-in-f14.1e100.net,172.217.14.206,8,56,25.4,ms
64,bytes,from,sea30s01-in-f14.1e100.net,172.217.14.206,9,56,23.1,ms
64,bytes,from,sea30s01-in-f14.1e100.net,172.217.14.206,10,56,32.4,ms

10,packets,"transmitted,",10,"received,",0%,packet,"loss,",time,9011ms
rtt,min/avg/max/mdev,=,23.124/26.102/32.490/2.717,ms

