10 packets transmitted, 10 received, 0% packet loss, time 9014ms
10 packets transmitted, 10 received, 0% packet loss, time 9015ms
10 packets transmitted, 10 received, 0% packet loss, time 9015ms
10 packets transmitted, 10 received, 0% packet loss, time 9012ms
10 packets transmitted, 10 received, 0% packet loss, time 9015ms
10 packets transmitted, 10 received, 0% packet loss, time 9013ms
10 packets transmitted, 10 received, 0% packet loss, time 9012ms
10 packets transmitted, 10 received, 0% packet loss, time 9015ms
10 packets transmitted, 10 received, 0% packet loss, time 9012ms
10 packets transmitted, 10 received, 0% packet loss, time 9015ms
10 packets transmitted, 10 received, 0% packet loss, time 9014ms
10 packets transmitted, 10 received, 0% packet loss, time 9013ms
10 packets transmitted, 10 received, 0% packet loss, time 9015ms
10 packets transmitted, 10 received, 0% packet loss, time 9012ms
10 packets transmitted, 10 received, 0% packet loss, time 9015ms
10 packets transmitted, 10 received, 0% packet loss, time 9014ms
10 packets transmitted, 10 received, 0% packet loss, time 9011ms
10 packets transmitted, 10 received, 0% packet loss, time 9012ms
10 packets transmitted, 10 received, 0% packet loss, time 9012ms
10 packets transmitted, 10 received, 0% packet loss, time 9016ms
10 packets transmitted, 10 received, 0% packet loss, time 9013ms
10 packets transmitted, 10 received, 0% packet loss, time 9013ms
10 packets transmitted, 10 received, 0% packet loss, time 9013ms
10 packets transmitted, 10 received, 0% packet loss, time 9011ms
10 packets transmitted, 10 received, 0% packet loss, time 9011ms
10 packets transmitted, 10 received, 0% packet loss, time 9014ms
10 packets transmitted, 10 received, 0% packet loss, time 9012ms
10 packets transmitted, 10 received, 0% packet loss, time 9014ms
10 packets transmitted, 10 received, 0% packet loss, time 9012ms
10 packets transmitted, 10 received, 0% packet loss, time 9011ms
10 packets transmitted, 10 received, 0% packet loss, time 9013ms
10 packets transmitted, 10 received, 0% packet loss, time 9014ms
10 packets transmitted, 10 received, 0% packet loss, time 9014ms
10 packets transmitted, 10 received, 0% packet loss, time 9013ms
10 packets transmitted, 10 received, 0% packet loss, time 9014ms
10 packets transmitted, 10 received, 0% packet loss, time 9015ms
10 packets transmitted, 10 received, 0% packet loss, time 9009ms
10 packets transmitted, 10 received, 0% packet loss, time 9015ms
10 packets transmitted, 10 received, 0% packet loss, time 9011ms
10 packets transmitted, 10 received, 0% packet loss, time 9014ms
10 packets transmitted, 10 received, 0% packet loss, time 9013ms
10 packets transmitted, 10 received, 0% packet loss, time 9010ms
10 packets transmitted, 10 received, 0% packet loss, time 9012ms
10 packets transmitted, 10 received, 0% packet loss, time 9010ms
10 packets transmitted, 10 received, 0% packet loss, time 9014ms
10 packets transmitted, 10 received, 0% packet loss, time 9012ms
10 packets transmitted, 10 received, 0% packet loss, time 9011ms
10 packets transmitted, 10 received, 0% packet loss, time 9011ms
10 packets transmitted, 10 received, 0% packet loss, time 9013ms
10 packets transmitted, 10 received, 0% packet loss, time 9011ms
10 packets transmitted, 10 received, 0% packet loss, time 9013ms
10 packets transmitted, 10 received, 0% packet loss, time 9014ms
10 packets transmitted, 10 received, 0% packet loss, time 9014ms
10 packets transmitted, 10 received, 0% packet loss, time 9012ms
10 packets transmitted, 10 received, 0% packet loss, time 9011ms
10 packets transmitted, 10 received, 0% packet loss, time 9011ms
10 packets transmitted, 10 received, 0% packet loss, time 9012ms
10 packets transmitted, 10 received, 0% packet loss, time 9013ms
10 packets transmitted, 10 received, 0% packet loss, time 9015ms
10 packets transmitted, 10 received, 0% packet loss, time 9009ms
10 packets transmitted, 10 received, 0% packet loss, time 9009ms
10 packets transmitted, 10 received, 0% packet loss, time 9013ms
10 packets transmitted, 10 received, 0% packet loss, time 9013ms
10 packets transmitted, 10 received, 0% packet loss, time 9010ms
10 packets transmitted, 10 received, 0% packet loss, time 9012ms
10 packets transmitted, 10 received, 0% packet loss, time 9012ms
10 packets transmitted, 10 received, 0% packet loss, time 9013ms
10 packets transmitted, 10 received, 0% packet loss, time 9011ms
10 packets transmitted, 10 received, 0% packet loss, time 9012ms
10 packets transmitted, 10 received, 0% packet loss, time 9012ms
10 packets transmitted, 10 received, 0% packet loss, time 9013ms
10 packets transmitted, 10 received, 0% packet loss, time 9014ms
10 packets transmitted, 10 received, 0% packet loss, time 9012ms
10 packets transmitted, 10 received, 0% packet loss, time 9014ms
10 packets transmitted, 10 received, 0% packet loss, time 9013ms
10 packets transmitted, 10 received, 0% packet loss, time 9013ms
10 packets transmitted, 10 received, 0% packet loss, time 9013ms
10 packets transmitted, 10 received, 0% packet loss, time 9011ms
10 packets transmitted, 10 received, 0% packet loss, time 9014ms
10 packets transmitted, 10 received, 0% packet loss, time 9013ms
10 packets transmitted, 10 received, 0% packet loss, time 9012ms
10 packets transmitted, 10 received, 0% packet loss, time 9014ms
10 packets transmitted, 10 received, 0% packet loss, time 9014ms
10 packets transmitted, 10 received, 0% packet loss, time 9012ms
10 packets transmitted, 10 received, 0% packet loss, time 9012ms
10 packets transmitted, 10 received, 0% packet loss, time 9012ms
10 packets transmitted, 10 received, 0% packet loss, time 9014ms
10 packets transmitted, 10 received, 0% packet loss, time 9014ms
10 packets transmitted, 10 received, 0% packet loss, time 9015ms
10 packets transmitted, 10 received, 0% packet loss, time 9013ms
10 packets transmitted, 10 received, 0% packet loss, time 9012ms
10 packets transmitted, 10 received, 0% packet loss, time 9013ms
10 packets transmitted, 10 received, 0% packet loss, time 9014ms
10 packets transmitted, 10 received, 0% packet loss, time 9013ms
10 packets transmitted, 10 received, 0% packet loss, time 9014ms
10 packets transmitted, 10 received, 0% packet loss, time 9013ms
10 packets transmitted, 10 received, 0% packet loss, time 9013ms
10 packets transmitted, 10 received, 0% packet loss, time 9014ms
10 packets transmitted, 10 received, 0% packet loss, time 9014ms
10 packets transmitted, 10 received, 0% packet loss, time 9014ms
