top - 23:22:48 up  2:39,  1 user,  load average: 0.05, 0.68, 1.59
Tasks: 375 total,   2 running, 313 sleeping,   0 stopped,   0 zombie
%Cpu(s):  3.4 us,  1.8 sy,  0.0 ni, 94.7 id,  0.1 wa,  0.0 hi,  0.0 si,  0.0 st
KiB Mem : 16278768 total, 11886804 free,  1441156 used,  2950808 buff/cache
KiB Swap: 16630780 total, 16630780 free,        0 used. 14387260 avail Mem 

  PID USER      PR  NI    VIRT    RES    SHR S  %CPU %MEM     TIME+ COMMAND
  703 systemd+  20   0   71176   6764   5524 S  16.7  0.0   0:06.78 systemd-re+
14731 kenenth   20   0   41908   3684   3024 R  11.1  0.0   0:00.03 top

top - 23:22:49 up  2:39,  1 user,  load average: 0.05, 0.68, 1.59
Tasks: 375 total,   1 running, 314 sleeping,   0 stopped,   0 zombie
%Cpu(s):  0.2 us,  0.5 sy,  0.0 ni, 99.3 id,  0.0 wa,  0.0 hi,  0.0 si,  0.0 st
KiB Mem : 16278768 total, 11886804 free,  1441156 used,  2950808 buff/cache
KiB Swap: 16630780 total, 16630780 free,        0 used. 14387260 avail Mem 

  PID USER      PR  NI    VIRT    RES    SHR S  %CPU %MEM     TIME+ COMMAND
14731 kenenth   20   0   41908   3684   3024 R   1.9  0.0   0:00.05 top
 1985 kenenth   20   0 3540348 243700  96104 S   1.0  1.5   5:09.18 gnome-shell

top - 23:22:50 up  2:39,  1 user,  load average: 0.05, 0.68, 1.59
Tasks: 375 total,   1 running, 314 sleeping,   0 stopped,   0 zombie
%Cpu(s):  0.2 us,  0.9 sy,  0.0 ni, 98.9 id,  0.0 wa,  0.0 hi,  0.0 si,  0.0 st
KiB Mem : 16278768 total, 11886804 free,  1441156 used,  2950808 buff/cache
KiB Swap: 16630780 total, 16630780 free,        0 used. 14387260 avail Mem 

  PID USER      PR  NI    VIRT    RES    SHR S  %CPU %MEM     TIME+ COMMAND
14731 kenenth   20   0   41908   3684   3024 R   2.0  0.0   0:00.07 top
   28 root      20   0       0      0      0 S   1.0  0.0   0:01.60 ksoftirqd/3
 1780 root      20   0  433932  94760  61668 S   1.0  0.6   1:51.46 Xorg
 1985 kenenth   20   0 3540348 243700  96104 S   1.0  1.5   5:09.19 gnome-shell
22835 kenenth   20   0  794668  37412  28120 S   1.0  0.2   0:02.97 gnome-term+

top - 23:22:51 up  2:39,  1 user,  load average: 0.04, 0.67, 1.58
Tasks: 375 total,   1 running, 314 sleeping,   0 stopped,   0 zombie
%Cpu(s):  0.2 us,  0.4 sy,  0.0 ni, 99.3 id,  0.0 wa,  0.0 hi,  0.1 si,  0.0 st
KiB Mem : 16278768 total, 11886756 free,  1441180 used,  2950832 buff/cache
KiB Swap: 16630780 total, 16630780 free,        0 used. 14387256 avail Mem 

  PID USER      PR  NI    VIRT    RES    SHR S  %CPU %MEM     TIME+ COMMAND
  972 root      20   0  565028  23704  13716 S   1.0  0.1   1:13.30 NetworkMan+
  995 avahi     20   0   48332   4912   3344 S   1.0  0.0   0:11.41 avahi-daem+
14731 kenenth   20   0   41908   3684   3024 R   1.0  0.0   0:00.08 top

top - 23:22:52 up  2:39,  1 user,  load average: 0.04, 0.67, 1.58
Tasks: 375 total,   1 running, 314 sleeping,   0 stopped,   0 zombie
%Cpu(s):  0.2 us,  0.5 sy,  0.0 ni, 99.1 id,  0.0 wa,  0.0 hi,  0.1 si,  0.0 st
KiB Mem : 16278768 total, 11886756 free,  1441180 used,  2950832 buff/cache
KiB Swap: 16630780 total, 16630780 free,        0 used. 14387256 avail Mem 

  PID USER      PR  NI    VIRT    RES    SHR S  %CPU %MEM     TIME+ COMMAND
 1985 kenenth   20   0 3540348 243700  96104 S   2.0  1.5   5:09.21 gnome-shell
14731 kenenth   20   0   41908   3684   3024 R   2.0  0.0   0:00.10 top
    8 root      20   0       0      0      0 I   1.0  0.0   0:06.02 rcu_sched
 1129 root      20   0 5005772  38064  25972 S   1.0  0.2   0:45.22 containerd
 1780 root      20   0  433932  94760  61668 S   1.0  0.6   1:51.47 Xorg
 1781 root     -51   0       0      0      0 S   1.0  0.0   0:13.53 irq/135-nv+

top - 23:22:53 up  2:39,  1 user,  load average: 0.04, 0.67, 1.58
Tasks: 375 total,   1 running, 314 sleeping,   0 stopped,   0 zombie
%Cpu(s):  0.0 us,  0.2 sy,  0.0 ni, 99.8 id,  0.0 wa,  0.0 hi,  0.0 si,  0.0 st
KiB Mem : 16278768 total, 11886756 free,  1441180 used,  2950832 buff/cache
KiB Swap: 16630780 total, 16630780 free,        0 used. 14387256 avail Mem 

  PID USER      PR  NI    VIRT    RES    SHR S  %CPU %MEM     TIME+ COMMAND
14731 kenenth   20   0   41908   3684   3024 R   2.0  0.0   0:00.12 top
  995 avahi     20   0   48332   4912   3344 S   1.0  0.0   0:11.42 avahi-daem+

top - 23:22:54 up  2:39,  1 user,  load average: 0.04, 0.67, 1.58
Tasks: 375 total,   1 running, 314 sleeping,   0 stopped,   0 zombie
%Cpu(s):  0.4 us,  0.2 sy,  0.0 ni, 99.3 id,  0.0 wa,  0.0 hi,  0.1 si,  0.0 st
KiB Mem : 16278768 total, 11886756 free,  1441152 used,  2950860 buff/cache
KiB Swap: 16630780 total, 16630780 free,        0 used. 14387268 avail Mem 

  PID USER      PR  NI    VIRT    RES    SHR S  %CPU %MEM     TIME+ COMMAND
 1780 root      20   0  433932  94760  61668 S   2.0  0.6   1:51.49 Xorg
14731 kenenth   20   0   41908   3684   3024 R   2.0  0.0   0:00.14 top
   28 root      20   0       0      0      0 S   1.0  0.0   0:01.61 ksoftirqd/3

top - 23:22:55 up  2:39,  1 user,  load average: 0.04, 0.67, 1.58
Tasks: 375 total,   1 running, 314 sleeping,   0 stopped,   0 zombie
%Cpu(s):  0.2 us,  0.2 sy,  0.0 ni, 99.4 id,  0.0 wa,  0.0 hi,  0.1 si,  0.0 st
KiB Mem : 16278768 total, 11886756 free,  1441152 used,  2950860 buff/cache
KiB Swap: 16630780 total, 16630780 free,        0 used. 14387268 avail Mem 

  PID USER      PR  NI    VIRT    RES    SHR S  %CPU %MEM     TIME+ COMMAND
 1985 kenenth   20   0 3540348 243700  96104 S   1.0  1.5   5:09.22 gnome-shell
14731 kenenth   20   0   41908   3684   3024 R   1.0  0.0   0:00.15 top

top - 23:22:56 up  2:39,  1 user,  load average: 0.04, 0.66, 1.57
Tasks: 375 total,   1 running, 314 sleeping,   0 stopped,   0 zombie
%Cpu(s):  0.1 us,  0.4 sy,  0.0 ni, 99.5 id,  0.0 wa,  0.0 hi,  0.0 si,  0.0 st
KiB Mem : 16278768 total, 11886756 free,  1441152 used,  2950860 buff/cache
KiB Swap: 16630780 total, 16630780 free,        0 used. 14387268 avail Mem 

  PID USER      PR  NI    VIRT    RES    SHR S  %CPU %MEM     TIME+ COMMAND
 1780 root      20   0  433932  94760  61668 S   1.0  0.6   1:51.50 Xorg
 1985 kenenth   20   0 3540348 243700  96104 S   1.0  1.5   5:09.23 gnome-shell
14731 kenenth   20   0   41908   3684   3024 R   1.0  0.0   0:00.16 top