PING csl2.hkspeedtest.com (203.210.4.91) 56(84) bytes of data.
64 bytes from 203-210-4-091.static.pccw-hkt.com (203.210.4.91): icmp_seq=1 ttl=56 time=179 ms
PING csl2.hkspeedtest.com (203.210.4.91) 56(84) bytes of data.
64 bytes from 203-210-4-091.static.pccw-hkt.com (203.210.4.91): icmp_seq=1 ttl=56 time=179 ms
PING csl2.hkspeedtest.com (203.210.4.91) 56(84) bytes of data.
64 bytes from 203-210-4-091.static.pccw-hkt.com (203.210.4.91): icmp_seq=1 ttl=56 time=180 ms
PING csl2.hkspeedtest.com (203.210.4.91) 56(84) bytes of data.
64 bytes from 203-210-4-091.static.pccw-hkt.com (203.210.4.91): icmp_seq=1 ttl=56 time=180 ms
PING csl2.hkspeedtest.com (203.210.4.91) 56(84) bytes of data.
64 bytes from 203-210-4-091.static.pccw-hkt.com (203.210.4.91): icmp_seq=1 ttl=56 time=180 ms
PING csl2.hkspeedtest.com (203.210.4.91) 56(84) bytes of data.
64 bytes from 203-210-4-091.static.pccw-hkt.com (203.210.4.91): icmp_seq=1 ttl=56 time=179 ms
PING csl2.hkspeedtest.com (203.210.4.91) 56(84) bytes of data.
64 bytes from 203-210-4-091.static.pccw-hkt.com (203.210.4.91): icmp_seq=1 ttl=56 time=178 ms
PING csl2.hkspeedtest.com (203.210.4.91) 56(84) bytes of data.
64 bytes from 203-210-4-091.static.pccw-hkt.com (203.210.4.91): icmp_seq=1 ttl=56 time=178 ms
PING csl2.hkspeedtest.com (203.210.4.91) 56(84) bytes of data.
64 bytes from 203-210-4-091.static.pccw-hkt.com (203.210.4.91): icmp_seq=1 ttl=56 time=178 ms
PING csl2.hkspeedtest.com (203.210.4.91) 56(84) bytes of data.
64 bytes from 203-210-4-091.static.pccw-hkt.com (203.210.4.91): icmp_seq=1 ttl=56 time=178 ms
64 bytes from 203-210-4-091.static.pccw-hkt.com (203.210.4.91): icmp_seq=2 ttl=56 time=179 ms
64 bytes from 203-210-4-091.static.pccw-hkt.com (203.210.4.91): icmp_seq=2 ttl=56 time=179 ms
64 bytes from 203-210-4-091.static.pccw-hkt.com (203.210.4.91): icmp_seq=2 ttl=56 time=179 ms
64 bytes from 203-210-4-091.static.pccw-hkt.com (203.210.4.91): icmp_seq=2 ttl=56 time=179 ms
64 bytes from 203-210-4-091.static.pccw-hkt.com (203.210.4.91): icmp_seq=2 ttl=56 time=180 ms
64 bytes from 203-210-4-091.static.pccw-hkt.com (203.210.4.91): icmp_seq=2 ttl=56 time=179 ms
64 bytes from 203-210-4-091.static.pccw-hkt.com (203.210.4.91): icmp_seq=2 ttl=56 time=177 ms
64 bytes from 203-210-4-091.static.pccw-hkt.com (203.210.4.91): icmp_seq=2 ttl=56 time=178 ms
64 bytes from 203-210-4-091.static.pccw-hkt.com (203.210.4.91): icmp_seq=2 ttl=56 time=178 ms
64 bytes from 203-210-4-091.static.pccw-hkt.com (203.210.4.91): icmp_seq=2 ttl=56 time=178 ms
64 bytes from 203-210-4-091.static.pccw-hkt.com (203.210.4.91): icmp_seq=3 ttl=56 time=181 ms
64 bytes from 203-210-4-091.static.pccw-hkt.com (203.210.4.91): icmp_seq=3 ttl=56 time=181 ms
64 bytes from 203-210-4-091.static.pccw-hkt.com (203.210.4.91): icmp_seq=3 ttl=56 time=181 ms
64 bytes from 203-210-4-091.static.pccw-hkt.com (203.210.4.91): icmp_seq=3 ttl=56 time=181 ms
64 bytes from 203-210-4-091.static.pccw-hkt.com (203.210.4.91): icmp_seq=3 ttl=56 time=178 ms
64 bytes from 203-210-4-091.static.pccw-hkt.com (203.210.4.91): icmp_seq=3 ttl=56 time=181 ms
64 bytes from 203-210-4-091.static.pccw-hkt.com (203.210.4.91): icmp_seq=3 ttl=56 time=178 ms
64 bytes from 203-210-4-091.static.pccw-hkt.com (203.210.4.91): icmp_seq=3 ttl=56 time=178 ms
64 bytes from 203-210-4-091.static.pccw-hkt.com (203.210.4.91): icmp_seq=3 ttl=56 time=178 ms
64 bytes from 203-210-4-091.static.pccw-hkt.com (203.210.4.91): icmp_seq=3 ttl=56 time=178 ms
64 bytes from 203-210-4-091.static.pccw-hkt.com (203.210.4.91): icmp_seq=4 ttl=56 time=181 ms
64 bytes from 203-210-4-091.static.pccw-hkt.com (203.210.4.91): icmp_seq=4 ttl=56 time=181 ms
64 bytes from 203-210-4-091.static.pccw-hkt.com (203.210.4.91): icmp_seq=4 ttl=56 time=181 ms
64 bytes from 203-210-4-091.static.pccw-hkt.com (203.210.4.91): icmp_seq=4 ttl=56 time=181 ms
64 bytes from 203-210-4-091.static.pccw-hkt.com (203.210.4.91): icmp_seq=4 ttl=56 time=180 ms
64 bytes from 203-210-4-091.static.pccw-hkt.com (203.210.4.91): icmp_seq=4 ttl=56 time=179 ms
64 bytes from 203-210-4-091.static.pccw-hkt.com (203.210.4.91): icmp_seq=4 ttl=56 time=179 ms
64 bytes from 203-210-4-091.static.pccw-hkt.com (203.210.4.91): icmp_seq=4 ttl=56 time=179 ms
64 bytes from 203-210-4-091.static.pccw-hkt.com (203.210.4.91): icmp_seq=4 ttl=56 time=179 ms
64 bytes from 203-210-4-091.static.pccw-hkt.com (203.210.4.91): icmp_seq=4 ttl=56 time=179 ms
64 bytes from 203-210-4-091.static.pccw-hkt.com (203.210.4.91): icmp_seq=5 ttl=56 time=180 ms
64 bytes from 203-210-4-091.static.pccw-hkt.com (203.210.4.91): icmp_seq=5 ttl=56 time=180 ms
64 bytes from 203-210-4-091.static.pccw-hkt.com (203.210.4.91): icmp_seq=5 ttl=56 time=180 ms
64 bytes from 203-210-4-091.static.pccw-hkt.com (203.210.4.91): icmp_seq=5 ttl=56 time=180 ms
64 bytes from 203-210-4-091.static.pccw-hkt.com (203.210.4.91): icmp_seq=5 ttl=56 time=179 ms
64 bytes from 203-210-4-091.static.pccw-hkt.com (203.210.4.91): icmp_seq=5 ttl=56 time=180 ms
64 bytes from 203-210-4-091.static.pccw-hkt.com (203.210.4.91): icmp_seq=5 ttl=56 time=181 ms
64 bytes from 203-210-4-091.static.pccw-hkt.com (203.210.4.91): icmp_seq=5 ttl=56 time=179 ms
64 bytes from 203-210-4-091.static.pccw-hkt.com (203.210.4.91): icmp_seq=5 ttl=56 time=179 ms
64 bytes from 203-210-4-091.static.pccw-hkt.com (203.210.4.91): icmp_seq=5 ttl=56 time=179 ms
64 bytes from 203-210-4-091.static.pccw-hkt.com (203.210.4.91): icmp_seq=6 ttl=56 time=178 ms
64 bytes from 203-210-4-091.static.pccw-hkt.com (203.210.4.91): icmp_seq=6 ttl=56 time=178 ms
64 bytes from 203-210-4-091.static.pccw-hkt.com (203.210.4.91): icmp_seq=6 ttl=56 time=179 ms
64 bytes from 203-210-4-091.static.pccw-hkt.com (203.210.4.91): icmp_seq=6 ttl=56 time=178 ms
64 bytes from 203-210-4-091.static.pccw-hkt.com (203.210.4.91): icmp_seq=6 ttl=56 time=179 ms
64 bytes from 203-210-4-091.static.pccw-hkt.com (203.210.4.91): icmp_seq=6 ttl=56 time=179 ms
64 bytes from 203-210-4-091.static.pccw-hkt.com (203.210.4.91): icmp_seq=6 ttl=56 time=179 ms
64 bytes from 203-210-4-091.static.pccw-hkt.com (203.210.4.91): icmp_seq=6 ttl=56 time=178 ms
64 bytes from 203-210-4-091.static.pccw-hkt.com (203.210.4.91): icmp_seq=6 ttl=56 time=178 ms
64 bytes from 203-210-4-091.static.pccw-hkt.com (203.210.4.91): icmp_seq=6 ttl=56 time=178 ms
64 bytes from 203-210-4-091.static.pccw-hkt.com (203.210.4.91): icmp_seq=7 ttl=56 time=177 ms
64 bytes from 203-210-4-091.static.pccw-hkt.com (203.210.4.91): icmp_seq=7 ttl=56 time=177 ms
64 bytes from 203-210-4-091.static.pccw-hkt.com (203.210.4.91): icmp_seq=7 ttl=56 time=179 ms
64 bytes from 203-210-4-091.static.pccw-hkt.com (203.210.4.91): icmp_seq=7 ttl=56 time=179 ms
64 bytes from 203-210-4-091.static.pccw-hkt.com (203.210.4.91): icmp_seq=7 ttl=56 time=181 ms
64 bytes from 203-210-4-091.static.pccw-hkt.com (203.210.4.91): icmp_seq=7 ttl=56 time=180 ms
64 bytes from 203-210-4-091.static.pccw-hkt.com (203.210.4.91): icmp_seq=7 ttl=56 time=181 ms
64 bytes from 203-210-4-091.static.pccw-hkt.com (203.210.4.91): icmp_seq=7 ttl=56 time=181 ms
64 bytes from 203-210-4-091.static.pccw-hkt.com (203.210.4.91): icmp_seq=7 ttl=56 time=180 ms
64 bytes from 203-210-4-091.static.pccw-hkt.com (203.210.4.91): icmp_seq=7 ttl=56 time=180 ms
64 bytes from 203-210-4-091.static.pccw-hkt.com (203.210.4.91): icmp_seq=8 ttl=56 time=181 ms
64 bytes from 203-210-4-091.static.pccw-hkt.com (203.210.4.91): icmp_seq=8 ttl=56 time=181 ms
64 bytes from 203-210-4-091.static.pccw-hkt.com (203.210.4.91): icmp_seq=8 ttl=56 time=181 ms
64 bytes from 203-210-4-091.static.pccw-hkt.com (203.210.4.91): icmp_seq=8 ttl=56 time=182 ms
64 bytes from 203-210-4-091.static.pccw-hkt.com (203.210.4.91): icmp_seq=8 ttl=56 time=181 ms
64 bytes from 203-210-4-091.static.pccw-hkt.com (203.210.4.91): icmp_seq=8 ttl=56 time=182 ms
64 bytes from 203-210-4-091.static.pccw-hkt.com (203.210.4.91): icmp_seq=8 ttl=56 time=182 ms
64 bytes from 203-210-4-091.static.pccw-hkt.com (203.210.4.91): icmp_seq=8 ttl=56 time=182 ms
64 bytes from 203-210-4-091.static.pccw-hkt.com (203.210.4.91): icmp_seq=8 ttl=56 time=182 ms
64 bytes from 203-210-4-091.static.pccw-hkt.com (203.210.4.91): icmp_seq=8 ttl=56 time=182 ms
64 bytes from 203-210-4-091.static.pccw-hkt.com (203.210.4.91): icmp_seq=9 ttl=56 time=179 ms
64 bytes from 203-210-4-091.static.pccw-hkt.com (203.210.4.91): icmp_seq=9 ttl=56 time=179 ms
64 bytes from 203-210-4-091.static.pccw-hkt.com (203.210.4.91): icmp_seq=9 ttl=56 time=179 ms
64 bytes from 203-210-4-091.static.pccw-hkt.com (203.210.4.91): icmp_seq=9 ttl=56 time=179 ms
64 bytes from 203-210-4-091.static.pccw-hkt.com (203.210.4.91): icmp_seq=9 ttl=56 time=181 ms
64 bytes from 203-210-4-091.static.pccw-hkt.com (203.210.4.91): icmp_seq=9 ttl=56 time=181 ms
64 bytes from 203-210-4-091.static.pccw-hkt.com (203.210.4.91): icmp_seq=9 ttl=56 time=181 ms
64 bytes from 203-210-4-091.static.pccw-hkt.com (203.210.4.91): icmp_seq=9 ttl=56 time=181 ms
64 bytes from 203-210-4-091.static.pccw-hkt.com (203.210.4.91): icmp_seq=9 ttl=56 time=181 ms
64 bytes from 203-210-4-091.static.pccw-hkt.com (203.210.4.91): icmp_seq=9 ttl=56 time=181 ms
64 bytes from 203-210-4-091.static.pccw-hkt.com (203.210.4.91): icmp_seq=10 ttl=56 time=181 ms
64 bytes from 203-210-4-091.static.pccw-hkt.com (203.210.4.91): icmp_seq=10 ttl=56 time=181 ms
64 bytes from 203-210-4-091.static.pccw-hkt.com (203.210.4.91): icmp_seq=10 ttl=56 time=181 ms
64 bytes from 203-210-4-091.static.pccw-hkt.com (203.210.4.91): icmp_seq=10 ttl=56 time=181 ms
64 bytes from 203-210-4-091.static.pccw-hkt.com (203.210.4.91): icmp_seq=10 ttl=56 time=181 ms
64 bytes from 203-210-4-091.static.pccw-hkt.com (203.210.4.91): icmp_seq=10 ttl=56 time=181 ms
64 bytes from 203-210-4-091.static.pccw-hkt.com (203.210.4.91): icmp_seq=10 ttl=56 time=181 ms
64 bytes from 203-210-4-091.static.pccw-hkt.com (203.210.4.91): icmp_seq=10 ttl=56 time=181 ms
64 bytes from 203-210-4-091.static.pccw-hkt.com (203.210.4.91): icmp_seq=10 ttl=56 time=181 ms
64 bytes from 203-210-4-091.static.pccw-hkt.com (203.210.4.91): icmp_seq=10 ttl=56 time=181 ms
64 bytes from 203-210-4-091.static.pccw-hkt.com (203.210.4.91): icmp_seq=11 ttl=56 time=178 ms
64 bytes from 203-210-4-091.static.pccw-hkt.com (203.210.4.91): icmp_seq=11 ttl=56 time=178 ms
64 bytes from 203-210-4-091.static.pccw-hkt.com (203.210.4.91): icmp_seq=11 ttl=56 time=178 ms
64 bytes from 203-210-4-091.static.pccw-hkt.com (203.210.4.91): icmp_seq=11 ttl=56 time=178 ms
64 bytes from 203-210-4-091.static.pccw-hkt.com (203.210.4.91): icmp_seq=11 ttl=56 time=178 ms
64 bytes from 203-210-4-091.static.pccw-hkt.com (203.210.4.91): icmp_seq=11 ttl=56 time=178 ms
64 bytes from 203-210-4-091.static.pccw-hkt.com (203.210.4.91): icmp_seq=11 ttl=56 time=178 ms
64 bytes from 203-210-4-091.static.pccw-hkt.com (203.210.4.91): icmp_seq=11 ttl=56 time=178 ms
64 bytes from 203-210-4-091.static.pccw-hkt.com (203.210.4.91): icmp_seq=11 ttl=56 time=178 ms
64 bytes from 203-210-4-091.static.pccw-hkt.com (203.210.4.91): icmp_seq=11 ttl=56 time=178 ms
64 bytes from 203-210-4-091.static.pccw-hkt.com (203.210.4.91): icmp_seq=12 ttl=56 time=195 ms
64 bytes from 203-210-4-091.static.pccw-hkt.com (203.210.4.91): icmp_seq=12 ttl=56 time=195 ms
64 bytes from 203-210-4-091.static.pccw-hkt.com (203.210.4.91): icmp_seq=12 ttl=56 time=198 ms
64 bytes from 203-210-4-091.static.pccw-hkt.com (203.210.4.91): icmp_seq=12 ttl=56 time=197 ms
64 bytes from 203-210-4-091.static.pccw-hkt.com (203.210.4.91): icmp_seq=12 ttl=56 time=198 ms
64 bytes from 203-210-4-091.static.pccw-hkt.com (203.210.4.91): icmp_seq=12 ttl=56 time=197 ms
64 bytes from 203-210-4-091.static.pccw-hkt.com (203.210.4.91): icmp_seq=12 ttl=56 time=197 ms
64 bytes from 203-210-4-091.static.pccw-hkt.com (203.210.4.91): icmp_seq=12 ttl=56 time=197 ms
64 bytes from 203-210-4-091.static.pccw-hkt.com (203.210.4.91): icmp_seq=12 ttl=56 time=197 ms
64 bytes from 203-210-4-091.static.pccw-hkt.com (203.210.4.91): icmp_seq=12 ttl=56 time=197 ms
64 bytes from 203-210-4-091.static.pccw-hkt.com (203.210.4.91): icmp_seq=13 ttl=56 time=180 ms
64 bytes from 203-210-4-091.static.pccw-hkt.com (203.210.4.91): icmp_seq=13 ttl=56 time=180 ms
64 bytes from 203-210-4-091.static.pccw-hkt.com (203.210.4.91): icmp_seq=13 ttl=56 time=180 ms
64 bytes from 203-210-4-091.static.pccw-hkt.com (203.210.4.91): icmp_seq=13 ttl=56 time=180 ms
64 bytes from 203-210-4-091.static.pccw-hkt.com (203.210.4.91): icmp_seq=13 ttl=56 time=179 ms
64 bytes from 203-210-4-091.static.pccw-hkt.com (203.210.4.91): icmp_seq=13 ttl=56 time=178 ms
64 bytes from 203-210-4-091.static.pccw-hkt.com (203.210.4.91): icmp_seq=13 ttl=56 time=179 ms
64 bytes from 203-210-4-091.static.pccw-hkt.com (203.210.4.91): icmp_seq=13 ttl=56 time=179 ms
64 bytes from 203-210-4-091.static.pccw-hkt.com (203.210.4.91): icmp_seq=13 ttl=56 time=179 ms
64 bytes from 203-210-4-091.static.pccw-hkt.com (203.210.4.91): icmp_seq=13 ttl=56 time=179 ms
64 bytes from 203-210-4-091.static.pccw-hkt.com (203.210.4.91): icmp_seq=14 ttl=56 time=195 ms
64 bytes from 203-210-4-091.static.pccw-hkt.com (203.210.4.91): icmp_seq=14 ttl=56 time=195 ms
64 bytes from 203-210-4-091.static.pccw-hkt.com (203.210.4.91): icmp_seq=14 ttl=56 time=195 ms
64 bytes from 203-210-4-091.static.pccw-hkt.com (203.210.4.91): icmp_seq=14 ttl=56 time=195 ms
64 bytes from 203-210-4-091.static.pccw-hkt.com (203.210.4.91): icmp_seq=14 ttl=56 time=194 ms
64 bytes from 203-210-4-091.static.pccw-hkt.com (203.210.4.91): icmp_seq=14 ttl=56 time=195 ms
64 bytes from 203-210-4-091.static.pccw-hkt.com (203.210.4.91): icmp_seq=14 ttl=56 time=194 ms
64 bytes from 203-210-4-091.static.pccw-hkt.com (203.210.4.91): icmp_seq=14 ttl=56 time=195 ms
64 bytes from 203-210-4-091.static.pccw-hkt.com (203.210.4.91): icmp_seq=14 ttl=56 time=195 ms
64 bytes from 203-210-4-091.static.pccw-hkt.com (203.210.4.91): icmp_seq=14 ttl=56 time=195 ms
64 bytes from 203-210-4-091.static.pccw-hkt.com (203.210.4.91): icmp_seq=15 ttl=56 time=183 ms
64 bytes from 203-210-4-091.static.pccw-hkt.com (203.210.4.91): icmp_seq=15 ttl=56 time=183 ms
64 bytes from 203-210-4-091.static.pccw-hkt.com (203.210.4.91): icmp_seq=15 ttl=56 time=183 ms
64 bytes from 203-210-4-091.static.pccw-hkt.com (203.210.4.91): icmp_seq=15 ttl=56 time=183 ms
64 bytes from 203-210-4-091.static.pccw-hkt.com (203.210.4.91): icmp_seq=15 ttl=56 time=183 ms
64 bytes from 203-210-4-091.static.pccw-hkt.com (203.210.4.91): icmp_seq=15 ttl=56 time=183 ms
64 bytes from 203-210-4-091.static.pccw-hkt.com (203.210.4.91): icmp_seq=15 ttl=56 time=183 ms
64 bytes from 203-210-4-091.static.pccw-hkt.com (203.210.4.91): icmp_seq=15 ttl=56 time=184 ms
64 bytes from 203-210-4-091.static.pccw-hkt.com (203.210.4.91): icmp_seq=15 ttl=56 time=183 ms
64 bytes from 203-210-4-091.static.pccw-hkt.com (203.210.4.91): icmp_seq=15 ttl=56 time=183 ms
64 bytes from 203-210-4-091.static.pccw-hkt.com (203.210.4.91): icmp_seq=16 ttl=56 time=180 ms
64 bytes from 203-210-4-091.static.pccw-hkt.com (203.210.4.91): icmp_seq=16 ttl=56 time=180 ms
64 bytes from 203-210-4-091.static.pccw-hkt.com (203.210.4.91): icmp_seq=16 ttl=56 time=180 ms
64 bytes from 203-210-4-091.static.pccw-hkt.com (203.210.4.91): icmp_seq=16 ttl=56 time=180 ms
64 bytes from 203-210-4-091.static.pccw-hkt.com (203.210.4.91): icmp_seq=16 ttl=56 time=180 ms
64 bytes from 203-210-4-091.static.pccw-hkt.com (203.210.4.91): icmp_seq=16 ttl=56 time=180 ms
64 bytes from 203-210-4-091.static.pccw-hkt.com (203.210.4.91): icmp_seq=16 ttl=56 time=183 ms
64 bytes from 203-210-4-091.static.pccw-hkt.com (203.210.4.91): icmp_seq=16 ttl=56 time=183 ms
64 bytes from 203-210-4-091.static.pccw-hkt.com (203.210.4.91): icmp_seq=16 ttl=56 time=183 ms
64 bytes from 203-210-4-091.static.pccw-hkt.com (203.210.4.91): icmp_seq=16 ttl=56 time=183 ms
64 bytes from 203-210-4-091.static.pccw-hkt.com (203.210.4.91): icmp_seq=17 ttl=56 time=181 ms
64 bytes from 203-210-4-091.static.pccw-hkt.com (203.210.4.91): icmp_seq=17 ttl=56 time=181 ms
64 bytes from 203-210-4-091.static.pccw-hkt.com (203.210.4.91): icmp_seq=17 ttl=56 time=181 ms
64 bytes from 203-210-4-091.static.pccw-hkt.com (203.210.4.91): icmp_seq=17 ttl=56 time=181 ms
64 bytes from 203-210-4-091.static.pccw-hkt.com (203.210.4.91): icmp_seq=17 ttl=56 time=181 ms
64 bytes from 203-210-4-091.static.pccw-hkt.com (203.210.4.91): icmp_seq=17 ttl=56 time=181 ms
64 bytes from 203-210-4-091.static.pccw-hkt.com (203.210.4.91): icmp_seq=17 ttl=56 time=181 ms
64 bytes from 203-210-4-091.static.pccw-hkt.com (203.210.4.91): icmp_seq=17 ttl=56 time=181 ms
64 bytes from 203-210-4-091.static.pccw-hkt.com (203.210.4.91): icmp_seq=17 ttl=56 time=181 ms
64 bytes from 203-210-4-091.static.pccw-hkt.com (203.210.4.91): icmp_seq=17 ttl=56 time=181 ms
64 bytes from 203-210-4-091.static.pccw-hkt.com (203.210.4.91): icmp_seq=18 ttl=56 time=180 ms
64 bytes from 203-210-4-091.static.pccw-hkt.com (203.210.4.91): icmp_seq=18 ttl=56 time=180 ms
64 bytes from 203-210-4-091.static.pccw-hkt.com (203.210.4.91): icmp_seq=18 ttl=56 time=180 ms
64 bytes from 203-210-4-091.static.pccw-hkt.com (203.210.4.91): icmp_seq=18 ttl=56 time=180 ms
64 bytes from 203-210-4-091.static.pccw-hkt.com (203.210.4.91): icmp_seq=18 ttl=56 time=181 ms
64 bytes from 203-210-4-091.static.pccw-hkt.com (203.210.4.91): icmp_seq=18 ttl=56 time=181 ms
64 bytes from 203-210-4-091.static.pccw-hkt.com (203.210.4.91): icmp_seq=18 ttl=56 time=181 ms
64 bytes from 203-210-4-091.static.pccw-hkt.com (203.210.4.91): icmp_seq=18 ttl=56 time=181 ms
64 bytes from 203-210-4-091.static.pccw-hkt.com (203.210.4.91): icmp_seq=18 ttl=56 time=181 ms
64 bytes from 203-210-4-091.static.pccw-hkt.com (203.210.4.91): icmp_seq=18 ttl=56 time=181 ms
64 bytes from 203-210-4-091.static.pccw-hkt.com (203.210.4.91): icmp_seq=19 ttl=56 time=181 ms
64 bytes from 203-210-4-091.static.pccw-hkt.com (203.210.4.91): icmp_seq=19 ttl=56 time=181 ms
64 bytes from 203-210-4-091.static.pccw-hkt.com (203.210.4.91): icmp_seq=19 ttl=56 time=181 ms
64 bytes from 203-210-4-091.static.pccw-hkt.com (203.210.4.91): icmp_seq=19 ttl=56 time=181 ms
64 bytes from 203-210-4-091.static.pccw-hkt.com (203.210.4.91): icmp_seq=19 ttl=56 time=181 ms
64 bytes from 203-210-4-091.static.pccw-hkt.com (203.210.4.91): icmp_seq=19 ttl=56 time=181 ms
64 bytes from 203-210-4-091.static.pccw-hkt.com (203.210.4.91): icmp_seq=19 ttl=56 time=181 ms
64 bytes from 203-210-4-091.static.pccw-hkt.com (203.210.4.91): icmp_seq=19 ttl=56 time=181 ms
64 bytes from 203-210-4-091.static.pccw-hkt.com (203.210.4.91): icmp_seq=19 ttl=56 time=182 ms
64 bytes from 203-210-4-091.static.pccw-hkt.com (203.210.4.91): icmp_seq=19 ttl=56 time=182 ms
64 bytes from 203-210-4-091.static.pccw-hkt.com (203.210.4.91): icmp_seq=20 ttl=56 time=229 ms
64 bytes from 203-210-4-091.static.pccw-hkt.com (203.210.4.91): icmp_seq=20 ttl=56 time=229 ms
64 bytes from 203-210-4-091.static.pccw-hkt.com (203.210.4.91): icmp_seq=20 ttl=56 time=229 ms
64 bytes from 203-210-4-091.static.pccw-hkt.com (203.210.4.91): icmp_seq=20 ttl=56 time=229 ms
64 bytes from 203-210-4-091.static.pccw-hkt.com (203.210.4.91): icmp_seq=20 ttl=56 time=229 ms
64 bytes from 203-210-4-091.static.pccw-hkt.com (203.210.4.91): icmp_seq=20 ttl=56 time=230 ms
64 bytes from 203-210-4-091.static.pccw-hkt.com (203.210.4.91): icmp_seq=20 ttl=56 time=230 ms
64 bytes from 203-210-4-091.static.pccw-hkt.com (203.210.4.91): icmp_seq=20 ttl=56 time=230 ms
64 bytes from 203-210-4-091.static.pccw-hkt.com (203.210.4.91): icmp_seq=20 ttl=56 time=230 ms
64 bytes from 203-210-4-091.static.pccw-hkt.com (203.210.4.91): icmp_seq=20 ttl=56 time=230 ms
64 bytes from 203-210-4-091.static.pccw-hkt.com (203.210.4.91): icmp_seq=21 ttl=56 time=179 ms
64 bytes from 203-210-4-091.static.pccw-hkt.com (203.210.4.91): icmp_seq=21 ttl=56 time=179 ms
64 bytes from 203-210-4-091.static.pccw-hkt.com (203.210.4.91): icmp_seq=21 ttl=56 time=179 ms
64 bytes from 203-210-4-091.static.pccw-hkt.com (203.210.4.91): icmp_seq=21 ttl=56 time=183 ms
64 bytes from 203-210-4-091.static.pccw-hkt.com (203.210.4.91): icmp_seq=21 ttl=56 time=183 ms
64 bytes from 203-210-4-091.static.pccw-hkt.com (203.210.4.91): icmp_seq=21 ttl=56 time=183 ms
64 bytes from 203-210-4-091.static.pccw-hkt.com (203.210.4.91): icmp_seq=21 ttl=56 time=182 ms
64 bytes from 203-210-4-091.static.pccw-hkt.com (203.210.4.91): icmp_seq=21 ttl=56 time=182 ms
64 bytes from 203-210-4-091.static.pccw-hkt.com (203.210.4.91): icmp_seq=21 ttl=56 time=182 ms
64 bytes from 203-210-4-091.static.pccw-hkt.com (203.210.4.91): icmp_seq=21 ttl=56 time=183 ms
64 bytes from 203-210-4-091.static.pccw-hkt.com (203.210.4.91): icmp_seq=22 ttl=56 time=187 ms
64 bytes from 203-210-4-091.static.pccw-hkt.com (203.210.4.91): icmp_seq=22 ttl=56 time=187 ms
64 bytes from 203-210-4-091.static.pccw-hkt.com (203.210.4.91): icmp_seq=22 ttl=56 time=186 ms
64 bytes from 203-210-4-091.static.pccw-hkt.com (203.210.4.91): icmp_seq=22 ttl=56 time=186 ms
64 bytes from 203-210-4-091.static.pccw-hkt.com (203.210.4.91): icmp_seq=22 ttl=56 time=186 ms
64 bytes from 203-210-4-091.static.pccw-hkt.com (203.210.4.91): icmp_seq=22 ttl=56 time=187 ms
64 bytes from 203-210-4-091.static.pccw-hkt.com (203.210.4.91): icmp_seq=22 ttl=56 time=187 ms
64 bytes from 203-210-4-091.static.pccw-hkt.com (203.210.4.91): icmp_seq=22 ttl=56 time=185 ms
64 bytes from 203-210-4-091.static.pccw-hkt.com (203.210.4.91): icmp_seq=22 ttl=56 time=185 ms
64 bytes from 203-210-4-091.static.pccw-hkt.com (203.210.4.91): icmp_seq=22 ttl=56 time=185 ms
64 bytes from 203-210-4-091.static.pccw-hkt.com (203.210.4.91): icmp_seq=23 ttl=56 time=188 ms
64 bytes from 203-210-4-091.static.pccw-hkt.com (203.210.4.91): icmp_seq=23 ttl=56 time=188 ms
64 bytes from 203-210-4-091.static.pccw-hkt.com (203.210.4.91): icmp_seq=23 ttl=56 time=188 ms
64 bytes from 203-210-4-091.static.pccw-hkt.com (203.210.4.91): icmp_seq=23 ttl=56 time=187 ms
64 bytes from 203-210-4-091.static.pccw-hkt.com (203.210.4.91): icmp_seq=23 ttl=56 time=187 ms
64 bytes from 203-210-4-091.static.pccw-hkt.com (203.210.4.91): icmp_seq=23 ttl=56 time=187 ms
64 bytes from 203-210-4-091.static.pccw-hkt.com (203.210.4.91): icmp_seq=23 ttl=56 time=187 ms
64 bytes from 203-210-4-091.static.pccw-hkt.com (203.210.4.91): icmp_seq=23 ttl=56 time=187 ms
64 bytes from 203-210-4-091.static.pccw-hkt.com (203.210.4.91): icmp_seq=23 ttl=56 time=187 ms
64 bytes from 203-210-4-091.static.pccw-hkt.com (203.210.4.91): icmp_seq=23 ttl=56 time=187 ms
64 bytes from 203-210-4-091.static.pccw-hkt.com (203.210.4.91): icmp_seq=24 ttl=56 time=181 ms
64 bytes from 203-210-4-091.static.pccw-hkt.com (203.210.4.91): icmp_seq=24 ttl=56 time=181 ms
64 bytes from 203-210-4-091.static.pccw-hkt.com (203.210.4.91): icmp_seq=24 ttl=56 time=181 ms
64 bytes from 203-210-4-091.static.pccw-hkt.com (203.210.4.91): icmp_seq=24 ttl=56 time=181 ms
64 bytes from 203-210-4-091.static.pccw-hkt.com (203.210.4.91): icmp_seq=24 ttl=56 time=181 ms
64 bytes from 203-210-4-091.static.pccw-hkt.com (203.210.4.91): icmp_seq=24 ttl=56 time=181 ms
64 bytes from 203-210-4-091.static.pccw-hkt.com (203.210.4.91): icmp_seq=24 ttl=56 time=181 ms
64 bytes from 203-210-4-091.static.pccw-hkt.com (203.210.4.91): icmp_seq=24 ttl=56 time=181 ms
64 bytes from 203-210-4-091.static.pccw-hkt.com (203.210.4.91): icmp_seq=24 ttl=56 time=182 ms
64 bytes from 203-210-4-091.static.pccw-hkt.com (203.210.4.91): icmp_seq=24 ttl=56 time=182 ms
64 bytes from 203-210-4-091.static.pccw-hkt.com (203.210.4.91): icmp_seq=25 ttl=56 time=191 ms
64 bytes from 203-210-4-091.static.pccw-hkt.com (203.210.4.91): icmp_seq=25 ttl=56 time=191 ms
64 bytes from 203-210-4-091.static.pccw-hkt.com (203.210.4.91): icmp_seq=25 ttl=56 time=194 ms
64 bytes from 203-210-4-091.static.pccw-hkt.com (203.210.4.91): icmp_seq=25 ttl=56 time=194 ms
64 bytes from 203-210-4-091.static.pccw-hkt.com (203.210.4.91): icmp_seq=25 ttl=56 time=193 ms
64 bytes from 203-210-4-091.static.pccw-hkt.com (203.210.4.91): icmp_seq=25 ttl=56 time=194 ms
64 bytes from 203-210-4-091.static.pccw-hkt.com (203.210.4.91): icmp_seq=25 ttl=56 time=194 ms
64 bytes from 203-210-4-091.static.pccw-hkt.com (203.210.4.91): icmp_seq=25 ttl=56 time=194 ms
64 bytes from 203-210-4-091.static.pccw-hkt.com (203.210.4.91): icmp_seq=25 ttl=56 time=194 ms
64 bytes from 203-210-4-091.static.pccw-hkt.com (203.210.4.91): icmp_seq=25 ttl=56 time=194 ms
64 bytes from 203-210-4-091.static.pccw-hkt.com (203.210.4.91): icmp_seq=26 ttl=56 time=194 ms
64 bytes from 203-210-4-091.static.pccw-hkt.com (203.210.4.91): icmp_seq=26 ttl=56 time=194 ms
64 bytes from 203-210-4-091.static.pccw-hkt.com (203.210.4.91): icmp_seq=26 ttl=56 time=194 ms
64 bytes from 203-210-4-091.static.pccw-hkt.com (203.210.4.91): icmp_seq=26 ttl=56 time=194 ms
64 bytes from 203-210-4-091.static.pccw-hkt.com (203.210.4.91): icmp_seq=26 ttl=56 time=194 ms
64 bytes from 203-210-4-091.static.pccw-hkt.com (203.210.4.91): icmp_seq=26 ttl=56 time=194 ms
64 bytes from 203-210-4-091.static.pccw-hkt.com (203.210.4.91): icmp_seq=26 ttl=56 time=194 ms
64 bytes from 203-210-4-091.static.pccw-hkt.com (203.210.4.91): icmp_seq=26 ttl=56 time=194 ms
64 bytes from 203-210-4-091.static.pccw-hkt.com (203.210.4.91): icmp_seq=26 ttl=56 time=194 ms
64 bytes from 203-210-4-091.static.pccw-hkt.com (203.210.4.91): icmp_seq=26 ttl=56 time=194 ms
64 bytes from 203-210-4-091.static.pccw-hkt.com (203.210.4.91): icmp_seq=27 ttl=56 time=181 ms
64 bytes from 203-210-4-091.static.pccw-hkt.com (203.210.4.91): icmp_seq=27 ttl=56 time=181 ms
64 bytes from 203-210-4-091.static.pccw-hkt.com (203.210.4.91): icmp_seq=27 ttl=56 time=181 ms
64 bytes from 203-210-4-091.static.pccw-hkt.com (203.210.4.91): icmp_seq=27 ttl=56 time=181 ms
64 bytes from 203-210-4-091.static.pccw-hkt.com (203.210.4.91): icmp_seq=27 ttl=56 time=181 ms
64 bytes from 203-210-4-091.static.pccw-hkt.com (203.210.4.91): icmp_seq=27 ttl=56 time=181 ms
64 bytes from 203-210-4-091.static.pccw-hkt.com (203.210.4.91): icmp_seq=27 ttl=56 time=181 ms
64 bytes from 203-210-4-091.static.pccw-hkt.com (203.210.4.91): icmp_seq=27 ttl=56 time=181 ms
64 bytes from 203-210-4-091.static.pccw-hkt.com (203.210.4.91): icmp_seq=27 ttl=56 time=181 ms
64 bytes from 203-210-4-091.static.pccw-hkt.com (203.210.4.91): icmp_seq=27 ttl=56 time=181 ms
64 bytes from 203-210-4-091.static.pccw-hkt.com (203.210.4.91): icmp_seq=28 ttl=56 time=178 ms
64 bytes from 203-210-4-091.static.pccw-hkt.com (203.210.4.91): icmp_seq=28 ttl=56 time=178 ms
64 bytes from 203-210-4-091.static.pccw-hkt.com (203.210.4.91): icmp_seq=28 ttl=56 time=178 ms
64 bytes from 203-210-4-091.static.pccw-hkt.com (203.210.4.91): icmp_seq=28 ttl=56 time=178 ms
64 bytes from 203-210-4-091.static.pccw-hkt.com (203.210.4.91): icmp_seq=28 ttl=56 time=178 ms
64 bytes from 203-210-4-091.static.pccw-hkt.com (203.210.4.91): icmp_seq=28 ttl=56 time=178 ms
64 bytes from 203-210-4-091.static.pccw-hkt.com (203.210.4.91): icmp_seq=28 ttl=56 time=178 ms
64 bytes from 203-210-4-091.static.pccw-hkt.com (203.210.4.91): icmp_seq=28 ttl=56 time=178 ms
64 bytes from 203-210-4-091.static.pccw-hkt.com (203.210.4.91): icmp_seq=28 ttl=56 time=178 ms
64 bytes from 203-210-4-091.static.pccw-hkt.com (203.210.4.91): icmp_seq=28 ttl=56 time=178 ms
64 bytes from 203-210-4-091.static.pccw-hkt.com (203.210.4.91): icmp_seq=29 ttl=56 time=197 ms
64 bytes from 203-210-4-091.static.pccw-hkt.com (203.210.4.91): icmp_seq=29 ttl=56 time=197 ms
64 bytes from 203-210-4-091.static.pccw-hkt.com (203.210.4.91): icmp_seq=29 ttl=56 time=197 ms
64 bytes from 203-210-4-091.static.pccw-hkt.com (203.210.4.91): icmp_seq=29 ttl=56 time=197 ms
64 bytes from 203-210-4-091.static.pccw-hkt.com (203.210.4.91): icmp_seq=29 ttl=56 time=197 ms
64 bytes from 203-210-4-091.static.pccw-hkt.com (203.210.4.91): icmp_seq=29 ttl=56 time=197 ms
64 bytes from 203-210-4-091.static.pccw-hkt.com (203.210.4.91): icmp_seq=29 ttl=56 time=198 ms
64 bytes from 203-210-4-091.static.pccw-hkt.com (203.210.4.91): icmp_seq=29 ttl=56 time=198 ms
64 bytes from 203-210-4-091.static.pccw-hkt.com (203.210.4.91): icmp_seq=29 ttl=56 time=198 ms
64 bytes from 203-210-4-091.static.pccw-hkt.com (203.210.4.91): icmp_seq=29 ttl=56 time=200 ms
64 bytes from 203-210-4-091.static.pccw-hkt.com (203.210.4.91): icmp_seq=30 ttl=56 time=196 ms
64 bytes from 203-210-4-091.static.pccw-hkt.com (203.210.4.91): icmp_seq=30 ttl=56 time=195 ms
64 bytes from 203-210-4-091.static.pccw-hkt.com (203.210.4.91): icmp_seq=30 ttl=56 time=196 ms
64 bytes from 203-210-4-091.static.pccw-hkt.com (203.210.4.91): icmp_seq=30 ttl=56 time=196 ms
64 bytes from 203-210-4-091.static.pccw-hkt.com (203.210.4.91): icmp_seq=30 ttl=56 time=196 ms
64 bytes from 203-210-4-091.static.pccw-hkt.com (203.210.4.91): icmp_seq=30 ttl=56 time=195 ms
64 bytes from 203-210-4-091.static.pccw-hkt.com (203.210.4.91): icmp_seq=30 ttl=56 time=196 ms
64 bytes from 203-210-4-091.static.pccw-hkt.com (203.210.4.91): icmp_seq=30 ttl=56 time=196 ms
64 bytes from 203-210-4-091.static.pccw-hkt.com (203.210.4.91): icmp_seq=30 ttl=56 time=196 ms
64 bytes from 203-210-4-091.static.pccw-hkt.com (203.210.4.91): icmp_seq=30 ttl=56 time=196 ms
64 bytes from 203-210-4-091.static.pccw-hkt.com (203.210.4.91): icmp_seq=31 ttl=56 time=183 ms
64 bytes from 203-210-4-091.static.pccw-hkt.com (203.210.4.91): icmp_seq=31 ttl=56 time=183 ms
64 bytes from 203-210-4-091.static.pccw-hkt.com (203.210.4.91): icmp_seq=31 ttl=56 time=183 ms
64 bytes from 203-210-4-091.static.pccw-hkt.com (203.210.4.91): icmp_seq=31 ttl=56 time=183 ms
64 bytes from 203-210-4-091.static.pccw-hkt.com (203.210.4.91): icmp_seq=31 ttl=56 time=183 ms
64 bytes from 203-210-4-091.static.pccw-hkt.com (203.210.4.91): icmp_seq=31 ttl=56 time=183 ms
64 bytes from 203-210-4-091.static.pccw-hkt.com (203.210.4.91): icmp_seq=31 ttl=56 time=183 ms
64 bytes from 203-210-4-091.static.pccw-hkt.com (203.210.4.91): icmp_seq=31 ttl=56 time=184 ms
64 bytes from 203-210-4-091.static.pccw-hkt.com (203.210.4.91): icmp_seq=31 ttl=56 time=184 ms
64 bytes from 203-210-4-091.static.pccw-hkt.com (203.210.4.91): icmp_seq=31 ttl=56 time=184 ms
64 bytes from 203-210-4-091.static.pccw-hkt.com (203.210.4.91): icmp_seq=32 ttl=56 time=184 ms
64 bytes from 203-210-4-091.static.pccw-hkt.com (203.210.4.91): icmp_seq=32 ttl=56 time=184 ms
64 bytes from 203-210-4-091.static.pccw-hkt.com (203.210.4.91): icmp_seq=32 ttl=56 time=184 ms
64 bytes from 203-210-4-091.static.pccw-hkt.com (203.210.4.91): icmp_seq=32 ttl=56 time=184 ms
64 bytes from 203-210-4-091.static.pccw-hkt.com (203.210.4.91): icmp_seq=32 ttl=56 time=184 ms
64 bytes from 203-210-4-091.static.pccw-hkt.com (203.210.4.91): icmp_seq=32 ttl=56 time=184 ms
64 bytes from 203-210-4-091.static.pccw-hkt.com (203.210.4.91): icmp_seq=32 ttl=56 time=184 ms
64 bytes from 203-210-4-091.static.pccw-hkt.com (203.210.4.91): icmp_seq=32 ttl=56 time=184 ms
64 bytes from 203-210-4-091.static.pccw-hkt.com (203.210.4.91): icmp_seq=32 ttl=56 time=184 ms
64 bytes from 203-210-4-091.static.pccw-hkt.com (203.210.4.91): icmp_seq=32 ttl=56 time=185 ms
64 bytes from 203-210-4-091.static.pccw-hkt.com (203.210.4.91): icmp_seq=33 ttl=56 time=181 ms
64 bytes from 203-210-4-091.static.pccw-hkt.com (203.210.4.91): icmp_seq=33 ttl=56 time=181 ms
64 bytes from 203-210-4-091.static.pccw-hkt.com (203.210.4.91): icmp_seq=33 ttl=56 time=181 ms
64 bytes from 203-210-4-091.static.pccw-hkt.com (203.210.4.91): icmp_seq=33 ttl=56 time=181 ms
64 bytes from 203-210-4-091.static.pccw-hkt.com (203.210.4.91): icmp_seq=33 ttl=56 time=182 ms
64 bytes from 203-210-4-091.static.pccw-hkt.com (203.210.4.91): icmp_seq=33 ttl=56 time=184 ms
64 bytes from 203-210-4-091.static.pccw-hkt.com (203.210.4.91): icmp_seq=33 ttl=56 time=183 ms
64 bytes from 203-210-4-091.static.pccw-hkt.com (203.210.4.91): icmp_seq=33 ttl=56 time=182 ms
64 bytes from 203-210-4-091.static.pccw-hkt.com (203.210.4.91): icmp_seq=33 ttl=56 time=184 ms
64 bytes from 203-210-4-091.static.pccw-hkt.com (203.210.4.91): icmp_seq=33 ttl=56 time=184 ms
64 bytes from 203-210-4-091.static.pccw-hkt.com (203.210.4.91): icmp_seq=34 ttl=56 time=223 ms
64 bytes from 203-210-4-091.static.pccw-hkt.com (203.210.4.91): icmp_seq=34 ttl=56 time=222 ms
64 bytes from 203-210-4-091.static.pccw-hkt.com (203.210.4.91): icmp_seq=34 ttl=56 time=223 ms
64 bytes from 203-210-4-091.static.pccw-hkt.com (203.210.4.91): icmp_seq=34 ttl=56 time=223 ms
64 bytes from 203-210-4-091.static.pccw-hkt.com (203.210.4.91): icmp_seq=34 ttl=56 time=223 ms
64 bytes from 203-210-4-091.static.pccw-hkt.com (203.210.4.91): icmp_seq=34 ttl=56 time=223 ms
64 bytes from 203-210-4-091.static.pccw-hkt.com (203.210.4.91): icmp_seq=34 ttl=56 time=223 ms
64 bytes from 203-210-4-091.static.pccw-hkt.com (203.210.4.91): icmp_seq=34 ttl=56 time=223 ms
64 bytes from 203-210-4-091.static.pccw-hkt.com (203.210.4.91): icmp_seq=34 ttl=56 time=223 ms
64 bytes from 203-210-4-091.static.pccw-hkt.com (203.210.4.91): icmp_seq=34 ttl=56 time=223 ms
64 bytes from 203-210-4-091.static.pccw-hkt.com (203.210.4.91): icmp_seq=35 ttl=56 time=178 ms
64 bytes from 203-210-4-091.static.pccw-hkt.com (203.210.4.91): icmp_seq=35 ttl=56 time=178 ms
64 bytes from 203-210-4-091.static.pccw-hkt.com (203.210.4.91): icmp_seq=35 ttl=56 time=179 ms
64 bytes from 203-210-4-091.static.pccw-hkt.com (203.210.4.91): icmp_seq=35 ttl=56 time=179 ms
64 bytes from 203-210-4-091.static.pccw-hkt.com (203.210.4.91): icmp_seq=35 ttl=56 time=178 ms
64 bytes from 203-210-4-091.static.pccw-hkt.com (203.210.4.91): icmp_seq=35 ttl=56 time=179 ms
64 bytes from 203-210-4-091.static.pccw-hkt.com (203.210.4.91): icmp_seq=35 ttl=56 time=178 ms
64 bytes from 203-210-4-091.static.pccw-hkt.com (203.210.4.91): icmp_seq=35 ttl=56 time=179 ms
64 bytes from 203-210-4-091.static.pccw-hkt.com (203.210.4.91): icmp_seq=35 ttl=56 time=178 ms
64 bytes from 203-210-4-091.static.pccw-hkt.com (203.210.4.91): icmp_seq=35 ttl=56 time=178 ms
64 bytes from 203-210-4-091.static.pccw-hkt.com (203.210.4.91): icmp_seq=36 ttl=56 time=181 ms
64 bytes from 203-210-4-091.static.pccw-hkt.com (203.210.4.91): icmp_seq=36 ttl=56 time=181 ms
64 bytes from 203-210-4-091.static.pccw-hkt.com (203.210.4.91): icmp_seq=36 ttl=56 time=181 ms
64 bytes from 203-210-4-091.static.pccw-hkt.com (203.210.4.91): icmp_seq=36 ttl=56 time=181 ms
64 bytes from 203-210-4-091.static.pccw-hkt.com (203.210.4.91): icmp_seq=36 ttl=56 time=181 ms
64 bytes from 203-210-4-091.static.pccw-hkt.com (203.210.4.91): icmp_seq=36 ttl=56 time=181 ms
64 bytes from 203-210-4-091.static.pccw-hkt.com (203.210.4.91): icmp_seq=36 ttl=56 time=181 ms
64 bytes from 203-210-4-091.static.pccw-hkt.com (203.210.4.91): icmp_seq=36 ttl=56 time=181 ms
64 bytes from 203-210-4-091.static.pccw-hkt.com (203.210.4.91): icmp_seq=36 ttl=56 time=181 ms
64 bytes from 203-210-4-091.static.pccw-hkt.com (203.210.4.91): icmp_seq=36 ttl=56 time=181 ms
64 bytes from 203-210-4-091.static.pccw-hkt.com (203.210.4.91): icmp_seq=37 ttl=56 time=182 ms
64 bytes from 203-210-4-091.static.pccw-hkt.com (203.210.4.91): icmp_seq=37 ttl=56 time=182 ms
64 bytes from 203-210-4-091.static.pccw-hkt.com (203.210.4.91): icmp_seq=37 ttl=56 time=182 ms
64 bytes from 203-210-4-091.static.pccw-hkt.com (203.210.4.91): icmp_seq=37 ttl=56 time=182 ms
64 bytes from 203-210-4-091.static.pccw-hkt.com (203.210.4.91): icmp_seq=37 ttl=56 time=182 ms
64 bytes from 203-210-4-091.static.pccw-hkt.com (203.210.4.91): icmp_seq=37 ttl=56 time=182 ms
64 bytes from 203-210-4-091.static.pccw-hkt.com (203.210.4.91): icmp_seq=37 ttl=56 time=182 ms
64 bytes from 203-210-4-091.static.pccw-hkt.com (203.210.4.91): icmp_seq=37 ttl=56 time=182 ms
64 bytes from 203-210-4-091.static.pccw-hkt.com (203.210.4.91): icmp_seq=37 ttl=56 time=182 ms
64 bytes from 203-210-4-091.static.pccw-hkt.com (203.210.4.91): icmp_seq=37 ttl=56 time=182 ms
64 bytes from 203-210-4-091.static.pccw-hkt.com (203.210.4.91): icmp_seq=38 ttl=56 time=178 ms
64 bytes from 203-210-4-091.static.pccw-hkt.com (203.210.4.91): icmp_seq=38 ttl=56 time=178 ms
64 bytes from 203-210-4-091.static.pccw-hkt.com (203.210.4.91): icmp_seq=38 ttl=56 time=178 ms
64 bytes from 203-210-4-091.static.pccw-hkt.com (203.210.4.91): icmp_seq=38 ttl=56 time=179 ms
64 bytes from 203-210-4-091.static.pccw-hkt.com (203.210.4.91): icmp_seq=38 ttl=56 time=179 ms
64 bytes from 203-210-4-091.static.pccw-hkt.com (203.210.4.91): icmp_seq=38 ttl=56 time=179 ms
64 bytes from 203-210-4-091.static.pccw-hkt.com (203.210.4.91): icmp_seq=38 ttl=56 time=179 ms
64 bytes from 203-210-4-091.static.pccw-hkt.com (203.210.4.91): icmp_seq=38 ttl=56 time=179 ms
64 bytes from 203-210-4-091.static.pccw-hkt.com (203.210.4.91): icmp_seq=38 ttl=56 time=179 ms
64 bytes from 203-210-4-091.static.pccw-hkt.com (203.210.4.91): icmp_seq=38 ttl=56 time=179 ms
64 bytes from 203-210-4-091.static.pccw-hkt.com (203.210.4.91): icmp_seq=39 ttl=56 time=249 ms
64 bytes from 203-210-4-091.static.pccw-hkt.com (203.210.4.91): icmp_seq=39 ttl=56 time=249 ms
64 bytes from 203-210-4-091.static.pccw-hkt.com (203.210.4.91): icmp_seq=39 ttl=56 time=249 ms
64 bytes from 203-210-4-091.static.pccw-hkt.com (203.210.4.91): icmp_seq=39 ttl=56 time=250 ms
64 bytes from 203-210-4-091.static.pccw-hkt.com (203.210.4.91): icmp_seq=39 ttl=56 time=250 ms
64 bytes from 203-210-4-091.static.pccw-hkt.com (203.210.4.91): icmp_seq=39 ttl=56 time=250 ms
64 bytes from 203-210-4-091.static.pccw-hkt.com (203.210.4.91): icmp_seq=39 ttl=56 time=250 ms
64 bytes from 203-210-4-091.static.pccw-hkt.com (203.210.4.91): icmp_seq=39 ttl=56 time=249 ms
64 bytes from 203-210-4-091.static.pccw-hkt.com (203.210.4.91): icmp_seq=39 ttl=56 time=250 ms
64 bytes from 203-210-4-091.static.pccw-hkt.com (203.210.4.91): icmp_seq=39 ttl=56 time=250 ms
64 bytes from 203-210-4-091.static.pccw-hkt.com (203.210.4.91): icmp_seq=40 ttl=56 time=182 ms
64 bytes from 203-210-4-091.static.pccw-hkt.com (203.210.4.91): icmp_seq=40 ttl=56 time=182 ms
64 bytes from 203-210-4-091.static.pccw-hkt.com (203.210.4.91): icmp_seq=40 ttl=56 time=182 ms
64 bytes from 203-210-4-091.static.pccw-hkt.com (203.210.4.91): icmp_seq=40 ttl=56 time=182 ms
64 bytes from 203-210-4-091.static.pccw-hkt.com (203.210.4.91): icmp_seq=40 ttl=56 time=182 ms
64 bytes from 203-210-4-091.static.pccw-hkt.com (203.210.4.91): icmp_seq=40 ttl=56 time=182 ms
64 bytes from 203-210-4-091.static.pccw-hkt.com (203.210.4.91): icmp_seq=40 ttl=56 time=182 ms
64 bytes from 203-210-4-091.static.pccw-hkt.com (203.210.4.91): icmp_seq=40 ttl=56 time=182 ms
64 bytes from 203-210-4-091.static.pccw-hkt.com (203.210.4.91): icmp_seq=40 ttl=56 time=182 ms
64 bytes from 203-210-4-091.static.pccw-hkt.com (203.210.4.91): icmp_seq=40 ttl=56 time=183 ms
64 bytes from 203-210-4-091.static.pccw-hkt.com (203.210.4.91): icmp_seq=41 ttl=56 time=184 ms
64 bytes from 203-210-4-091.static.pccw-hkt.com (203.210.4.91): icmp_seq=41 ttl=56 time=184 ms
64 bytes from 203-210-4-091.static.pccw-hkt.com (203.210.4.91): icmp_seq=41 ttl=56 time=184 ms
64 bytes from 203-210-4-091.static.pccw-hkt.com (203.210.4.91): icmp_seq=41 ttl=56 time=184 ms
64 bytes from 203-210-4-091.static.pccw-hkt.com (203.210.4.91): icmp_seq=41 ttl=56 time=184 ms
64 bytes from 203-210-4-091.static.pccw-hkt.com (203.210.4.91): icmp_seq=41 ttl=56 time=184 ms
64 bytes from 203-210-4-091.static.pccw-hkt.com (203.210.4.91): icmp_seq=41 ttl=56 time=184 ms
64 bytes from 203-210-4-091.static.pccw-hkt.com (203.210.4.91): icmp_seq=41 ttl=56 time=185 ms
64 bytes from 203-210-4-091.static.pccw-hkt.com (203.210.4.91): icmp_seq=41 ttl=56 time=185 ms
64 bytes from 203-210-4-091.static.pccw-hkt.com (203.210.4.91): icmp_seq=41 ttl=56 time=185 ms
64 bytes from 203-210-4-091.static.pccw-hkt.com (203.210.4.91): icmp_seq=42 ttl=56 time=180 ms
64 bytes from 203-210-4-091.static.pccw-hkt.com (203.210.4.91): icmp_seq=42 ttl=56 time=180 ms
64 bytes from 203-210-4-091.static.pccw-hkt.com (203.210.4.91): icmp_seq=42 ttl=56 time=184 ms
64 bytes from 203-210-4-091.static.pccw-hkt.com (203.210.4.91): icmp_seq=42 ttl=56 time=184 ms
64 bytes from 203-210-4-091.static.pccw-hkt.com (203.210.4.91): icmp_seq=42 ttl=56 time=184 ms
64 bytes from 203-210-4-091.static.pccw-hkt.com (203.210.4.91): icmp_seq=42 ttl=56 time=184 ms
64 bytes from 203-210-4-091.static.pccw-hkt.com (203.210.4.91): icmp_seq=42 ttl=56 time=184 ms
64 bytes from 203-210-4-091.static.pccw-hkt.com (203.210.4.91): icmp_seq=42 ttl=56 time=184 ms
64 bytes from 203-210-4-091.static.pccw-hkt.com (203.210.4.91): icmp_seq=42 ttl=56 time=184 ms
64 bytes from 203-210-4-091.static.pccw-hkt.com (203.210.4.91): icmp_seq=42 ttl=56 time=184 ms
64 bytes from 203-210-4-091.static.pccw-hkt.com (203.210.4.91): icmp_seq=43 ttl=56 time=179 ms
64 bytes from 203-210-4-091.static.pccw-hkt.com (203.210.4.91): icmp_seq=43 ttl=56 time=179 ms
64 bytes from 203-210-4-091.static.pccw-hkt.com (203.210.4.91): icmp_seq=43 ttl=56 time=179 ms
64 bytes from 203-210-4-091.static.pccw-hkt.com (203.210.4.91): icmp_seq=43 ttl=56 time=179 ms
64 bytes from 203-210-4-091.static.pccw-hkt.com (203.210.4.91): icmp_seq=43 ttl=56 time=179 ms
64 bytes from 203-210-4-091.static.pccw-hkt.com (203.210.4.91): icmp_seq=43 ttl=56 time=179 ms
64 bytes from 203-210-4-091.static.pccw-hkt.com (203.210.4.91): icmp_seq=43 ttl=56 time=179 ms
64 bytes from 203-210-4-091.static.pccw-hkt.com (203.210.4.91): icmp_seq=43 ttl=56 time=180 ms
64 bytes from 203-210-4-091.static.pccw-hkt.com (203.210.4.91): icmp_seq=43 ttl=56 time=179 ms
64 bytes from 203-210-4-091.static.pccw-hkt.com (203.210.4.91): icmp_seq=43 ttl=56 time=179 ms
64 bytes from 203-210-4-091.static.pccw-hkt.com (203.210.4.91): icmp_seq=44 ttl=56 time=187 ms
64 bytes from 203-210-4-091.static.pccw-hkt.com (203.210.4.91): icmp_seq=44 ttl=56 time=187 ms
64 bytes from 203-210-4-091.static.pccw-hkt.com (203.210.4.91): icmp_seq=44 ttl=56 time=186 ms
64 bytes from 203-210-4-091.static.pccw-hkt.com (203.210.4.91): icmp_seq=44 ttl=56 time=186 ms
64 bytes from 203-210-4-091.static.pccw-hkt.com (203.210.4.91): icmp_seq=44 ttl=56 time=186 ms
64 bytes from 203-210-4-091.static.pccw-hkt.com (203.210.4.91): icmp_seq=44 ttl=56 time=186 ms
64 bytes from 203-210-4-091.static.pccw-hkt.com (203.210.4.91): icmp_seq=44 ttl=56 time=186 ms
64 bytes from 203-210-4-091.static.pccw-hkt.com (203.210.4.91): icmp_seq=44 ttl=56 time=187 ms
64 bytes from 203-210-4-091.static.pccw-hkt.com (203.210.4.91): icmp_seq=44 ttl=56 time=187 ms
64 bytes from 203-210-4-091.static.pccw-hkt.com (203.210.4.91): icmp_seq=44 ttl=56 time=186 ms
64 bytes from 203-210-4-091.static.pccw-hkt.com (203.210.4.91): icmp_seq=45 ttl=56 time=178 ms
64 bytes from 203-210-4-091.static.pccw-hkt.com (203.210.4.91): icmp_seq=45 ttl=56 time=177 ms
64 bytes from 203-210-4-091.static.pccw-hkt.com (203.210.4.91): icmp_seq=45 ttl=56 time=178 ms
64 bytes from 203-210-4-091.static.pccw-hkt.com (203.210.4.91): icmp_seq=45 ttl=56 time=178 ms
64 bytes from 203-210-4-091.static.pccw-hkt.com (203.210.4.91): icmp_seq=45 ttl=56 time=178 ms
64 bytes from 203-210-4-091.static.pccw-hkt.com (203.210.4.91): icmp_seq=45 ttl=56 time=178 ms
64 bytes from 203-210-4-091.static.pccw-hkt.com (203.210.4.91): icmp_seq=45 ttl=56 time=178 ms
64 bytes from 203-210-4-091.static.pccw-hkt.com (203.210.4.91): icmp_seq=45 ttl=56 time=178 ms
64 bytes from 203-210-4-091.static.pccw-hkt.com (203.210.4.91): icmp_seq=45 ttl=56 time=178 ms
64 bytes from 203-210-4-091.static.pccw-hkt.com (203.210.4.91): icmp_seq=45 ttl=56 time=178 ms
64 bytes from 203-210-4-091.static.pccw-hkt.com (203.210.4.91): icmp_seq=46 ttl=56 time=179 ms
64 bytes from 203-210-4-091.static.pccw-hkt.com (203.210.4.91): icmp_seq=46 ttl=56 time=179 ms
64 bytes from 203-210-4-091.static.pccw-hkt.com (203.210.4.91): icmp_seq=46 ttl=56 time=179 ms
64 bytes from 203-210-4-091.static.pccw-hkt.com (203.210.4.91): icmp_seq=46 ttl=56 time=180 ms
64 bytes from 203-210-4-091.static.pccw-hkt.com (203.210.4.91): icmp_seq=46 ttl=56 time=179 ms
64 bytes from 203-210-4-091.static.pccw-hkt.com (203.210.4.91): icmp_seq=46 ttl=56 time=180 ms
64 bytes from 203-210-4-091.static.pccw-hkt.com (203.210.4.91): icmp_seq=46 ttl=56 time=180 ms
64 bytes from 203-210-4-091.static.pccw-hkt.com (203.210.4.91): icmp_seq=46 ttl=56 time=178 ms
64 bytes from 203-210-4-091.static.pccw-hkt.com (203.210.4.91): icmp_seq=46 ttl=56 time=178 ms
64 bytes from 203-210-4-091.static.pccw-hkt.com (203.210.4.91): icmp_seq=46 ttl=56 time=181 ms
64 bytes from 203-210-4-091.static.pccw-hkt.com (203.210.4.91): icmp_seq=47 ttl=56 time=180 ms
64 bytes from 203-210-4-091.static.pccw-hkt.com (203.210.4.91): icmp_seq=47 ttl=56 time=180 ms
64 bytes from 203-210-4-091.static.pccw-hkt.com (203.210.4.91): icmp_seq=47 ttl=56 time=180 ms
64 bytes from 203-210-4-091.static.pccw-hkt.com (203.210.4.91): icmp_seq=47 ttl=56 time=179 ms
64 bytes from 203-210-4-091.static.pccw-hkt.com (203.210.4.91): icmp_seq=47 ttl=56 time=180 ms
64 bytes from 203-210-4-091.static.pccw-hkt.com (203.210.4.91): icmp_seq=47 ttl=56 time=180 ms
64 bytes from 203-210-4-091.static.pccw-hkt.com (203.210.4.91): icmp_seq=47 ttl=56 time=179 ms
64 bytes from 203-210-4-091.static.pccw-hkt.com (203.210.4.91): icmp_seq=47 ttl=56 time=179 ms
64 bytes from 203-210-4-091.static.pccw-hkt.com (203.210.4.91): icmp_seq=47 ttl=56 time=179 ms
64 bytes from 203-210-4-091.static.pccw-hkt.com (203.210.4.91): icmp_seq=47 ttl=56 time=179 ms
64 bytes from 203-210-4-091.static.pccw-hkt.com (203.210.4.91): icmp_seq=48 ttl=56 time=178 ms
64 bytes from 203-210-4-091.static.pccw-hkt.com (203.210.4.91): icmp_seq=48 ttl=56 time=178 ms
64 bytes from 203-210-4-091.static.pccw-hkt.com (203.210.4.91): icmp_seq=48 ttl=56 time=178 ms
64 bytes from 203-210-4-091.static.pccw-hkt.com (203.210.4.91): icmp_seq=48 ttl=56 time=178 ms
64 bytes from 203-210-4-091.static.pccw-hkt.com (203.210.4.91): icmp_seq=48 ttl=56 time=178 ms
64 bytes from 203-210-4-091.static.pccw-hkt.com (203.210.4.91): icmp_seq=48 ttl=56 time=178 ms
64 bytes from 203-210-4-091.static.pccw-hkt.com (203.210.4.91): icmp_seq=48 ttl=56 time=179 ms
64 bytes from 203-210-4-091.static.pccw-hkt.com (203.210.4.91): icmp_seq=48 ttl=56 time=177 ms
64 bytes from 203-210-4-091.static.pccw-hkt.com (203.210.4.91): icmp_seq=48 ttl=56 time=176 ms
64 bytes from 203-210-4-091.static.pccw-hkt.com (203.210.4.91): icmp_seq=48 ttl=56 time=177 ms
64 bytes from 203-210-4-091.static.pccw-hkt.com (203.210.4.91): icmp_seq=49 ttl=56 time=185 ms
64 bytes from 203-210-4-091.static.pccw-hkt.com (203.210.4.91): icmp_seq=49 ttl=56 time=185 ms
64 bytes from 203-210-4-091.static.pccw-hkt.com (203.210.4.91): icmp_seq=49 ttl=56 time=185 ms
64 bytes from 203-210-4-091.static.pccw-hkt.com (203.210.4.91): icmp_seq=49 ttl=56 time=185 ms
64 bytes from 203-210-4-091.static.pccw-hkt.com (203.210.4.91): icmp_seq=49 ttl=56 time=185 ms
64 bytes from 203-210-4-091.static.pccw-hkt.com (203.210.4.91): icmp_seq=49 ttl=56 time=184 ms
64 bytes from 203-210-4-091.static.pccw-hkt.com (203.210.4.91): icmp_seq=49 ttl=56 time=184 ms
64 bytes from 203-210-4-091.static.pccw-hkt.com (203.210.4.91): icmp_seq=49 ttl=56 time=184 ms
64 bytes from 203-210-4-091.static.pccw-hkt.com (203.210.4.91): icmp_seq=49 ttl=56 time=184 ms
64 bytes from 203-210-4-091.static.pccw-hkt.com (203.210.4.91): icmp_seq=49 ttl=56 time=184 ms
64 bytes from 203-210-4-091.static.pccw-hkt.com (203.210.4.91): icmp_seq=50 ttl=56 time=181 ms
64 bytes from 203-210-4-091.static.pccw-hkt.com (203.210.4.91): icmp_seq=50 ttl=56 time=181 ms
64 bytes from 203-210-4-091.static.pccw-hkt.com (203.210.4.91): icmp_seq=50 ttl=56 time=181 ms
64 bytes from 203-210-4-091.static.pccw-hkt.com (203.210.4.91): icmp_seq=50 ttl=56 time=181 ms
64 bytes from 203-210-4-091.static.pccw-hkt.com (203.210.4.91): icmp_seq=50 ttl=56 time=181 ms
64 bytes from 203-210-4-091.static.pccw-hkt.com (203.210.4.91): icmp_seq=50 ttl=56 time=181 ms
64 bytes from 203-210-4-091.static.pccw-hkt.com (203.210.4.91): icmp_seq=50 ttl=56 time=179 ms
64 bytes from 203-210-4-091.static.pccw-hkt.com (203.210.4.91): icmp_seq=50 ttl=56 time=181 ms
64 bytes from 203-210-4-091.static.pccw-hkt.com (203.210.4.91): icmp_seq=50 ttl=56 time=180 ms
64 bytes from 203-210-4-091.static.pccw-hkt.com (203.210.4.91): icmp_seq=50 ttl=56 time=180 ms
64 bytes from 203-210-4-091.static.pccw-hkt.com (203.210.4.91): icmp_seq=51 ttl=56 time=185 ms
64 bytes from 203-210-4-091.static.pccw-hkt.com (203.210.4.91): icmp_seq=51 ttl=56 time=185 ms
64 bytes from 203-210-4-091.static.pccw-hkt.com (203.210.4.91): icmp_seq=51 ttl=56 time=185 ms
64 bytes from 203-210-4-091.static.pccw-hkt.com (203.210.4.91): icmp_seq=51 ttl=56 time=185 ms
64 bytes from 203-210-4-091.static.pccw-hkt.com (203.210.4.91): icmp_seq=51 ttl=56 time=185 ms
64 bytes from 203-210-4-091.static.pccw-hkt.com (203.210.4.91): icmp_seq=51 ttl=56 time=184 ms
64 bytes from 203-210-4-091.static.pccw-hkt.com (203.210.4.91): icmp_seq=51 ttl=56 time=186 ms
64 bytes from 203-210-4-091.static.pccw-hkt.com (203.210.4.91): icmp_seq=51 ttl=56 time=184 ms
64 bytes from 203-210-4-091.static.pccw-hkt.com (203.210.4.91): icmp_seq=51 ttl=56 time=185 ms
64 bytes from 203-210-4-091.static.pccw-hkt.com (203.210.4.91): icmp_seq=51 ttl=56 time=185 ms
64 bytes from 203-210-4-091.static.pccw-hkt.com (203.210.4.91): icmp_seq=52 ttl=56 time=178 ms
64 bytes from 203-210-4-091.static.pccw-hkt.com (203.210.4.91): icmp_seq=52 ttl=56 time=179 ms
64 bytes from 203-210-4-091.static.pccw-hkt.com (203.210.4.91): icmp_seq=52 ttl=56 time=179 ms
64 bytes from 203-210-4-091.static.pccw-hkt.com (203.210.4.91): icmp_seq=52 ttl=56 time=178 ms
64 bytes from 203-210-4-091.static.pccw-hkt.com (203.210.4.91): icmp_seq=52 ttl=56 time=178 ms
64 bytes from 203-210-4-091.static.pccw-hkt.com (203.210.4.91): icmp_seq=52 ttl=56 time=177 ms
64 bytes from 203-210-4-091.static.pccw-hkt.com (203.210.4.91): icmp_seq=52 ttl=56 time=178 ms
64 bytes from 203-210-4-091.static.pccw-hkt.com (203.210.4.91): icmp_seq=52 ttl=56 time=177 ms
64 bytes from 203-210-4-091.static.pccw-hkt.com (203.210.4.91): icmp_seq=52 ttl=56 time=178 ms
64 bytes from 203-210-4-091.static.pccw-hkt.com (203.210.4.91): icmp_seq=52 ttl=56 time=178 ms
64 bytes from 203-210-4-091.static.pccw-hkt.com (203.210.4.91): icmp_seq=53 ttl=56 time=188 ms
64 bytes from 203-210-4-091.static.pccw-hkt.com (203.210.4.91): icmp_seq=53 ttl=56 time=188 ms
64 bytes from 203-210-4-091.static.pccw-hkt.com (203.210.4.91): icmp_seq=53 ttl=56 time=187 ms
64 bytes from 203-210-4-091.static.pccw-hkt.com (203.210.4.91): icmp_seq=53 ttl=56 time=188 ms
64 bytes from 203-210-4-091.static.pccw-hkt.com (203.210.4.91): icmp_seq=53 ttl=56 time=187 ms
64 bytes from 203-210-4-091.static.pccw-hkt.com (203.210.4.91): icmp_seq=53 ttl=56 time=187 ms
64 bytes from 203-210-4-091.static.pccw-hkt.com (203.210.4.91): icmp_seq=53 ttl=56 time=186 ms
64 bytes from 203-210-4-091.static.pccw-hkt.com (203.210.4.91): icmp_seq=53 ttl=56 time=185 ms
64 bytes from 203-210-4-091.static.pccw-hkt.com (203.210.4.91): icmp_seq=53 ttl=56 time=186 ms
64 bytes from 203-210-4-091.static.pccw-hkt.com (203.210.4.91): icmp_seq=53 ttl=56 time=186 ms
64 bytes from 203-210-4-091.static.pccw-hkt.com (203.210.4.91): icmp_seq=54 ttl=56 time=189 ms
64 bytes from 203-210-4-091.static.pccw-hkt.com (203.210.4.91): icmp_seq=54 ttl=56 time=189 ms
64 bytes from 203-210-4-091.static.pccw-hkt.com (203.210.4.91): icmp_seq=54 ttl=56 time=189 ms
64 bytes from 203-210-4-091.static.pccw-hkt.com (203.210.4.91): icmp_seq=54 ttl=56 time=189 ms
64 bytes from 203-210-4-091.static.pccw-hkt.com (203.210.4.91): icmp_seq=54 ttl=56 time=189 ms
64 bytes from 203-210-4-091.static.pccw-hkt.com (203.210.4.91): icmp_seq=54 ttl=56 time=189 ms
64 bytes from 203-210-4-091.static.pccw-hkt.com (203.210.4.91): icmp_seq=54 ttl=56 time=190 ms
64 bytes from 203-210-4-091.static.pccw-hkt.com (203.210.4.91): icmp_seq=54 ttl=56 time=191 ms
64 bytes from 203-210-4-091.static.pccw-hkt.com (203.210.4.91): icmp_seq=54 ttl=56 time=191 ms
64 bytes from 203-210-4-091.static.pccw-hkt.com (203.210.4.91): icmp_seq=54 ttl=56 time=191 ms
64 bytes from 203-210-4-091.static.pccw-hkt.com (203.210.4.91): icmp_seq=55 ttl=56 time=186 ms
64 bytes from 203-210-4-091.static.pccw-hkt.com (203.210.4.91): icmp_seq=55 ttl=56 time=186 ms
64 bytes from 203-210-4-091.static.pccw-hkt.com (203.210.4.91): icmp_seq=55 ttl=56 time=185 ms
64 bytes from 203-210-4-091.static.pccw-hkt.com (203.210.4.91): icmp_seq=55 ttl=56 time=186 ms
64 bytes from 203-210-4-091.static.pccw-hkt.com (203.210.4.91): icmp_seq=55 ttl=56 time=186 ms
64 bytes from 203-210-4-091.static.pccw-hkt.com (203.210.4.91): icmp_seq=55 ttl=56 time=186 ms
64 bytes from 203-210-4-091.static.pccw-hkt.com (203.210.4.91): icmp_seq=55 ttl=56 time=183 ms
64 bytes from 203-210-4-091.static.pccw-hkt.com (203.210.4.91): icmp_seq=55 ttl=56 time=183 ms
64 bytes from 203-210-4-091.static.pccw-hkt.com (203.210.4.91): icmp_seq=55 ttl=56 time=186 ms
64 bytes from 203-210-4-091.static.pccw-hkt.com (203.210.4.91): icmp_seq=55 ttl=56 time=185 ms
64 bytes from 203-210-4-091.static.pccw-hkt.com (203.210.4.91): icmp_seq=56 ttl=56 time=193 ms
64 bytes from 203-210-4-091.static.pccw-hkt.com (203.210.4.91): icmp_seq=56 ttl=56 time=193 ms
64 bytes from 203-210-4-091.static.pccw-hkt.com (203.210.4.91): icmp_seq=56 ttl=56 time=193 ms
64 bytes from 203-210-4-091.static.pccw-hkt.com (203.210.4.91): icmp_seq=56 ttl=56 time=193 ms
64 bytes from 203-210-4-091.static.pccw-hkt.com (203.210.4.91): icmp_seq=56 ttl=56 time=193 ms
64 bytes from 203-210-4-091.static.pccw-hkt.com (203.210.4.91): icmp_seq=56 ttl=56 time=193 ms
64 bytes from 203-210-4-091.static.pccw-hkt.com (203.210.4.91): icmp_seq=56 ttl=56 time=193 ms
64 bytes from 203-210-4-091.static.pccw-hkt.com (203.210.4.91): icmp_seq=56 ttl=56 time=193 ms
64 bytes from 203-210-4-091.static.pccw-hkt.com (203.210.4.91): icmp_seq=56 ttl=56 time=190 ms
64 bytes from 203-210-4-091.static.pccw-hkt.com (203.210.4.91): icmp_seq=56 ttl=56 time=190 ms
64 bytes from 203-210-4-091.static.pccw-hkt.com (203.210.4.91): icmp_seq=57 ttl=56 time=190 ms
64 bytes from 203-210-4-091.static.pccw-hkt.com (203.210.4.91): icmp_seq=57 ttl=56 time=190 ms
64 bytes from 203-210-4-091.static.pccw-hkt.com (203.210.4.91): icmp_seq=57 ttl=56 time=190 ms
64 bytes from 203-210-4-091.static.pccw-hkt.com (203.210.4.91): icmp_seq=57 ttl=56 time=190 ms
64 bytes from 203-210-4-091.static.pccw-hkt.com (203.210.4.91): icmp_seq=57 ttl=56 time=190 ms
64 bytes from 203-210-4-091.static.pccw-hkt.com (203.210.4.91): icmp_seq=57 ttl=56 time=190 ms
64 bytes from 203-210-4-091.static.pccw-hkt.com (203.210.4.91): icmp_seq=57 ttl=56 time=190 ms
64 bytes from 203-210-4-091.static.pccw-hkt.com (203.210.4.91): icmp_seq=57 ttl=56 time=189 ms
64 bytes from 203-210-4-091.static.pccw-hkt.com (203.210.4.91): icmp_seq=57 ttl=56 time=187 ms
64 bytes from 203-210-4-091.static.pccw-hkt.com (203.210.4.91): icmp_seq=57 ttl=56 time=187 ms
64 bytes from 203-210-4-091.static.pccw-hkt.com (203.210.4.91): icmp_seq=58 ttl=56 time=188 ms
64 bytes from 203-210-4-091.static.pccw-hkt.com (203.210.4.91): icmp_seq=58 ttl=56 time=188 ms
64 bytes from 203-210-4-091.static.pccw-hkt.com (203.210.4.91): icmp_seq=58 ttl=56 time=188 ms
64 bytes from 203-210-4-091.static.pccw-hkt.com (203.210.4.91): icmp_seq=58 ttl=56 time=188 ms
64 bytes from 203-210-4-091.static.pccw-hkt.com (203.210.4.91): icmp_seq=58 ttl=56 time=188 ms
64 bytes from 203-210-4-091.static.pccw-hkt.com (203.210.4.91): icmp_seq=58 ttl=56 time=190 ms
64 bytes from 203-210-4-091.static.pccw-hkt.com (203.210.4.91): icmp_seq=58 ttl=56 time=190 ms
64 bytes from 203-210-4-091.static.pccw-hkt.com (203.210.4.91): icmp_seq=58 ttl=56 time=190 ms
64 bytes from 203-210-4-091.static.pccw-hkt.com (203.210.4.91): icmp_seq=58 ttl=56 time=186 ms
64 bytes from 203-210-4-091.static.pccw-hkt.com (203.210.4.91): icmp_seq=58 ttl=56 time=186 ms
64 bytes from 203-210-4-091.static.pccw-hkt.com (203.210.4.91): icmp_seq=59 ttl=56 time=197 ms
64 bytes from 203-210-4-091.static.pccw-hkt.com (203.210.4.91): icmp_seq=59 ttl=56 time=196 ms
64 bytes from 203-210-4-091.static.pccw-hkt.com (203.210.4.91): icmp_seq=59 ttl=56 time=196 ms
64 bytes from 203-210-4-091.static.pccw-hkt.com (203.210.4.91): icmp_seq=59 ttl=56 time=197 ms
64 bytes from 203-210-4-091.static.pccw-hkt.com (203.210.4.91): icmp_seq=59 ttl=56 time=197 ms
64 bytes from 203-210-4-091.static.pccw-hkt.com (203.210.4.91): icmp_seq=59 ttl=56 time=197 ms
64 bytes from 203-210-4-091.static.pccw-hkt.com (203.210.4.91): icmp_seq=59 ttl=56 time=197 ms
64 bytes from 203-210-4-091.static.pccw-hkt.com (203.210.4.91): icmp_seq=59 ttl=56 time=196 ms
64 bytes from 203-210-4-091.static.pccw-hkt.com (203.210.4.91): icmp_seq=59 ttl=56 time=193 ms
64 bytes from 203-210-4-091.static.pccw-hkt.com (203.210.4.91): icmp_seq=59 ttl=56 time=193 ms
64 bytes from 203-210-4-091.static.pccw-hkt.com (203.210.4.91): icmp_seq=60 ttl=56 time=189 ms
64 bytes from 203-210-4-091.static.pccw-hkt.com (203.210.4.91): icmp_seq=60 ttl=56 time=189 ms
64 bytes from 203-210-4-091.static.pccw-hkt.com (203.210.4.91): icmp_seq=60 ttl=56 time=189 ms
64 bytes from 203-210-4-091.static.pccw-hkt.com (203.210.4.91): icmp_seq=60 ttl=56 time=189 ms
64 bytes from 203-210-4-091.static.pccw-hkt.com (203.210.4.91): icmp_seq=60 ttl=56 time=190 ms
64 bytes from 203-210-4-091.static.pccw-hkt.com (203.210.4.91): icmp_seq=60 ttl=56 time=190 ms
64 bytes from 203-210-4-091.static.pccw-hkt.com (203.210.4.91): icmp_seq=60 ttl=56 time=189 ms
64 bytes from 203-210-4-091.static.pccw-hkt.com (203.210.4.91): icmp_seq=60 ttl=56 time=190 ms
64 bytes from 203-210-4-091.static.pccw-hkt.com (203.210.4.91): icmp_seq=60 ttl=56 time=191 ms
64 bytes from 203-210-4-091.static.pccw-hkt.com (203.210.4.91): icmp_seq=60 ttl=56 time=191 ms
64 bytes from 203-210-4-091.static.pccw-hkt.com (203.210.4.91): icmp_seq=61 ttl=56 time=180 ms
64 bytes from 203-210-4-091.static.pccw-hkt.com (203.210.4.91): icmp_seq=61 ttl=56 time=180 ms
64 bytes from 203-210-4-091.static.pccw-hkt.com (203.210.4.91): icmp_seq=61 ttl=56 time=178 ms
64 bytes from 203-210-4-091.static.pccw-hkt.com (203.210.4.91): icmp_seq=61 ttl=56 time=178 ms
64 bytes from 203-210-4-091.static.pccw-hkt.com (203.210.4.91): icmp_seq=61 ttl=56 time=179 ms
64 bytes from 203-210-4-091.static.pccw-hkt.com (203.210.4.91): icmp_seq=61 ttl=56 time=179 ms
64 bytes from 203-210-4-091.static.pccw-hkt.com (203.210.4.91): icmp_seq=61 ttl=56 time=179 ms
64 bytes from 203-210-4-091.static.pccw-hkt.com (203.210.4.91): icmp_seq=61 ttl=56 time=179 ms
64 bytes from 203-210-4-091.static.pccw-hkt.com (203.210.4.91): icmp_seq=61 ttl=56 time=177 ms
64 bytes from 203-210-4-091.static.pccw-hkt.com (203.210.4.91): icmp_seq=61 ttl=56 time=177 ms
64 bytes from 203-210-4-091.static.pccw-hkt.com (203.210.4.91): icmp_seq=62 ttl=56 time=183 ms
64 bytes from 203-210-4-091.static.pccw-hkt.com (203.210.4.91): icmp_seq=62 ttl=56 time=183 ms
64 bytes from 203-210-4-091.static.pccw-hkt.com (203.210.4.91): icmp_seq=62 ttl=56 time=184 ms
64 bytes from 203-210-4-091.static.pccw-hkt.com (203.210.4.91): icmp_seq=62 ttl=56 time=180 ms
64 bytes from 203-210-4-091.static.pccw-hkt.com (203.210.4.91): icmp_seq=62 ttl=56 time=184 ms
64 bytes from 203-210-4-091.static.pccw-hkt.com (203.210.4.91): icmp_seq=62 ttl=56 time=184 ms
64 bytes from 203-210-4-091.static.pccw-hkt.com (203.210.4.91): icmp_seq=62 ttl=56 time=185 ms
64 bytes from 203-210-4-091.static.pccw-hkt.com (203.210.4.91): icmp_seq=62 ttl=56 time=184 ms
64 bytes from 203-210-4-091.static.pccw-hkt.com (203.210.4.91): icmp_seq=62 ttl=56 time=181 ms
64 bytes from 203-210-4-091.static.pccw-hkt.com (203.210.4.91): icmp_seq=62 ttl=56 time=181 ms
64 bytes from 203-210-4-091.static.pccw-hkt.com (203.210.4.91): icmp_seq=63 ttl=56 time=182 ms
64 bytes from 203-210-4-091.static.pccw-hkt.com (203.210.4.91): icmp_seq=63 ttl=56 time=182 ms
64 bytes from 203-210-4-091.static.pccw-hkt.com (203.210.4.91): icmp_seq=63 ttl=56 time=182 ms
64 bytes from 203-210-4-091.static.pccw-hkt.com (203.210.4.91): icmp_seq=63 ttl=56 time=183 ms
64 bytes from 203-210-4-091.static.pccw-hkt.com (203.210.4.91): icmp_seq=63 ttl=56 time=183 ms
64 bytes from 203-210-4-091.static.pccw-hkt.com (203.210.4.91): icmp_seq=63 ttl=56 time=182 ms
64 bytes from 203-210-4-091.static.pccw-hkt.com (203.210.4.91): icmp_seq=63 ttl=56 time=181 ms
64 bytes from 203-210-4-091.static.pccw-hkt.com (203.210.4.91): icmp_seq=63 ttl=56 time=181 ms
64 bytes from 203-210-4-091.static.pccw-hkt.com (203.210.4.91): icmp_seq=63 ttl=56 time=180 ms
64 bytes from 203-210-4-091.static.pccw-hkt.com (203.210.4.91): icmp_seq=63 ttl=56 time=180 ms
64 bytes from 203-210-4-091.static.pccw-hkt.com (203.210.4.91): icmp_seq=64 ttl=56 time=188 ms
64 bytes from 203-210-4-091.static.pccw-hkt.com (203.210.4.91): icmp_seq=64 ttl=56 time=188 ms
64 bytes from 203-210-4-091.static.pccw-hkt.com (203.210.4.91): icmp_seq=64 ttl=56 time=189 ms
64 bytes from 203-210-4-091.static.pccw-hkt.com (203.210.4.91): icmp_seq=64 ttl=56 time=189 ms
64 bytes from 203-210-4-091.static.pccw-hkt.com (203.210.4.91): icmp_seq=64 ttl=56 time=189 ms
64 bytes from 203-210-4-091.static.pccw-hkt.com (203.210.4.91): icmp_seq=64 ttl=56 time=189 ms
64 bytes from 203-210-4-091.static.pccw-hkt.com (203.210.4.91): icmp_seq=64 ttl=56 time=189 ms
64 bytes from 203-210-4-091.static.pccw-hkt.com (203.210.4.91): icmp_seq=64 ttl=56 time=189 ms
64 bytes from 203-210-4-091.static.pccw-hkt.com (203.210.4.91): icmp_seq=64 ttl=56 time=186 ms
64 bytes from 203-210-4-091.static.pccw-hkt.com (203.210.4.91): icmp_seq=64 ttl=56 time=187 ms
64 bytes from 203-210-4-091.static.pccw-hkt.com (203.210.4.91): icmp_seq=65 ttl=56 time=185 ms
64 bytes from 203-210-4-091.static.pccw-hkt.com (203.210.4.91): icmp_seq=65 ttl=56 time=185 ms
64 bytes from 203-210-4-091.static.pccw-hkt.com (203.210.4.91): icmp_seq=65 ttl=56 time=185 ms
64 bytes from 203-210-4-091.static.pccw-hkt.com (203.210.4.91): icmp_seq=65 ttl=56 time=185 ms
64 bytes from 203-210-4-091.static.pccw-hkt.com (203.210.4.91): icmp_seq=65 ttl=56 time=185 ms
64 bytes from 203-210-4-091.static.pccw-hkt.com (203.210.4.91): icmp_seq=65 ttl=56 time=185 ms
64 bytes from 203-210-4-091.static.pccw-hkt.com (203.210.4.91): icmp_seq=65 ttl=56 time=185 ms
64 bytes from 203-210-4-091.static.pccw-hkt.com (203.210.4.91): icmp_seq=65 ttl=56 time=185 ms
64 bytes from 203-210-4-091.static.pccw-hkt.com (203.210.4.91): icmp_seq=65 ttl=56 time=186 ms
64 bytes from 203-210-4-091.static.pccw-hkt.com (203.210.4.91): icmp_seq=65 ttl=56 time=186 ms
64 bytes from 203-210-4-091.static.pccw-hkt.com (203.210.4.91): icmp_seq=66 ttl=56 time=188 ms
64 bytes from 203-210-4-091.static.pccw-hkt.com (203.210.4.91): icmp_seq=66 ttl=56 time=187 ms
64 bytes from 203-210-4-091.static.pccw-hkt.com (203.210.4.91): icmp_seq=66 ttl=56 time=191 ms
64 bytes from 203-210-4-091.static.pccw-hkt.com (203.210.4.91): icmp_seq=66 ttl=56 time=191 ms
64 bytes from 203-210-4-091.static.pccw-hkt.com (203.210.4.91): icmp_seq=66 ttl=56 time=193 ms
64 bytes from 203-210-4-091.static.pccw-hkt.com (203.210.4.91): icmp_seq=66 ttl=56 time=191 ms
64 bytes from 203-210-4-091.static.pccw-hkt.com (203.210.4.91): icmp_seq=66 ttl=56 time=191 ms
64 bytes from 203-210-4-091.static.pccw-hkt.com (203.210.4.91): icmp_seq=66 ttl=56 time=191 ms
64 bytes from 203-210-4-091.static.pccw-hkt.com (203.210.4.91): icmp_seq=66 ttl=56 time=187 ms
64 bytes from 203-210-4-091.static.pccw-hkt.com (203.210.4.91): icmp_seq=66 ttl=56 time=187 ms
64 bytes from 203-210-4-091.static.pccw-hkt.com (203.210.4.91): icmp_seq=67 ttl=56 time=199 ms
64 bytes from 203-210-4-091.static.pccw-hkt.com (203.210.4.91): icmp_seq=67 ttl=56 time=197 ms
64 bytes from 203-210-4-091.static.pccw-hkt.com (203.210.4.91): icmp_seq=67 ttl=56 time=197 ms
64 bytes from 203-210-4-091.static.pccw-hkt.com (203.210.4.91): icmp_seq=67 ttl=56 time=197 ms
64 bytes from 203-210-4-091.static.pccw-hkt.com (203.210.4.91): icmp_seq=67 ttl=56 time=199 ms
64 bytes from 203-210-4-091.static.pccw-hkt.com (203.210.4.91): icmp_seq=67 ttl=56 time=197 ms
64 bytes from 203-210-4-091.static.pccw-hkt.com (203.210.4.91): icmp_seq=67 ttl=56 time=199 ms
64 bytes from 203-210-4-091.static.pccw-hkt.com (203.210.4.91): icmp_seq=67 ttl=56 time=197 ms
64 bytes from 203-210-4-091.static.pccw-hkt.com (203.210.4.91): icmp_seq=67 ttl=56 time=194 ms
64 bytes from 203-210-4-091.static.pccw-hkt.com (203.210.4.91): icmp_seq=67 ttl=56 time=194 ms
64 bytes from 203-210-4-091.static.pccw-hkt.com (203.210.4.91): icmp_seq=68 ttl=56 time=193 ms
64 bytes from 203-210-4-091.static.pccw-hkt.com (203.210.4.91): icmp_seq=68 ttl=56 time=194 ms
64 bytes from 203-210-4-091.static.pccw-hkt.com (203.210.4.91): icmp_seq=68 ttl=56 time=194 ms
64 bytes from 203-210-4-091.static.pccw-hkt.com (203.210.4.91): icmp_seq=68 ttl=56 time=193 ms
64 bytes from 203-210-4-091.static.pccw-hkt.com (203.210.4.91): icmp_seq=68 ttl=56 time=192 ms
64 bytes from 203-210-4-091.static.pccw-hkt.com (203.210.4.91): icmp_seq=68 ttl=56 time=193 ms
64 bytes from 203-210-4-091.static.pccw-hkt.com (203.210.4.91): icmp_seq=68 ttl=56 time=192 ms
64 bytes from 203-210-4-091.static.pccw-hkt.com (203.210.4.91): icmp_seq=68 ttl=56 time=193 ms
64 bytes from 203-210-4-091.static.pccw-hkt.com (203.210.4.91): icmp_seq=68 ttl=56 time=192 ms
64 bytes from 203-210-4-091.static.pccw-hkt.com (203.210.4.91): icmp_seq=68 ttl=56 time=193 ms
64 bytes from 203-210-4-091.static.pccw-hkt.com (203.210.4.91): icmp_seq=69 ttl=56 time=243 ms
64 bytes from 203-210-4-091.static.pccw-hkt.com (203.210.4.91): icmp_seq=69 ttl=56 time=244 ms
64 bytes from 203-210-4-091.static.pccw-hkt.com (203.210.4.91): icmp_seq=69 ttl=56 time=244 ms
64 bytes from 203-210-4-091.static.pccw-hkt.com (203.210.4.91): icmp_seq=69 ttl=56 time=244 ms
64 bytes from 203-210-4-091.static.pccw-hkt.com (203.210.4.91): icmp_seq=69 ttl=56 time=244 ms
64 bytes from 203-210-4-091.static.pccw-hkt.com (203.210.4.91): icmp_seq=69 ttl=56 time=243 ms
64 bytes from 203-210-4-091.static.pccw-hkt.com (203.210.4.91): icmp_seq=69 ttl=56 time=240 ms
64 bytes from 203-210-4-091.static.pccw-hkt.com (203.210.4.91): icmp_seq=69 ttl=56 time=240 ms
64 bytes from 203-210-4-091.static.pccw-hkt.com (203.210.4.91): icmp_seq=69 ttl=56 time=242 ms
64 bytes from 203-210-4-091.static.pccw-hkt.com (203.210.4.91): icmp_seq=69 ttl=56 time=242 ms
64 bytes from 203-210-4-091.static.pccw-hkt.com (203.210.4.91): icmp_seq=70 ttl=56 time=183 ms
64 bytes from 203-210-4-091.static.pccw-hkt.com (203.210.4.91): icmp_seq=70 ttl=56 time=183 ms
64 bytes from 203-210-4-091.static.pccw-hkt.com (203.210.4.91): icmp_seq=70 ttl=56 time=183 ms
64 bytes from 203-210-4-091.static.pccw-hkt.com (203.210.4.91): icmp_seq=70 ttl=56 time=181 ms
64 bytes from 203-210-4-091.static.pccw-hkt.com (203.210.4.91): icmp_seq=70 ttl=56 time=186 ms
64 bytes from 203-210-4-091.static.pccw-hkt.com (203.210.4.91): icmp_seq=70 ttl=56 time=182 ms
64 bytes from 203-210-4-091.static.pccw-hkt.com (203.210.4.91): icmp_seq=70 ttl=56 time=186 ms
64 bytes from 203-210-4-091.static.pccw-hkt.com (203.210.4.91): icmp_seq=70 ttl=56 time=186 ms
64 bytes from 203-210-4-091.static.pccw-hkt.com (203.210.4.91): icmp_seq=70 ttl=56 time=182 ms
64 bytes from 203-210-4-091.static.pccw-hkt.com (203.210.4.91): icmp_seq=70 ttl=56 time=182 ms
64 bytes from 203-210-4-091.static.pccw-hkt.com (203.210.4.91): icmp_seq=71 ttl=56 time=190 ms
64 bytes from 203-210-4-091.static.pccw-hkt.com (203.210.4.91): icmp_seq=71 ttl=56 time=190 ms
64 bytes from 203-210-4-091.static.pccw-hkt.com (203.210.4.91): icmp_seq=71 ttl=56 time=190 ms
64 bytes from 203-210-4-091.static.pccw-hkt.com (203.210.4.91): icmp_seq=71 ttl=56 time=190 ms
64 bytes from 203-210-4-091.static.pccw-hkt.com (203.210.4.91): icmp_seq=71 ttl=56 time=190 ms
64 bytes from 203-210-4-091.static.pccw-hkt.com (203.210.4.91): icmp_seq=71 ttl=56 time=190 ms
64 bytes from 203-210-4-091.static.pccw-hkt.com (203.210.4.91): icmp_seq=71 ttl=56 time=190 ms
64 bytes from 203-210-4-091.static.pccw-hkt.com (203.210.4.91): icmp_seq=71 ttl=56 time=190 ms
64 bytes from 203-210-4-091.static.pccw-hkt.com (203.210.4.91): icmp_seq=71 ttl=56 time=193 ms
64 bytes from 203-210-4-091.static.pccw-hkt.com (203.210.4.91): icmp_seq=71 ttl=56 time=193 ms
64 bytes from 203-210-4-091.static.pccw-hkt.com (203.210.4.91): icmp_seq=72 ttl=56 time=189 ms
64 bytes from 203-210-4-091.static.pccw-hkt.com (203.210.4.91): icmp_seq=72 ttl=56 time=189 ms
64 bytes from 203-210-4-091.static.pccw-hkt.com (203.210.4.91): icmp_seq=72 ttl=56 time=189 ms
64 bytes from 203-210-4-091.static.pccw-hkt.com (203.210.4.91): icmp_seq=72 ttl=56 time=189 ms
64 bytes from 203-210-4-091.static.pccw-hkt.com (203.210.4.91): icmp_seq=72 ttl=56 time=190 ms
64 bytes from 203-210-4-091.static.pccw-hkt.com (203.210.4.91): icmp_seq=72 ttl=56 time=190 ms
64 bytes from 203-210-4-091.static.pccw-hkt.com (203.210.4.91): icmp_seq=72 ttl=56 time=190 ms
64 bytes from 203-210-4-091.static.pccw-hkt.com (203.210.4.91): icmp_seq=72 ttl=56 time=193 ms
64 bytes from 203-210-4-091.static.pccw-hkt.com (203.210.4.91): icmp_seq=72 ttl=56 time=187 ms
64 bytes from 203-210-4-091.static.pccw-hkt.com (203.210.4.91): icmp_seq=72 ttl=56 time=188 ms
64 bytes from 203-210-4-091.static.pccw-hkt.com (203.210.4.91): icmp_seq=73 ttl=56 time=196 ms
64 bytes from 203-210-4-091.static.pccw-hkt.com (203.210.4.91): icmp_seq=73 ttl=56 time=195 ms
64 bytes from 203-210-4-091.static.pccw-hkt.com (203.210.4.91): icmp_seq=73 ttl=56 time=196 ms
64 bytes from 203-210-4-091.static.pccw-hkt.com (203.210.4.91): icmp_seq=73 ttl=56 time=196 ms
64 bytes from 203-210-4-091.static.pccw-hkt.com (203.210.4.91): icmp_seq=73 ttl=56 time=196 ms
64 bytes from 203-210-4-091.static.pccw-hkt.com (203.210.4.91): icmp_seq=73 ttl=56 time=195 ms
64 bytes from 203-210-4-091.static.pccw-hkt.com (203.210.4.91): icmp_seq=73 ttl=56 time=196 ms
64 bytes from 203-210-4-091.static.pccw-hkt.com (203.210.4.91): icmp_seq=73 ttl=56 time=196 ms
64 bytes from 203-210-4-091.static.pccw-hkt.com (203.210.4.91): icmp_seq=73 ttl=56 time=192 ms
64 bytes from 203-210-4-091.static.pccw-hkt.com (203.210.4.91): icmp_seq=73 ttl=56 time=192 ms
64 bytes from 203-210-4-091.static.pccw-hkt.com (203.210.4.91): icmp_seq=74 ttl=56 time=191 ms
64 bytes from 203-210-4-091.static.pccw-hkt.com (203.210.4.91): icmp_seq=74 ttl=56 time=191 ms
64 bytes from 203-210-4-091.static.pccw-hkt.com (203.210.4.91): icmp_seq=74 ttl=56 time=191 ms
64 bytes from 203-210-4-091.static.pccw-hkt.com (203.210.4.91): icmp_seq=74 ttl=56 time=191 ms
64 bytes from 203-210-4-091.static.pccw-hkt.com (203.210.4.91): icmp_seq=74 ttl=56 time=194 ms
64 bytes from 203-210-4-091.static.pccw-hkt.com (203.210.4.91): icmp_seq=74 ttl=56 time=194 ms
64 bytes from 203-210-4-091.static.pccw-hkt.com (203.210.4.91): icmp_seq=74 ttl=56 time=194 ms
64 bytes from 203-210-4-091.static.pccw-hkt.com (203.210.4.91): icmp_seq=74 ttl=56 time=194 ms
64 bytes from 203-210-4-091.static.pccw-hkt.com (203.210.4.91): icmp_seq=74 ttl=56 time=191 ms
64 bytes from 203-210-4-091.static.pccw-hkt.com (203.210.4.91): icmp_seq=74 ttl=56 time=191 ms
64 bytes from 203-210-4-091.static.pccw-hkt.com (203.210.4.91): icmp_seq=75 ttl=56 time=207 ms
64 bytes from 203-210-4-091.static.pccw-hkt.com (203.210.4.91): icmp_seq=75 ttl=56 time=207 ms
64 bytes from 203-210-4-091.static.pccw-hkt.com (203.210.4.91): icmp_seq=75 ttl=56 time=207 ms
64 bytes from 203-210-4-091.static.pccw-hkt.com (203.210.4.91): icmp_seq=75 ttl=56 time=207 ms
64 bytes from 203-210-4-091.static.pccw-hkt.com (203.210.4.91): icmp_seq=75 ttl=56 time=207 ms
64 bytes from 203-210-4-091.static.pccw-hkt.com (203.210.4.91): icmp_seq=75 ttl=56 time=209 ms
64 bytes from 203-210-4-091.static.pccw-hkt.com (203.210.4.91): icmp_seq=75 ttl=56 time=209 ms
64 bytes from 203-210-4-091.static.pccw-hkt.com (203.210.4.91): icmp_seq=75 ttl=56 time=209 ms
64 bytes from 203-210-4-091.static.pccw-hkt.com (203.210.4.91): icmp_seq=75 ttl=56 time=199 ms
64 bytes from 203-210-4-091.static.pccw-hkt.com (203.210.4.91): icmp_seq=75 ttl=56 time=199 ms
64 bytes from 203-210-4-091.static.pccw-hkt.com (203.210.4.91): icmp_seq=76 ttl=56 time=197 ms
64 bytes from 203-210-4-091.static.pccw-hkt.com (203.210.4.91): icmp_seq=76 ttl=56 time=197 ms
64 bytes from 203-210-4-091.static.pccw-hkt.com (203.210.4.91): icmp_seq=76 ttl=56 time=197 ms
64 bytes from 203-210-4-091.static.pccw-hkt.com (203.210.4.91): icmp_seq=76 ttl=56 time=197 ms
64 bytes from 203-210-4-091.static.pccw-hkt.com (203.210.4.91): icmp_seq=76 ttl=56 time=197 ms
64 bytes from 203-210-4-091.static.pccw-hkt.com (203.210.4.91): icmp_seq=76 ttl=56 time=197 ms
64 bytes from 203-210-4-091.static.pccw-hkt.com (203.210.4.91): icmp_seq=76 ttl=56 time=197 ms
64 bytes from 203-210-4-091.static.pccw-hkt.com (203.210.4.91): icmp_seq=76 ttl=56 time=197 ms
64 bytes from 203-210-4-091.static.pccw-hkt.com (203.210.4.91): icmp_seq=76 ttl=56 time=195 ms
64 bytes from 203-210-4-091.static.pccw-hkt.com (203.210.4.91): icmp_seq=76 ttl=56 time=196 ms
64 bytes from 203-210-4-091.static.pccw-hkt.com (203.210.4.91): icmp_seq=77 ttl=56 time=190 ms
64 bytes from 203-210-4-091.static.pccw-hkt.com (203.210.4.91): icmp_seq=77 ttl=56 time=190 ms
64 bytes from 203-210-4-091.static.pccw-hkt.com (203.210.4.91): icmp_seq=77 ttl=56 time=190 ms
64 bytes from 203-210-4-091.static.pccw-hkt.com (203.210.4.91): icmp_seq=77 ttl=56 time=190 ms
64 bytes from 203-210-4-091.static.pccw-hkt.com (203.210.4.91): icmp_seq=77 ttl=56 time=190 ms
64 bytes from 203-210-4-091.static.pccw-hkt.com (203.210.4.91): icmp_seq=77 ttl=56 time=190 ms
64 bytes from 203-210-4-091.static.pccw-hkt.com (203.210.4.91): icmp_seq=77 ttl=56 time=190 ms
64 bytes from 203-210-4-091.static.pccw-hkt.com (203.210.4.91): icmp_seq=77 ttl=56 time=190 ms
64 bytes from 203-210-4-091.static.pccw-hkt.com (203.210.4.91): icmp_seq=77 ttl=56 time=189 ms
64 bytes from 203-210-4-091.static.pccw-hkt.com (203.210.4.91): icmp_seq=77 ttl=56 time=189 ms
64 bytes from 203-210-4-091.static.pccw-hkt.com (203.210.4.91): icmp_seq=78 ttl=56 time=193 ms
64 bytes from 203-210-4-091.static.pccw-hkt.com (203.210.4.91): icmp_seq=78 ttl=56 time=193 ms
64 bytes from 203-210-4-091.static.pccw-hkt.com (203.210.4.91): icmp_seq=78 ttl=56 time=192 ms
64 bytes from 203-210-4-091.static.pccw-hkt.com (203.210.4.91): icmp_seq=78 ttl=56 time=193 ms
64 bytes from 203-210-4-091.static.pccw-hkt.com (203.210.4.91): icmp_seq=78 ttl=56 time=192 ms
64 bytes from 203-210-4-091.static.pccw-hkt.com (203.210.4.91): icmp_seq=78 ttl=56 time=192 ms
64 bytes from 203-210-4-091.static.pccw-hkt.com (203.210.4.91): icmp_seq=78 ttl=56 time=192 ms
64 bytes from 203-210-4-091.static.pccw-hkt.com (203.210.4.91): icmp_seq=78 ttl=56 time=192 ms
64 bytes from 203-210-4-091.static.pccw-hkt.com (203.210.4.91): icmp_seq=78 ttl=56 time=185 ms
64 bytes from 203-210-4-091.static.pccw-hkt.com (203.210.4.91): icmp_seq=78 ttl=56 time=185 ms
64 bytes from 203-210-4-091.static.pccw-hkt.com (203.210.4.91): icmp_seq=79 ttl=56 time=203 ms
64 bytes from 203-210-4-091.static.pccw-hkt.com (203.210.4.91): icmp_seq=79 ttl=56 time=203 ms
64 bytes from 203-210-4-091.static.pccw-hkt.com (203.210.4.91): icmp_seq=79 ttl=56 time=203 ms
64 bytes from 203-210-4-091.static.pccw-hkt.com (203.210.4.91): icmp_seq=79 ttl=56 time=203 ms
64 bytes from 203-210-4-091.static.pccw-hkt.com (203.210.4.91): icmp_seq=79 ttl=56 time=203 ms
64 bytes from 203-210-4-091.static.pccw-hkt.com (203.210.4.91): icmp_seq=79 ttl=56 time=203 ms
64 bytes from 203-210-4-091.static.pccw-hkt.com (203.210.4.91): icmp_seq=79 ttl=56 time=204 ms
64 bytes from 203-210-4-091.static.pccw-hkt.com (203.210.4.91): icmp_seq=79 ttl=56 time=205 ms
64 bytes from 203-210-4-091.static.pccw-hkt.com (203.210.4.91): icmp_seq=79 ttl=56 time=195 ms
64 bytes from 203-210-4-091.static.pccw-hkt.com (203.210.4.91): icmp_seq=79 ttl=56 time=195 ms
64 bytes from 203-210-4-091.static.pccw-hkt.com (203.210.4.91): icmp_seq=80 ttl=56 time=191 ms
64 bytes from 203-210-4-091.static.pccw-hkt.com (203.210.4.91): icmp_seq=80 ttl=56 time=191 ms
64 bytes from 203-210-4-091.static.pccw-hkt.com (203.210.4.91): icmp_seq=80 ttl=56 time=191 ms
64 bytes from 203-210-4-091.static.pccw-hkt.com (203.210.4.91): icmp_seq=80 ttl=56 time=191 ms
64 bytes from 203-210-4-091.static.pccw-hkt.com (203.210.4.91): icmp_seq=80 ttl=56 time=191 ms
64 bytes from 203-210-4-091.static.pccw-hkt.com (203.210.4.91): icmp_seq=80 ttl=56 time=191 ms
64 bytes from 203-210-4-091.static.pccw-hkt.com (203.210.4.91): icmp_seq=80 ttl=56 time=192 ms
64 bytes from 203-210-4-091.static.pccw-hkt.com (203.210.4.91): icmp_seq=80 ttl=56 time=192 ms
64 bytes from 203-210-4-091.static.pccw-hkt.com (203.210.4.91): icmp_seq=80 ttl=56 time=188 ms
64 bytes from 203-210-4-091.static.pccw-hkt.com (203.210.4.91): icmp_seq=80 ttl=56 time=189 ms
64 bytes from 203-210-4-091.static.pccw-hkt.com (203.210.4.91): icmp_seq=81 ttl=56 time=195 ms
64 bytes from 203-210-4-091.static.pccw-hkt.com (203.210.4.91): icmp_seq=81 ttl=56 time=195 ms
64 bytes from 203-210-4-091.static.pccw-hkt.com (203.210.4.91): icmp_seq=81 ttl=56 time=195 ms
64 bytes from 203-210-4-091.static.pccw-hkt.com (203.210.4.91): icmp_seq=81 ttl=56 time=195 ms
64 bytes from 203-210-4-091.static.pccw-hkt.com (203.210.4.91): icmp_seq=81 ttl=56 time=195 ms
64 bytes from 203-210-4-091.static.pccw-hkt.com (203.210.4.91): icmp_seq=81 ttl=56 time=195 ms
64 bytes from 203-210-4-091.static.pccw-hkt.com (203.210.4.91): icmp_seq=81 ttl=56 time=196 ms
64 bytes from 203-210-4-091.static.pccw-hkt.com (203.210.4.91): icmp_seq=81 ttl=56 time=196 ms
64 bytes from 203-210-4-091.static.pccw-hkt.com (203.210.4.91): icmp_seq=81 ttl=56 time=194 ms
64 bytes from 203-210-4-091.static.pccw-hkt.com (203.210.4.91): icmp_seq=81 ttl=56 time=194 ms
64 bytes from 203-210-4-091.static.pccw-hkt.com (203.210.4.91): icmp_seq=82 ttl=56 time=192 ms
64 bytes from 203-210-4-091.static.pccw-hkt.com (203.210.4.91): icmp_seq=82 ttl=56 time=192 ms
64 bytes from 203-210-4-091.static.pccw-hkt.com (203.210.4.91): icmp_seq=82 ttl=56 time=192 ms
64 bytes from 203-210-4-091.static.pccw-hkt.com (203.210.4.91): icmp_seq=82 ttl=56 time=192 ms
64 bytes from 203-210-4-091.static.pccw-hkt.com (203.210.4.91): icmp_seq=82 ttl=56 time=192 ms
64 bytes from 203-210-4-091.static.pccw-hkt.com (203.210.4.91): icmp_seq=82 ttl=56 time=192 ms
64 bytes from 203-210-4-091.static.pccw-hkt.com (203.210.4.91): icmp_seq=82 ttl=56 time=192 ms
64 bytes from 203-210-4-091.static.pccw-hkt.com (203.210.4.91): icmp_seq=82 ttl=56 time=195 ms
64 bytes from 203-210-4-091.static.pccw-hkt.com (203.210.4.91): icmp_seq=82 ttl=56 time=192 ms
64 bytes from 203-210-4-091.static.pccw-hkt.com (203.210.4.91): icmp_seq=82 ttl=56 time=192 ms
64 bytes from 203-210-4-091.static.pccw-hkt.com (203.210.4.91): icmp_seq=83 ttl=56 time=196 ms
64 bytes from 203-210-4-091.static.pccw-hkt.com (203.210.4.91): icmp_seq=83 ttl=56 time=196 ms
64 bytes from 203-210-4-091.static.pccw-hkt.com (203.210.4.91): icmp_seq=83 ttl=56 time=196 ms
64 bytes from 203-210-4-091.static.pccw-hkt.com (203.210.4.91): icmp_seq=83 ttl=56 time=196 ms
64 bytes from 203-210-4-091.static.pccw-hkt.com (203.210.4.91): icmp_seq=83 ttl=56 time=196 ms
64 bytes from 203-210-4-091.static.pccw-hkt.com (203.210.4.91): icmp_seq=83 ttl=56 time=196 ms
64 bytes from 203-210-4-091.static.pccw-hkt.com (203.210.4.91): icmp_seq=83 ttl=56 time=196 ms
64 bytes from 203-210-4-091.static.pccw-hkt.com (203.210.4.91): icmp_seq=83 ttl=56 time=196 ms
64 bytes from 203-210-4-091.static.pccw-hkt.com (203.210.4.91): icmp_seq=83 ttl=56 time=195 ms
64 bytes from 203-210-4-091.static.pccw-hkt.com (203.210.4.91): icmp_seq=83 ttl=56 time=195 ms
64 bytes from 203-210-4-091.static.pccw-hkt.com (203.210.4.91): icmp_seq=84 ttl=56 time=228 ms
64 bytes from 203-210-4-091.static.pccw-hkt.com (203.210.4.91): icmp_seq=84 ttl=56 time=228 ms
64 bytes from 203-210-4-091.static.pccw-hkt.com (203.210.4.91): icmp_seq=84 ttl=56 time=228 ms
64 bytes from 203-210-4-091.static.pccw-hkt.com (203.210.4.91): icmp_seq=84 ttl=56 time=228 ms
64 bytes from 203-210-4-091.static.pccw-hkt.com (203.210.4.91): icmp_seq=84 ttl=56 time=228 ms
64 bytes from 203-210-4-091.static.pccw-hkt.com (203.210.4.91): icmp_seq=84 ttl=56 time=228 ms
64 bytes from 203-210-4-091.static.pccw-hkt.com (203.210.4.91): icmp_seq=84 ttl=56 time=228 ms
64 bytes from 203-210-4-091.static.pccw-hkt.com (203.210.4.91): icmp_seq=84 ttl=56 time=228 ms
64 bytes from 203-210-4-091.static.pccw-hkt.com (203.210.4.91): icmp_seq=84 ttl=56 time=225 ms
64 bytes from 203-210-4-091.static.pccw-hkt.com (203.210.4.91): icmp_seq=84 ttl=56 time=225 ms
64 bytes from 203-210-4-091.static.pccw-hkt.com (203.210.4.91): icmp_seq=85 ttl=56 time=189 ms
64 bytes from 203-210-4-091.static.pccw-hkt.com (203.210.4.91): icmp_seq=85 ttl=56 time=189 ms
64 bytes from 203-210-4-091.static.pccw-hkt.com (203.210.4.91): icmp_seq=85 ttl=56 time=189 ms
64 bytes from 203-210-4-091.static.pccw-hkt.com (203.210.4.91): icmp_seq=85 ttl=56 time=189 ms
64 bytes from 203-210-4-091.static.pccw-hkt.com (203.210.4.91): icmp_seq=85 ttl=56 time=189 ms
64 bytes from 203-210-4-091.static.pccw-hkt.com (203.210.4.91): icmp_seq=85 ttl=56 time=189 ms
64 bytes from 203-210-4-091.static.pccw-hkt.com (203.210.4.91): icmp_seq=85 ttl=56 time=189 ms
64 bytes from 203-210-4-091.static.pccw-hkt.com (203.210.4.91): icmp_seq=85 ttl=56 time=190 ms
64 bytes from 203-210-4-091.static.pccw-hkt.com (203.210.4.91): icmp_seq=85 ttl=56 time=188 ms
64 bytes from 203-210-4-091.static.pccw-hkt.com (203.210.4.91): icmp_seq=85 ttl=56 time=188 ms
64 bytes from 203-210-4-091.static.pccw-hkt.com (203.210.4.91): icmp_seq=86 ttl=56 time=194 ms
64 bytes from 203-210-4-091.static.pccw-hkt.com (203.210.4.91): icmp_seq=86 ttl=56 time=194 ms
64 bytes from 203-210-4-091.static.pccw-hkt.com (203.210.4.91): icmp_seq=86 ttl=56 time=194 ms
64 bytes from 203-210-4-091.static.pccw-hkt.com (203.210.4.91): icmp_seq=86 ttl=56 time=194 ms
64 bytes from 203-210-4-091.static.pccw-hkt.com (203.210.4.91): icmp_seq=86 ttl=56 time=194 ms
64 bytes from 203-210-4-091.static.pccw-hkt.com (203.210.4.91): icmp_seq=86 ttl=56 time=194 ms
64 bytes from 203-210-4-091.static.pccw-hkt.com (203.210.4.91): icmp_seq=86 ttl=56 time=194 ms
64 bytes from 203-210-4-091.static.pccw-hkt.com (203.210.4.91): icmp_seq=86 ttl=56 time=194 ms
64 bytes from 203-210-4-091.static.pccw-hkt.com (203.210.4.91): icmp_seq=86 ttl=56 time=194 ms
64 bytes from 203-210-4-091.static.pccw-hkt.com (203.210.4.91): icmp_seq=86 ttl=56 time=197 ms
64 bytes from 203-210-4-091.static.pccw-hkt.com (203.210.4.91): icmp_seq=87 ttl=56 time=203 ms
64 bytes from 203-210-4-091.static.pccw-hkt.com (203.210.4.91): icmp_seq=87 ttl=56 time=204 ms
64 bytes from 203-210-4-091.static.pccw-hkt.com (203.210.4.91): icmp_seq=87 ttl=56 time=204 ms
64 bytes from 203-210-4-091.static.pccw-hkt.com (203.210.4.91): icmp_seq=87 ttl=56 time=205 ms
64 bytes from 203-210-4-091.static.pccw-hkt.com (203.210.4.91): icmp_seq=87 ttl=56 time=205 ms
64 bytes from 203-210-4-091.static.pccw-hkt.com (203.210.4.91): icmp_seq=87 ttl=56 time=208 ms
64 bytes from 203-210-4-091.static.pccw-hkt.com (203.210.4.91): icmp_seq=87 ttl=56 time=208 ms
64 bytes from 203-210-4-091.static.pccw-hkt.com (203.210.4.91): icmp_seq=87 ttl=56 time=208 ms
64 bytes from 203-210-4-091.static.pccw-hkt.com (203.210.4.91): icmp_seq=87 ttl=56 time=207 ms
64 bytes from 203-210-4-091.static.pccw-hkt.com (203.210.4.91): icmp_seq=87 ttl=56 time=208 ms
64 bytes from 203-210-4-091.static.pccw-hkt.com (203.210.4.91): icmp_seq=88 ttl=56 time=182 ms
64 bytes from 203-210-4-091.static.pccw-hkt.com (203.210.4.91): icmp_seq=88 ttl=56 time=181 ms
64 bytes from 203-210-4-091.static.pccw-hkt.com (203.210.4.91): icmp_seq=88 ttl=56 time=181 ms
64 bytes from 203-210-4-091.static.pccw-hkt.com (203.210.4.91): icmp_seq=88 ttl=56 time=181 ms
64 bytes from 203-210-4-091.static.pccw-hkt.com (203.210.4.91): icmp_seq=88 ttl=56 time=181 ms
64 bytes from 203-210-4-091.static.pccw-hkt.com (203.210.4.91): icmp_seq=88 ttl=56 time=182 ms
64 bytes from 203-210-4-091.static.pccw-hkt.com (203.210.4.91): icmp_seq=88 ttl=56 time=181 ms
64 bytes from 203-210-4-091.static.pccw-hkt.com (203.210.4.91): icmp_seq=88 ttl=56 time=181 ms
64 bytes from 203-210-4-091.static.pccw-hkt.com (203.210.4.91): icmp_seq=88 ttl=56 time=181 ms
64 bytes from 203-210-4-091.static.pccw-hkt.com (203.210.4.91): icmp_seq=88 ttl=56 time=182 ms
64 bytes from 203-210-4-091.static.pccw-hkt.com (203.210.4.91): icmp_seq=89 ttl=56 time=260 ms
64 bytes from 203-210-4-091.static.pccw-hkt.com (203.210.4.91): icmp_seq=89 ttl=56 time=260 ms
64 bytes from 203-210-4-091.static.pccw-hkt.com (203.210.4.91): icmp_seq=89 ttl=56 time=260 ms
64 bytes from 203-210-4-091.static.pccw-hkt.com (203.210.4.91): icmp_seq=89 ttl=56 time=260 ms
64 bytes from 203-210-4-091.static.pccw-hkt.com (203.210.4.91): icmp_seq=89 ttl=56 time=260 ms
64 bytes from 203-210-4-091.static.pccw-hkt.com (203.210.4.91): icmp_seq=89 ttl=56 time=260 ms
64 bytes from 203-210-4-091.static.pccw-hkt.com (203.210.4.91): icmp_seq=89 ttl=56 time=260 ms
64 bytes from 203-210-4-091.static.pccw-hkt.com (203.210.4.91): icmp_seq=89 ttl=56 time=260 ms
64 bytes from 203-210-4-091.static.pccw-hkt.com (203.210.4.91): icmp_seq=89 ttl=56 time=260 ms
64 bytes from 203-210-4-091.static.pccw-hkt.com (203.210.4.91): icmp_seq=89 ttl=56 time=260 ms
64 bytes from 203-210-4-091.static.pccw-hkt.com (203.210.4.91): icmp_seq=90 ttl=56 time=185 ms
64 bytes from 203-210-4-091.static.pccw-hkt.com (203.210.4.91): icmp_seq=90 ttl=56 time=185 ms
64 bytes from 203-210-4-091.static.pccw-hkt.com (203.210.4.91): icmp_seq=90 ttl=56 time=185 ms
64 bytes from 203-210-4-091.static.pccw-hkt.com (203.210.4.91): icmp_seq=90 ttl=56 time=185 ms
64 bytes from 203-210-4-091.static.pccw-hkt.com (203.210.4.91): icmp_seq=90 ttl=56 time=185 ms
64 bytes from 203-210-4-091.static.pccw-hkt.com (203.210.4.91): icmp_seq=90 ttl=56 time=185 ms
64 bytes from 203-210-4-091.static.pccw-hkt.com (203.210.4.91): icmp_seq=90 ttl=56 time=185 ms
64 bytes from 203-210-4-091.static.pccw-hkt.com (203.210.4.91): icmp_seq=90 ttl=56 time=185 ms
64 bytes from 203-210-4-091.static.pccw-hkt.com (203.210.4.91): icmp_seq=90 ttl=56 time=185 ms
64 bytes from 203-210-4-091.static.pccw-hkt.com (203.210.4.91): icmp_seq=90 ttl=56 time=188 ms
64 bytes from 203-210-4-091.static.pccw-hkt.com (203.210.4.91): icmp_seq=91 ttl=56 time=192 ms
64 bytes from 203-210-4-091.static.pccw-hkt.com (203.210.4.91): icmp_seq=91 ttl=56 time=192 ms
64 bytes from 203-210-4-091.static.pccw-hkt.com (203.210.4.91): icmp_seq=91 ttl=56 time=190 ms
64 bytes from 203-210-4-091.static.pccw-hkt.com (203.210.4.91): icmp_seq=91 ttl=56 time=190 ms
64 bytes from 203-210-4-091.static.pccw-hkt.com (203.210.4.91): icmp_seq=91 ttl=56 time=191 ms
64 bytes from 203-210-4-091.static.pccw-hkt.com (203.210.4.91): icmp_seq=91 ttl=56 time=191 ms
64 bytes from 203-210-4-091.static.pccw-hkt.com (203.210.4.91): icmp_seq=91 ttl=56 time=191 ms
64 bytes from 203-210-4-091.static.pccw-hkt.com (203.210.4.91): icmp_seq=91 ttl=56 time=191 ms
64 bytes from 203-210-4-091.static.pccw-hkt.com (203.210.4.91): icmp_seq=91 ttl=56 time=191 ms
64 bytes from 203-210-4-091.static.pccw-hkt.com (203.210.4.91): icmp_seq=91 ttl=56 time=191 ms
64 bytes from 203-210-4-091.static.pccw-hkt.com (203.210.4.91): icmp_seq=92 ttl=56 time=192 ms
64 bytes from 203-210-4-091.static.pccw-hkt.com (203.210.4.91): icmp_seq=92 ttl=56 time=192 ms
64 bytes from 203-210-4-091.static.pccw-hkt.com (203.210.4.91): icmp_seq=92 ttl=56 time=194 ms
64 bytes from 203-210-4-091.static.pccw-hkt.com (203.210.4.91): icmp_seq=92 ttl=56 time=194 ms
64 bytes from 203-210-4-091.static.pccw-hkt.com (203.210.4.91): icmp_seq=92 ttl=56 time=194 ms
64 bytes from 203-210-4-091.static.pccw-hkt.com (203.210.4.91): icmp_seq=92 ttl=56 time=194 ms
64 bytes from 203-210-4-091.static.pccw-hkt.com (203.210.4.91): icmp_seq=92 ttl=56 time=194 ms
64 bytes from 203-210-4-091.static.pccw-hkt.com (203.210.4.91): icmp_seq=92 ttl=56 time=194 ms
64 bytes from 203-210-4-091.static.pccw-hkt.com (203.210.4.91): icmp_seq=92 ttl=56 time=194 ms
64 bytes from 203-210-4-091.static.pccw-hkt.com (203.210.4.91): icmp_seq=92 ttl=56 time=194 ms
64 bytes from 203-210-4-091.static.pccw-hkt.com (203.210.4.91): icmp_seq=93 ttl=56 time=197 ms
64 bytes from 203-210-4-091.static.pccw-hkt.com (203.210.4.91): icmp_seq=93 ttl=56 time=197 ms
64 bytes from 203-210-4-091.static.pccw-hkt.com (203.210.4.91): icmp_seq=93 ttl=56 time=197 ms
64 bytes from 203-210-4-091.static.pccw-hkt.com (203.210.4.91): icmp_seq=93 ttl=56 time=197 ms
64 bytes from 203-210-4-091.static.pccw-hkt.com (203.210.4.91): icmp_seq=93 ttl=56 time=198 ms
64 bytes from 203-210-4-091.static.pccw-hkt.com (203.210.4.91): icmp_seq=93 ttl=56 time=198 ms
64 bytes from 203-210-4-091.static.pccw-hkt.com (203.210.4.91): icmp_seq=93 ttl=56 time=198 ms
64 bytes from 203-210-4-091.static.pccw-hkt.com (203.210.4.91): icmp_seq=93 ttl=56 time=197 ms
64 bytes from 203-210-4-091.static.pccw-hkt.com (203.210.4.91): icmp_seq=93 ttl=56 time=197 ms
64 bytes from 203-210-4-091.static.pccw-hkt.com (203.210.4.91): icmp_seq=93 ttl=56 time=197 ms
64 bytes from 203-210-4-091.static.pccw-hkt.com (203.210.4.91): icmp_seq=94 ttl=56 time=186 ms
64 bytes from 203-210-4-091.static.pccw-hkt.com (203.210.4.91): icmp_seq=94 ttl=56 time=186 ms
64 bytes from 203-210-4-091.static.pccw-hkt.com (203.210.4.91): icmp_seq=94 ttl=56 time=187 ms
64 bytes from 203-210-4-091.static.pccw-hkt.com (203.210.4.91): icmp_seq=94 ttl=56 time=187 ms
64 bytes from 203-210-4-091.static.pccw-hkt.com (203.210.4.91): icmp_seq=94 ttl=56 time=187 ms
64 bytes from 203-210-4-091.static.pccw-hkt.com (203.210.4.91): icmp_seq=94 ttl=56 time=188 ms
64 bytes from 203-210-4-091.static.pccw-hkt.com (203.210.4.91): icmp_seq=94 ttl=56 time=188 ms
64 bytes from 203-210-4-091.static.pccw-hkt.com (203.210.4.91): icmp_seq=94 ttl=56 time=188 ms
64 bytes from 203-210-4-091.static.pccw-hkt.com (203.210.4.91): icmp_seq=94 ttl=56 time=188 ms
64 bytes from 203-210-4-091.static.pccw-hkt.com (203.210.4.91): icmp_seq=94 ttl=56 time=191 ms
64 bytes from 203-210-4-091.static.pccw-hkt.com (203.210.4.91): icmp_seq=95 ttl=56 time=194 ms
64 bytes from 203-210-4-091.static.pccw-hkt.com (203.210.4.91): icmp_seq=95 ttl=56 time=194 ms
64 bytes from 203-210-4-091.static.pccw-hkt.com (203.210.4.91): icmp_seq=95 ttl=56 time=194 ms
64 bytes from 203-210-4-091.static.pccw-hkt.com (203.210.4.91): icmp_seq=95 ttl=56 time=194 ms
64 bytes from 203-210-4-091.static.pccw-hkt.com (203.210.4.91): icmp_seq=95 ttl=56 time=194 ms
64 bytes from 203-210-4-091.static.pccw-hkt.com (203.210.4.91): icmp_seq=95 ttl=56 time=194 ms
64 bytes from 203-210-4-091.static.pccw-hkt.com (203.210.4.91): icmp_seq=95 ttl=56 time=194 ms
64 bytes from 203-210-4-091.static.pccw-hkt.com (203.210.4.91): icmp_seq=95 ttl=56 time=194 ms
64 bytes from 203-210-4-091.static.pccw-hkt.com (203.210.4.91): icmp_seq=95 ttl=56 time=194 ms
64 bytes from 203-210-4-091.static.pccw-hkt.com (203.210.4.91): icmp_seq=95 ttl=56 time=194 ms
64 bytes from 203-210-4-091.static.pccw-hkt.com (203.210.4.91): icmp_seq=96 ttl=56 time=194 ms
64 bytes from 203-210-4-091.static.pccw-hkt.com (203.210.4.91): icmp_seq=96 ttl=56 time=194 ms
64 bytes from 203-210-4-091.static.pccw-hkt.com (203.210.4.91): icmp_seq=96 ttl=56 time=194 ms
64 bytes from 203-210-4-091.static.pccw-hkt.com (203.210.4.91): icmp_seq=96 ttl=56 time=194 ms
64 bytes from 203-210-4-091.static.pccw-hkt.com (203.210.4.91): icmp_seq=96 ttl=56 time=194 ms
64 bytes from 203-210-4-091.static.pccw-hkt.com (203.210.4.91): icmp_seq=96 ttl=56 time=194 ms
64 bytes from 203-210-4-091.static.pccw-hkt.com (203.210.4.91): icmp_seq=96 ttl=56 time=194 ms
64 bytes from 203-210-4-091.static.pccw-hkt.com (203.210.4.91): icmp_seq=96 ttl=56 time=194 ms
64 bytes from 203-210-4-091.static.pccw-hkt.com (203.210.4.91): icmp_seq=96 ttl=56 time=195 ms
64 bytes from 203-210-4-091.static.pccw-hkt.com (203.210.4.91): icmp_seq=96 ttl=56 time=195 ms
64 bytes from 203-210-4-091.static.pccw-hkt.com (203.210.4.91): icmp_seq=97 ttl=56 time=190 ms
64 bytes from 203-210-4-091.static.pccw-hkt.com (203.210.4.91): icmp_seq=97 ttl=56 time=191 ms
64 bytes from 203-210-4-091.static.pccw-hkt.com (203.210.4.91): icmp_seq=97 ttl=56 time=191 ms
64 bytes from 203-210-4-091.static.pccw-hkt.com (203.210.4.91): icmp_seq=97 ttl=56 time=191 ms
64 bytes from 203-210-4-091.static.pccw-hkt.com (203.210.4.91): icmp_seq=97 ttl=56 time=191 ms
64 bytes from 203-210-4-091.static.pccw-hkt.com (203.210.4.91): icmp_seq=97 ttl=56 time=194 ms
64 bytes from 203-210-4-091.static.pccw-hkt.com (203.210.4.91): icmp_seq=97 ttl=56 time=194 ms
64 bytes from 203-210-4-091.static.pccw-hkt.com (203.210.4.91): icmp_seq=97 ttl=56 time=194 ms
64 bytes from 203-210-4-091.static.pccw-hkt.com (203.210.4.91): icmp_seq=97 ttl=56 time=194 ms
64 bytes from 203-210-4-091.static.pccw-hkt.com (203.210.4.91): icmp_seq=97 ttl=56 time=194 ms
64 bytes from 203-210-4-091.static.pccw-hkt.com (203.210.4.91): icmp_seq=98 ttl=56 time=195 ms
64 bytes from 203-210-4-091.static.pccw-hkt.com (203.210.4.91): icmp_seq=98 ttl=56 time=195 ms
64 bytes from 203-210-4-091.static.pccw-hkt.com (203.210.4.91): icmp_seq=98 ttl=56 time=196 ms
64 bytes from 203-210-4-091.static.pccw-hkt.com (203.210.4.91): icmp_seq=98 ttl=56 time=196 ms
64 bytes from 203-210-4-091.static.pccw-hkt.com (203.210.4.91): icmp_seq=98 ttl=56 time=196 ms
64 bytes from 203-210-4-091.static.pccw-hkt.com (203.210.4.91): icmp_seq=98 ttl=56 time=196 ms
64 bytes from 203-210-4-091.static.pccw-hkt.com (203.210.4.91): icmp_seq=98 ttl=56 time=196 ms
64 bytes from 203-210-4-091.static.pccw-hkt.com (203.210.4.91): icmp_seq=98 ttl=56 time=195 ms
64 bytes from 203-210-4-091.static.pccw-hkt.com (203.210.4.91): icmp_seq=98 ttl=56 time=195 ms
64 bytes from 203-210-4-091.static.pccw-hkt.com (203.210.4.91): icmp_seq=98 ttl=56 time=195 ms
64 bytes from 203-210-4-091.static.pccw-hkt.com (203.210.4.91): icmp_seq=99 ttl=56 time=227 ms
64 bytes from 203-210-4-091.static.pccw-hkt.com (203.210.4.91): icmp_seq=99 ttl=56 time=229 ms
64 bytes from 203-210-4-091.static.pccw-hkt.com (203.210.4.91): icmp_seq=99 ttl=56 time=229 ms
64 bytes from 203-210-4-091.static.pccw-hkt.com (203.210.4.91): icmp_seq=99 ttl=56 time=229 ms
64 bytes from 203-210-4-091.static.pccw-hkt.com (203.210.4.91): icmp_seq=99 ttl=56 time=229 ms
64 bytes from 203-210-4-091.static.pccw-hkt.com (203.210.4.91): icmp_seq=99 ttl=56 time=229 ms
64 bytes from 203-210-4-091.static.pccw-hkt.com (203.210.4.91): icmp_seq=99 ttl=56 time=229 ms
64 bytes from 203-210-4-091.static.pccw-hkt.com (203.210.4.91): icmp_seq=99 ttl=56 time=229 ms
64 bytes from 203-210-4-091.static.pccw-hkt.com (203.210.4.91): icmp_seq=99 ttl=56 time=229 ms
64 bytes from 203-210-4-091.static.pccw-hkt.com (203.210.4.91): icmp_seq=99 ttl=56 time=229 ms
64 bytes from 203-210-4-091.static.pccw-hkt.com (203.210.4.91): icmp_seq=100 ttl=56 time=192 ms
64 bytes from 203-210-4-091.static.pccw-hkt.com (203.210.4.91): icmp_seq=100 ttl=56 time=192 ms

--- csl2.hkspeedtest.com ping statistics ---
100 packets transmitted, 100 received, 0% packet loss, time 99331ms
rtt min/avg/max/mdev = 178.214/190.961/260.347/14.988 ms
64 bytes from 203-210-4-091.static.pccw-hkt.com (203.210.4.91): icmp_seq=100 ttl=56 time=192 ms

--- csl2.hkspeedtest.com ping statistics ---
100 packets transmitted, 100 received, 0% packet loss, time 99330ms
rtt min/avg/max/mdev = 177.992/190.940/260.343/14.882 ms

--- csl2.hkspeedtest.com ping statistics ---
100 packets transmitted, 100 received, 0% packet loss, time 99334ms
rtt min/avg/max/mdev = 178.207/190.995/260.361/14.982 ms
64 bytes from 203-210-4-091.static.pccw-hkt.com (203.210.4.91): icmp_seq=100 ttl=56 time=194 ms

64 bytes from 203-210-4-091.static.pccw-hkt.com (203.210.4.91): icmp_seq=100 ttl=56 time=194 ms

--- csl2.hkspeedtest.com ping statistics ---
100 packets transmitted, 100 received, 0% packet loss, time 99337ms
rtt min/avg/max/mdev = 177.581/190.976/260.943/15.028 ms
--- csl2.hkspeedtest.com ping statistics ---
100 packets transmitted, 100 received, 0% packet loss, time 99327ms
rtt min/avg/max/mdev = 177.084/190.686/260.854/15.104 ms
64 bytes from 203-210-4-091.static.pccw-hkt.com (203.210.4.91): icmp_seq=100 ttl=56 time=194 ms

--- csl2.hkspeedtest.com ping statistics ---
100 packets transmitted, 100 received, 0% packet loss, time 99334ms
rtt min/avg/max/mdev = 177.547/190.973/260.204/14.964 ms
64 bytes from 203-210-4-091.static.pccw-hkt.com (203.210.4.91): icmp_seq=100 ttl=56 time=195 ms
64 bytes from 203-210-4-091.static.pccw-hkt.com (203.210.4.91): icmp_seq=100 ttl=56 time=195 ms


--- csl2.hkspeedtest.com ping statistics ---
100 packets transmitted, 100 received, 0% packet loss, time 99337ms
rtt min/avg/max/mdev = 178.318/191.129/260.080/14.908 ms
--- csl2.hkspeedtest.com ping statistics ---
100 packets transmitted, 100 received, 0% packet loss, time 99336ms
rtt min/avg/max/mdev = 177.192/190.401/260.283/14.718 ms
64 bytes from 203-210-4-091.static.pccw-hkt.com (203.210.4.91): icmp_seq=100 ttl=56 time=194 ms
64 bytes from 203-210-4-091.static.pccw-hkt.com (203.210.4.91): icmp_seq=100 ttl=56 time=194 ms


--- csl2.hkspeedtest.com ping statistics ---
100 packets transmitted, 100 received, 0% packet loss, time 99335ms
rtt min/avg/max/mdev = 178.284/191.218/260.302/14.876 ms
--- csl2.hkspeedtest.com ping statistics ---
100 packets transmitted, 100 received, 0% packet loss, time 99328ms
rtt min/avg/max/mdev = 176.936/190.170/260.352/14.837 ms
