     1	 94.8 
     2	 99.3 
     3	 99.5 
     4	 99.6 
     5	 99.6 
     6	 99.8 
     7	 99.4 
     8	 99.6 
     9	 98.9 
    10	 99.4 
    11	 99.6 
    12	 99.5 
    13	 99.9 
    14	 99.4 
    15	 99.8 
    16	 99.6 
    17	 99.8 
    18	 99.8 
    19	 99.8 
    20	 99.9 
    21	 99.6 
    22	 99.8 
    23	 99.8 
    24	 99.9 
    25	 99.8 
    26	 99.9 
    27	 99.4 
