top - 00:02:11 up  3:18,  1 user,  load average: 0.05, 0.72, 1.46
Tasks: 317 total,   1 running, 255 sleeping,   0 stopped,   0 zombie
%Cpu(s):  3.4 us,  1.7 sy,  0.0 ni, 94.8 id,  0.1 wa,  0.0 hi,  0.0 si,  0.0 st
KiB Mem : 16278768 total, 11550332 free,  1433908 used,  3294528 buff/cache
KiB Swap: 16630780 total, 16630780 free,        0 used. 14394532 avail Mem 

  PID USER      PR  NI    VIRT    RES    SHR S  %CPU %MEM     TIME+ COMMAND
11789 kenenth   20   0   41908   3840   3176 R  12.5  0.0   0:00.02 top
 1781 root     -51   0       0      0      0 S   6.2  0.0   0:16.76 irq/135-nv+
 1985 kenenth   20   0 3550084 250868  96108 S   6.2  1.5   6:15.22 gnome-shell

top - 00:02:12 up  3:18,  1 user,  load average: 0.05, 0.71, 1.45
Tasks: 317 total,   1 running, 255 sleeping,   0 stopped,   0 zombie
%Cpu(s):  0.2 us,  0.5 sy,  0.0 ni, 99.3 id,  0.0 wa,  0.0 hi,  0.0 si,  0.0 st
KiB Mem : 16278768 total, 11550332 free,  1433908 used,  3294528 buff/cache
KiB Swap: 16630780 total, 16630780 free,        0 used. 14394532 avail Mem 

  PID USER      PR  NI    VIRT    RES    SHR S  %CPU %MEM     TIME+ COMMAND
11789 kenenth   20   0   41908   3840   3176 R   2.9  0.0   0:00.05 top
  995 avahi     20   0   48328   4916   3344 S   1.0  0.0   0:14.19 avahi-daem+
 1780 root      20   0  433932  94764  61672 S   1.0  0.6   2:19.95 Xorg

top - 00:02:13 up  3:18,  1 user,  load average: 0.05, 0.71, 1.45
Tasks: 317 total,   1 running, 255 sleeping,   0 stopped,   0 zombie
%Cpu(s):  0.2 us,  0.2 sy,  0.0 ni, 99.5 id,  0.0 wa,  0.0 hi,  0.0 si,  0.0 st
KiB Mem : 16278768 total, 11550332 free,  1433908 used,  3294528 buff/cache
KiB Swap: 16630780 total, 16630780 free,        0 used. 14394532 avail Mem 

  PID USER      PR  NI    VIRT    RES    SHR S  %CPU %MEM     TIME+ COMMAND
 1985 kenenth   20   0 3550084 250868  96108 S   1.0  1.5   6:15.23 gnome-shell
11789 kenenth   20   0   41908   3840   3176 R   1.0  0.0   0:00.06 top

top - 00:02:14 up  3:18,  1 user,  load average: 0.05, 0.71, 1.45
Tasks: 317 total,   1 running, 255 sleeping,   0 stopped,   0 zombie
%Cpu(s):  0.1 us,  0.2 sy,  0.0 ni, 99.6 id,  0.0 wa,  0.0 hi,  0.0 si,  0.0 st
KiB Mem : 16278768 total, 11549864 free,  1434368 used,  3294536 buff/cache
KiB Swap: 16630780 total, 16630780 free,        0 used. 14394072 avail Mem 

  PID USER      PR  NI    VIRT    RES    SHR S  %CPU %MEM     TIME+ COMMAND
 1780 root      20   0  433932  94764  61672 S   1.0  0.6   2:19.96 Xorg
 1985 kenenth   20   0 3550084 250868  96108 S   1.0  1.5   6:15.24 gnome-shell
11789 kenenth   20   0   41908   3840   3176 R   1.0  0.0   0:00.07 top

top - 00:02:15 up  3:18,  1 user,  load average: 0.05, 0.71, 1.45
Tasks: 317 total,   1 running, 255 sleeping,   0 stopped,   0 zombie
%Cpu(s):  0.2 us,  0.1 sy,  0.0 ni, 99.6 id,  0.0 wa,  0.0 hi,  0.0 si,  0.0 st
KiB Mem : 16278768 total, 11549864 free,  1434368 used,  3294536 buff/cache
KiB Swap: 16630780 total, 16630780 free,        0 used. 14394072 avail Mem 

  PID USER      PR  NI    VIRT    RES    SHR S  %CPU %MEM     TIME+ COMMAND
11789 kenenth   20   0   41908   3840   3176 R   2.0  0.0   0:00.09 top
  972 root      20   0  565024  23700  13716 S   1.0  0.1   1:31.31 NetworkMan+
  995 avahi     20   0   48328   4916   3344 S   1.0  0.0   0:14.20 avahi-daem+
 1302 gdm       20   0 3332456 123072  66292 S   1.0  0.8   2:11.63 gnome-shell
 1985 kenenth   20   0 3550084 250868  96108 S   1.0  1.5   6:15.25 gnome-shell
 3825 root      20   0  547576  20732  14028 S   1.0  0.1   0:00.51 fwupd
16843 kenenth   20   0  792204  37248  28120 S   1.0  0.2   0:00.95 gnome-term+

top - 00:02:16 up  3:18,  1 user,  load average: 0.05, 0.71, 1.45
Tasks: 317 total,   1 running, 255 sleeping,   0 stopped,   0 zombie
%Cpu(s):  0.0 us,  0.2 sy,  0.0 ni, 99.8 id,  0.0 wa,  0.0 hi,  0.0 si,  0.0 st
KiB Mem : 16278768 total, 11549864 free,  1434368 used,  3294536 buff/cache
KiB Swap: 16630780 total, 16630780 free,        0 used. 14394072 avail Mem 

  PID USER      PR  NI    VIRT    RES    SHR S  %CPU %MEM     TIME+ COMMAND
  980 root      20   0  179856   9644   8836 S   1.0  0.1   0:08.04 thermald
 1780 root      20   0  433932  94764  61672 S   1.0  0.6   2:19.97 Xorg
 1781 root     -51   0       0      0      0 S   1.0  0.0   0:16.77 irq/135-nv+
11789 kenenth   20   0   41908   3840   3176 R   1.0  0.0   0:00.10 top
17531 root      20   0       0      0      0 I   1.0  0.0   0:00.18 kworker/3:1

top - 00:02:17 up  3:18,  1 user,  load average: 0.12, 0.71, 1.45
Tasks: 317 total,   1 running, 255 sleeping,   0 stopped,   0 zombie
%Cpu(s):  0.5 us,  0.1 sy,  0.0 ni, 99.4 id,  0.0 wa,  0.0 hi,  0.0 si,  0.0 st
KiB Mem : 16278768 total, 11549724 free,  1434504 used,  3294540 buff/cache
KiB Swap: 16630780 total, 16630780 free,        0 used. 14393932 avail Mem 

  PID USER      PR  NI    VIRT    RES    SHR S  %CPU %MEM     TIME+ COMMAND
11789 kenenth   20   0   41908   3840   3176 R   2.0  0.0   0:00.12 top
 1129 root      20   0 5005772  37056  26124 S   1.0  0.2   0:55.86 containerd
 1985 kenenth   20   0 3550084 250868  96108 S   1.0  1.5   6:15.26 gnome-shell
 2332 root      20   0 6056052 105532  39040 S   1.0  0.6   3:13.44 dockerd

top - 00:02:18 up  3:18,  1 user,  load average: 0.12, 0.71, 1.45
Tasks: 317 total,   1 running, 255 sleeping,   0 stopped,   0 zombie
%Cpu(s):  0.1 us,  0.2 sy,  0.0 ni, 99.6 id,  0.0 wa,  0.0 hi,  0.0 si,  0.0 st
KiB Mem : 16278768 total, 11549724 free,  1434504 used,  3294540 buff/cache
KiB Swap: 16630780 total, 16630780 free,        0 used. 14393932 avail Mem 

  PID USER      PR  NI    VIRT    RES    SHR S  %CPU %MEM     TIME+ COMMAND
 1780 root      20   0  433932  94764  61672 S   1.0  0.6   2:19.98 Xorg
11789 kenenth   20   0   41908   3840   3176 R   1.0  0.0   0:00.13 top

top - 00:02:19 up  3:18,  1 user,  load average: 0.12, 0.71, 1.45
Tasks: 317 total,   1 running, 255 sleeping,   0 stopped,   0 zombie
%Cpu(s):  0.9 us,  0.2 sy,  0.0 ni, 98.9 id,  0.0 wa,  0.0 hi,  0.0 si,  0.0 st
KiB Mem : 16278768 total, 11549724 free,  1434504 used,  3294540 buff/cache
KiB Swap: 16630780 total, 16630780 free,        0 used. 14393932 avail Mem 

  PID USER      PR  NI    VIRT    RES    SHR S  %CPU %MEM     TIME+ COMMAND
 2332 root      20   0 6056052 105532  39040 S   5.9  0.6   3:13.50 dockerd
 1780 root      20   0  433932  94764  61672 S   1.0  0.6   2:19.99 Xorg
 1985 kenenth   20   0 3550084 250868  96108 S   1.0  1.5   6:15.27 gnome-shell
11789 kenenth   20   0   41908   3840   3176 R   1.0  0.0   0:00.14 top

top - 00:02:20 up  3:18,  1 user,  load average: 0.12, 0.71, 1.45
Tasks: 317 total,   1 running, 255 sleeping,   0 stopped,   0 zombie
%Cpu(s):  0.2 us,  0.4 sy,  0.0 ni, 99.4 id,  0.0 wa,  0.0 hi,  0.0 si,  0.0 st
KiB Mem : 16278768 total, 11549684 free,  1434544 used,  3294540 buff/cache
KiB Swap: 16630780 total, 16630780 free,        0 used. 14393896 avail Mem 

  PID USER      PR  NI    VIRT    RES    SHR S  %CPU %MEM     TIME+ COMMAND
11789 kenenth   20   0   41908   3840   3176 R   1.9  0.0   0:00.16 top
  972 root      20   0  565024  23700  13716 S   1.0  0.1   1:31.32 NetworkMan+
 1781 root     -51   0       0      0      0 S   1.0  0.0   0:16.78 irq/135-nv+

top - 00:02:21 up  3:18,  1 user,  load average: 0.12, 0.71, 1.45
Tasks: 317 total,   1 running, 255 sleeping,   0 stopped,   0 zombie
%Cpu(s):  0.2 us,  0.1 sy,  0.0 ni, 99.6 id,  0.0 wa,  0.0 hi,  0.0 si,  0.0 st
KiB Mem : 16278768 total, 11549684 free,  1434544 used,  3294540 buff/cache
KiB Swap: 16630780 total, 16630780 free,        0 used. 14393896 avail Mem 

  PID USER      PR  NI    VIRT    RES    SHR S  %CPU %MEM     TIME+ COMMAND
 1780 root      20   0  433932  94764  61672 S   2.0  0.6   2:20.01 Xorg
11789 kenenth   20   0   41908   3840   3176 R   2.0  0.0   0:00.18 top
 1985 kenenth   20   0 3550084 250868  96108 S   1.0  1.5   6:15.28 gnome-shell

top - 00:02:22 up  3:18,  1 user,  load average: 0.11, 0.70, 1.44
Tasks: 317 total,   1 running, 255 sleeping,   0 stopped,   0 zombie
%Cpu(s):  0.1 us,  0.4 sy,  0.0 ni, 99.5 id,  0.0 wa,  0.0 hi,  0.0 si,  0.0 st
KiB Mem : 16278768 total, 11549684 free,  1434544 used,  3294540 buff/cache
KiB Swap: 16630780 total, 16630780 free,        0 used. 14393896 avail Mem 

  PID USER      PR  NI    VIRT    RES    SHR S  %CPU %MEM     TIME+ COMMAND
 1985 kenenth   20   0 3550084 250868  96108 S   1.0  1.5   6:15.29 gnome-shell
11789 kenenth   20   0   41908   3840   3176 R   1.0  0.0   0:00.19 top

top - 00:02:23 up  3:18,  1 user,  load average: 0.11, 0.70, 1.44
Tasks: 317 total,   1 running, 255 sleeping,   0 stopped,   0 zombie
%Cpu(s):  0.0 us,  0.1 sy,  0.0 ni, 99.9 id,  0.0 wa,  0.0 hi,  0.0 si,  0.0 st
KiB Mem : 16278768 total, 11549628 free,  1434588 used,  3294552 buff/cache
KiB Swap: 16630780 total, 16630780 free,        0 used. 14393840 avail Mem 

  PID USER      PR  NI    VIRT    RES    SHR S  %CPU %MEM     TIME+ COMMAND
11789 kenenth   20   0   41908   3840   3176 R   2.0  0.0   0:00.21 top
 1780 root      20   0  433932  94764  61672 S   1.0  0.6   2:20.02 Xorg

top - 00:02:24 up  3:18,  1 user,  load average: 0.11, 0.70, 1.44
Tasks: 317 total,   1 running, 255 sleeping,   0 stopped,   0 zombie
%Cpu(s):  0.4 us,  0.2 sy,  0.0 ni, 99.4 id,  0.0 wa,  0.0 hi,  0.0 si,  0.0 st
KiB Mem : 16278768 total, 11549628 free,  1434588 used,  3294552 buff/cache
KiB Swap: 16630780 total, 16630780 free,        0 used. 14393840 avail Mem 

  PID USER      PR  NI    VIRT    RES    SHR S  %CPU %MEM     TIME+ COMMAND
 1129 root      20   0 5005772  37056  26124 S   2.9  0.2   0:55.89 containerd
11789 kenenth   20   0   41908   3840   3176 R   1.0  0.0   0:00.22 top

top - 00:02:25 up  3:18,  1 user,  load average: 0.11, 0.70, 1.44
Tasks: 317 total,   2 running, 255 sleeping,   0 stopped,   0 zombie
%Cpu(s):  0.1 us,  0.1 sy,  0.0 ni, 99.8 id,  0.0 wa,  0.0 hi,  0.0 si,  0.0 st
KiB Mem : 16278768 total, 11549628 free,  1434588 used,  3294552 buff/cache
KiB Swap: 16630780 total, 16630780 free,        0 used. 14393840 avail Mem 

  PID USER      PR  NI    VIRT    RES    SHR S  %CPU %MEM     TIME+ COMMAND
 1985 kenenth   20   0 3550084 250868  96108 S   1.0  1.5   6:15.30 gnome-shell
11789 kenenth   20   0   41908   3840   3176 R   1.0  0.0   0:00.23 top

top - 00:02:26 up  3:18,  1 user,  load average: 0.11, 0.70, 1.44
Tasks: 317 total,   1 running, 255 sleeping,   0 stopped,   0 zombie
%Cpu(s):  0.0 us,  0.2 sy,  0.0 ni, 99.6 id,  0.1 wa,  0.0 hi,  0.0 si,  0.0 st
KiB Mem : 16278768 total, 11549628 free,  1434588 used,  3294552 buff/cache
KiB Swap: 16630780 total, 16630780 free,        0 used. 14393840 avail Mem 

  PID USER      PR  NI    VIRT    RES    SHR S  %CPU %MEM     TIME+ COMMAND
11789 kenenth   20   0   41908   3840   3176 R   2.0  0.0   0:00.25 top
 1780 root      20   0  433932  94764  61672 S   1.0  0.6   2:20.03 Xorg

top - 00:02:27 up  3:18,  1 user,  load average: 0.10, 0.69, 1.43
Tasks: 317 total,   1 running, 255 sleeping,   0 stopped,   0 zombie
%Cpu(s):  0.1 us,  0.1 sy,  0.0 ni, 99.8 id,  0.0 wa,  0.0 hi,  0.0 si,  0.0 st
KiB Mem : 16278768 total, 11549628 free,  1434588 used,  3294552 buff/cache
KiB Swap: 16630780 total, 16630780 free,        0 used. 14393840 avail Mem 

  PID USER      PR  NI    VIRT    RES    SHR S  %CPU %MEM     TIME+ COMMAND
 1780 root      20   0  433932  94764  61672 S   1.0  0.6   2:20.04 Xorg
11789 kenenth   20   0   41908   3840   3176 R   1.0  0.0   0:00.26 top

top - 00:02:28 up  3:18,  1 user,  load average: 0.10, 0.69, 1.43
Tasks: 317 total,   1 running, 255 sleeping,   0 stopped,   0 zombie
%Cpu(s):  0.0 us,  0.2 sy,  0.0 ni, 99.8 id,  0.0 wa,  0.0 hi,  0.0 si,  0.0 st
KiB Mem : 16278768 total, 11549628 free,  1434588 used,  3294552 buff/cache
KiB Swap: 16630780 total, 16630780 free,        0 used. 14393840 avail Mem 

  PID USER      PR  NI    VIRT    RES    SHR S  %CPU %MEM     TIME+ COMMAND
11789 kenenth   20   0   41908   3840   3176 R   1.0  0.0   0:00.27 top

top - 00:02:29 up  3:18,  1 user,  load average: 0.10, 0.69, 1.43
Tasks: 317 total,   1 running, 255 sleeping,   0 stopped,   0 zombie
%Cpu(s):  0.0 us,  0.2 sy,  0.0 ni, 99.8 id,  0.0 wa,  0.0 hi,  0.0 si,  0.0 st
KiB Mem : 16278768 total, 11549596 free,  1434616 used,  3294556 buff/cache
KiB Swap: 16630780 total, 16630780 free,        0 used. 14393808 avail Mem 

  PID USER      PR  NI    VIRT    RES    SHR S  %CPU %MEM     TIME+ COMMAND
11789 kenenth   20   0   41908   3840   3176 R   1.0  0.0   0:00.28 top
16805 root      20   0       0      0      0 I   1.0  0.0   0:00.06 kworker/1:5

top - 00:02:30 up  3:18,  1 user,  load average: 0.10, 0.69, 1.43
Tasks: 317 total,   1 running, 255 sleeping,   0 stopped,   0 zombie
%Cpu(s):  0.0 us,  0.1 sy,  0.0 ni, 99.9 id,  0.0 wa,  0.0 hi,  0.0 si,  0.0 st
KiB Mem : 16278768 total, 11549596 free,  1434616 used,  3294556 buff/cache
KiB Swap: 16630780 total, 16630780 free,        0 used. 14393808 avail Mem 

  PID USER      PR  NI    VIRT    RES    SHR S  %CPU %MEM     TIME+ COMMAND
11789 kenenth   20   0   41908   3840   3176 R   2.0  0.0   0:00.30 top
    8 root      20   0       0      0      0 I   1.0  0.0   0:07.55 rcu_sched
 1780 root      20   0  433932  94764  61672 S   1.0  0.6   2:20.05 Xorg
 2098 kenenth   20   0  448120  13192   8100 S   1.0  0.1   0:55.54 gsd-sharing

top - 00:02:31 up  3:18,  1 user,  load average: 0.10, 0.69, 1.43
Tasks: 317 total,   1 running, 255 sleeping,   0 stopped,   0 zombie
%Cpu(s):  0.2 us,  0.1 sy,  0.0 ni, 99.6 id,  0.0 wa,  0.0 hi,  0.0 si,  0.0 st
KiB Mem : 16278768 total, 11549596 free,  1434616 used,  3294556 buff/cache
KiB Swap: 16630780 total, 16630780 free,        0 used. 14393808 avail Mem 

  PID USER      PR  NI    VIRT    RES    SHR S  %CPU %MEM     TIME+ COMMAND
 1129 root      20   0 5005772  37056  26124 S   1.0  0.2   0:55.90 containerd
11789 kenenth   20   0   41908   3840   3176 R   1.0  0.0   0:00.31 top

top - 00:02:32 up  3:18,  1 user,  load average: 0.09, 0.68, 1.42
Tasks: 317 total,   1 running, 255 sleeping,   0 stopped,   0 zombie
%Cpu(s):  0.1 us,  0.1 sy,  0.0 ni, 99.8 id,  0.0 wa,  0.0 hi,  0.0 si,  0.0 st
KiB Mem : 16278768 total, 11549580 free,  1434624 used,  3294564 buff/cache
KiB Swap: 16630780 total, 16630780 free,        0 used. 14393792 avail Mem 

  PID USER      PR  NI    VIRT    RES    SHR S  %CPU %MEM     TIME+ COMMAND
11789 kenenth   20   0   41908   3840   3176 R   1.0  0.0   0:00.32 top

top - 00:02:33 up  3:19,  1 user,  load average: 0.09, 0.68, 1.42
Tasks: 317 total,   1 running, 255 sleeping,   0 stopped,   0 zombie
%Cpu(s):  0.0 us,  0.2 sy,  0.0 ni, 99.8 id,  0.0 wa,  0.0 hi,  0.0 si,  0.0 st
KiB Mem : 16278768 total, 11549580 free,  1434624 used,  3294564 buff/cache
KiB Swap: 16630780 total, 16630780 free,        0 used. 14393792 avail Mem 

  PID USER      PR  NI    VIRT    RES    SHR S  %CPU %MEM     TIME+ COMMAND
 1780 root      20   0  433932  94764  61672 S   1.0  0.6   2:20.06 Xorg
11789 kenenth   20   0   41908   3840   3176 R   1.0  0.0   0:00.33 top

top - 00:02:34 up  3:19,  1 user,  load average: 0.09, 0.68, 1.42
Tasks: 317 total,   1 running, 255 sleeping,   0 stopped,   0 zombie
%Cpu(s):  0.0 us,  0.1 sy,  0.0 ni, 99.9 id,  0.0 wa,  0.0 hi,  0.0 si,  0.0 st
KiB Mem : 16278768 total, 11549580 free,  1434624 used,  3294564 buff/cache
KiB Swap: 16630780 total, 16630780 free,        0 used. 14393792 avail Mem 

  PID USER      PR  NI    VIRT    RES    SHR S  %CPU %MEM     TIME+ COMMAND
11789 kenenth   20   0   41908   3840   3176 R   2.0  0.0   0:00.35 top
  945 root      20   0  269688   5956   5196 S   1.0  0.0   0:02.13 iio-sensor+
 1780 root      20   0  433932  94764  61672 S   1.0  0.6   2:20.07 Xorg

top - 00:02:35 up  3:19,  1 user,  load average: 0.09, 0.68, 1.42
Tasks: 317 total,   1 running, 255 sleeping,   0 stopped,   0 zombie
%Cpu(s):  0.1 us,  0.1 sy,  0.0 ni, 99.8 id,  0.0 wa,  0.0 hi,  0.0 si,  0.0 st
KiB Mem : 16278768 total, 11549532 free,  1434672 used,  3294564 buff/cache
KiB Swap: 16630780 total, 16630780 free,        0 used. 14393744 avail Mem 

  PID USER      PR  NI    VIRT    RES    SHR S  %CPU %MEM     TIME+ COMMAND
  950 message+  20   0   51840   6208   3852 S   1.0  0.0   2:46.04 dbus-daemon
11789 kenenth   20   0   41908   3840   3176 R   1.0  0.0   0:00.36 top

top - 00:02:36 up  3:19,  1 user,  load average: 0.09, 0.68, 1.42
Tasks: 287 total,   1 running, 225 sleeping,   0 stopped,   0 zombie
%Cpu(s):  0.0 us,  0.1 sy,  0.0 ni, 99.9 id,  0.0 wa,  0.0 hi,  0.0 si,  0.0 st
KiB Mem : 16278768 total, 11549532 free,  1434672 used,  3294564 buff/cache
KiB Swap: 16630780 total, 16630780 free,        0 used. 14393744 avail Mem 

  PID USER      PR  NI    VIRT    RES    SHR S  %CPU %MEM     TIME+ COMMAND
11789 kenenth   20   0   41908   3840   3176 R   2.0  0.0   0:00.38 top
 1781 root     -51   0       0      0      0 S   1.0  0.0   0:16.79 irq/135-nv+

top - 00:02:37 up  3:19,  1 user,  load average: 0.09, 0.66, 1.41
Tasks: 287 total,   1 running, 225 sleeping,   0 stopped,   0 zombie
%Cpu(s):  0.2 us,  0.4 sy,  0.0 ni, 99.4 id,  0.0 wa,  0.0 hi,  0.0 si,  0.0 st
KiB Mem : 16278768 total, 11549532 free,  1434672 used,  3294564 buff/cache
KiB Swap: 16630780 total, 16630780 free,        0 used. 14393744 avail Mem 

  PID USER      PR  NI    VIRT    RES    SHR S  %CPU %MEM     TIME+ COMMAND
