ping_64 | 5 packets transmitted, 5 packets received, 0% packet loss
ping_71 | 5 packets transmitted, 5 packets received, 0% packet loss
ping_49 | 5 packets transmitted, 5 packets received, 0% packet loss
ping_40 | 5 packets transmitted, 5 packets received, 0% packet loss
ping_60 | 5 packets transmitted, 5 packets received, 0% packet loss
ping_38 | 5 packets transmitted, 5 packets received, 0% packet loss
ping_52 | 5 packets transmitted, 5 packets received, 0% packet loss
ping_58 | 5 packets transmitted, 5 packets received, 0% packet loss
ping_32 | 5 packets transmitted, 5 packets received, 0% packet loss
ping_29 | 5 packets transmitted, 5 packets received, 0% packet loss
ping_23 | 5 packets transmitted, 5 packets received, 0% packet loss
ping_46 | 5 packets transmitted, 5 packets received, 0% packet loss
ping_50 | 5 packets transmitted, 5 packets received, 0% packet loss
ping_41 | 5 packets transmitted, 5 packets received, 0% packet loss
ping_25 | 5 packets transmitted, 5 packets received, 0% packet loss
ping_39 | 5 packets transmitted, 5 packets received, 0% packet loss
ping_11 | 5 packets transmitted, 5 packets received, 0% packet loss
ping_36 | 5 packets transmitted, 5 packets received, 0% packet loss
ping_98 | 5 packets transmitted, 5 packets received, 0% packet loss
ping_10 | 5 packets transmitted, 5 packets received, 0% packet loss
ping_53 | 5 packets transmitted, 5 packets received, 0% packet loss
ping_45 | 5 packets transmitted, 5 packets received, 0% packet loss
ping_90 | 5 packets transmitted, 5 packets received, 0% packet loss
ping_14 | 5 packets transmitted, 5 packets received, 0% packet loss
ping_28 | 5 packets transmitted, 5 packets received, 0% packet loss
ping_65 | 5 packets transmitted, 5 packets received, 0% packet loss
ping_47 | 5 packets transmitted, 5 packets received, 0% packet loss
ping_21 | 5 packets transmitted, 5 packets received, 0% packet loss
ping_35 | 5 packets transmitted, 5 packets received, 0% packet loss
ping_9  | 5 packets transmitted, 5 packets received, 0% packet loss
ping_68 | 5 packets transmitted, 5 packets received, 0% packet loss
ping_83 | 5 packets transmitted, 5 packets received, 0% packet loss
ping_72 | 5 packets transmitted, 5 packets received, 0% packet loss
ping_81 | 5 packets transmitted, 5 packets received, 0% packet loss
ping_17 | 5 packets transmitted, 5 packets received, 0% packet loss
ping_22 | 5 packets transmitted, 5 packets received, 0% packet loss
ping_44 | 5 packets transmitted, 5 packets received, 0% packet loss
ping_13 | 5 packets transmitted, 5 packets received, 0% packet loss
ping_8  | 5 packets transmitted, 5 packets received, 0% packet loss
ping_96 | 5 packets transmitted, 5 packets received, 0% packet loss
ping_51 | 5 packets transmitted, 5 packets received, 0% packet loss
ping_80 | 5 packets transmitted, 5 packets received, 0% packet loss
ping_15 | 5 packets transmitted, 5 packets received, 0% packet loss
ping_27 | 5 packets transmitted, 5 packets received, 0% packet loss
ping_4  | 5 packets transmitted, 5 packets received, 0% packet loss
ping_42 | 5 packets transmitted, 5 packets received, 0% packet loss
ping_19 | 5 packets transmitted, 5 packets received, 0% packet loss
ping_95 | 5 packets transmitted, 5 packets received, 0% packet loss
ping_87 | 5 packets transmitted, 5 packets received, 0% packet loss
ping_76 | 5 packets transmitted, 5 packets received, 0% packet loss
ping_100 | 5 packets transmitted, 5 packets received, 0% packet loss
ping_78 | 5 packets transmitted, 5 packets received, 0% packet loss
ping_86 | 5 packets transmitted, 5 packets received, 0% packet loss
ping_85 | 5 packets transmitted, 5 packets received, 0% packet loss
ping_30 | 5 packets transmitted, 5 packets received, 0% packet loss
ping_6  | 5 packets transmitted, 5 packets received, 0% packet loss
ping_37 | 5 packets transmitted, 5 packets received, 0% packet loss
ping_54 | 5 packets transmitted, 5 packets received, 0% packet loss
ping_26 | 5 packets transmitted, 5 packets received, 0% packet loss
ping_59 | 5 packets transmitted, 5 packets received, 0% packet loss
ping_2  | 5 packets transmitted, 5 packets received, 0% packet loss
ping_89 | 5 packets transmitted, 5 packets received, 0% packet loss
ping_7  | 5 packets transmitted, 5 packets received, 0% packet loss
ping_34 | 5 packets transmitted, 5 packets received, 0% packet loss
ping_74 | 5 packets transmitted, 5 packets received, 0% packet loss
ping_16 | 5 packets transmitted, 5 packets received, 0% packet loss
ping_88 | 5 packets transmitted, 5 packets received, 0% packet loss
ping_56 | 5 packets transmitted, 5 packets received, 0% packet loss
ping_48 | 5 packets transmitted, 5 packets received, 0% packet loss
ping_12 | 5 packets transmitted, 5 packets received, 0% packet loss
ping_31 | 5 packets transmitted, 5 packets received, 0% packet loss
ping_63 | 5 packets transmitted, 5 packets received, 0% packet loss
ping_3  | 5 packets transmitted, 5 packets received, 0% packet loss
ping_67 | 5 packets transmitted, 5 packets received, 0% packet loss
ping_1  | 5 packets transmitted, 5 packets received, 0% packet loss
ping_77 | 5 packets transmitted, 5 packets received, 0% packet loss
ping_33 | 5 packets transmitted, 5 packets received, 0% packet loss
ping_55 | 5 packets transmitted, 5 packets received, 0% packet loss
ping_97 | 5 packets transmitted, 5 packets received, 0% packet loss
ping_66 | 5 packets transmitted, 5 packets received, 0% packet loss
ping_20 | 5 packets transmitted, 5 packets received, 0% packet loss
ping_5  | 5 packets transmitted, 5 packets received, 0% packet loss
ping_61 | 5 packets transmitted, 5 packets received, 0% packet loss
ping_75 | 5 packets transmitted, 5 packets received, 0% packet loss
ping_94 | 5 packets transmitted, 5 packets received, 0% packet loss
ping_73 | 5 packets transmitted, 5 packets received, 0% packet loss
ping_91 | 5 packets transmitted, 5 packets received, 0% packet loss
ping_43 | 5 packets transmitted, 5 packets received, 0% packet loss
ping_57 | 5 packets transmitted, 5 packets received, 0% packet loss
ping_24 | 5 packets transmitted, 5 packets received, 0% packet loss
ping_62 | 5 packets transmitted, 5 packets received, 0% packet loss
ping_82 | 5 packets transmitted, 5 packets received, 0% packet loss
ping_93 | 5 packets transmitted, 5 packets received, 0% packet loss
ping_18 | 5 packets transmitted, 5 packets received, 0% packet loss
ping_69 | 5 packets transmitted, 5 packets received, 0% packet loss
ping_70 | 5 packets transmitted, 5 packets received, 0% packet loss
ping_92 | 5 packets transmitted, 5 packets received, 0% packet loss
ping_79 | 5 packets transmitted, 5 packets received, 0% packet loss
ping_84 | 5 packets transmitted, 5 packets received, 0% packet loss
ping_200 | 5 packets transmitted, 5 packets received, 0% packet loss
ping_126 | 5 packets transmitted, 5 packets received, 0% packet loss
ping_125 | 5 packets transmitted, 5 packets received, 0% packet loss
ping_99 | 5 packets transmitted, 5 packets received, 0% packet loss
ping_135 | 5 packets transmitted, 5 packets received, 0% packet loss
ping_187 | 5 packets transmitted, 5 packets received, 0% packet loss
ping_118 | 5 packets transmitted, 5 packets received, 0% packet loss
ping_114 | 5 packets transmitted, 5 packets received, 0% packet loss
ping_115 | 5 packets transmitted, 5 packets received, 0% packet loss
ping_106 | 5 packets transmitted, 5 packets received, 0% packet loss
ping_108 | 5 packets transmitted, 5 packets received, 0% packet loss
ping_182 | 5 packets transmitted, 5 packets received, 0% packet loss
ping_195 | 5 packets transmitted, 5 packets received, 0% packet loss
ping_109 | 5 packets transmitted, 5 packets received, 0% packet loss
ping_104 | 5 packets transmitted, 5 packets received, 0% packet loss
ping_198 | 5 packets transmitted, 5 packets received, 0% packet loss
ping_103 | 5 packets transmitted, 5 packets received, 0% packet loss
ping_132 | 5 packets transmitted, 5 packets received, 0% packet loss
ping_184 | 5 packets transmitted, 5 packets received, 0% packet loss
ping_185 | 5 packets transmitted, 5 packets received, 0% packet loss
ping_119 | 5 packets transmitted, 5 packets received, 0% packet loss
ping_113 | 5 packets transmitted, 5 packets received, 0% packet loss
ping_111 | 5 packets transmitted, 5 packets received, 0% packet loss
ping_178 | 5 packets transmitted, 5 packets received, 0% packet loss
ping_150 | 5 packets transmitted, 5 packets received, 0% packet loss
ping_151 | 5 packets transmitted, 5 packets received, 0% packet loss
ping_171 | 5 packets transmitted, 5 packets received, 0% packet loss
ping_172 | 5 packets transmitted, 5 packets received, 0% packet loss
ping_183 | 5 packets transmitted, 5 packets received, 0% packet loss
ping_142 | 5 packets transmitted, 5 packets received, 0% packet loss
ping_112 | 5 packets transmitted, 5 packets received, 0% packet loss
ping_167 | 5 packets transmitted, 5 packets received, 0% packet loss
ping_102 | 5 packets transmitted, 5 packets received, 0% packet loss
ping_155 | 5 packets transmitted, 5 packets received, 0% packet loss
ping_169 | 5 packets transmitted, 5 packets received, 0% packet loss
ping_122 | 5 packets transmitted, 5 packets received, 0% packet loss
ping_194 | 5 packets transmitted, 5 packets received, 0% packet loss
ping_190 | 5 packets transmitted, 5 packets received, 0% packet loss
ping_180 | 5 packets transmitted, 5 packets received, 0% packet loss
ping_133 | 5 packets transmitted, 5 packets received, 0% packet loss
ping_191 | 5 packets transmitted, 5 packets received, 0% packet loss
ping_196 | 5 packets transmitted, 5 packets received, 0% packet loss
ping_181 | 5 packets transmitted, 5 packets received, 0% packet loss
ping_161 | 5 packets transmitted, 5 packets received, 0% packet loss
ping_160 | 5 packets transmitted, 5 packets received, 0% packet loss
ping_141 | 5 packets transmitted, 5 packets received, 0% packet loss
ping_117 | 5 packets transmitted, 5 packets received, 0% packet loss
ping_143 | 5 packets transmitted, 5 packets received, 0% packet loss
ping_165 | 5 packets transmitted, 5 packets received, 0% packet loss
ping_146 | 5 packets transmitted, 5 packets received, 0% packet loss
ping_148 | 5 packets transmitted, 5 packets received, 0% packet loss
ping_136 | 5 packets transmitted, 5 packets received, 0% packet loss
ping_152 | 5 packets transmitted, 5 packets received, 0% packet loss
ping_101 | 5 packets transmitted, 5 packets received, 0% packet loss
ping_154 | 5 packets transmitted, 5 packets received, 0% packet loss
ping_134 | 5 packets transmitted, 5 packets received, 0% packet loss
ping_199 | 5 packets transmitted, 5 packets received, 0% packet loss
ping_138 | 5 packets transmitted, 5 packets received, 0% packet loss
ping_130 | 5 packets transmitted, 5 packets received, 0% packet loss
ping_166 | 5 packets transmitted, 5 packets received, 0% packet loss
ping_123 | 5 packets transmitted, 5 packets received, 0% packet loss
ping_139 | 5 packets transmitted, 5 packets received, 0% packet loss
ping_186 | 5 packets transmitted, 5 packets received, 0% packet loss
ping_149 | 5 packets transmitted, 5 packets received, 0% packet loss
ping_168 | 5 packets transmitted, 5 packets received, 0% packet loss
ping_137 | 5 packets transmitted, 5 packets received, 0% packet loss
ping_192 | 5 packets transmitted, 5 packets received, 0% packet loss
ping_157 | 5 packets transmitted, 5 packets received, 0% packet loss
ping_158 | 5 packets transmitted, 5 packets received, 0% packet loss
ping_120 | 5 packets transmitted, 5 packets received, 0% packet loss
ping_176 | 5 packets transmitted, 5 packets received, 0% packet loss
ping_193 | 5 packets transmitted, 5 packets received, 0% packet loss
ping_105 | 5 packets transmitted, 5 packets received, 0% packet loss
ping_129 | 5 packets transmitted, 5 packets received, 0% packet loss
ping_164 | 5 packets transmitted, 5 packets received, 0% packet loss
ping_170 | 5 packets transmitted, 5 packets received, 0% packet loss
ping_145 | 5 packets transmitted, 5 packets received, 0% packet loss
ping_128 | 5 packets transmitted, 5 packets received, 0% packet loss
ping_110 | 5 packets transmitted, 5 packets received, 0% packet loss
ping_159 | 5 packets transmitted, 5 packets received, 0% packet loss
ping_179 | 5 packets transmitted, 5 packets received, 0% packet loss
ping_162 | 5 packets transmitted, 5 packets received, 0% packet loss
ping_177 | 5 packets transmitted, 5 packets received, 0% packet loss
ping_107 | 5 packets transmitted, 5 packets received, 0% packet loss
ping_124 | 5 packets transmitted, 5 packets received, 0% packet loss
ping_153 | 5 packets transmitted, 5 packets received, 0% packet loss
ping_127 | 5 packets transmitted, 5 packets received, 0% packet loss
ping_175 | 5 packets transmitted, 5 packets received, 0% packet loss
ping_131 | 5 packets transmitted, 5 packets received, 0% packet loss
ping_189 | 5 packets transmitted, 5 packets received, 0% packet loss
ping_163 | 5 packets transmitted, 5 packets received, 0% packet loss
ping_197 | 5 packets transmitted, 5 packets received, 0% packet loss
ping_174 | 5 packets transmitted, 5 packets received, 0% packet loss
ping_188 | 5 packets transmitted, 5 packets received, 0% packet loss
ping_116 | 5 packets transmitted, 5 packets received, 0% packet loss
ping_173 | 5 packets transmitted, 5 packets received, 0% packet loss
ping_140 | 5 packets transmitted, 5 packets received, 0% packet loss
ping_156 | 5 packets transmitted, 5 packets received, 0% packet loss
ping_121 | 5 packets transmitted, 5 packets received, 0% packet loss
ping_144 | 5 packets transmitted, 5 packets received, 0% packet loss
ping_147 | 5 packets transmitted, 5 packets received, 0% packet loss
