ping_64 | round-trip min/avg/max = 79.786/80.080/80.438 ms
ping_71 | round-trip min/avg/max = 79.766/79.895/80.235 ms
ping_49 | round-trip min/avg/max = 79.761/79.900/80.308 ms
ping_40 | round-trip min/avg/max = 79.757/79.852/80.012 ms
ping_60 | round-trip min/avg/max = 79.750/79.839/79.981 ms
ping_38 | round-trip min/avg/max = 79.759/79.808/79.874 ms
ping_52 | round-trip min/avg/max = 79.724/79.806/80.000 ms
ping_58 | round-trip min/avg/max = 79.771/79.955/80.226 ms
ping_32 | round-trip min/avg/max = 79.715/79.950/80.292 ms
ping_29 | round-trip min/avg/max = 79.756/79.883/80.049 ms
ping_23 | round-trip min/avg/max = 79.785/79.915/80.090 ms
ping_46 | round-trip min/avg/max = 79.748/79.961/80.097 ms
ping_50 | round-trip min/avg/max = 79.797/79.940/80.152 ms
ping_41 | round-trip min/avg/max = 79.779/79.909/80.243 ms
ping_25 | round-trip min/avg/max = 79.720/79.784/79.833 ms
ping_39 | round-trip min/avg/max = 79.749/80.136/80.989 ms
ping_11 | round-trip min/avg/max = 79.758/79.914/80.299 ms
ping_36 | round-trip min/avg/max = 79.741/79.803/79.880 ms
ping_98 | round-trip min/avg/max = 79.765/79.825/79.876 ms
ping_10 | round-trip min/avg/max = 79.741/79.867/80.132 ms
ping_53 | round-trip min/avg/max = 79.789/79.826/79.862 ms
ping_45 | round-trip min/avg/max = 79.792/79.822/79.883 ms
ping_90 | round-trip min/avg/max = 79.763/80.135/81.191 ms
ping_14 | round-trip min/avg/max = 79.688/80.319/82.615 ms
ping_28 | round-trip min/avg/max = 79.780/79.861/80.008 ms
ping_65 | round-trip min/avg/max = 79.807/79.961/80.136 ms
ping_47 | round-trip min/avg/max = 79.750/79.811/79.937 ms
ping_21 | round-trip min/avg/max = 79.771/79.857/79.988 ms
ping_35 | round-trip min/avg/max = 79.773/80.023/80.790 ms
ping_9  | round-trip min/avg/max = 79.763/79.858/79.991 ms
ping_68 | round-trip min/avg/max = 79.802/79.988/80.189 ms
ping_83 | round-trip min/avg/max = 79.711/79.910/80.102 ms
ping_72 | round-trip min/avg/max = 79.741/79.798/79.844 ms
ping_81 | round-trip min/avg/max = 79.770/79.885/80.098 ms
ping_17 | round-trip min/avg/max = 79.683/79.839/80.088 ms
ping_22 | round-trip min/avg/max = 79.799/79.901/80.151 ms
ping_44 | round-trip min/avg/max = 79.761/79.958/80.475 ms
ping_13 | round-trip min/avg/max = 79.734/79.948/80.089 ms
ping_8  | round-trip min/avg/max = 79.773/79.870/80.062 ms
ping_96 | round-trip min/avg/max = 79.742/79.960/80.230 ms
ping_51 | round-trip min/avg/max = 79.654/79.818/80.056 ms
ping_80 | round-trip min/avg/max = 79.730/79.832/79.939 ms
ping_15 | round-trip min/avg/max = 79.784/79.894/80.075 ms
ping_27 | round-trip min/avg/max = 79.759/79.861/80.105 ms
ping_4  | round-trip min/avg/max = 79.765/79.979/80.271 ms
ping_42 | round-trip min/avg/max = 79.850/79.982/80.207 ms
ping_19 | round-trip min/avg/max = 79.647/79.818/79.950 ms
ping_95 | round-trip min/avg/max = 79.787/79.849/79.924 ms
ping_87 | round-trip min/avg/max = 79.784/79.966/80.177 ms
ping_76 | round-trip min/avg/max = 79.545/79.783/79.933 ms
ping_100 | round-trip min/avg/max = 79.697/80.203/81.545 ms
ping_78 | round-trip min/avg/max = 79.700/79.950/80.273 ms
ping_86 | round-trip min/avg/max = 79.714/79.813/79.865 ms
ping_85 | round-trip min/avg/max = 79.719/79.788/79.867 ms
ping_30 | round-trip min/avg/max = 79.701/79.859/80.114 ms
ping_6  | round-trip min/avg/max = 79.818/80.789/84.262 ms
ping_37 | round-trip min/avg/max = 79.734/79.813/79.914 ms
ping_54 | round-trip min/avg/max = 79.817/79.982/80.300 ms
ping_26 | round-trip min/avg/max = 79.687/79.845/80.138 ms
ping_59 | round-trip min/avg/max = 79.660/79.805/79.929 ms
ping_2  | round-trip min/avg/max = 79.727/79.867/80.015 ms
ping_89 | round-trip min/avg/max = 79.697/79.859/80.042 ms
ping_7  | round-trip min/avg/max = 79.802/79.977/80.192 ms
ping_34 | round-trip min/avg/max = 79.741/79.900/80.019 ms
ping_74 | round-trip min/avg/max = 79.727/79.802/79.850 ms
ping_16 | round-trip min/avg/max = 79.763/79.906/80.003 ms
ping_88 | round-trip min/avg/max = 79.799/79.921/80.163 ms
ping_56 | round-trip min/avg/max = 79.699/79.865/79.975 ms
ping_48 | round-trip min/avg/max = 79.811/79.942/80.052 ms
ping_12 | round-trip min/avg/max = 79.760/80.438/82.809 ms
ping_31 | round-trip min/avg/max = 79.871/80.296/81.596 ms
ping_63 | round-trip min/avg/max = 79.750/80.037/80.725 ms
ping_3  | round-trip min/avg/max = 79.746/79.858/79.981 ms
ping_67 | round-trip min/avg/max = 79.728/80.090/80.292 ms
ping_1  | round-trip min/avg/max = 79.700/80.014/80.286 ms
ping_77 | round-trip min/avg/max = 79.747/79.900/80.103 ms
ping_33 | round-trip min/avg/max = 79.762/79.919/80.316 ms
ping_55 | round-trip min/avg/max = 79.741/79.929/80.411 ms
ping_97 | round-trip min/avg/max = 79.732/79.823/80.004 ms
ping_66 | round-trip min/avg/max = 79.797/80.372/81.841 ms
ping_20 | round-trip min/avg/max = 79.765/80.701/83.888 ms
ping_5  | round-trip min/avg/max = 79.682/80.503/82.694 ms
ping_61 | round-trip min/avg/max = 79.709/80.744/84.159 ms
ping_75 | round-trip min/avg/max = 79.830/79.969/80.218 ms
ping_94 | round-trip min/avg/max = 79.693/80.015/80.961 ms
ping_73 | round-trip min/avg/max = 79.667/79.979/80.768 ms
ping_91 | round-trip min/avg/max = 79.683/79.918/80.230 ms
ping_43 | round-trip min/avg/max = 79.680/79.778/79.854 ms
ping_57 | round-trip min/avg/max = 79.767/79.928/80.275 ms
ping_24 | round-trip min/avg/max = 79.735/80.953/85.114 ms
ping_62 | round-trip min/avg/max = 79.654/79.809/79.943 ms
ping_82 | round-trip min/avg/max = 79.690/79.807/79.937 ms
ping_93 | round-trip min/avg/max = 79.708/79.789/79.927 ms
ping_18 | round-trip min/avg/max = 79.676/79.839/80.188 ms
ping_69 | round-trip min/avg/max = 79.810/79.880/79.951 ms
ping_70 | round-trip min/avg/max = 79.657/79.750/79.939 ms
ping_92 | round-trip min/avg/max = 79.758/79.805/79.853 ms
ping_79 | round-trip min/avg/max = 79.750/79.901/80.385 ms
ping_84 | round-trip min/avg/max = 79.782/80.236/80.861 ms
ping_200 | round-trip min/avg/max = 79.787/81.564/84.081 ms
ping_126 | round-trip min/avg/max = 79.846/80.905/82.394 ms
ping_125 | round-trip min/avg/max = 79.914/80.506/82.530 ms
ping_99 | round-trip min/avg/max = 79.736/80.485/83.102 ms
ping_135 | round-trip min/avg/max = 79.911/80.479/81.977 ms
ping_187 | round-trip min/avg/max = 79.833/79.964/80.145 ms
ping_118 | round-trip min/avg/max = 79.773/82.100/86.705 ms
ping_114 | round-trip min/avg/max = 79.821/79.906/79.960 ms
ping_115 | round-trip min/avg/max = 79.831/80.263/81.697 ms
ping_106 | round-trip min/avg/max = 79.771/79.865/79.989 ms
ping_108 | round-trip min/avg/max = 79.765/79.827/80.024 ms
ping_182 | round-trip min/avg/max = 79.762/79.805/79.848 ms
ping_195 | round-trip min/avg/max = 79.827/80.326/81.923 ms
ping_109 | round-trip min/avg/max = 79.746/79.834/80.087 ms
ping_104 | round-trip min/avg/max = 79.757/79.813/79.893 ms
ping_198 | round-trip min/avg/max = 79.755/80.346/81.832 ms
ping_103 | round-trip min/avg/max = 79.737/79.932/80.412 ms
ping_132 | round-trip min/avg/max = 79.820/79.919/80.123 ms
ping_184 | round-trip min/avg/max = 79.741/79.868/80.080 ms
ping_185 | round-trip min/avg/max = 79.765/79.933/80.276 ms
ping_119 | round-trip min/avg/max = 79.760/79.799/79.839 ms
ping_113 | round-trip min/avg/max = 79.825/80.645/83.244 ms
ping_111 | round-trip min/avg/max = 79.837/79.943/80.108 ms
ping_178 | round-trip min/avg/max = 79.755/80.824/84.260 ms
ping_150 | round-trip min/avg/max = 79.817/79.844/79.899 ms
ping_151 | round-trip min/avg/max = 79.790/79.861/79.939 ms
ping_171 | round-trip min/avg/max = 79.731/79.813/79.896 ms
ping_172 | round-trip min/avg/max = 79.751/79.911/80.237 ms
ping_183 | round-trip min/avg/max = 79.740/79.795/79.869 ms
ping_142 | round-trip min/avg/max = 79.733/79.908/80.243 ms
ping_112 | round-trip min/avg/max = 79.777/79.846/79.923 ms
ping_167 | round-trip min/avg/max = 79.763/80.024/80.860 ms
ping_102 | round-trip min/avg/max = 79.728/80.294/82.341 ms
ping_155 | round-trip min/avg/max = 79.725/79.813/79.857 ms
ping_169 | round-trip min/avg/max = 79.777/79.827/79.917 ms
ping_122 | round-trip min/avg/max = 79.749/80.546/83.348 ms
ping_194 | round-trip min/avg/max = 79.757/79.981/80.409 ms
ping_190 | round-trip min/avg/max = 79.744/79.864/80.029 ms
ping_180 | round-trip min/avg/max = 79.783/80.486/82.935 ms
ping_133 | round-trip min/avg/max = 79.767/79.885/80.134 ms
ping_191 | round-trip min/avg/max = 79.739/79.937/80.143 ms
ping_196 | round-trip min/avg/max = 79.742/80.071/80.544 ms
ping_181 | round-trip min/avg/max = 79.769/79.879/80.063 ms
ping_161 | round-trip min/avg/max = 79.740/79.886/80.208 ms
ping_160 | round-trip min/avg/max = 79.723/79.941/80.229 ms
ping_141 | round-trip min/avg/max = 79.713/79.889/80.123 ms
ping_117 | round-trip min/avg/max = 79.775/79.883/79.985 ms
ping_143 | round-trip min/avg/max = 79.766/79.976/80.444 ms
ping_165 | round-trip min/avg/max = 79.798/80.049/80.365 ms
ping_146 | round-trip min/avg/max = 79.727/79.959/80.278 ms
ping_148 | round-trip min/avg/max = 79.793/79.887/80.162 ms
ping_136 | round-trip min/avg/max = 79.856/79.961/80.083 ms
ping_152 | round-trip min/avg/max = 79.780/80.005/80.398 ms
ping_101 | round-trip min/avg/max = 79.775/79.887/80.129 ms
ping_154 | round-trip min/avg/max = 79.698/79.940/80.283 ms
ping_134 | round-trip min/avg/max = 79.746/79.874/80.071 ms
ping_199 | round-trip min/avg/max = 79.705/79.875/80.083 ms
ping_138 | round-trip min/avg/max = 79.710/79.827/79.972 ms
ping_130 | round-trip min/avg/max = 79.652/79.811/80.040 ms
ping_166 | round-trip min/avg/max = 79.710/79.880/80.023 ms
ping_123 | round-trip min/avg/max = 79.755/80.005/80.582 ms
ping_139 | round-trip min/avg/max = 79.787/79.916/80.190 ms
ping_186 | round-trip min/avg/max = 79.717/80.951/85.155 ms
ping_149 | round-trip min/avg/max = 79.797/80.006/80.214 ms
ping_168 | round-trip min/avg/max = 79.851/79.924/80.087 ms
ping_137 | round-trip min/avg/max = 79.837/79.888/79.957 ms
ping_192 | round-trip min/avg/max = 79.672/80.190/81.599 ms
ping_157 | round-trip min/avg/max = 79.681/79.952/80.253 ms
ping_158 | round-trip min/avg/max = 79.748/79.915/80.361 ms
ping_120 | round-trip min/avg/max = 79.804/79.904/80.084 ms
ping_176 | round-trip min/avg/max = 79.722/80.002/80.324 ms
ping_193 | round-trip min/avg/max = 79.711/79.899/80.000 ms
ping_105 | round-trip min/avg/max = 79.731/79.799/79.965 ms
ping_129 | round-trip min/avg/max = 79.674/79.878/80.051 ms
ping_164 | round-trip min/avg/max = 79.866/80.139/80.432 ms
ping_170 | round-trip min/avg/max = 79.713/79.917/80.071 ms
ping_145 | round-trip min/avg/max = 79.695/79.860/79.941 ms
ping_128 | round-trip min/avg/max = 79.736/81.179/86.529 ms
ping_110 | round-trip min/avg/max = 79.764/79.943/80.145 ms
ping_159 | round-trip min/avg/max = 79.771/80.185/81.434 ms
ping_179 | round-trip min/avg/max = 79.785/79.932/80.167 ms
ping_162 | round-trip min/avg/max = 79.750/79.853/79.991 ms
ping_177 | round-trip min/avg/max = 79.720/79.936/80.310 ms
ping_107 | round-trip min/avg/max = 79.712/79.859/79.955 ms
ping_124 | round-trip min/avg/max = 79.641/80.397/82.474 ms
ping_153 | round-trip min/avg/max = 79.792/79.908/80.133 ms
ping_127 | round-trip min/avg/max = 79.735/79.845/80.089 ms
ping_175 | round-trip min/avg/max = 79.723/79.969/80.366 ms
ping_131 | round-trip min/avg/max = 79.741/79.874/80.015 ms
ping_189 | round-trip min/avg/max = 79.726/80.018/80.342 ms
ping_163 | round-trip min/avg/max = 79.886/80.096/80.236 ms
ping_197 | round-trip min/avg/max = 79.729/79.914/80.218 ms
ping_174 | round-trip min/avg/max = 79.724/79.896/80.094 ms
ping_188 | round-trip min/avg/max = 79.855/80.707/83.480 ms
ping_116 | round-trip min/avg/max = 79.719/79.937/80.196 ms
ping_173 | round-trip min/avg/max = 79.689/79.873/80.264 ms
ping_140 | round-trip min/avg/max = 79.707/80.026/80.507 ms
ping_156 | round-trip min/avg/max = 79.750/80.502/82.639 ms
ping_121 | round-trip min/avg/max = 79.769/80.077/80.393 ms
ping_144 | round-trip min/avg/max = 79.697/80.151/80.500 ms
ping_147 | round-trip min/avg/max = 79.759/80.236/80.443 ms
