     1	 94.9 
     2	 99.1 
     3	 99.8 
     4	 99.6 
     5	 99.4 
     6	 99.6 
     7	 99.5 
     8	 99.8 
     9	 99.5 
    10	 99.8 
    11	 99.6 
    12	 99.5 
    13	 99.6 
    14	 99.8 
    15	 99.8 
    16	 99.8 
    17	 99.8 
    18	 99.9 
    19	 99.9 
    20	 99.8 
    21	 99.9 
    22	 99.6 
    23	 99.8 
    24	 99.8 
    25	 99.8 
    26	 99.8 
    27	 99.6 
    28	 99.6 
    29	 99.8 
    30	 99.9 
    31	 99.8 
    32	 99.8 
    33	 99.9 
    34	 99.5 
    35	 99.5 
    36	 99.9 
    37	 99.8 
    38	 99.8 
    39	 99.9 
    40	 99.9 
    41	 99.6 
    42	 99.8 
    43	 99.5 
    44	 99.8 
    45	 99.8 
    46	 99.9 
    47	 99.8 
    48	 99.6 
    49	 99.6 
    50	 99.8 
    51	 99.1 
