     1	291 
     2	292 
     3	292 
     4	349 
     5	419 
     6	518 
     7	560 
     8	555 
     9	548 
    10	540 
    11	526 
    12	514 
    13	505 
    14	490 
    15	470 
    16	460 
    17	450 
    18	441 
    19	433 
    20	415 
    21	403 
    22	391 
    23	378 
    24	362 
    25	352 
    26	342 
    27	337 
    28	328 
    29	321 
    30	341 
    31	379 
    32	458 
    33	547 
    34	649 
    35	697 
    36	694 
    37	682 
    38	672 
    39	660 
    40	640 
    41	622 
    42	614 
    43	596 
    44	587 
    45	572 
    46	559 
    47	542 
    48	530 
    49	504 
    50	488 
    51	476 
    52	456 
    53	435 
    54	420 
    55	412 
    56	395 
    57	384 
    58	372 
    59	364 
    60	353 
    61	345 
    62	332 
    63	325 
    64	321 
    65	315 
    66	310 
    67	308 
    68	305 
    69	300 
    70	297 
