     1	1433704 
     2	1433704 
     3	1433704 
     4	1433968 
     5	1433968 
     6	1433968 
     7	1434112 
     8	1434112 
     9	1434112 
    10	1433720 
    11	1433720 
    12	1433720 
    13	1433764 
    14	1433764 
    15	1433764 
    16	1433760 
    17	1433760 
    18	1433760 
    19	1433908 
    20	1433908 
    21	1433936 
    22	1433936 
    23	1433936 
    24	1433884 
    25	1433884 
    26	1433884 
    27	1433924 
    28	1433924 
    29	1433924 
    30	1433944 
    31	1433944 
    32	1433944 
    33	1433952 
    34	1433952 
    35	1433952 
    36	1433932 
    37	1433932 
    38	1433932 
    39	1433972 
    40	1433972 
    41	1433972 
    42	1433960 
    43	1433960 
    44	1433960 
    45	1434000 
    46	1434000 
    47	1434000 
    48	1434016 
    49	1434016 
    50	1434016 
    51	1434024 
    52	1434024 
    53	1434024 
    54	1434056 
    55	1434056 
    56	1434056 
    57	1434060 
    58	1434060 
    59	1434060 
    60	1434084 
    61	1434084 
    62	1434084 
    63	1434120 
    64	1434120 
    65	1434120 
    66	1434152 
    67	1434152 
    68	1434152 
    69	1434140 
    70	1434140 
    71	1434140 
    72	1434008 
    73	1434008 
    74	1434008 
    75	1434040 
    76	1434040 
    77	1434040 
    78	1434072 
    79	1434072 
    80	1434072 
    81	1434072 
    82	1434072 
    83	1434072 
    84	1434092 
    85	1434092 
    86	1434092 
    87	1434100 
    88	1434100 
    89	1434100 
    90	1434116 
    91	1434116 
    92	1434104 
    93	1434104 
    94	1434104 
    95	1434136 
    96	1434136 
    97	1434136 
    98	1434172 
    99	1434172 
   100	1434172 
   101	1434180 
   102	1434180 
   103	1434180 
   104	1434192 
   105	1434192 
   106	1434192 
   107	1434192 
   108	1434192 
   109	1434192 
   110	1434192 
   111	1434192 
   112	1434192 
   113	1434248 
   114	1434248 
   115	1434248 
   116	1434240 
   117	1434240 
   118	1434240 
   119	1434232 
   120	1434232 
   121	1434232 
   122	1434264 
   123	1434264 
   124	1434264 
   125	1434292 
   126	1434292 
   127	1434292 
   128	1434300 
   129	1434300 
   130	1434300 
   131	1434332 
   132	1434332 
   133	1434332 
   134	1434324 
   135	1434324 
   136	1434324 
   137	1434316 
   138	1434316 
   139	1434316 
   140	1434380 
   141	1434380 
   142	1434380 
   143	1434380 
   144	1434380 
   145	1434380 
   146	1434408 
   147	1434408 
   148	1434408 
   149	1434408 
   150	1434408 
   151	1434408 
   152	1434436 
   153	1434436 
   154	1434436 
   155	1434468 
   156	1434468 
   157	1434468 
   158	1434468 
   159	1434468 
   160	1434468 
   161	1434492 
   162	1434492 
   163	1434492 
   164	1434492 
   165	1434492 
   166	1434492 
   167	1434492 
   168	1434492 
   169	1434520 
   170	1434520 
   171	1434520 
   172	1434548 
   173	1434548 
   174	1434548 
   175	1434544 
   176	1434544 
   177	1434544 
   178	1434576 
   179	1434576 
   180	1434576 
   181	1434572 
   182	1434572 
   183	1434572 
   184	1434608 
   185	1434608 
   186	1434608 
   187	1434628 
   188	1434628 
   189	1434628 
   190	1434624 
   191	1434624 
   192	1434624 
   193	1434652 
   194	1434652 
   195	1434652 
   196	1434680 
   197	1434680 
   198	1434680 
   199	1434676 
   200	1434676 
   201	1434676 
   202	1434676 
   203	1434676 
   204	1434676 
   205	1434744 
   206	1434744 
   207	1434744 
   208	1434732 
   209	1434732 
   210	1434732 
   211	1434792 
   212	1434792 
   213	1434792 
   214	1434792 
   215	1434792 
   216	1434792 
   217	1434820 
   218	1434820 
   219	1434820 
   220	1434848 
   221	1434848 
   222	1434848 
   223	1434844 
   224	1434844 
   225	1434844 
   226	1434872 
   227	1434872 
   228	1434872 
   229	1434860 
   230	1434860 
   231	1434860 
   232	1434892 
   233	1434892 
   234	1434892 
   235	1434884 
   236	1434884 
   237	1434916 
   238	1434916 
   239	1434916 
   240	1434916 
   241	1434916 
   242	1434916 
   243	1434912 
   244	1434912 
   245	1434912 
   246	1434944 
   247	1434944 
   248	1434944 
   249	1434940 
   250	1434940 
   251	1434940 
   252	1434968 
   253	1434968 
   254	1434968 
   255	1434872 
   256	1434872 
   257	1434872 
   258	1434904 
   259	1434904 
   260	1434904 
   261	1434932 
   262	1434932 
   263	1434932 
   264	1434932 
   265	1434932 
   266	1434932 
   267	1434964 
   268	1434964 
   269	1434964 
   270	1434960 
   271	1434960 
   272	1434960 
   273	1434956 
   274	1434956 
   275	1434956 
   276	1434992 
   277	1434992 
   278	1434992 
   279	1432264 
   280	1432264 
   281	1432264 
   282	1432296 
   283	1432296 
   284	1432296 
   285	1432292 
   286	1432292 
   287	1432292 
   288	1432356 
   289	1432356 
   290	1432356 
   291	1432392 
   292	1432392 
   293	1432392 
   294	1432448 
   295	1432448 
   296	1432448 
   297	1432444 
   298	1432444 
   299	1432444 
   300	1432504 
   301	1432504 
   302	1432504 
   303	1432500 
   304	1432500 
   305	1432500 
   306	1432532 
   307	1432532 
   308	1432532 
   309	1430820 
   310	1430820 
   311	1430820 
   312	1430820 
   313	1430820 
   314	1430972 
   315	1430972 
   316	1430972 
   317	1430996 
   318	1430996 
   319	1430996 
   320	1430904 
   321	1430904 
   322	1430904 
   323	1430904 
   324	1430904 
   325	1430904 
   326	1430844 
   327	1430844 
   328	1430844 
   329	1430864 
   330	1430864 
   331	1430864 
   332	1409576 
   333	1409576 
   334	1409576 
   335	1409348 
   336	1409348 
   337	1409348 
   338	1409344 
   339	1409344 
   340	1409344 
   341	1409344 
   342	1409344 
   343	1409344 
   344	1409380 
   345	1409380 
   346	1409380 
   347	1409408 
   348	1409408 
   349	1409408 
   350	1409404 
   351	1409404 
   352	1409404 
   353	1409428 
   354	1409428 
   355	1409428 
   356	1409428 
   357	1409428 
   358	1409428 
   359	1409456 
   360	1409456 
   361	1409456 
   362	1409484 
   363	1409484 
   364	1409484 
   365	1409480 
   366	1409480 
   367	1409480 
   368	1409480 
   369	1409480 
   370	1409480 
   371	1409504 
   372	1409504 
   373	1409504 
   374	1409536 
   375	1409536 
   376	1409536 
   377	1409556 
   378	1409556 
   379	1409556 
   380	1409556 
   381	1409556 
   382	1409556 
   383	1409588 
   384	1409588 
   385	1409588 
   386	1409612 
   387	1409612 
   388	1409612 
   389	1409612 
   390	1409612 
   391	1409616 
   392	1409616 
   393	1409616 
   394	1409616 
   395	1409616 
   396	1409616 
   397	1409640 
   398	1409640 
   399	1409640 
   400	1409668 
   401	1409668 
   402	1409668 
   403	1409668 
   404	1409668 
   405	1409668 
   406	1409720 
   407	1409720 
   408	1409720 
   409	1409728 
   410	1409728 
   411	1409728 
   412	1409756 
   413	1409756 
   414	1409756 
   415	1409756 
   416	1409756 
   417	1409756 
   418	1409780 
   419	1409780 
   420	1409780 
   421	1409780 
   422	1409780 
   423	1409780 
   424	1409808 
   425	1409808 
   426	1409808 
   427	1409808 
   428	1409808 
   429	1409808 
   430	1409312 
   431	1409312 
   432	1409312 
   433	1409232 
   434	1409232 
   435	1409232 
   436	1409232 
   437	1409232 
   438	1409232 
   439	1409260 
   440	1409260 
   441	1409260 
   442	1409260 
   443	1409260 
   444	1409260 
   445	1409148 
   446	1409148 
   447	1409148 
   448	1409184 
   449	1409184 
   450	1409184 
   451	1409212 
   452	1409212 
   453	1409212 
   454	1409240 
   455	1409240 
   456	1409240 
   457	1404032 
   458	1404032 
   459	1404032 
   460	1404056 
   461	1404056 
   462	1404056 
   463	1404084 
   464	1404084 
   465	1404084 
   466	1404084 
   467	1404084 
   468	1404112 
   469	1404112 
   470	1404112 
   471	1404152 
   472	1404152 
   473	1404152 
   474	1404176 
   475	1404176 
   476	1404176 
   477	1404172 
   478	1404172 
   479	1404172 
   480	1389148 
   481	1389148 
   482	1389148 
   483	1385752 
   484	1385752 
   485	1385752 
   486	1385748 
   487	1385748 
   488	1385748 
   489	1385780 
   490	1385780 
   491	1385780 
   492	1385812 
   493	1385812 
