ping_2  | round-trip min/avg/max = 79.801/80.171/81.993 ms
ping_8  | round-trip min/avg/max = 79.768/80.271/82.012 ms
ping_1  | round-trip min/avg/max = 79.762/80.297/82.593 ms
ping_5  | round-trip min/avg/max = 79.806/80.359/81.524 ms
ping_10 | round-trip min/avg/max = 79.754/80.311/84.826 ms
ping_9  | round-trip min/avg/max = 79.697/80.285/81.947 ms
ping_3  | round-trip min/avg/max = 79.719/80.102/80.742 ms
ping_4  | round-trip min/avg/max = 79.806/80.175/81.432 ms
ping_6  | round-trip min/avg/max = 79.738/80.208/80.995 ms
ping_7  | round-trip min/avg/max = 79.757/80.247/81.447 ms
ping_13 | round-trip min/avg/max = 79.697/80.221/80.956 ms
ping_12 | round-trip min/avg/max = 79.743/80.314/83.855 ms
ping_20 | round-trip min/avg/max = 79.810/80.280/81.186 ms
ping_15 | round-trip min/avg/max = 79.837/80.285/82.034 ms
ping_19 | round-trip min/avg/max = 79.862/80.371/83.663 ms
ping_17 | round-trip min/avg/max = 79.781/80.196/83.829 ms
ping_18 | round-trip min/avg/max = 79.726/80.169/83.523 ms
ping_16 | round-trip min/avg/max = 79.709/80.263/81.473 ms
ping_14 | round-trip min/avg/max = 79.770/80.257/81.780 ms
ping_11 | round-trip min/avg/max = 79.751/80.242/81.815 ms
