top - 22:16:48 up  1:33,  1 user,  load average: 0.12, 0.63, 1.34
Tasks: 289 total,   1 running, 226 sleeping,   0 stopped,   0 zombie
%Cpu(s):  3.6 us,  1.7 sy,  0.1 ni, 94.6 id,  0.1 wa,  0.0 hi,  0.0 si,  0.0 st
KiB Mem : 16278768 total, 12126472 free,  1384324 used,  2767972 buff/cache
KiB Swap: 16630780 total, 16630780 free,        0 used. 14442060 avail Mem 

  PID USER      PR  NI    VIRT    RES    SHR S  %CPU %MEM     TIME+ COMMAND
 1985 kenenth   20   0 3537936 242724  96100 S   6.2  1.5   3:35.53 gnome-shell
22336 kenenth   20   0   41936   3836   3172 R   6.2  0.0   0:00.02 top

top - 22:16:49 up  1:33,  1 user,  load average: 0.12, 0.63, 1.34
Tasks: 289 total,   1 running, 226 sleeping,   0 stopped,   0 zombie
%Cpu(s):  0.4 us,  0.1 sy,  0.0 ni, 99.5 id,  0.0 wa,  0.0 hi,  0.0 si,  0.0 st
KiB Mem : 16278768 total, 12126472 free,  1384324 used,  2767972 buff/cache
KiB Swap: 16630780 total, 16630780 free,        0 used. 14442060 avail Mem 

  PID USER      PR  NI    VIRT    RES    SHR S  %CPU %MEM     TIME+ COMMAND
 1985 kenenth   20   0 3537936 242436  96100 S   1.9  1.5   3:35.55 gnome-shell
  703 systemd+  20   0   70748   5204   4648 S   1.0  0.0   0:03.42 systemd-re+
  972 root      20   0  565280  23956  13716 S   1.0  0.1   0:38.05 NetworkMan+
 1780 root      20   0  450316  96808  63716 S   1.0  0.6   1:18.70 Xorg
 2098 kenenth   20   0  448048  13152   8100 S   1.0  0.1   0:22.73 gsd-sharing
22336 kenenth   20   0   41904   3904   3172 R   1.0  0.0   0:00.03 top

top - 22:16:50 up  1:33,  1 user,  load average: 0.12, 0.63, 1.34
Tasks: 289 total,   1 running, 226 sleeping,   0 stopped,   0 zombie
%Cpu(s):  0.1 us,  0.1 sy,  0.0 ni, 99.8 id,  0.0 wa,  0.0 hi,  0.0 si,  0.0 st
KiB Mem : 16278768 total, 12126472 free,  1384324 used,  2767972 buff/cache
KiB Swap: 16630780 total, 16630780 free,        0 used. 14442060 avail Mem 

  PID USER      PR  NI    VIRT    RES    SHR S  %CPU %MEM     TIME+ COMMAND
22336 kenenth   20   0   41904   3904   3172 R   2.0  0.0   0:00.05 top
 1781 root     -51   0       0      0      0 S   1.0  0.0   0:09.30 irq/135-nv+

top - 22:16:51 up  1:33,  1 user,  load average: 0.12, 0.63, 1.34
Tasks: 288 total,   1 running, 225 sleeping,   0 stopped,   0 zombie
%Cpu(s):  0.5 us,  0.1 sy,  0.0 ni, 99.4 id,  0.0 wa,  0.0 hi,  0.0 si,  0.0 st
KiB Mem : 16278768 total, 12143332 free,  1369504 used,  2765932 buff/cache
KiB Swap: 16630780 total, 16630780 free,        0 used. 14458920 avail Mem 

  PID USER      PR  NI    VIRT    RES    SHR S  %CPU %MEM     TIME+ COMMAND
 1985 kenenth   20   0 3537936 242500  96100 S   2.0  1.5   3:35.57 gnome-shell
 1129 root      20   0 4971932  40008  25492 S   1.0  0.2   0:25.06 containerd
 1766 kenenth   20   0  282988   7920   5336 S   1.0  0.0   0:00.09 gnome-keyr+
 1780 root      20   0  433932  94760  61668 S   1.0  0.6   1:18.71 Xorg
22336 kenenth   20   0   41904   3904   3172 R   1.0  0.0   0:00.06 top

top - 22:16:52 up  1:33,  1 user,  load average: 0.12, 0.63, 1.34
Tasks: 288 total,   1 running, 225 sleeping,   0 stopped,   0 zombie
%Cpu(s):  0.0 us,  0.1 sy,  0.0 ni, 99.9 id,  0.0 wa,  0.0 hi,  0.0 si,  0.0 st
KiB Mem : 16278768 total, 12143332 free,  1369504 used,  2765932 buff/cache
KiB Swap: 16630780 total, 16630780 free,        0 used. 14458920 avail Mem 

  PID USER      PR  NI    VIRT    RES    SHR S  %CPU %MEM     TIME+ COMMAND
22290 root      20   0       0      0      0 I   1.0  0.0   0:00.01 kworker/u1+
22336 kenenth   20   0   41904   3904   3172 R   1.0  0.0   0:00.07 top

top - 22:16:53 up  1:33,  1 user,  load average: 0.11, 0.62, 1.33
Tasks: 288 total,   1 running, 225 sleeping,   0 stopped,   0 zombie
%Cpu(s):  0.1 us,  0.1 sy,  0.0 ni, 99.8 id,  0.0 wa,  0.0 hi,  0.0 si,  0.0 st
KiB Mem : 16278768 total, 12143332 free,  1369504 used,  2765932 buff/cache
KiB Swap: 16630780 total, 16630780 free,        0 used. 14458920 avail Mem 

  PID USER      PR  NI    VIRT    RES    SHR S  %CPU %MEM     TIME+ COMMAND
22336 kenenth   20   0   41904   3904   3172 R   1.0  0.0   0:00.08 top

top - 22:16:54 up  1:33,  1 user,  load average: 0.11, 0.62, 1.33
Tasks: 288 total,   1 running, 225 sleeping,   0 stopped,   0 zombie
%Cpu(s):  0.0 us,  0.2 sy,  0.0 ni, 99.8 id,  0.0 wa,  0.0 hi,  0.0 si,  0.0 st
KiB Mem : 16278768 total, 12143372 free,  1369496 used,  2765900 buff/cache
KiB Swap: 16630780 total, 16630780 free,        0 used. 14458940 avail Mem 

  PID USER      PR  NI    VIRT    RES    SHR S  %CPU %MEM     TIME+ COMMAND
 1780 root      20   0  433932  94760  61668 S   1.0  0.6   1:18.72 Xorg
22336 kenenth   20   0   41904   3904   3172 R   1.0  0.0   0:00.09 top

top - 22:16:55 up  1:33,  1 user,  load average: 0.11, 0.62, 1.33
Tasks: 288 total,   1 running, 225 sleeping,   0 stopped,   0 zombie
%Cpu(s):  0.1 us,  0.0 sy,  0.0 ni, 99.9 id,  0.0 wa,  0.0 hi,  0.0 si,  0.0 st
KiB Mem : 16278768 total, 12143372 free,  1369496 used,  2765900 buff/cache
KiB Swap: 16630780 total, 16630780 free,        0 used. 14458940 avail Mem 

  PID USER      PR  NI    VIRT    RES    SHR S  %CPU %MEM     TIME+ COMMAND
22336 kenenth   20   0   41904   3904   3172 R   2.0  0.0   0:00.11 top

top - 22:16:56 up  1:33,  1 user,  load average: 0.11, 0.62, 1.33
Tasks: 288 total,   1 running, 225 sleeping,   0 stopped,   0 zombie
%Cpu(s):  0.1 us,  0.2 sy,  0.0 ni, 99.5 id,  0.0 wa,  0.0 hi,  0.1 si,  0.0 st
KiB Mem : 16278768 total, 12143372 free,  1369496 used,  2765900 buff/cache
KiB Swap: 16630780 total, 16630780 free,        0 used. 14458940 avail Mem 

  PID USER      PR  NI    VIRT    RES    SHR S  %CPU %MEM     TIME+ COMMAND
22336 kenenth   20   0   41904   3904   3172 R   1.0  0.0   0:00.12 top

top - 22:16:57 up  1:33,  1 user,  load average: 0.11, 0.62, 1.33
Tasks: 288 total,   1 running, 225 sleeping,   0 stopped,   0 zombie
%Cpu(s):  0.1 us,  0.2 sy,  0.0 ni, 99.6 id,  0.0 wa,  0.0 hi,  0.0 si,  0.0 st
KiB Mem : 16278768 total, 12143332 free,  1369528 used,  2765908 buff/cache
KiB Swap: 16630780 total, 16630780 free,        0 used. 14458900 avail Mem 

  PID USER      PR  NI    VIRT    RES    SHR S  %CPU %MEM     TIME+ COMMAND
 1780 root      20   0  433932  94760  61668 S   2.0  0.6   1:18.74 Xorg
    8 root      20   0       0      0      0 I   1.0  0.0   0:03.34 rcu_sched
22336 kenenth   20   0   41904   3904   3172 R   1.0  0.0   0:00.13 top

top - 22:16:58 up  1:33,  1 user,  load average: 0.10, 0.61, 1.32
Tasks: 288 total,   1 running, 225 sleeping,   0 stopped,   0 zombie
%Cpu(s):  0.1 us,  0.1 sy,  0.0 ni, 99.8 id,  0.0 wa,  0.0 hi,  0.0 si,  0.0 st
KiB Mem : 16278768 total, 12143332 free,  1369528 used,  2765908 buff/cache
KiB Swap: 16630780 total, 16630780 free,        0 used. 14458900 avail Mem 

  PID USER      PR  NI    VIRT    RES    SHR S  %CPU %MEM     TIME+ COMMAND
22336 kenenth   20   0   41904   3904   3172 R   1.0  0.0   0:00.14 top

top - 22:16:59 up  1:33,  1 user,  load average: 0.10, 0.61, 1.32
Tasks: 288 total,   1 running, 225 sleeping,   0 stopped,   0 zombie
%Cpu(s):  0.0 us,  0.1 sy,  0.0 ni, 99.9 id,  0.0 wa,  0.0 hi,  0.0 si,  0.0 st
KiB Mem : 16278768 total, 12143332 free,  1369528 used,  2765908 buff/cache
KiB Swap: 16630780 total, 16630780 free,        0 used. 14458900 avail Mem 

  PID USER      PR  NI    VIRT    RES    SHR S  %CPU %MEM     TIME+ COMMAND
22336 kenenth   20   0   41904   3904   3172 R   2.0  0.0   0:00.16 top

top - 22:17:00 up  1:33,  1 user,  load average: 0.10, 0.61, 1.32
Tasks: 288 total,   1 running, 225 sleeping,   0 stopped,   0 zombie
%Cpu(s):  0.2 us,  0.4 sy,  0.0 ni, 99.4 id,  0.0 wa,  0.0 hi,  0.0 si,  0.0 st
KiB Mem : 16278768 total, 12143308 free,  1369552 used,  2765908 buff/cache
KiB Swap: 16630780 total, 16630780 free,        0 used. 14458876 avail Mem 

  PID USER      PR  NI    VIRT    RES    SHR S  %CPU %MEM     TIME+ COMMAND
22336 kenenth   20   0   41904   3904   3172 R   2.0  0.0   0:00.18 top
 1780 root      20   0  433932  94760  61668 S   1.0  0.6   1:18.75 Xorg
 1985 kenenth   20   0 3537936 242500  96100 S   1.0  1.5   3:35.58 gnome-shell

top - 22:17:01 up  1:33,  1 user,  load average: 0.10, 0.61, 1.32
Tasks: 291 total,   1 running, 224 sleeping,   0 stopped,   0 zombie
%Cpu(s):  0.6 us,  0.6 sy,  0.0 ni, 98.8 id,  0.0 wa,  0.0 hi,  0.0 si,  0.0 st
KiB Mem : 16278768 total, 12143308 free,  1369552 used,  2765908 buff/cache
KiB Swap: 16630780 total, 16630780 free,        0 used. 14458876 avail Mem 

  PID USER      PR  NI    VIRT    RES    SHR S  %CPU %MEM     TIME+ COMMAND
 1985 kenenth   20   0 3537936 242004  96100 S   2.0  1.5   3:35.60 gnome-shell
    1 root      20   0  227104  10900   6764 S   1.0  0.1   0:54.94 systemd
  320 root      20   0   46624   4912   3172 S   1.0  0.0   0:20.73 systemd-ud+
  997 root      20   0 1090076  30764  18128 S   1.0  0.2   0:11.39 snapd
12495 root      20   0       0      0      0 I   1.0  0.0   0:02.69 kworker/u1+
22336 kenenth   20   0   41904   3904   3172 R   1.0  0.0   0:00.19 top

top - 22:17:02 up  1:33,  1 user,  load average: 0.09, 0.60, 1.32
Tasks: 291 total,   2 running, 224 sleeping,   0 stopped,   0 zombie
%Cpu(s):  0.1 us,  0.2 sy,  0.0 ni, 99.6 id,  0.0 wa,  0.0 hi,  0.0 si,  0.0 st
KiB Mem : 16278768 total, 12143308 free,  1369552 used,  2765908 buff/cache
KiB Swap: 16630780 total, 16630780 free,        0 used. 14458876 avail Mem 

  PID USER      PR  NI    VIRT    RES    SHR S  %CPU %MEM     TIME+ COMMAND
 1129 root      20   0 4971932  40008  25492 S   1.0  0.2   0:25.07 containerd
 1780 root      20   0  433932  94760  61668 S   1.0  0.6   1:18.76 Xorg
22336 kenenth   20   0   41904   3904   3172 R   1.0  0.0   0:00.20 top

top - 22:17:03 up  1:33,  1 user,  load average: 0.09, 0.60, 1.32
Tasks: 291 total,   1 running, 224 sleeping,   0 stopped,   0 zombie
%Cpu(s):  0.0 us,  0.1 sy,  0.0 ni, 99.9 id,  0.0 wa,  0.0 hi,  0.0 si,  0.0 st
KiB Mem : 16278768 total, 12142584 free,  1370248 used,  2765936 buff/cache
KiB Swap: 16630780 total, 16630780 free,        0 used. 14458200 avail Mem 

  PID USER      PR  NI    VIRT    RES    SHR S  %CPU %MEM     TIME+ COMMAND
22336 kenenth   20   0   41904   3904   3172 R   1.0  0.0   0:00.21 top

top - 22:17:04 up  1:33,  1 user,  load average: 0.09, 0.60, 1.32
Tasks: 291 total,   1 running, 224 sleeping,   0 stopped,   0 zombie
%Cpu(s):  0.1 us,  0.2 sy,  0.0 ni, 99.6 id,  0.0 wa,  0.0 hi,  0.0 si,  0.0 st
KiB Mem : 16278768 total, 12142584 free,  1370248 used,  2765936 buff/cache
KiB Swap: 16630780 total, 16630780 free,        0 used. 14458200 avail Mem 

  PID USER      PR  NI    VIRT    RES    SHR S  %CPU %MEM     TIME+ COMMAND
22336 kenenth   20   0   41904   3904   3172 R   2.0  0.0   0:00.23 top

top - 22:17:05 up  1:33,  1 user,  load average: 0.09, 0.60, 1.32
Tasks: 291 total,   1 running, 224 sleeping,   0 stopped,   0 zombie
%Cpu(s):  0.1 us,  0.1 sy,  0.0 ni, 99.8 id,  0.0 wa,  0.0 hi,  0.0 si,  0.0 st
KiB Mem : 16278768 total, 12142584 free,  1370248 used,  2765936 buff/cache
KiB Swap: 16630780 total, 16630780 free,        0 used. 14458200 avail Mem 

  PID USER      PR  NI    VIRT    RES    SHR S  %CPU %MEM     TIME+ COMMAND
22336 kenenth   20   0   41904   3904   3172 R   2.0  0.0   0:00.25 top

top - 22:17:06 up  1:33,  1 user,  load average: 0.09, 0.60, 1.32
Tasks: 291 total,   1 running, 224 sleeping,   0 stopped,   0 zombie
%Cpu(s):  0.0 us,  0.1 sy,  0.0 ni, 99.8 id,  0.1 wa,  0.0 hi,  0.0 si,  0.0 st
KiB Mem : 16278768 total, 12142592 free,  1370240 used,  2765936 buff/cache
KiB Swap: 16630780 total, 16630780 free,        0 used. 14458208 avail Mem 

  PID USER      PR  NI    VIRT    RES    SHR S  %CPU %MEM     TIME+ COMMAND
 1780 root      20   0  433932  94760  61668 S   2.0  0.6   1:18.78 Xorg
22336 kenenth   20   0   41904   3904   3172 R   1.0  0.0   0:00.26 top

top - 22:17:07 up  1:33,  1 user,  load average: 0.09, 0.59, 1.31
Tasks: 291 total,   1 running, 224 sleeping,   0 stopped,   0 zombie
%Cpu(s):  0.0 us,  0.4 sy,  0.0 ni, 99.6 id,  0.0 wa,  0.0 hi,  0.0 si,  0.0 st
KiB Mem : 16278768 total, 12142592 free,  1370240 used,  2765936 buff/cache
KiB Swap: 16630780 total, 16630780 free,        0 used. 14458208 avail Mem 

  PID USER      PR  NI    VIRT    RES    SHR S  %CPU %MEM     TIME+ COMMAND
22336 kenenth   20   0   41904   3904   3172 R   1.0  0.0   0:00.27 top

top - 22:17:08 up  1:33,  1 user,  load average: 0.09, 0.59, 1.31
Tasks: 291 total,   1 running, 224 sleeping,   0 stopped,   0 zombie
%Cpu(s):  0.1 us,  0.4 sy,  0.0 ni, 99.5 id,  0.0 wa,  0.0 hi,  0.0 si,  0.0 st
KiB Mem : 16278768 total, 12142592 free,  1370240 used,  2765936 buff/cache
KiB Swap: 16630780 total, 16630780 free,        0 used. 14458208 avail Mem 

  PID USER      PR  NI    VIRT    RES    SHR S  %CPU %MEM     TIME+ COMMAND
22336 kenenth   20   0   41904   3904   3172 R   1.0  0.0   0:00.28 top

top - 22:17:09 up  1:33,  1 user,  load average: 0.09, 0.59, 1.31
Tasks: 291 total,   1 running, 224 sleeping,   0 stopped,   0 zombie
%Cpu(s):  0.2 us,  0.1 sy,  0.0 ni, 99.6 id,  0.0 wa,  0.0 hi,  0.0 si,  0.0 st
KiB Mem : 16278768 total, 12142560 free,  1370268 used,  2765940 buff/cache
KiB Swap: 16630780 total, 16630780 free,        0 used. 14458176 avail Mem 

  PID USER      PR  NI    VIRT    RES    SHR S  %CPU %MEM     TIME+ COMMAND
22336 kenenth   20   0   41904   3904   3172 R   2.0  0.0   0:00.30 top

top - 22:17:10 up  1:33,  1 user,  load average: 0.09, 0.59, 1.31
Tasks: 291 total,   1 running, 224 sleeping,   0 stopped,   0 zombie
%Cpu(s):  0.1 us,  0.7 sy,  0.0 ni, 99.1 id,  0.0 wa,  0.0 hi,  0.0 si,  0.0 st
KiB Mem : 16278768 total, 12142560 free,  1370268 used,  2765940 buff/cache
KiB Swap: 16630780 total, 16630780 free,        0 used. 14458176 avail Mem 

  PID USER      PR  NI    VIRT    RES    SHR S  %CPU %MEM     TIME+ COMMAND
 1302 gdm       20   0 3332456 121088  66292 S   2.0  0.7   0:55.53 gnome-shell
  972 root      20   0  565280  23956  13716 S   1.0  0.1   0:38.06 NetworkMan+
 1129 root      20   0 4971932  40008  25492 S   1.0  0.2   0:25.08 containerd
 1780 root      20   0  433932  94760  61668 S   1.0  0.6   1:18.79 Xorg
22336 kenenth   20   0   41904   3904   3172 R   1.0  0.0   0:00.31 top

top - 22:17:11 up  1:33,  1 user,  load average: 0.09, 0.59, 1.31
Tasks: 291 total,   1 running, 224 sleeping,   0 stopped,   0 zombie
%Cpu(s):  0.0 us,  0.1 sy,  0.0 ni, 99.9 id,  0.0 wa,  0.0 hi,  0.0 si,  0.0 st
KiB Mem : 16278768 total, 12142560 free,  1370268 used,  2765940 buff/cache
KiB Swap: 16630780 total, 16630780 free,        0 used. 14458176 avail Mem 

  PID USER      PR  NI    VIRT    RES    SHR S  %CPU %MEM     TIME+ COMMAND
22336 kenenth   20   0   41904   3904   3172 R   1.0  0.0   0:00.32 top

top - 22:17:12 up  1:33,  1 user,  load average: 0.08, 0.58, 1.30
Tasks: 291 total,   1 running, 224 sleeping,   0 stopped,   0 zombie
%Cpu(s):  0.0 us,  0.2 sy,  0.0 ni, 99.8 id,  0.0 wa,  0.0 hi,  0.0 si,  0.0 st
KiB Mem : 16278768 total, 12142528 free,  1370292 used,  2765948 buff/cache
KiB Swap: 16630780 total, 16630780 free,        0 used. 14458144 avail Mem 

  PID USER      PR  NI    VIRT    RES    SHR S  %CPU %MEM     TIME+ COMMAND
 1780 root      20   0  433932  94760  61668 S   1.0  0.6   1:18.80 Xorg
22336 kenenth   20   0   41904   3904   3172 R   1.0  0.0   0:00.33 top

top - 22:17:13 up  1:33,  1 user,  load average: 0.08, 0.58, 1.30
Tasks: 291 total,   1 running, 224 sleeping,   0 stopped,   0 zombie
%Cpu(s):  0.1 us,  0.1 sy,  0.0 ni, 99.8 id,  0.0 wa,  0.0 hi,  0.0 si,  0.0 st
KiB Mem : 16278768 total, 12142528 free,  1370292 used,  2765948 buff/cache
KiB Swap: 16630780 total, 16630780 free,        0 used. 14458144 avail Mem 

  PID USER      PR  NI    VIRT    RES    SHR S  %CPU %MEM     TIME+ COMMAND
22336 kenenth   20   0   41904   3904   3172 R   1.0  0.0   0:00.34 top

top - 22:17:14 up  1:33,  1 user,  load average: 0.08, 0.58, 1.30
Tasks: 291 total,   1 running, 224 sleeping,   0 stopped,   0 zombie
%Cpu(s):  0.1 us,  0.1 sy,  0.0 ni, 99.8 id,  0.0 wa,  0.0 hi,  0.0 si,  0.0 st
KiB Mem : 16278768 total, 12142528 free,  1370292 used,  2765948 buff/cache
KiB Swap: 16630780 total, 16630780 free,        0 used. 14458144 avail Mem 

  PID USER      PR  NI    VIRT    RES    SHR S  %CPU %MEM     TIME+ COMMAND
 1780 root      20   0  433932  94760  61668 S   1.0  0.6   1:18.81 Xorg
22336 kenenth   20   0   41904   3904   3172 R   1.0  0.0   0:00.35 top

top - 22:17:15 up  1:33,  1 user,  load average: 0.08, 0.58, 1.30
Tasks: 291 total,   1 running, 224 sleeping,   0 stopped,   0 zombie
%Cpu(s):  0.0 us,  0.1 sy,  0.0 ni, 99.9 id,  0.0 wa,  0.0 hi,  0.0 si,  0.0 st
KiB Mem : 16278768 total, 12142528 free,  1370292 used,  2765948 buff/cache
KiB Swap: 16630780 total, 16630780 free,        0 used. 14458144 avail Mem 

  PID USER      PR  NI    VIRT    RES    SHR S  %CPU %MEM     TIME+ COMMAND
 1129 root      20   0 4971932  40008  25492 S   1.0  0.2   0:25.09 containerd
22336 kenenth   20   0   41904   3904   3172 R   1.0  0.0   0:00.36 top

top - 22:17:16 up  1:33,  1 user,  load average: 0.08, 0.58, 1.30
Tasks: 291 total,   1 running, 224 sleeping,   0 stopped,   0 zombie
%Cpu(s):  0.1 us,  0.2 sy,  0.0 ni, 99.6 id,  0.0 wa,  0.0 hi,  0.0 si,  0.0 st
KiB Mem : 16278768 total, 12142528 free,  1370292 used,  2765948 buff/cache
KiB Swap: 16630780 total, 16630780 free,        0 used. 14458144 avail Mem 

  PID USER      PR  NI    VIRT    RES    SHR S  %CPU %MEM     TIME+ COMMAND
22336 kenenth   20   0   41904   3904   3172 R   2.0  0.0   0:00.38 top
 1780 root      20   0  433932  94760  61668 S   1.0  0.6   1:18.82 Xorg
 1781 root     -51   0       0      0      0 S   1.0  0.0   0:09.31 irq/135-nv+
31816 root      20   0       0      0      0 I   1.0  0.0   0:00.24 kworker/5:2

top - 22:17:17 up  1:33,  1 user,  load average: 0.07, 0.57, 1.30
Tasks: 291 total,   1 running, 224 sleeping,   0 stopped,   0 zombie
%Cpu(s):  0.1 us,  0.2 sy,  0.0 ni, 99.6 id,  0.0 wa,  0.0 hi,  0.0 si,  0.0 st
KiB Mem : 16278768 total, 12142528 free,  1370292 used,  2765948 buff/cache
KiB Swap: 16630780 total, 16630780 free,        0 used. 14458144 avail Mem 

  PID USER      PR  NI    VIRT    RES    SHR S  %CPU %MEM     TIME+ COMMAND
  995 avahi     20   0   48148   4680   3344 S   1.0  0.0   0:05.71 avahi-daem+
22336 kenenth   20   0   41904   3904   3172 R   1.0  0.0   0:00.39 top

top - 22:17:18 up  1:33,  1 user,  load average: 0.07, 0.57, 1.30
Tasks: 291 total,   1 running, 224 sleeping,   0 stopped,   0 zombie
%Cpu(s):  0.1 us,  0.1 sy,  0.0 ni, 99.8 id,  0.0 wa,  0.0 hi,  0.0 si,  0.0 st
KiB Mem : 16278768 total, 12142496 free,  1370312 used,  2765960 buff/cache
KiB Swap: 16630780 total, 16630780 free,        0 used. 14458112 avail Mem 

  PID USER      PR  NI    VIRT    RES    SHR S  %CPU %MEM     TIME+ COMMAND
22336 kenenth   20   0   41904   3904   3172 R   1.0  0.0   0:00.40 top

top - 22:17:19 up  1:33,  1 user,  load average: 0.07, 0.57, 1.30
Tasks: 291 total,   1 running, 224 sleeping,   0 stopped,   0 zombie
%Cpu(s):  0.1 us,  0.4 sy,  0.0 ni, 99.5 id,  0.0 wa,  0.0 hi,  0.0 si,  0.0 st
KiB Mem : 16278768 total, 12142496 free,  1370312 used,  2765960 buff/cache
KiB Swap: 16630780 total, 16630780 free,        0 used. 14458112 avail Mem 

  PID USER      PR  NI    VIRT    RES    SHR S  %CPU %MEM     TIME+ COMMAND
22336 kenenth   20   0   41904   3904   3172 R   2.0  0.0   0:00.42 top
 1780 root      20   0  433932  94760  61668 S   1.0  0.6   1:18.83 Xorg

top - 22:17:20 up  1:33,  1 user,  load average: 0.07, 0.57, 1.30
Tasks: 291 total,   1 running, 224 sleeping,   0 stopped,   0 zombie
%Cpu(s):  0.1 us,  0.0 sy,  0.0 ni, 99.9 id,  0.0 wa,  0.0 hi,  0.0 si,  0.0 st
KiB Mem : 16278768 total, 12142496 free,  1370312 used,  2765960 buff/cache
KiB Swap: 16630780 total, 16630780 free,        0 used. 14458112 avail Mem 

  PID USER      PR  NI    VIRT    RES    SHR S  %CPU %MEM     TIME+ COMMAND
 2354 kernoops  20   0   56936    424      0 S   1.0  0.0   0:00.24 kerneloops
22336 kenenth   20   0   41904   3904   3172 R   1.0  0.0   0:00.43 top

top - 22:17:21 up  1:33,  1 user,  load average: 0.07, 0.57, 1.30
Tasks: 291 total,   1 running, 224 sleeping,   0 stopped,   0 zombie
%Cpu(s):  0.1 us,  0.2 sy,  0.0 ni, 99.6 id,  0.0 wa,  0.0 hi,  0.0 si,  0.0 st
KiB Mem : 16278768 total, 12142620 free,  1370184 used,  2765964 buff/cache
KiB Swap: 16630780 total, 16630780 free,        0 used. 14458236 avail Mem 

  PID USER      PR  NI    VIRT    RES    SHR S  %CPU %MEM     TIME+ COMMAND
 1780 root      20   0  433932  94760  61668 S   1.0  0.6   1:18.84 Xorg
22336 kenenth   20   0   41904   3904   3172 R   1.0  0.0   0:00.44 top

top - 22:17:22 up  1:33,  1 user,  load average: 0.07, 0.56, 1.29
Tasks: 291 total,   1 running, 224 sleeping,   0 stopped,   0 zombie
%Cpu(s):  0.1 us,  0.1 sy,  0.0 ni, 99.8 id,  0.0 wa,  0.0 hi,  0.0 si,  0.0 st
KiB Mem : 16278768 total, 12142620 free,  1370184 used,  2765964 buff/cache
KiB Swap: 16630780 total, 16630780 free,        0 used. 14458236 avail Mem 

  PID USER      PR  NI    VIRT    RES    SHR S  %CPU %MEM     TIME+ COMMAND
  945 root      20   0  269688   5956   5196 S   1.0  0.0   0:01.02 iio-sensor+
22336 kenenth   20   0   41904   3904   3172 R   1.0  0.0   0:00.45 top
22346 kenenth   20   0   22648   2600   2424 S   1.0  0.0   0:00.01 ping
31816 root      20   0       0      0      0 I   1.0  0.0   0:00.25 kworker/5:2

top - 22:17:23 up  1:33,  1 user,  load average: 0.07, 0.56, 1.29
Tasks: 291 total,   1 running, 224 sleeping,   0 stopped,   0 zombie
%Cpu(s):  0.1 us,  0.1 sy,  0.0 ni, 99.8 id,  0.0 wa,  0.0 hi,  0.0 si,  0.0 st
KiB Mem : 16278768 total, 12142620 free,  1370184 used,  2765964 buff/cache
KiB Swap: 16630780 total, 16630780 free,        0 used. 14458236 avail Mem 

  PID USER      PR  NI    VIRT    RES    SHR S  %CPU %MEM     TIME+ COMMAND
 1129 root      20   0 4971932  40008  25492 S   1.0  0.2   0:25.10 containerd
 1780 root      20   0  433932  94760  61668 S   1.0  0.6   1:18.85 Xorg
22336 kenenth   20   0   41904   3904   3172 R   1.0  0.0   0:00.46 top
22340 kenenth   20   0   22648   2436   2264 S   1.0  0.0   0:00.01 ping
22341 kenenth   20   0   22648   2596   2424 S   1.0  0.0   0:00.01 ping

top - 22:17:24 up  1:33,  1 user,  load average: 0.07, 0.56, 1.29
Tasks: 291 total,   1 running, 224 sleeping,   0 stopped,   0 zombie
%Cpu(s):  0.1 us,  0.1 sy,  0.0 ni, 99.8 id,  0.0 wa,  0.0 hi,  0.0 si,  0.0 st
KiB Mem : 16278768 total, 12142580 free,  1370220 used,  2765968 buff/cache
KiB Swap: 16630780 total, 16630780 free,        0 used. 14458196 avail Mem 

  PID USER      PR  NI    VIRT    RES    SHR S  %CPU %MEM     TIME+ COMMAND
22336 kenenth   20   0   41904   3904   3172 R   1.0  0.0   0:00.47 top

top - 22:17:25 up  1:33,  1 user,  load average: 0.07, 0.56, 1.29
Tasks: 291 total,   1 running, 224 sleeping,   0 stopped,   0 zombie
%Cpu(s):  0.1 us,  0.2 sy,  0.0 ni, 99.6 id,  0.0 wa,  0.0 hi,  0.0 si,  0.0 st
KiB Mem : 16278768 total, 12142580 free,  1370220 used,  2765968 buff/cache
KiB Swap: 16630780 total, 16630780 free,        0 used. 14458196 avail Mem 

  PID USER      PR  NI    VIRT    RES    SHR S  %CPU %MEM     TIME+ COMMAND
22336 kenenth   20   0   41904   3904   3172 R   2.0  0.0   0:00.49 top
  950 message+  20   0   51840   6208   3852 S   1.0  0.0   1:08.78 dbus-daemon
  972 root      20   0  565280  23956  13716 S   1.0  0.1   0:38.07 NetworkMan+
22339 kenenth   20   0   22648   2508   2336 S   1.0  0.0   0:00.01 ping

top - 22:17:26 up  1:33,  1 user,  load average: 0.07, 0.56, 1.29
Tasks: 291 total,   1 running, 224 sleeping,   0 stopped,   0 zombie
%Cpu(s):  0.1 us,  0.0 sy,  0.0 ni, 99.8 id,  0.1 wa,  0.0 hi,  0.0 si,  0.0 st
KiB Mem : 16278768 total, 12142580 free,  1370220 used,  2765968 buff/cache
KiB Swap: 16630780 total, 16630780 free,        0 used. 14458196 avail Mem 

  PID USER      PR  NI    VIRT    RES    SHR S  %CPU %MEM     TIME+ COMMAND
 1780 root      20   0  433932  94760  61668 S   1.0  0.6   1:18.86 Xorg
22336 kenenth   20   0   41904   3904   3172 R   1.0  0.0   0:00.50 top

top - 22:17:27 up  1:33,  1 user,  load average: 0.06, 0.55, 1.28
Tasks: 291 total,   1 running, 224 sleeping,   0 stopped,   0 zombie
%Cpu(s):  0.0 us,  0.2 sy,  0.0 ni, 99.8 id,  0.0 wa,  0.0 hi,  0.0 si,  0.0 st
KiB Mem : 16278768 total, 12142580 free,  1370216 used,  2765972 buff/cache
KiB Swap: 16630780 total, 16630780 free,        0 used. 14458196 avail Mem 

  PID USER      PR  NI    VIRT    RES    SHR S  %CPU %MEM     TIME+ COMMAND
22336 kenenth   20   0   41904   3904   3172 R   2.0  0.0   0:00.52 top

top - 22:17:28 up  1:33,  1 user,  load average: 0.06, 0.55, 1.28
Tasks: 291 total,   1 running, 224 sleeping,   0 stopped,   0 zombie
%Cpu(s):  0.1 us,  0.2 sy,  0.0 ni, 99.6 id,  0.0 wa,  0.0 hi,  0.0 si,  0.0 st
KiB Mem : 16278768 total, 12142580 free,  1370216 used,  2765972 buff/cache
KiB Swap: 16630780 total, 16630780 free,        0 used. 14458196 avail Mem 

  PID USER      PR  NI    VIRT    RES    SHR S  %CPU %MEM     TIME+ COMMAND
22336 kenenth   20   0   41904   3904   3172 R   1.0  0.0   0:00.53 top

top - 22:17:29 up  1:33,  1 user,  load average: 0.06, 0.55, 1.28
Tasks: 291 total,   1 running, 224 sleeping,   0 stopped,   0 zombie
%Cpu(s):  0.0 us,  0.2 sy,  0.0 ni, 99.8 id,  0.0 wa,  0.0 hi,  0.0 si,  0.0 st
KiB Mem : 16278768 total, 12142580 free,  1370216 used,  2765972 buff/cache
KiB Swap: 16630780 total, 16630780 free,        0 used. 14458196 avail Mem 

  PID USER      PR  NI    VIRT    RES    SHR S  %CPU %MEM     TIME+ COMMAND
    8 root      20   0       0      0      0 I   1.0  0.0   0:03.35 rcu_sched
 1780 root      20   0  433932  94760  61668 S   1.0  0.6   1:18.87 Xorg
22336 kenenth   20   0   41904   3904   3172 R   1.0  0.0   0:00.54 top

top - 22:17:30 up  1:33,  1 user,  load average: 0.06, 0.55, 1.28
Tasks: 291 total,   1 running, 224 sleeping,   0 stopped,   0 zombie
%Cpu(s):  0.1 us,  0.1 sy,  0.0 ni, 99.8 id,  0.0 wa,  0.0 hi,  0.0 si,  0.0 st
KiB Mem : 16278768 total, 12142596 free,  1370192 used,  2765980 buff/cache
KiB Swap: 16630780 total, 16630780 free,        0 used. 14458212 avail Mem 

  PID USER      PR  NI    VIRT    RES    SHR S  %CPU %MEM     TIME+ COMMAND
 1780 root      20   0  433932  94760  61668 S   1.0  0.6   1:18.88 Xorg
22336 kenenth   20   0   41904   3904   3172 R   1.0  0.0   0:00.55 top

top - 22:17:31 up  1:33,  1 user,  load average: 0.06, 0.55, 1.28
Tasks: 291 total,   1 running, 224 sleeping,   0 stopped,   0 zombie
%Cpu(s):  0.1 us,  0.4 sy,  0.0 ni, 99.5 id,  0.0 wa,  0.0 hi,  0.0 si,  0.0 st
KiB Mem : 16278768 total, 12142596 free,  1370192 used,  2765980 buff/cache
KiB Swap: 16630780 total, 16630780 free,        0 used. 14458212 avail Mem 

  PID USER      PR  NI    VIRT    RES    SHR S  %CPU %MEM     TIME+ COMMAND
 1129 root      20   0 4971932  40008  25492 S   1.0  0.2   0:25.11 containerd
 1780 root      20   0  433932  94760  61668 S   1.0  0.6   1:18.89 Xorg
22336 kenenth   20   0   41904   3904   3172 R   1.0  0.0   0:00.56 top

top - 22:17:32 up  1:33,  1 user,  load average: 0.06, 0.54, 1.27
Tasks: 291 total,   1 running, 224 sleeping,   0 stopped,   0 zombie
%Cpu(s):  0.1 us,  0.1 sy,  0.0 ni, 99.8 id,  0.0 wa,  0.0 hi,  0.0 si,  0.0 st
KiB Mem : 16278768 total, 12142596 free,  1370192 used,  2765980 buff/cache
KiB Swap: 16630780 total, 16630780 free,        0 used. 14458212 avail Mem 

  PID USER      PR  NI    VIRT    RES    SHR S  %CPU %MEM     TIME+ COMMAND
22336 kenenth   20   0   41904   3904   3172 R   1.0  0.0   0:00.57 top

top - 22:17:33 up  1:34,  1 user,  load average: 0.06, 0.54, 1.27
Tasks: 291 total,   1 running, 224 sleeping,   0 stopped,   0 zombie
%Cpu(s):  0.2 us,  0.2 sy,  0.0 ni, 99.5 id,  0.0 wa,  0.0 hi,  0.0 si,  0.0 st
KiB Mem : 16278768 total, 12142596 free,  1370184 used,  2765988 buff/cache
KiB Swap: 16630780 total, 16630780 free,        0 used. 14458212 avail Mem 

  PID USER      PR  NI    VIRT    RES    SHR S  %CPU %MEM     TIME+ COMMAND
22336 kenenth   20   0   41904   3904   3172 R   2.0  0.0   0:00.59 top
 1780 root      20   0  433932  94760  61668 S   1.0  0.6   1:18.90 Xorg

top - 22:17:34 up  1:34,  1 user,  load average: 0.06, 0.54, 1.27
Tasks: 291 total,   1 running, 224 sleeping,   0 stopped,   0 zombie
%Cpu(s):  0.1 us,  0.4 sy,  0.0 ni, 99.5 id,  0.0 wa,  0.0 hi,  0.0 si,  0.0 st
KiB Mem : 16278768 total, 12142596 free,  1370184 used,  2765988 buff/cache
KiB Swap: 16630780 total, 16630780 free,        0 used. 14458212 avail Mem 

  PID USER      PR  NI    VIRT    RES    SHR S  %CPU %MEM     TIME+ COMMAND
 1781 root     -51   0       0      0      0 S   1.0  0.0   0:09.32 irq/135-nv+
22336 kenenth   20   0   41904   3904   3172 R   1.0  0.0   0:00.60 top

top - 22:17:35 up  1:34,  1 user,  load average: 0.06, 0.54, 1.27
Tasks: 291 total,   1 running, 224 sleeping,   0 stopped,   0 zombie
%Cpu(s):  0.2 us,  0.1 sy,  0.0 ni, 99.6 id,  0.0 wa,  0.0 hi,  0.0 si,  0.0 st
KiB Mem : 16278768 total, 12142596 free,  1370184 used,  2765988 buff/cache
KiB Swap: 16630780 total, 16630780 free,        0 used. 14458212 avail Mem 

  PID USER      PR  NI    VIRT    RES    SHR S  %CPU %MEM     TIME+ COMMAND
  945 root      20   0  269688   5956   5196 S   1.0  0.0   0:01.03 iio-sensor+
 1780 root      20   0  433932  94760  61668 S   1.0  0.6   1:18.91 Xorg
22336 kenenth   20   0   41904   3904   3172 R   1.0  0.0   0:00.61 top

top - 22:17:36 up  1:34,  1 user,  load average: 0.06, 0.54, 1.27
Tasks: 291 total,   1 running, 224 sleeping,   0 stopped,   0 zombie
%Cpu(s):  0.1 us,  0.0 sy,  0.0 ni, 99.9 id,  0.0 wa,  0.0 hi,  0.0 si,  0.0 st
KiB Mem : 16278768 total, 12142572 free,  1370196 used,  2766000 buff/cache
KiB Swap: 16630780 total, 16630780 free,        0 used. 14458188 avail Mem 

  PID USER      PR  NI    VIRT    RES    SHR S  %CPU %MEM     TIME+ COMMAND
22336 kenenth   20   0   41904   3904   3172 R   2.0  0.0   0:00.63 top

top - 22:17:37 up  1:34,  1 user,  load average: 0.05, 0.53, 1.27
Tasks: 291 total,   1 running, 224 sleeping,   0 stopped,   0 zombie
%Cpu(s):  0.1 us,  0.2 sy,  0.0 ni, 99.6 id,  0.0 wa,  0.0 hi,  0.0 si,  0.0 st
KiB Mem : 16278768 total, 12142572 free,  1370196 used,  2766000 buff/cache
KiB Swap: 16630780 total, 16630780 free,        0 used. 14458188 avail Mem 

  PID USER      PR  NI    VIRT    RES    SHR S  %CPU %MEM     TIME+ COMMAND
 1780 root      20   0  433932  94760  61668 S   1.0  0.6   1:18.92 Xorg
22336 kenenth   20   0   41904   3904   3172 R   1.0  0.0   0:00.64 top

top - 22:17:38 up  1:34,  1 user,  load average: 0.05, 0.53, 1.27
Tasks: 291 total,   1 running, 224 sleeping,   0 stopped,   0 zombie
%Cpu(s):  0.0 us,  0.2 sy,  0.0 ni, 99.8 id,  0.0 wa,  0.0 hi,  0.0 si,  0.0 st
KiB Mem : 16278768 total, 12142572 free,  1370196 used,  2766000 buff/cache
KiB Swap: 16630780 total, 16630780 free,        0 used. 14458188 avail Mem 

  PID USER      PR  NI    VIRT    RES    SHR S  %CPU %MEM     TIME+ COMMAND
22336 kenenth   20   0   41904   3904   3172 R   1.0  0.0   0:00.65 top

top - 22:17:39 up  1:34,  1 user,  load average: 0.05, 0.53, 1.27
Tasks: 291 total,   1 running, 224 sleeping,   0 stopped,   0 zombie
%Cpu(s):  0.2 us,  0.4 sy,  0.0 ni, 99.4 id,  0.0 wa,  0.0 hi,  0.0 si,  0.0 st
KiB Mem : 16278768 total, 12142540 free,  1370228 used,  2766000 buff/cache
KiB Swap: 16630780 total, 16630780 free,        0 used. 14458188 avail Mem 

  PID USER      PR  NI    VIRT    RES    SHR S  %CPU %MEM     TIME+ COMMAND
22336 kenenth   20   0   41904   3904   3172 R   2.0  0.0   0:00.67 top
 1129 root      20   0 4971932  40008  25492 S   1.0  0.2   0:25.12 containerd
 1514 gdm       20   0  803904  30996  23380 S   1.0  0.2   0:00.70 gsd-color
22348 kenenth   20   0   22648   2512   2336 S   1.0  0.0   0:00.01 ping

top - 22:17:40 up  1:34,  1 user,  load average: 0.05, 0.53, 1.27
Tasks: 291 total,   1 running, 224 sleeping,   0 stopped,   0 zombie
%Cpu(s):  0.1 us,  0.1 sy,  0.0 ni, 99.8 id,  0.0 wa,  0.0 hi,  0.0 si,  0.0 st
KiB Mem : 16278768 total, 12142540 free,  1370228 used,  2766000 buff/cache
KiB Swap: 16630780 total, 16630780 free,        0 used. 14458188 avail Mem 

  PID USER      PR  NI    VIRT    RES    SHR S  %CPU %MEM     TIME+ COMMAND
 1780 root      20   0  433932  94760  61668 S   1.0  0.6   1:18.93 Xorg
22336 kenenth   20   0   41904   3904   3172 R   1.0  0.0   0:00.68 top

top - 22:17:41 up  1:34,  1 user,  load average: 0.05, 0.53, 1.27
Tasks: 291 total,   1 running, 224 sleeping,   0 stopped,   0 zombie
%Cpu(s):  0.2 us,  0.2 sy,  0.0 ni, 99.5 id,  0.0 wa,  0.0 hi,  0.0 si,  0.0 st
KiB Mem : 16278768 total, 12142540 free,  1370228 used,  2766000 buff/cache
KiB Swap: 16630780 total, 16630780 free,        0 used. 14458188 avail Mem 

  PID USER      PR  NI    VIRT    RES    SHR S  %CPU %MEM     TIME+ COMMAND
  980 root      20   0  179856   9644   8836 S   1.0  0.1   0:03.42 thermald
 1985 kenenth   20   0 3537936 242004  96100 S   1.0  1.5   3:35.61 gnome-shell
22336 kenenth   20   0   41904   3904   3172 R   1.0  0.0   0:00.69 top

top - 22:17:42 up  1:34,  1 user,  load average: 0.05, 0.52, 1.26
Tasks: 291 total,   1 running, 224 sleeping,   0 stopped,   0 zombie
%Cpu(s):  0.1 us,  0.0 sy,  0.0 ni, 99.9 id,  0.0 wa,  0.0 hi,  0.0 si,  0.0 st
KiB Mem : 16278768 total, 12142540 free,  1370216 used,  2766012 buff/cache
KiB Swap: 16630780 total, 16630780 free,        0 used. 14458196 avail Mem 

  PID USER      PR  NI    VIRT    RES    SHR S  %CPU %MEM     TIME+ COMMAND
22336 kenenth   20   0   41904   3904   3172 R   2.0  0.0   0:00.71 top
 1780 root      20   0  433932  94760  61668 S   1.0  0.6   1:18.94 Xorg

top - 22:17:43 up  1:34,  1 user,  load average: 0.05, 0.52, 1.26
Tasks: 291 total,   1 running, 224 sleeping,   0 stopped,   0 zombie
%Cpu(s):  0.1 us,  0.2 sy,  0.0 ni, 99.6 id,  0.0 wa,  0.0 hi,  0.0 si,  0.0 st
KiB Mem : 16278768 total, 12142540 free,  1370216 used,  2766012 buff/cache
KiB Swap: 16630780 total, 16630780 free,        0 used. 14458196 avail Mem 

  PID USER      PR  NI    VIRT    RES    SHR S  %CPU %MEM     TIME+ COMMAND
22336 kenenth   20   0   41904   3904   3172 R   1.0  0.0   0:00.72 top

top - 22:17:44 up  1:34,  1 user,  load average: 0.05, 0.52, 1.26
Tasks: 291 total,   1 running, 224 sleeping,   0 stopped,   0 zombie
%Cpu(s):  0.2 us,  0.2 sy,  0.0 ni, 99.5 id,  0.0 wa,  0.0 hi,  0.0 si,  0.0 st
KiB Mem : 16278768 total, 12142540 free,  1370216 used,  2766012 buff/cache
KiB Swap: 16630780 total, 16630780 free,        0 used. 14458196 avail Mem 

  PID USER      PR  NI    VIRT    RES    SHR S  %CPU %MEM     TIME+ COMMAND
  972 root      20   0  565280  23956  13716 S   1.0  0.1   0:38.08 NetworkMan+
 1780 root      20   0  433932  94760  61668 S   1.0  0.6   1:18.95 Xorg
22336 kenenth   20   0   41904   3904   3172 R   1.0  0.0   0:00.73 top

top - 22:17:45 up  1:34,  1 user,  load average: 0.05, 0.52, 1.26
Tasks: 291 total,   1 running, 224 sleeping,   0 stopped,   0 zombie
%Cpu(s):  0.2 us,  0.1 sy,  0.0 ni, 99.6 id,  0.0 wa,  0.0 hi,  0.0 si,  0.0 st
KiB Mem : 16278768 total, 12142500 free,  1370252 used,  2766016 buff/cache
KiB Swap: 16630780 total, 16630780 free,        0 used. 14458156 avail Mem 

  PID USER      PR  NI    VIRT    RES    SHR S  %CPU %MEM     TIME+ COMMAND
 2140 kenenth   20   0  357956   7812   6556 S   1.0  0.0   0:52.65 gsd-housek+
22336 kenenth   20   0   41904   3904   3172 R   1.0  0.0   0:00.74 top

top - 22:17:46 up  1:34,  1 user,  load average: 0.05, 0.52, 1.26
Tasks: 291 total,   2 running, 224 sleeping,   0 stopped,   0 zombie
%Cpu(s):  0.1 us,  0.1 sy,  0.0 ni, 99.6 id,  0.1 wa,  0.0 hi,  0.0 si,  0.0 st
KiB Mem : 16278768 total, 12142500 free,  1370252 used,  2766016 buff/cache
KiB Swap: 16630780 total, 16630780 free,        0 used. 14458156 avail Mem 

  PID USER      PR  NI    VIRT    RES    SHR S  %CPU %MEM     TIME+ COMMAND
22336 kenenth   20   0   41904   3904   3172 R   2.0  0.0   0:00.76 top
  995 avahi     20   0   48148   4680   3344 S   1.0  0.0   0:05.72 avahi-daem+
 1780 root      20   0  433932  94760  61668 S   1.0  0.6   1:18.96 Xorg
 2137 kenenth   20   0  661116  23020  17816 S   1.0  0.1   0:00.67 gsd-color

top - 22:17:47 up  1:34,  1 user,  load average: 0.04, 0.51, 1.25
Tasks: 291 total,   1 running, 224 sleeping,   0 stopped,   0 zombie
%Cpu(s):  0.0 us,  0.2 sy,  0.0 ni, 99.8 id,  0.0 wa,  0.0 hi,  0.0 si,  0.0 st
KiB Mem : 16278768 total, 12142500 free,  1370252 used,  2766016 buff/cache
KiB Swap: 16630780 total, 16630780 free,        0 used. 14458156 avail Mem 

  PID USER      PR  NI    VIRT    RES    SHR S  %CPU %MEM     TIME+ COMMAND
  944 root      20   0  110512   3520   3184 S   1.0  0.0   0:00.95 irqbalance
22336 kenenth   20   0   41904   3904   3172 R   1.0  0.0   0:00.77 top

top - 22:17:48 up  1:34,  1 user,  load average: 0.04, 0.51, 1.25
Tasks: 291 total,   1 running, 224 sleeping,   0 stopped,   0 zombie
%Cpu(s):  0.2 us,  0.1 sy,  0.0 ni, 99.6 id,  0.0 wa,  0.0 hi,  0.0 si,  0.0 st
KiB Mem : 16278768 total, 12142468 free,  1370280 used,  2766020 buff/cache
KiB Swap: 16630780 total, 16630780 free,        0 used. 14458124 avail Mem 

  PID USER      PR  NI    VIRT    RES    SHR S  %CPU %MEM     TIME+ COMMAND
 1129 root      20   0 4971932  40008  25492 S   1.0  0.2   0:25.13 containerd
22336 kenenth   20   0   41904   3904   3172 R   1.0  0.0   0:00.78 top

top - 22:17:49 up  1:34,  1 user,  load average: 0.04, 0.51, 1.25
Tasks: 291 total,   1 running, 224 sleeping,   0 stopped,   0 zombie
%Cpu(s):  0.1 us,  0.1 sy,  0.0 ni, 99.8 id,  0.0 wa,  0.0 hi,  0.0 si,  0.0 st
KiB Mem : 16278768 total, 12142468 free,  1370280 used,  2766020 buff/cache
KiB Swap: 16630780 total, 16630780 free,        0 used. 14458124 avail Mem 

  PID USER      PR  NI    VIRT    RES    SHR S  %CPU %MEM     TIME+ COMMAND
22336 kenenth   20   0   41904   3904   3172 R   2.0  0.0   0:00.80 top
 1780 root      20   0  433932  94760  61668 S   1.0  0.6   1:18.97 Xorg

top - 22:17:50 up  1:34,  1 user,  load average: 0.04, 0.51, 1.25
Tasks: 291 total,   1 running, 224 sleeping,   0 stopped,   0 zombie
%Cpu(s):  0.1 us,  0.1 sy,  0.0 ni, 99.8 id,  0.0 wa,  0.0 hi,  0.0 si,  0.0 st
KiB Mem : 16278768 total, 12142468 free,  1370280 used,  2766020 buff/cache
KiB Swap: 16630780 total, 16630780 free,        0 used. 14458124 avail Mem 

  PID USER      PR  NI    VIRT    RES    SHR S  %CPU %MEM     TIME+ COMMAND
 2332 root      20   0 6051056 103740  38472 S   1.0  0.6   1:19.76 dockerd
22347 kenenth   20   0   22648   2580   2404 S   1.0  0.0   0:00.01 ping

top - 22:17:52 up  1:34,  1 user,  load average: 0.04, 0.51, 1.25
Tasks: 291 total,   1 running, 224 sleeping,   0 stopped,   0 zombie
%Cpu(s):  0.2 us,  0.6 sy,  0.0 ni, 99.1 id,  0.0 wa,  0.0 hi,  0.0 si,  0.0 st
KiB Mem : 16278768 total, 12142436 free,  1370300 used,  2766032 buff/cache
KiB Swap: 16630780 total, 16630780 free,        0 used. 14458092 avail Mem 

  PID USER      PR  NI    VIRT    RES    SHR S  %CPU %MEM     TIME+ COMMAND
22336 kenenth   20   0   41904   3904   3172 R   2.0  0.0   0:00.82 top
 1780 root      20   0  433932  94760  61668 S   1.0  0.6   1:18.98 Xorg
22345 kenenth   20   0   22648   2568   2396 S   1.0  0.0   0:00.01 ping

top - 22:17:53 up  1:34,  1 user,  load average: 0.04, 0.50, 1.25
Tasks: 291 total,   1 running, 224 sleeping,   0 stopped,   0 zombie
%Cpu(s):  0.2 us,  0.4 sy,  0.0 ni, 99.4 id,  0.0 wa,  0.0 hi,  0.0 si,  0.0 st
KiB Mem : 16278768 total, 12142436 free,  1370300 used,  2766032 buff/cache
KiB Swap: 16630780 total, 16630780 free,        0 used. 14458092 avail Mem 

  PID USER      PR  NI    VIRT    RES    SHR S  %CPU %MEM     TIME+ COMMAND
  995 avahi     20   0   48148   4680   3344 S   1.0  0.0   0:05.73 avahi-daem+
22336 kenenth   20   0   41904   3904   3172 R   1.0  0.0   0:00.83 top

top - 22:17:54 up  1:34,  1 user,  load average: 0.04, 0.50, 1.25
Tasks: 291 total,   1 running, 224 sleeping,   0 stopped,   0 zombie
%Cpu(s):  0.2 us,  0.2 sy,  0.0 ni, 99.5 id,  0.0 wa,  0.0 hi,  0.0 si,  0.0 st
KiB Mem : 16278768 total, 12142444 free,  1370288 used,  2766036 buff/cache
KiB Swap: 16630780 total, 16630780 free,        0 used. 14458104 avail Mem 

  PID USER      PR  NI    VIRT    RES    SHR S  %CPU %MEM     TIME+ COMMAND
22336 kenenth   20   0   41904   3904   3172 R   2.0  0.0   0:00.85 top
 1129 root      20   0 4971932  40008  25492 S   1.0  0.2   0:25.14 containerd
 1780 root      20   0  433932  94760  61668 S   1.0  0.6   1:18.99 Xorg

top - 22:17:55 up  1:34,  1 user,  load average: 0.04, 0.50, 1.25
Tasks: 291 total,   1 running, 224 sleeping,   0 stopped,   0 zombie
%Cpu(s):  0.0 us,  0.1 sy,  0.0 ni, 99.9 id,  0.0 wa,  0.0 hi,  0.0 si,  0.0 st
KiB Mem : 16278768 total, 12142444 free,  1370288 used,  2766036 buff/cache
KiB Swap: 16630780 total, 16630780 free,        0 used. 14458104 avail Mem 

  PID USER      PR  NI    VIRT    RES    SHR S  %CPU %MEM     TIME+ COMMAND
22336 kenenth   20   0   41904   3904   3172 R   1.0  0.0   0:00.86 top
22342 kenenth   20   0   22648   2640   2468 S   1.0  0.0   0:00.01 ping

top - 22:17:56 up  1:34,  1 user,  load average: 0.04, 0.50, 1.25
Tasks: 291 total,   1 running, 224 sleeping,   0 stopped,   0 zombie
%Cpu(s):  0.1 us,  0.2 sy,  0.0 ni, 99.6 id,  0.0 wa,  0.0 hi,  0.0 si,  0.0 st
KiB Mem : 16278768 total, 12142444 free,  1370288 used,  2766036 buff/cache
KiB Swap: 16630780 total, 16630780 free,        0 used. 14458104 avail Mem 

  PID USER      PR  NI    VIRT    RES    SHR S  %CPU %MEM     TIME+ COMMAND
 1780 root      20   0  433932  94760  61668 S   1.0  0.6   1:19.00 Xorg
22336 kenenth   20   0   41904   3904   3172 R   1.0  0.0   0:00.87 top

top - 22:17:57 up  1:34,  1 user,  load average: 0.04, 0.50, 1.25
Tasks: 291 total,   1 running, 224 sleeping,   0 stopped,   0 zombie
%Cpu(s):  0.1 us,  0.0 sy,  0.0 ni, 99.9 id,  0.0 wa,  0.0 hi,  0.0 si,  0.0 st
KiB Mem : 16278768 total, 12142404 free,  1370324 used,  2766040 buff/cache
KiB Swap: 16630780 total, 16630780 free,        0 used. 14458064 avail Mem 

  PID USER      PR  NI    VIRT    RES    SHR S  %CPU %MEM     TIME+ COMMAND
22336 kenenth   20   0   41904   3904   3172 R   1.0  0.0   0:00.88 top

top - 22:17:58 up  1:34,  1 user,  load average: 0.04, 0.49, 1.24
Tasks: 291 total,   1 running, 224 sleeping,   0 stopped,   0 zombie
%Cpu(s):  0.0 us,  0.2 sy,  0.0 ni, 99.8 id,  0.0 wa,  0.0 hi,  0.0 si,  0.0 st
KiB Mem : 16278768 total, 12142404 free,  1370324 used,  2766040 buff/cache
KiB Swap: 16630780 total, 16630780 free,        0 used. 14458064 avail Mem 

  PID USER      PR  NI    VIRT    RES    SHR S  %CPU %MEM     TIME+ COMMAND
  995 avahi     20   0   48148   4680   3344 S   2.0  0.0   0:05.75 avahi-daem+
22336 kenenth   20   0   41904   3904   3172 R   2.0  0.0   0:00.90 top
 1780 root      20   0  433932  94760  61668 S   1.0  0.6   1:19.01 Xorg
22343 kenenth   20   0   22648   2516   2340 S   1.0  0.0   0:00.01 ping

top - 22:17:59 up  1:34,  1 user,  load average: 0.04, 0.49, 1.24
Tasks: 291 total,   1 running, 224 sleeping,   0 stopped,   0 zombie
%Cpu(s):  0.2 us,  0.1 sy,  0.0 ni, 99.6 id,  0.0 wa,  0.0 hi,  0.0 si,  0.0 st
KiB Mem : 16278768 total, 12142404 free,  1370324 used,  2766040 buff/cache
KiB Swap: 16630780 total, 16630780 free,        0 used. 14458064 avail Mem 

  PID USER      PR  NI    VIRT    RES    SHR S  %CPU %MEM     TIME+ COMMAND
    8 root      20   0       0      0      0 I   1.0  0.0   0:03.36 rcu_sched
 2332 root      20   0 6051056 103740  38472 S   1.0  0.6   1:19.77 dockerd
22336 kenenth   20   0   41904   3904   3172 R   1.0  0.0   0:00.91 top

top - 22:18:00 up  1:34,  1 user,  load average: 0.04, 0.49, 1.24
Tasks: 291 total,   1 running, 224 sleeping,   0 stopped,   0 zombie
%Cpu(s):  0.2 us,  0.2 sy,  0.0 ni, 99.5 id,  0.0 wa,  0.0 hi,  0.0 si,  0.0 st
KiB Mem : 16278768 total, 12142340 free,  1370384 used,  2766044 buff/cache
KiB Swap: 16630780 total, 16630780 free,        0 used. 14458000 avail Mem 

  PID USER      PR  NI    VIRT    RES    SHR S  %CPU %MEM     TIME+ COMMAND
22336 kenenth   20   0   41904   3904   3172 R   2.0  0.0   0:00.93 top
 1302 gdm       20   0 3332456 121088  66292 S   1.0  0.7   0:55.54 gnome-shell
 1985 kenenth   20   0 3537936 242004  96100 S   1.0  1.5   3:35.62 gnome-shell

top - 22:18:01 up  1:34,  1 user,  load average: 0.04, 0.49, 1.24
Tasks: 291 total,   1 running, 224 sleeping,   0 stopped,   0 zombie
%Cpu(s):  0.2 us,  0.1 sy,  0.0 ni, 99.6 id,  0.0 wa,  0.0 hi,  0.0 si,  0.0 st
KiB Mem : 16278768 total, 12142340 free,  1370384 used,  2766044 buff/cache
KiB Swap: 16630780 total, 16630780 free,        0 used. 14458000 avail Mem 

  PID USER      PR  NI    VIRT    RES    SHR S  %CPU %MEM     TIME+ COMMAND
22336 kenenth   20   0   41904   3904   3172 R   2.0  0.0   0:00.95 top
 1780 root      20   0  433932  94760  61668 S   1.0  0.6   1:19.02 Xorg

top - 22:18:02 up  1:34,  1 user,  load average: 0.04, 0.49, 1.24
Tasks: 291 total,   1 running, 224 sleeping,   0 stopped,   0 zombie
%Cpu(s):  0.1 us,  0.2 sy,  0.0 ni, 99.6 id,  0.0 wa,  0.0 hi,  0.0 si,  0.0 st
KiB Mem : 16278768 total, 12142340 free,  1370384 used,  2766044 buff/cache
KiB Swap: 16630780 total, 16630780 free,        0 used. 14458000 avail Mem 

  PID USER      PR  NI    VIRT    RES    SHR S  %CPU %MEM     TIME+ COMMAND
  972 root      20   0  565280  23956  13716 S   1.0  0.1   0:38.09 NetworkMan+
  995 avahi     20   0   48148   4680   3344 S   1.0  0.0   0:05.76 avahi-daem+
22336 kenenth   20   0   41904   3904   3172 R   1.0  0.0   0:00.96 top

top - 22:18:03 up  1:34,  1 user,  load average: 0.03, 0.49, 1.23
Tasks: 291 total,   1 running, 224 sleeping,   0 stopped,   0 zombie
%Cpu(s):  0.1 us,  0.1 sy,  0.0 ni, 99.8 id,  0.0 wa,  0.0 hi,  0.0 si,  0.0 st
KiB Mem : 16278768 total, 12142308 free,  1370408 used,  2766052 buff/cache
KiB Swap: 16630780 total, 16630780 free,        0 used. 14457968 avail Mem 

  PID USER      PR  NI    VIRT    RES    SHR S  %CPU %MEM     TIME+ COMMAND
 1780 root      20   0  433932  94760  61668 S   1.0  0.6   1:19.03 Xorg
22336 kenenth   20   0   41904   3904   3172 R   1.0  0.0   0:00.97 top

top - 22:18:04 up  1:34,  1 user,  load average: 0.03, 0.49, 1.23
Tasks: 291 total,   1 running, 224 sleeping,   0 stopped,   0 zombie
%Cpu(s):  0.2 us,  0.2 sy,  0.0 ni, 99.5 id,  0.0 wa,  0.0 hi,  0.0 si,  0.0 st
KiB Mem : 16278768 total, 12142308 free,  1370408 used,  2766052 buff/cache
KiB Swap: 16630780 total, 16630780 free,        0 used. 14457968 avail Mem 

  PID USER      PR  NI    VIRT    RES    SHR S  %CPU %MEM     TIME+ COMMAND
 1129 root      20   0 4971932  40008  25492 S   1.0  0.2   0:25.15 containerd
 1781 root     -51   0       0      0      0 S   1.0  0.0   0:09.33 irq/135-nv+
22336 kenenth   20   0   41904   3904   3172 R   1.0  0.0   0:00.98 top

top - 22:18:05 up  1:34,  1 user,  load average: 0.03, 0.49, 1.23
Tasks: 291 total,   1 running, 224 sleeping,   0 stopped,   0 zombie
%Cpu(s):  0.0 us,  0.1 sy,  0.0 ni, 99.9 id,  0.0 wa,  0.0 hi,  0.0 si,  0.0 st
KiB Mem : 16278768 total, 12142308 free,  1370408 used,  2766052 buff/cache
KiB Swap: 16630780 total, 16630780 free,        0 used. 14457968 avail Mem 

  PID USER      PR  NI    VIRT    RES    SHR S  %CPU %MEM     TIME+ COMMAND
22336 kenenth   20   0   41904   3904   3172 R   2.0  0.0   0:01.00 top
 1780 root      20   0  433932  94760  61668 S   1.0  0.6   1:19.04 Xorg

top - 22:18:06 up  1:34,  1 user,  load average: 0.03, 0.49, 1.23
Tasks: 291 total,   1 running, 224 sleeping,   0 stopped,   0 zombie
%Cpu(s):  0.1 us,  0.1 sy,  0.0 ni, 99.6 id,  0.1 wa,  0.0 hi,  0.0 si,  0.0 st
KiB Mem : 16278768 total, 12142308 free,  1370404 used,  2766056 buff/cache
KiB Swap: 16630780 total, 16630780 free,        0 used. 14457968 avail Mem 

  PID USER      PR  NI    VIRT    RES    SHR S  %CPU %MEM     TIME+ COMMAND
 1780 root      20   0  433932  94760  61668 S   1.0  0.6   1:19.05 Xorg
22336 kenenth   20   0   41904   3904   3172 R   1.0  0.0   0:01.01 top

top - 22:18:07 up  1:34,  1 user,  load average: 0.03, 0.49, 1.23
Tasks: 290 total,   1 running, 224 sleeping,   0 stopped,   0 zombie
%Cpu(s):  0.0 us,  0.1 sy,  0.0 ni, 99.9 id,  0.0 wa,  0.0 hi,  0.0 si,  0.0 st
KiB Mem : 16278768 total, 12142308 free,  1370404 used,  2766056 buff/cache
KiB Swap: 16630780 total, 16630780 free,        0 used. 14457968 avail Mem 

  PID USER      PR  NI    VIRT    RES    SHR S  %CPU %MEM     TIME+ COMMAND
22336 kenenth   20   0   41904   3904   3172 R   1.0  0.0   0:01.02 top

top - 22:18:08 up  1:34,  1 user,  load average: 0.03, 0.48, 1.22
Tasks: 290 total,   1 running, 224 sleeping,   0 stopped,   0 zombie
%Cpu(s):  0.2 us,  0.2 sy,  0.0 ni, 99.5 id,  0.0 wa,  0.0 hi,  0.0 si,  0.0 st
KiB Mem : 16278768 total, 12142308 free,  1370404 used,  2766056 buff/cache
KiB Swap: 16630780 total, 16630780 free,        0 used. 14457968 avail Mem 

  PID USER      PR  NI    VIRT    RES    SHR S  %CPU %MEM     TIME+ COMMAND
 1985 kenenth   20   0 3537936 241732  96100 S   2.0  1.5   3:35.64 gnome-shell
22336 kenenth   20   0   41904   3904   3172 R   1.0  0.0   0:01.03 top

top - 22:18:09 up  1:34,  1 user,  load average: 0.03, 0.48, 1.22
Tasks: 290 total,   1 running, 224 sleeping,   0 stopped,   0 zombie
%Cpu(s):  0.0 us,  0.2 sy,  0.0 ni, 99.8 id,  0.0 wa,  0.0 hi,  0.0 si,  0.0 st
KiB Mem : 16278768 total, 12142524 free,  1370184 used,  2766060 buff/cache
KiB Swap: 16630780 total, 16630780 free,        0 used. 14458204 avail Mem 

  PID USER      PR  NI    VIRT    RES    SHR S  %CPU %MEM     TIME+ COMMAND
22336 kenenth   20   0   41904   3904   3172 R   2.0  0.0   0:01.05 top
 1780 root      20   0  433932  94760  61668 S   1.0  0.6   1:19.06 Xorg
22341 kenenth   20   0   22648   2596   2424 S   1.0  0.0   0:00.02 ping

top - 22:18:10 up  1:34,  1 user,  load average: 0.03, 0.48, 1.22
Tasks: 290 total,   1 running, 224 sleeping,   0 stopped,   0 zombie
%Cpu(s):  0.2 us,  0.7 sy,  0.0 ni, 99.0 id,  0.0 wa,  0.0 hi,  0.0 si,  0.0 st
KiB Mem : 16278768 total, 12142524 free,  1370184 used,  2766060 buff/cache
KiB Swap: 16630780 total, 16630780 free,        0 used. 14458204 avail Mem 

  PID USER      PR  NI    VIRT    RES    SHR S  %CPU %MEM     TIME+ COMMAND
 1129 root      20   0 4971932  40008  25492 S   1.0  0.2   0:25.16 containerd
 1780 root      20   0  433932  94760  61668 S   1.0  0.6   1:19.07 Xorg
22336 kenenth   20   0   41904   3904   3172 R   1.0  0.0   0:01.06 top
22344 kenenth   20   0   22648   2500   2324 S   1.0  0.0   0:00.01 ping

top - 22:18:11 up  1:34,  1 user,  load average: 0.03, 0.48, 1.22
Tasks: 290 total,   1 running, 224 sleeping,   0 stopped,   0 zombie
%Cpu(s):  0.1 us,  0.1 sy,  0.0 ni, 99.8 id,  0.0 wa,  0.0 hi,  0.0 si,  0.0 st
KiB Mem : 16278768 total, 12142524 free,  1370184 used,  2766060 buff/cache
KiB Swap: 16630780 total, 16630780 free,        0 used. 14458204 avail Mem 

  PID USER      PR  NI    VIRT    RES    SHR S  %CPU %MEM     TIME+ COMMAND
 1302 gdm       20   0 3332456 121088  66292 S   1.0  0.7   0:55.55 gnome-shell
22336 kenenth   20   0   41904   3904   3172 R   1.0  0.0   0:01.07 top

top - 22:18:12 up  1:34,  1 user,  load average: 0.03, 0.48, 1.22
Tasks: 290 total,   1 running, 224 sleeping,   0 stopped,   0 zombie
%Cpu(s):  0.1 us,  0.1 sy,  0.0 ni, 99.8 id,  0.0 wa,  0.0 hi,  0.0 si,  0.0 st
KiB Mem : 16278768 total, 12142492 free,  1370212 used,  2766064 buff/cache
KiB Swap: 16630780 total, 16630780 free,        0 used. 14458172 avail Mem 

  PID USER      PR  NI    VIRT    RES    SHR S  %CPU %MEM     TIME+ COMMAND
22336 kenenth   20   0   41904   3904   3172 R   2.0  0.0   0:01.09 top
 1780 root      20   0  433932  94760  61668 S   1.0  0.6   1:19.08 Xorg
22346 kenenth   20   0   22648   2600   2424 S   1.0  0.0   0:00.02 ping

top - 22:18:13 up  1:34,  1 user,  load average: 0.03, 0.47, 1.22
Tasks: 290 total,   1 running, 224 sleeping,   0 stopped,   0 zombie
%Cpu(s):  0.2 us,  0.1 sy,  0.0 ni, 99.6 id,  0.0 wa,  0.0 hi,  0.0 si,  0.0 st
KiB Mem : 16278768 total, 12142492 free,  1370212 used,  2766064 buff/cache
KiB Swap: 16630780 total, 16630780 free,        0 used. 14458172 avail Mem 

  PID USER      PR  NI    VIRT    RES    SHR S  %CPU %MEM     TIME+ COMMAND
22336 kenenth   20   0   41904   3904   3172 R   1.0  0.0   0:01.10 top

top - 22:18:14 up  1:34,  1 user,  load average: 0.03, 0.47, 1.22
Tasks: 290 total,   1 running, 224 sleeping,   0 stopped,   0 zombie
%Cpu(s):  0.1 us,  0.1 sy,  0.0 ni, 99.8 id,  0.0 wa,  0.0 hi,  0.0 si,  0.0 st
KiB Mem : 16278768 total, 12142492 free,  1370212 used,  2766064 buff/cache
KiB Swap: 16630780 total, 16630780 free,        0 used. 14458172 avail Mem 

  PID USER      PR  NI    VIRT    RES    SHR S  %CPU %MEM     TIME+ COMMAND
22336 kenenth   20   0   41904   3904   3172 R   2.0  0.0   0:01.12 top
 1780 root      20   0  433932  94760  61668 S   1.0  0.6   1:19.09 Xorg

top - 22:18:15 up  1:34,  1 user,  load average: 0.03, 0.47, 1.22
Tasks: 290 total,   1 running, 224 sleeping,   0 stopped,   0 zombie
%Cpu(s):  0.1 us,  0.2 sy,  0.0 ni, 99.6 id,  0.0 wa,  0.0 hi,  0.0 si,  0.0 st
KiB Mem : 16278768 total, 12142492 free,  1370208 used,  2766068 buff/cache
KiB Swap: 16630780 total, 16630780 free,        0 used. 14458176 avail Mem 

  PID USER      PR  NI    VIRT    RES    SHR S  %CPU %MEM     TIME+ COMMAND
22336 kenenth   20   0   41904   3904   3172 R   1.0  0.0   0:01.13 top
22339 kenenth   20   0   22648   2508   2336 S   1.0  0.0   0:00.02 ping

top - 22:18:16 up  1:34,  1 user,  load average: 0.03, 0.47, 1.22
Tasks: 290 total,   1 running, 224 sleeping,   0 stopped,   0 zombie
%Cpu(s):  0.2 us,  0.0 sy,  0.0 ni, 99.8 id,  0.0 wa,  0.0 hi,  0.0 si,  0.0 st
KiB Mem : 16278768 total, 12142492 free,  1370208 used,  2766068 buff/cache
KiB Swap: 16630780 total, 16630780 free,        0 used. 14458176 avail Mem 

  PID USER      PR  NI    VIRT    RES    SHR S  %CPU %MEM     TIME+ COMMAND
  703 systemd+  20   0   70748   5204   4648 S   1.0  0.0   0:03.43 systemd-re+
22336 kenenth   20   0   41904   3904   3172 R   1.0  0.0   0:01.14 top

top - 22:18:17 up  1:34,  1 user,  load average: 0.02, 0.46, 1.21
Tasks: 290 total,   1 running, 224 sleeping,   0 stopped,   0 zombie
%Cpu(s):  0.1 us,  0.1 sy,  0.0 ni, 99.8 id,  0.0 wa,  0.0 hi,  0.0 si,  0.0 st
KiB Mem : 16278768 total, 12142492 free,  1370208 used,  2766068 buff/cache
KiB Swap: 16630780 total, 16630780 free,        0 used. 14458176 avail Mem 

  PID USER      PR  NI    VIRT    RES    SHR S  %CPU %MEM     TIME+ COMMAND
 1780 root      20   0  433932  94760  61668 S   1.0  0.6   1:19.10 Xorg
22336 kenenth   20   0   41904   3904   3172 R   1.0  0.0   0:01.15 top

top - 22:18:18 up  1:34,  1 user,  load average: 0.02, 0.46, 1.21
Tasks: 290 total,   1 running, 224 sleeping,   0 stopped,   0 zombie
%Cpu(s):  0.0 us,  0.4 sy,  0.0 ni, 99.6 id,  0.0 wa,  0.0 hi,  0.0 si,  0.0 st
KiB Mem : 16278768 total, 12142460 free,  1370232 used,  2766076 buff/cache
KiB Swap: 16630780 total, 16630780 free,        0 used. 14458144 avail Mem 

  PID USER      PR  NI    VIRT    RES    SHR S  %CPU %MEM     TIME+ COMMAND
  995 avahi     20   0   48148   4680   3344 S   1.0  0.0   0:05.77 avahi-daem+
22336 kenenth   20   0   41904   3904   3172 R   1.0  0.0   0:01.16 top

top - 22:18:19 up  1:34,  1 user,  load average: 0.02, 0.46, 1.21
Tasks: 290 total,   1 running, 224 sleeping,   0 stopped,   0 zombie
%Cpu(s):  0.0 us,  0.2 sy,  0.0 ni, 99.8 id,  0.0 wa,  0.0 hi,  0.0 si,  0.0 st
KiB Mem : 16278768 total, 12142460 free,  1370232 used,  2766076 buff/cache
KiB Swap: 16630780 total, 16630780 free,        0 used. 14458144 avail Mem 

  PID USER      PR  NI    VIRT    RES    SHR S  %CPU %MEM     TIME+ COMMAND
 1780 root      20   0  433932  94760  61668 S   1.0  0.6   1:19.11 Xorg
22336 kenenth   20   0   41904   3904   3172 R   1.0  0.0   0:01.17 top

top - 22:18:20 up  1:34,  1 user,  load average: 0.02, 0.46, 1.21
Tasks: 290 total,   1 running, 224 sleeping,   0 stopped,   0 zombie
%Cpu(s):  0.1 us,  0.2 sy,  0.0 ni, 99.6 id,  0.0 wa,  0.0 hi,  0.0 si,  0.0 st
KiB Mem : 16278768 total, 12142460 free,  1370232 used,  2766076 buff/cache
KiB Swap: 16630780 total, 16630780 free,        0 used. 14458144 avail Mem 

  PID USER      PR  NI    VIRT    RES    SHR S  %CPU %MEM     TIME+ COMMAND
22336 kenenth   20   0   41904   3904   3172 R   2.0  0.0   0:01.19 top

top - 22:18:21 up  1:34,  1 user,  load average: 0.02, 0.46, 1.21
Tasks: 290 total,   1 running, 224 sleeping,   0 stopped,   0 zombie
%Cpu(s):  0.0 us,  0.1 sy,  0.0 ni, 99.8 id,  0.0 wa,  0.0 hi,  0.1 si,  0.0 st
KiB Mem : 16278768 total, 12142460 free,  1370232 used,  2766076 buff/cache
KiB Swap: 16630780 total, 16630780 free,        0 used. 14458144 avail Mem 

  PID USER      PR  NI    VIRT    RES    SHR S  %CPU %MEM     TIME+ COMMAND
22336 kenenth   20   0   41904   3904   3172 R   2.0  0.0   0:01.21 top
 1780 root      20   0  433932  94760  61668 S   1.0  0.6   1:19.12 Xorg
31816 root      20   0       0      0      0 I   1.0  0.0   0:00.26 kworker/5:2

top - 22:18:22 up  1:34,  1 user,  load average: 0.02, 0.45, 1.20
Tasks: 290 total,   1 running, 224 sleeping,   0 stopped,   0 zombie
%Cpu(s):  0.1 us,  0.2 sy,  0.0 ni, 99.6 id,  0.0 wa,  0.0 hi,  0.0 si,  0.0 st
KiB Mem : 16278768 total, 12142460 free,  1370232 used,  2766076 buff/cache
KiB Swap: 16630780 total, 16630780 free,        0 used. 14458144 avail Mem 

  PID USER      PR  NI    VIRT    RES    SHR S  %CPU %MEM     TIME+ COMMAND
 2098 kenenth   20   0  448048  13152   8100 S   1.0  0.1   0:22.74 gsd-sharing
22336 kenenth   20   0   41904   3904   3172 R   1.0  0.0   0:01.22 top

top - 22:18:23 up  1:34,  1 user,  load average: 0.02, 0.45, 1.20
Tasks: 290 total,   1 running, 224 sleeping,   0 stopped,   0 zombie
%Cpu(s):  0.0 us,  0.1 sy,  0.0 ni, 99.9 id,  0.0 wa,  0.0 hi,  0.0 si,  0.0 st
KiB Mem : 16278768 total, 12142460 free,  1370232 used,  2766076 buff/cache
KiB Swap: 16630780 total, 16630780 free,        0 used. 14458144 avail Mem 

  PID USER      PR  NI    VIRT    RES    SHR S  %CPU %MEM     TIME+ COMMAND
 1129 root      20   0 4971932  40008  25492 S   1.0  0.2   0:25.17 containerd
 1780 root      20   0  433932  94760  61668 S   1.0  0.6   1:19.13 Xorg
22336 kenenth   20   0   41904   3904   3172 R   1.0  0.0   0:01.23 top

top - 22:18:24 up  1:34,  1 user,  load average: 0.02, 0.45, 1.20
Tasks: 290 total,   1 running, 224 sleeping,   0 stopped,   0 zombie
%Cpu(s):  0.0 us,  0.1 sy,  0.0 ni, 99.9 id,  0.0 wa,  0.0 hi,  0.0 si,  0.0 st
KiB Mem : 16278768 total, 12142460 free,  1370224 used,  2766084 buff/cache
KiB Swap: 16630780 total, 16630780 free,        0 used. 14458144 avail Mem 

  PID USER      PR  NI    VIRT    RES    SHR S  %CPU %MEM     TIME+ COMMAND
22336 kenenth   20   0   41904   3904   3172 R   1.0  0.0   0:01.24 top

top - 22:18:25 up  1:34,  1 user,  load average: 0.02, 0.45, 1.20
Tasks: 290 total,   1 running, 224 sleeping,   0 stopped,   0 zombie
%Cpu(s):  0.1 us,  0.2 sy,  0.0 ni, 99.6 id,  0.0 wa,  0.0 hi,  0.0 si,  0.0 st
KiB Mem : 16278768 total, 12142460 free,  1370224 used,  2766084 buff/cache
KiB Swap: 16630780 total, 16630780 free,        0 used. 14458144 avail Mem 

  PID USER      PR  NI    VIRT    RES    SHR S  %CPU %MEM     TIME+ COMMAND
22336 kenenth   20   0   41904   3904   3172 R   1.0  0.0   0:01.25 top

top - 22:18:26 up  1:34,  1 user,  load average: 0.02, 0.45, 1.20
Tasks: 290 total,   1 running, 224 sleeping,   0 stopped,   0 zombie
%Cpu(s):  0.0 us,  0.2 sy,  0.0 ni, 99.6 id,  0.1 wa,  0.0 hi,  0.0 si,  0.0 st
KiB Mem : 16278768 total, 12142460 free,  1370224 used,  2766084 buff/cache
KiB Swap: 16630780 total, 16630780 free,        0 used. 14458144 avail Mem 

  PID USER      PR  NI    VIRT    RES    SHR S  %CPU %MEM     TIME+ COMMAND
22336 kenenth   20   0   41904   3904   3172 R   2.0  0.0   0:01.27 top
 1129 root      20   0 4971932  40008  25492 S   1.0  0.2   0:25.18 containerd
 2350 kernoops  20   0   56936    424      0 S   1.0  0.0   0:00.25 kerneloops
22348 kenenth   20   0   22648   2512   2336 S   1.0  0.0   0:00.02 ping