     1	319 
     2	319 
     3	319 
     4	319 
     5	319 
     6	319 
     7	319 
     8	319 
     9	319 
    10	319 
    11	319 
    12	319 
    13	319 
    14	319 
    15	319 
    16	319 
    17	319 
    18	319 
    19	319 
    20	319 
    21	319 
    22	319 
    23	319 
    24	319 
