10 packets transmitted, 8 received, 20% packet loss, time 9051ms
10 packets transmitted, 9 received, 10% packet loss, time 9049ms
10 packets transmitted, 8 received, 20% packet loss, time 9057ms
10 packets transmitted, 3 received, 70% packet loss, time 9149ms
10 packets transmitted, 1 received, 90% packet loss, time 9179ms
10 packets transmitted, 1 received, 90% packet loss, time 9180ms
10 packets transmitted, 1 received, 90% packet loss, time 9177ms
10 packets transmitted, 2 received, 80% packet loss, time 9179ms
10 packets transmitted, 1 received, 90% packet loss, time 9176ms
10 packets transmitted, 1 received, 90% packet loss, time 9181ms
10 packets transmitted, 1 received, 90% packet loss, time 9174ms
10 packets transmitted, 1 received, 90% packet loss, time 9177ms
10 packets transmitted, 1 received, 90% packet loss, time 9182ms
10 packets transmitted, 1 received, 90% packet loss, time 9177ms
10 packets transmitted, 1 received, 90% packet loss, time 9179ms
10 packets transmitted, 2 received, 80% packet loss, time 9182ms
10 packets transmitted, 3 received, 70% packet loss, time 9183ms
10 packets transmitted, 1 received, 90% packet loss, time 9182ms
10 packets transmitted, 1 received, 90% packet loss, time 9207ms
10 packets transmitted, 1 received, 90% packet loss, time 9215ms
10 packets transmitted, 1 received, 90% packet loss, time 9215ms
10 packets transmitted, 1 received, 90% packet loss, time 9207ms
10 packets transmitted, 1 received, 90% packet loss, time 9215ms
10 packets transmitted, 1 received, 90% packet loss, time 9215ms
10 packets transmitted, 1 received, 90% packet loss, time 9216ms
10 packets transmitted, 1 received, 90% packet loss, time 9170ms
10 packets transmitted, 0 received, 100% packet loss, time 9178ms
10 packets transmitted, 0 received, 100% packet loss, time 9177ms
10 packets transmitted, 0 received, 100% packet loss, time 9181ms
10 packets transmitted, 0 received, 100% packet loss, time 9175ms
10 packets transmitted, 0 received, 100% packet loss, time 9174ms
10 packets transmitted, 0 received, 100% packet loss, time 9170ms
10 packets transmitted, 0 received, 100% packet loss, time 9173ms
10 packets transmitted, 0 received, 100% packet loss, time 9179ms
10 packets transmitted, 0 received, 100% packet loss, time 9182ms
10 packets transmitted, 0 received, 100% packet loss, time 9181ms
10 packets transmitted, 0 received, 100% packet loss, time 9181ms
10 packets transmitted, 0 received, 100% packet loss, time 9169ms
10 packets transmitted, 0 received, 100% packet loss, time 9178ms
10 packets transmitted, 0 received, 100% packet loss, time 9177ms
10 packets transmitted, 0 received, 100% packet loss, time 9180ms
10 packets transmitted, 0 received, 100% packet loss, time 9181ms
10 packets transmitted, 0 received, 100% packet loss, time 9176ms
10 packets transmitted, 1 received, 90% packet loss, time 9171ms
10 packets transmitted, 0 received, 100% packet loss, time 9175ms
10 packets transmitted, 0 received, 100% packet loss, time 9174ms
10 packets transmitted, 0 received, 100% packet loss, time 9178ms
10 packets transmitted, 0 received, 100% packet loss, time 9177ms
10 packets transmitted, 0 received, 100% packet loss, time 9172ms
10 packets transmitted, 0 received, 100% packet loss, time 9179ms
10 packets transmitted, 0 received, 100% packet loss, time 9177ms
10 packets transmitted, 0 received, 100% packet loss, time 9170ms
10 packets transmitted, 0 received, 100% packet loss, time 9180ms
10 packets transmitted, 0 received, 100% packet loss, time 9170ms
10 packets transmitted, 0 received, 100% packet loss, time 9171ms
10 packets transmitted, 0 received, 100% packet loss, time 9178ms
10 packets transmitted, 0 received, 100% packet loss, time 9182ms
10 packets transmitted, 0 received, 100% packet loss, time 9175ms
10 packets transmitted, 0 received, 100% packet loss, time 9174ms
10 packets transmitted, 0 received, 100% packet loss, time 9181ms
10 packets transmitted, 0 received, 100% packet loss, time 9181ms
10 packets transmitted, 0 received, 100% packet loss, time 9179ms
10 packets transmitted, 0 received, 100% packet loss, time 9201ms
10 packets transmitted, 0 received, 100% packet loss, time 9204ms
10 packets transmitted, 0 received, 100% packet loss, time 9208ms
10 packets transmitted, 0 received, 100% packet loss, time 9202ms
10 packets transmitted, 0 received, 100% packet loss, time 9207ms
10 packets transmitted, 0 received, 100% packet loss, time 9208ms
10 packets transmitted, 0 received, 100% packet loss, time 9206ms
10 packets transmitted, 0 received, 100% packet loss, time 9204ms
10 packets transmitted, 0 received, 100% packet loss, time 9205ms
10 packets transmitted, 0 received, 100% packet loss, time 9205ms
10 packets transmitted, 0 received, 100% packet loss, time 9210ms
10 packets transmitted, 0 received, 100% packet loss, time 9201ms
10 packets transmitted, 0 received, 100% packet loss, time 9204ms
10 packets transmitted, 0 received, 100% packet loss, time 9206ms
10 packets transmitted, 0 received, 100% packet loss, time 9203ms
10 packets transmitted, 0 received, 100% packet loss, time 9210ms
10 packets transmitted, 0 received, 100% packet loss, time 9201ms
10 packets transmitted, 0 received, 100% packet loss, time 9212ms
10 packets transmitted, 0 received, 100% packet loss, time 9204ms
10 packets transmitted, 0 received, 100% packet loss, time 9202ms
10 packets transmitted, 0 received, 100% packet loss, time 9207ms
10 packets transmitted, 0 received, 100% packet loss, time 9205ms
10 packets transmitted, 0 received, 100% packet loss, time 9201ms
10 packets transmitted, 0 received, 100% packet loss, time 9214ms
10 packets transmitted, 0 received, 100% packet loss, time 9206ms
10 packets transmitted, 0 received, 100% packet loss, time 9207ms
10 packets transmitted, 0 received, 100% packet loss, time 9214ms
10 packets transmitted, 0 received, 100% packet loss, time 9202ms
10 packets transmitted, 0 received, 100% packet loss, time 9203ms
10 packets transmitted, 0 received, 100% packet loss, time 9205ms
10 packets transmitted, 0 received, 100% packet loss, time 9210ms
10 packets transmitted, 0 received, 100% packet loss, time 9203ms
10 packets transmitted, 1 received, 90% packet loss, time 9207ms
10 packets transmitted, 0 received, 100% packet loss, time 9211ms
10 packets transmitted, 0 received, 100% packet loss, time 9203ms
10 packets transmitted, 0 received, 100% packet loss, time 9208ms
10 packets transmitted, 0 received, 100% packet loss, time 9201ms
10 packets transmitted, 0 received, 100% packet loss, time 9207ms
