Attaching to softwareoverhead_ping_2, softwareoverhead_ping_1, softwareoverhead_ping_5, softwareoverhead_ping_7, softwareoverhead_ping_6, softwareoverhead_ping_9, softwareoverhead_ping_8, softwareoverhead_ping_3, softwareoverhead_ping_10, softwareoverhead_ping_4
ping_5  | PING nyc.speedtest.sbcglobal.net (99.24.18.25): 56 data bytes
ping_5  | 64 bytes from 99.24.18.25: seq=0 ttl=50 time=80.156 ms
ping_1  | PING nyc.speedtest.sbcglobal.net (99.24.18.25): 56 data bytes
ping_1  | 64 bytes from 99.24.18.25: seq=0 ttl=50 time=79.654 ms
ping_1  | 64 bytes from 99.24.18.25: seq=1 ttl=50 time=79.773 ms
ping_7  | PING nyc.speedtest.sbcglobal.net (99.24.18.25): 56 data bytes
ping_7  | 64 bytes from 99.24.18.25: seq=0 ttl=50 time=80.139 ms
ping_2  | PING nyc.speedtest.sbcglobal.net (99.24.18.25): 56 data bytes
ping_1  | 64 bytes from 99.24.18.25: seq=2 ttl=50 time=79.994 ms
ping_5  | 64 bytes from 99.24.18.25: seq=1 ttl=50 time=79.960 ms
ping_7  | 64 bytes from 99.24.18.25: seq=1 ttl=50 time=80.083 ms
ping_6  | PING nyc.speedtest.sbcglobal.net (99.24.18.25): 56 data bytes
ping_5  | 64 bytes from 99.24.18.25: seq=2 ttl=50 time=79.923 ms
ping_5  | 64 bytes from 99.24.18.25: seq=3 ttl=50 time=80.278 ms
ping_1  | 64 bytes from 99.24.18.25: seq=3 ttl=50 time=80.125 ms
ping_1  | 64 bytes from 99.24.18.25: seq=4 ttl=50 time=79.928 ms
ping_6  | 64 bytes from 99.24.18.25: seq=0 ttl=50 time=80.256 ms
ping_1  | 64 bytes from 99.24.18.25: seq=5 ttl=50 time=80.141 ms
ping_8  | PING nyc.speedtest.sbcglobal.net (99.24.18.25): 56 data bytes
ping_6  | 64 bytes from 99.24.18.25: seq=1 ttl=50 time=80.287 ms
ping_5  | 64 bytes from 99.24.18.25: seq=4 ttl=50 time=79.930 ms
ping_3  | PING nyc.speedtest.sbcglobal.net (99.24.18.25): 56 data bytes
ping_7  | 64 bytes from 99.24.18.25: seq=2 ttl=50 time=79.974 ms
ping_9  | PING nyc.speedtest.sbcglobal.net (99.24.18.25): 56 data bytes
ping_5  | 64 bytes from 99.24.18.25: seq=5 ttl=50 time=79.933 ms
ping_1  | 64 bytes from 99.24.18.25: seq=6 ttl=50 time=79.996 ms
ping_7  | 64 bytes from 99.24.18.25: seq=3 ttl=50 time=80.381 ms
ping_6  | 64 bytes from 99.24.18.25: seq=2 ttl=50 time=80.448 ms
ping_8  | 64 bytes from 99.24.18.25: seq=0 ttl=50 time=80.003 ms
ping_8  | 64 bytes from 99.24.18.25: seq=1 ttl=50 time=80.141 ms
ping_2  | 64 bytes from 99.24.18.25: seq=0 ttl=50 time=79.871 ms
ping_6  | 64 bytes from 99.24.18.25: seq=3 ttl=50 time=80.018 ms
ping_9  | 64 bytes from 99.24.18.25: seq=0 ttl=50 time=80.171 ms
ping_3  | 64 bytes from 99.24.18.25: seq=0 ttl=50 time=79.768 ms
ping_7  | 64 bytes from 99.24.18.25: seq=4 ttl=50 time=79.684 ms
ping_6  | 64 bytes from 99.24.18.25: seq=4 ttl=50 time=79.800 ms
ping_10 | PING nyc.speedtest.sbcglobal.net (99.24.18.25): 56 data bytes
ping_9  | 64 bytes from 99.24.18.25: seq=1 ttl=50 time=79.964 ms
ping_7  | 64 bytes from 99.24.18.25: seq=5 ttl=50 time=79.881 ms
ping_2  | 64 bytes from 99.24.18.25: seq=1 ttl=50 time=80.143 ms
ping_10 | 64 bytes from 99.24.18.25: seq=0 ttl=50 time=80.129 ms
ping_8  | 64 bytes from 99.24.18.25: seq=2 ttl=50 time=79.886 ms
ping_9  | 64 bytes from 99.24.18.25: seq=2 ttl=50 time=79.817 ms
ping_2  | 64 bytes from 99.24.18.25: seq=2 ttl=50 time=79.812 ms
ping_4  | PING nyc.speedtest.sbcglobal.net (99.24.18.25): 56 data bytes
ping_9  | 64 bytes from 99.24.18.25: seq=3 ttl=50 time=80.335 ms
ping_2  | 64 bytes from 99.24.18.25: seq=3 ttl=50 time=80.389 ms
ping_2  | 64 bytes from 99.24.18.25: seq=4 ttl=50 time=80.327 ms
ping_2  | 64 bytes from 99.24.18.25: seq=5 ttl=50 time=79.958 ms
ping_2  | 64 bytes from 99.24.18.25: seq=6 ttl=50 time=80.135 ms
ping_2  | 64 bytes from 99.24.18.25: seq=7 ttl=50 time=79.928 ms
ping_3  | 64 bytes from 99.24.18.25: seq=1 ttl=50 time=80.075 ms
ping_4  | 64 bytes from 99.24.18.25: seq=0 ttl=50 time=80.116 ms
ping_1  | 64 bytes from 99.24.18.25: seq=7 ttl=50 time=80.184 ms
ping_2  | 64 bytes from 99.24.18.25: seq=8 ttl=50 time=80.135 ms
ping_10 | 64 bytes from 99.24.18.25: seq=1 ttl=50 time=80.198 ms
ping_8  | 64 bytes from 99.24.18.25: seq=3 ttl=50 time=79.949 ms
ping_5  | 64 bytes from 99.24.18.25: seq=6 ttl=50 time=79.955 ms
ping_9  | 64 bytes from 99.24.18.25: seq=4 ttl=50 time=79.971 ms
ping_7  | 64 bytes from 99.24.18.25: seq=6 ttl=50 time=80.166 ms
ping_6  | 64 bytes from 99.24.18.25: seq=5 ttl=50 time=79.994 ms
ping_3  | 64 bytes from 99.24.18.25: seq=2 ttl=50 time=80.170 ms
ping_4  | 64 bytes from 99.24.18.25: seq=1 ttl=50 time=80.179 ms
ping_1  | 64 bytes from 99.24.18.25: seq=8 ttl=50 time=79.960 ms
ping_2  | 64 bytes from 99.24.18.25: seq=9 ttl=50 time=79.908 ms
ping_10 | 64 bytes from 99.24.18.25: seq=2 ttl=50 time=80.498 ms
ping_8  | 64 bytes from 99.24.18.25: seq=4 ttl=50 time=79.872 ms
ping_5  | 64 bytes from 99.24.18.25: seq=7 ttl=50 time=80.188 ms
ping_9  | 64 bytes from 99.24.18.25: seq=5 ttl=50 time=80.374 ms
ping_7  | 64 bytes from 99.24.18.25: seq=7 ttl=50 time=79.886 ms
ping_6  | 64 bytes from 99.24.18.25: seq=6 ttl=50 time=80.377 ms
ping_3  | 64 bytes from 99.24.18.25: seq=3 ttl=50 time=80.099 ms
ping_4  | 64 bytes from 99.24.18.25: seq=2 ttl=50 time=80.189 ms
ping_1  | 64 bytes from 99.24.18.25: seq=9 ttl=50 time=80.299 ms
ping_2  | 64 bytes from 99.24.18.25: seq=10 ttl=50 time=80.250 ms
ping_10 | 64 bytes from 99.24.18.25: seq=3 ttl=50 time=80.471 ms
ping_8  | 64 bytes from 99.24.18.25: seq=5 ttl=50 time=80.188 ms
ping_5  | 64 bytes from 99.24.18.25: seq=8 ttl=50 time=80.323 ms
ping_9  | 64 bytes from 99.24.18.25: seq=6 ttl=50 time=80.494 ms
ping_7  | 64 bytes from 99.24.18.25: seq=8 ttl=50 time=80.206 ms
ping_6  | 64 bytes from 99.24.18.25: seq=7 ttl=50 time=80.489 ms
ping_3  | 64 bytes from 99.24.18.25: seq=4 ttl=50 time=80.398 ms
ping_4  | 64 bytes from 99.24.18.25: seq=3 ttl=50 time=80.207 ms
ping_1  | 64 bytes from 99.24.18.25: seq=10 ttl=50 time=80.295 ms
ping_2  | 64 bytes from 99.24.18.25: seq=11 ttl=50 time=80.230 ms
ping_10 | 64 bytes from 99.24.18.25: seq=4 ttl=50 time=80.551 ms
ping_8  | 64 bytes from 99.24.18.25: seq=6 ttl=50 time=80.678 ms
ping_5  | 64 bytes from 99.24.18.25: seq=9 ttl=50 time=80.017 ms
ping_9  | 64 bytes from 99.24.18.25: seq=7 ttl=50 time=80.402 ms
ping_7  | 64 bytes from 99.24.18.25: seq=9 ttl=50 time=80.211 ms
ping_6  | 64 bytes from 99.24.18.25: seq=8 ttl=50 time=80.388 ms
ping_3  | 64 bytes from 99.24.18.25: seq=5 ttl=50 time=80.292 ms
ping_4  | 64 bytes from 99.24.18.25: seq=4 ttl=50 time=80.487 ms
ping_1  | 64 bytes from 99.24.18.25: seq=11 ttl=50 time=80.087 ms
ping_2  | 64 bytes from 99.24.18.25: seq=12 ttl=50 time=80.362 ms
ping_10 | 64 bytes from 99.24.18.25: seq=5 ttl=50 time=80.462 ms
ping_8  | 64 bytes from 99.24.18.25: seq=7 ttl=50 time=80.637 ms
ping_5  | 64 bytes from 99.24.18.25: seq=10 ttl=50 time=80.244 ms
ping_9  | 64 bytes from 99.24.18.25: seq=8 ttl=50 time=80.456 ms
ping_7  | 64 bytes from 99.24.18.25: seq=10 ttl=50 time=79.847 ms
ping_6  | 64 bytes from 99.24.18.25: seq=9 ttl=50 time=80.434 ms
ping_3  | 64 bytes from 99.24.18.25: seq=6 ttl=50 time=80.361 ms
ping_4  | 64 bytes from 99.24.18.25: seq=5 ttl=50 time=80.477 ms
ping_1  | 64 bytes from 99.24.18.25: seq=12 ttl=50 time=80.138 ms
ping_2  | 64 bytes from 99.24.18.25: seq=13 ttl=50 time=80.106 ms
ping_10 | 64 bytes from 99.24.18.25: seq=6 ttl=50 time=80.400 ms
ping_8  | 64 bytes from 99.24.18.25: seq=8 ttl=50 time=80.314 ms
ping_5  | 64 bytes from 99.24.18.25: seq=11 ttl=50 time=80.291 ms
ping_9  | 64 bytes from 99.24.18.25: seq=9 ttl=50 time=80.264 ms
ping_7  | 64 bytes from 99.24.18.25: seq=11 ttl=50 time=80.228 ms
ping_6  | 64 bytes from 99.24.18.25: seq=10 ttl=50 time=80.308 ms
ping_3  | 64 bytes from 99.24.18.25: seq=7 ttl=50 time=80.191 ms
ping_4  | 64 bytes from 99.24.18.25: seq=6 ttl=50 time=80.171 ms
ping_1  | 64 bytes from 99.24.18.25: seq=13 ttl=50 time=80.450 ms
ping_2  | 64 bytes from 99.24.18.25: seq=14 ttl=50 time=80.252 ms
ping_10 | 64 bytes from 99.24.18.25: seq=7 ttl=50 time=79.957 ms
ping_8  | 64 bytes from 99.24.18.25: seq=9 ttl=50 time=80.211 ms
ping_5  | 64 bytes from 99.24.18.25: seq=12 ttl=50 time=80.107 ms
ping_9  | 64 bytes from 99.24.18.25: seq=10 ttl=50 time=80.391 ms
ping_7  | 64 bytes from 99.24.18.25: seq=12 ttl=50 time=80.045 ms
ping_6  | 64 bytes from 99.24.18.25: seq=11 ttl=50 time=80.470 ms
ping_3  | 64 bytes from 99.24.18.25: seq=8 ttl=50 time=80.469 ms
ping_4  | 64 bytes from 99.24.18.25: seq=7 ttl=50 time=80.211 ms
ping_1  | 64 bytes from 99.24.18.25: seq=14 ttl=50 time=80.725 ms
ping_2  | 64 bytes from 99.24.18.25: seq=15 ttl=50 time=79.987 ms
ping_10 | 64 bytes from 99.24.18.25: seq=8 ttl=50 time=80.252 ms
ping_8  | 64 bytes from 99.24.18.25: seq=10 ttl=50 time=80.332 ms
ping_5  | 64 bytes from 99.24.18.25: seq=13 ttl=50 time=83.436 ms
ping_9  | 64 bytes from 99.24.18.25: seq=11 ttl=50 time=80.418 ms
ping_7  | 64 bytes from 99.24.18.25: seq=13 ttl=50 time=80.236 ms
ping_6  | 64 bytes from 99.24.18.25: seq=12 ttl=50 time=79.923 ms
ping_3  | 64 bytes from 99.24.18.25: seq=9 ttl=50 time=79.974 ms
ping_4  | 64 bytes from 99.24.18.25: seq=8 ttl=50 time=79.864 ms
ping_1  | 64 bytes from 99.24.18.25: seq=15 ttl=50 time=80.269 ms
ping_2  | 64 bytes from 99.24.18.25: seq=16 ttl=50 time=79.945 ms
ping_10 | 64 bytes from 99.24.18.25: seq=9 ttl=50 time=80.359 ms
ping_8  | 64 bytes from 99.24.18.25: seq=11 ttl=50 time=81.229 ms
ping_5  | 64 bytes from 99.24.18.25: seq=14 ttl=50 time=80.169 ms
ping_9  | 64 bytes from 99.24.18.25: seq=12 ttl=50 time=80.283 ms
ping_7  | 64 bytes from 99.24.18.25: seq=14 ttl=50 time=81.197 ms
ping_6  | 64 bytes from 99.24.18.25: seq=13 ttl=50 time=81.985 ms
ping_3  | 64 bytes from 99.24.18.25: seq=10 ttl=50 time=80.432 ms
ping_4  | 64 bytes from 99.24.18.25: seq=9 ttl=50 time=80.441 ms
ping_1  | 64 bytes from 99.24.18.25: seq=16 ttl=50 time=80.435 ms
ping_2  | 64 bytes from 99.24.18.25: seq=17 ttl=50 time=80.340 ms
ping_10 | 64 bytes from 99.24.18.25: seq=10 ttl=50 time=80.300 ms
ping_8  | 64 bytes from 99.24.18.25: seq=12 ttl=50 time=80.198 ms
ping_5  | 64 bytes from 99.24.18.25: seq=15 ttl=50 time=80.374 ms
ping_9  | 64 bytes from 99.24.18.25: seq=13 ttl=50 time=80.339 ms
ping_7  | 64 bytes from 99.24.18.25: seq=15 ttl=50 time=80.305 ms
ping_6  | 64 bytes from 99.24.18.25: seq=14 ttl=50 time=80.275 ms
ping_3  | 64 bytes from 99.24.18.25: seq=11 ttl=50 time=80.103 ms
ping_4  | 64 bytes from 99.24.18.25: seq=10 ttl=50 time=80.295 ms
ping_1  | 64 bytes from 99.24.18.25: seq=17 ttl=50 time=80.454 ms
ping_2  | 64 bytes from 99.24.18.25: seq=18 ttl=50 time=80.318 ms
ping_10 | 64 bytes from 99.24.18.25: seq=11 ttl=50 time=80.076 ms
ping_8  | 64 bytes from 99.24.18.25: seq=13 ttl=50 time=80.175 ms
ping_5  | 64 bytes from 99.24.18.25: seq=16 ttl=50 time=80.408 ms
ping_9  | 64 bytes from 99.24.18.25: seq=14 ttl=50 time=79.920 ms
ping_7  | 64 bytes from 99.24.18.25: seq=16 ttl=50 time=80.210 ms
ping_6  | 64 bytes from 99.24.18.25: seq=15 ttl=50 time=80.244 ms
ping_3  | 64 bytes from 99.24.18.25: seq=12 ttl=50 time=80.245 ms
ping_4  | 64 bytes from 99.24.18.25: seq=11 ttl=50 time=80.074 ms
ping_1  | 64 bytes from 99.24.18.25: seq=18 ttl=50 time=80.503 ms
ping_2  | 64 bytes from 99.24.18.25: seq=19 ttl=50 time=80.215 ms
ping_10 | 64 bytes from 99.24.18.25: seq=12 ttl=50 time=80.255 ms
ping_8  | 64 bytes from 99.24.18.25: seq=14 ttl=50 time=80.352 ms
ping_5  | 64 bytes from 99.24.18.25: seq=17 ttl=50 time=79.927 ms
ping_9  | 64 bytes from 99.24.18.25: seq=15 ttl=50 time=80.415 ms
ping_7  | 64 bytes from 99.24.18.25: seq=17 ttl=50 time=82.387 ms
ping_6  | 64 bytes from 99.24.18.25: seq=16 ttl=50 time=80.296 ms
ping_3  | 64 bytes from 99.24.18.25: seq=13 ttl=50 time=83.545 ms
ping_4  | 64 bytes from 99.24.18.25: seq=12 ttl=50 time=80.490 ms
ping_1  | 64 bytes from 99.24.18.25: seq=19 ttl=50 time=80.398 ms
ping_2  | 64 bytes from 99.24.18.25: seq=20 ttl=50 time=80.347 ms
ping_10 | 64 bytes from 99.24.18.25: seq=13 ttl=50 time=80.334 ms
ping_8  | 64 bytes from 99.24.18.25: seq=15 ttl=50 time=80.313 ms
ping_5  | 64 bytes from 99.24.18.25: seq=18 ttl=50 time=80.126 ms
ping_9  | 64 bytes from 99.24.18.25: seq=16 ttl=50 time=80.104 ms
ping_7  | 64 bytes from 99.24.18.25: seq=18 ttl=50 time=82.143 ms
ping_6  | 64 bytes from 99.24.18.25: seq=17 ttl=50 time=80.111 ms
ping_3  | 64 bytes from 99.24.18.25: seq=14 ttl=50 time=80.418 ms
ping_4  | 64 bytes from 99.24.18.25: seq=13 ttl=50 time=80.478 ms
ping_1  | 64 bytes from 99.24.18.25: seq=20 ttl=50 time=80.507 ms
ping_2  | 64 bytes from 99.24.18.25: seq=21 ttl=50 time=80.369 ms
ping_10 | 64 bytes from 99.24.18.25: seq=14 ttl=50 time=82.735 ms
ping_8  | 64 bytes from 99.24.18.25: seq=16 ttl=50 time=79.905 ms
ping_5  | 64 bytes from 99.24.18.25: seq=19 ttl=50 time=80.159 ms
ping_9  | 64 bytes from 99.24.18.25: seq=17 ttl=50 time=82.315 ms
ping_7  | 64 bytes from 99.24.18.25: seq=19 ttl=50 time=79.920 ms
ping_6  | 64 bytes from 99.24.18.25: seq=18 ttl=50 time=80.319 ms
ping_3  | 64 bytes from 99.24.18.25: seq=15 ttl=50 time=80.086 ms
ping_4  | 64 bytes from 99.24.18.25: seq=14 ttl=50 time=80.390 ms
ping_1  | 64 bytes from 99.24.18.25: seq=21 ttl=50 time=80.388 ms
ping_2  | 64 bytes from 99.24.18.25: seq=22 ttl=50 time=80.328 ms
ping_10 | 64 bytes from 99.24.18.25: seq=15 ttl=50 time=80.301 ms
ping_8  | 64 bytes from 99.24.18.25: seq=17 ttl=50 time=80.231 ms
ping_5  | 64 bytes from 99.24.18.25: seq=20 ttl=50 time=80.420 ms
ping_9  | 64 bytes from 99.24.18.25: seq=18 ttl=50 time=80.449 ms
ping_7  | 64 bytes from 99.24.18.25: seq=20 ttl=50 time=80.213 ms
ping_6  | 64 bytes from 99.24.18.25: seq=19 ttl=50 time=80.159 ms
ping_3  | 64 bytes from 99.24.18.25: seq=16 ttl=50 time=79.856 ms
ping_4  | 64 bytes from 99.24.18.25: seq=15 ttl=50 time=80.251 ms
ping_1  | 64 bytes from 99.24.18.25: seq=22 ttl=50 time=80.386 ms
ping_2  | 64 bytes from 99.24.18.25: seq=23 ttl=50 time=80.356 ms
ping_10 | 64 bytes from 99.24.18.25: seq=16 ttl=50 time=80.415 ms
ping_8  | 64 bytes from 99.24.18.25: seq=18 ttl=50 time=79.913 ms
ping_5  | 64 bytes from 99.24.18.25: seq=21 ttl=50 time=79.910 ms
ping_9  | 64 bytes from 99.24.18.25: seq=19 ttl=50 time=80.061 ms
ping_7  | 64 bytes from 99.24.18.25: seq=21 ttl=50 time=82.019 ms
ping_6  | 64 bytes from 99.24.18.25: seq=20 ttl=50 time=79.942 ms
ping_3  | 64 bytes from 99.24.18.25: seq=17 ttl=50 time=79.921 ms
ping_4  | 64 bytes from 99.24.18.25: seq=16 ttl=50 time=80.149 ms
ping_1  | 64 bytes from 99.24.18.25: seq=23 ttl=50 time=80.246 ms
ping_2  | 64 bytes from 99.24.18.25: seq=24 ttl=50 time=80.200 ms
ping_10 | 64 bytes from 99.24.18.25: seq=17 ttl=50 time=79.988 ms
ping_8  | 64 bytes from 99.24.18.25: seq=19 ttl=50 time=80.419 ms
ping_5  | 64 bytes from 99.24.18.25: seq=22 ttl=50 time=80.189 ms
ping_9  | 64 bytes from 99.24.18.25: seq=20 ttl=50 time=80.005 ms
ping_7  | 64 bytes from 99.24.18.25: seq=22 ttl=50 time=80.230 ms
ping_6  | 64 bytes from 99.24.18.25: seq=21 ttl=50 time=79.888 ms
ping_3  | 64 bytes from 99.24.18.25: seq=18 ttl=50 time=80.415 ms
ping_4  | 64 bytes from 99.24.18.25: seq=17 ttl=50 time=80.232 ms
ping_1  | 64 bytes from 99.24.18.25: seq=24 ttl=50 time=80.248 ms
ping_2  | 64 bytes from 99.24.18.25: seq=25 ttl=50 time=80.478 ms
ping_10 | 64 bytes from 99.24.18.25: seq=18 ttl=50 time=80.420 ms
ping_8  | 64 bytes from 99.24.18.25: seq=20 ttl=50 time=79.926 ms
ping_5  | 64 bytes from 99.24.18.25: seq=23 ttl=50 time=80.457 ms
ping_9  | 64 bytes from 99.24.18.25: seq=21 ttl=50 time=80.318 ms
ping_7  | 64 bytes from 99.24.18.25: seq=23 ttl=50 time=80.233 ms
ping_6  | 64 bytes from 99.24.18.25: seq=22 ttl=50 time=80.425 ms
ping_3  | 64 bytes from 99.24.18.25: seq=19 ttl=50 time=80.482 ms
ping_4  | 64 bytes from 99.24.18.25: seq=18 ttl=50 time=80.067 ms
ping_1  | 64 bytes from 99.24.18.25: seq=25 ttl=50 time=80.291 ms
ping_2  | 64 bytes from 99.24.18.25: seq=26 ttl=50 time=80.534 ms
ping_10 | 64 bytes from 99.24.18.25: seq=19 ttl=50 time=80.267 ms
ping_8  | 64 bytes from 99.24.18.25: seq=21 ttl=50 time=80.400 ms
ping_5  | 64 bytes from 99.24.18.25: seq=24 ttl=50 time=80.328 ms
ping_9  | 64 bytes from 99.24.18.25: seq=22 ttl=50 time=80.305 ms
ping_7  | 64 bytes from 99.24.18.25: seq=24 ttl=50 time=79.902 ms
ping_6  | 64 bytes from 99.24.18.25: seq=23 ttl=50 time=79.861 ms
ping_3  | 64 bytes from 99.24.18.25: seq=20 ttl=50 time=79.862 ms
ping_4  | 64 bytes from 99.24.18.25: seq=19 ttl=50 time=80.277 ms
ping_1  | 64 bytes from 99.24.18.25: seq=26 ttl=50 time=80.370 ms
ping_2  | 64 bytes from 99.24.18.25: seq=27 ttl=50 time=80.403 ms
ping_10 | 64 bytes from 99.24.18.25: seq=20 ttl=50 time=80.127 ms
ping_8  | 64 bytes from 99.24.18.25: seq=22 ttl=50 time=79.930 ms
ping_5  | 64 bytes from 99.24.18.25: seq=25 ttl=50 time=80.503 ms
ping_9  | 64 bytes from 99.24.18.25: seq=23 ttl=50 time=80.311 ms
ping_7  | 64 bytes from 99.24.18.25: seq=25 ttl=50 time=80.326 ms
ping_6  | 64 bytes from 99.24.18.25: seq=24 ttl=50 time=80.312 ms
ping_3  | 64 bytes from 99.24.18.25: seq=21 ttl=50 time=79.942 ms
ping_4  | 64 bytes from 99.24.18.25: seq=20 ttl=50 time=80.266 ms
ping_1  | 64 bytes from 99.24.18.25: seq=27 ttl=50 time=80.330 ms
ping_2  | 64 bytes from 99.24.18.25: seq=28 ttl=50 time=80.285 ms
ping_10 | 64 bytes from 99.24.18.25: seq=21 ttl=50 time=80.036 ms
ping_8  | 64 bytes from 99.24.18.25: seq=23 ttl=50 time=80.495 ms
ping_5  | 64 bytes from 99.24.18.25: seq=26 ttl=50 time=80.309 ms
ping_9  | 64 bytes from 99.24.18.25: seq=24 ttl=50 time=80.715 ms
ping_7  | 64 bytes from 99.24.18.25: seq=26 ttl=50 time=82.699 ms
ping_6  | 64 bytes from 99.24.18.25: seq=25 ttl=50 time=80.218 ms
ping_3  | 64 bytes from 99.24.18.25: seq=22 ttl=50 time=80.137 ms
ping_4  | 64 bytes from 99.24.18.25: seq=21 ttl=50 time=80.335 ms
ping_1  | 64 bytes from 99.24.18.25: seq=28 ttl=50 time=79.918 ms
ping_2  | 64 bytes from 99.24.18.25: seq=29 ttl=50 time=80.171 ms
ping_10 | 64 bytes from 99.24.18.25: seq=22 ttl=50 time=79.835 ms
ping_8  | 64 bytes from 99.24.18.25: seq=24 ttl=50 time=79.782 ms
ping_5  | 64 bytes from 99.24.18.25: seq=27 ttl=50 time=79.804 ms
ping_9  | 64 bytes from 99.24.18.25: seq=25 ttl=50 time=80.409 ms
ping_7  | 64 bytes from 99.24.18.25: seq=27 ttl=50 time=80.186 ms
ping_6  | 64 bytes from 99.24.18.25: seq=26 ttl=50 time=80.248 ms
ping_3  | 64 bytes from 99.24.18.25: seq=23 ttl=50 time=80.486 ms
ping_4  | 64 bytes from 99.24.18.25: seq=22 ttl=50 time=81.023 ms
ping_1  | 64 bytes from 99.24.18.25: seq=29 ttl=50 time=80.352 ms
ping_2  | 64 bytes from 99.24.18.25: seq=30 ttl=50 time=80.446 ms
ping_10 | 64 bytes from 99.24.18.25: seq=23 ttl=50 time=80.315 ms
ping_8  | 64 bytes from 99.24.18.25: seq=25 ttl=50 time=80.363 ms
ping_5  | 64 bytes from 99.24.18.25: seq=28 ttl=50 time=79.939 ms
ping_9  | 64 bytes from 99.24.18.25: seq=26 ttl=50 time=79.895 ms
ping_7  | 64 bytes from 99.24.18.25: seq=28 ttl=50 time=80.151 ms
ping_6  | 64 bytes from 99.24.18.25: seq=27 ttl=50 time=80.028 ms
ping_3  | 64 bytes from 99.24.18.25: seq=24 ttl=50 time=80.291 ms
ping_4  | 64 bytes from 99.24.18.25: seq=23 ttl=50 time=80.927 ms
ping_1  | 64 bytes from 99.24.18.25: seq=30 ttl=50 time=86.782 ms
ping_2  | 64 bytes from 99.24.18.25: seq=31 ttl=50 time=80.765 ms
ping_10 | 64 bytes from 99.24.18.25: seq=24 ttl=50 time=79.862 ms
ping_8  | 64 bytes from 99.24.18.25: seq=26 ttl=50 time=80.269 ms
ping_5  | 64 bytes from 99.24.18.25: seq=29 ttl=50 time=80.306 ms
ping_9  | 64 bytes from 99.24.18.25: seq=27 ttl=50 time=79.810 ms
ping_7  | 64 bytes from 99.24.18.25: seq=29 ttl=50 time=79.856 ms
ping_6  | 64 bytes from 99.24.18.25: seq=28 ttl=50 time=79.905 ms
ping_3  | 64 bytes from 99.24.18.25: seq=25 ttl=50 time=80.016 ms
ping_4  | 64 bytes from 99.24.18.25: seq=24 ttl=50 time=79.892 ms
ping_1  | 64 bytes from 99.24.18.25: seq=31 ttl=50 time=80.344 ms
ping_2  | 64 bytes from 99.24.18.25: seq=32 ttl=50 time=80.348 ms
ping_10 | 64 bytes from 99.24.18.25: seq=25 ttl=50 time=80.178 ms
ping_8  | 64 bytes from 99.24.18.25: seq=27 ttl=50 time=80.416 ms
ping_5  | 64 bytes from 99.24.18.25: seq=30 ttl=50 time=80.246 ms
ping_9  | 64 bytes from 99.24.18.25: seq=28 ttl=50 time=80.208 ms
ping_7  | 64 bytes from 99.24.18.25: seq=30 ttl=50 time=80.244 ms
ping_6  | 64 bytes from 99.24.18.25: seq=29 ttl=50 time=79.950 ms
ping_3  | 64 bytes from 99.24.18.25: seq=26 ttl=50 time=80.184 ms
ping_4  | 64 bytes from 99.24.18.25: seq=25 ttl=50 time=80.241 ms
ping_1  | 64 bytes from 99.24.18.25: seq=32 ttl=50 time=79.969 ms
ping_2  | 64 bytes from 99.24.18.25: seq=33 ttl=50 time=80.473 ms
ping_10 | 64 bytes from 99.24.18.25: seq=26 ttl=50 time=79.824 ms
ping_8  | 64 bytes from 99.24.18.25: seq=28 ttl=50 time=80.254 ms
ping_5  | 64 bytes from 99.24.18.25: seq=31 ttl=50 time=80.251 ms
ping_9  | 64 bytes from 99.24.18.25: seq=29 ttl=50 time=80.248 ms
ping_7  | 64 bytes from 99.24.18.25: seq=31 ttl=50 time=80.258 ms
ping_6  | 64 bytes from 99.24.18.25: seq=30 ttl=50 time=79.996 ms
ping_3  | 64 bytes from 99.24.18.25: seq=27 ttl=50 time=80.234 ms
ping_4  | 64 bytes from 99.24.18.25: seq=26 ttl=50 time=80.304 ms
ping_1  | 64 bytes from 99.24.18.25: seq=33 ttl=50 time=79.842 ms
ping_2  | 64 bytes from 99.24.18.25: seq=34 ttl=50 time=79.872 ms
ping_10 | 64 bytes from 99.24.18.25: seq=27 ttl=50 time=79.846 ms
ping_8  | 64 bytes from 99.24.18.25: seq=29 ttl=50 time=80.093 ms
ping_5  | 64 bytes from 99.24.18.25: seq=32 ttl=50 time=80.527 ms
ping_9  | 64 bytes from 99.24.18.25: seq=30 ttl=50 time=80.310 ms
ping_7  | 64 bytes from 99.24.18.25: seq=32 ttl=50 time=80.297 ms
ping_6  | 64 bytes from 99.24.18.25: seq=31 ttl=50 time=80.238 ms
ping_3  | 64 bytes from 99.24.18.25: seq=28 ttl=50 time=80.184 ms
ping_4  | 64 bytes from 99.24.18.25: seq=27 ttl=50 time=80.410 ms
ping_1  | 64 bytes from 99.24.18.25: seq=34 ttl=50 time=80.327 ms
ping_2  | 64 bytes from 99.24.18.25: seq=35 ttl=50 time=80.407 ms
ping_10 | 64 bytes from 99.24.18.25: seq=28 ttl=50 time=80.513 ms
ping_8  | 64 bytes from 99.24.18.25: seq=30 ttl=50 time=80.487 ms
ping_5  | 64 bytes from 99.24.18.25: seq=33 ttl=50 time=80.224 ms
ping_9  | 64 bytes from 99.24.18.25: seq=31 ttl=50 time=79.985 ms
ping_7  | 64 bytes from 99.24.18.25: seq=33 ttl=50 time=79.917 ms
ping_6  | 64 bytes from 99.24.18.25: seq=32 ttl=50 time=80.185 ms
ping_3  | 64 bytes from 99.24.18.25: seq=29 ttl=50 time=79.952 ms
ping_4  | 64 bytes from 99.24.18.25: seq=28 ttl=50 time=80.330 ms
ping_1  | 64 bytes from 99.24.18.25: seq=35 ttl=50 time=80.324 ms
ping_2  | 64 bytes from 99.24.18.25: seq=36 ttl=50 time=80.136 ms
ping_10 | 64 bytes from 99.24.18.25: seq=29 ttl=50 time=80.279 ms
ping_8  | 64 bytes from 99.24.18.25: seq=31 ttl=50 time=80.143 ms
ping_5  | 64 bytes from 99.24.18.25: seq=34 ttl=50 time=80.009 ms
ping_9  | 64 bytes from 99.24.18.25: seq=32 ttl=50 time=79.853 ms
ping_7  | 64 bytes from 99.24.18.25: seq=34 ttl=50 time=80.206 ms
ping_6  | 64 bytes from 99.24.18.25: seq=33 ttl=50 time=80.236 ms
ping_3  | 64 bytes from 99.24.18.25: seq=30 ttl=50 time=80.256 ms
ping_4  | 64 bytes from 99.24.18.25: seq=29 ttl=50 time=80.346 ms
ping_1  | 64 bytes from 99.24.18.25: seq=36 ttl=50 time=79.949 ms
ping_2  | 64 bytes from 99.24.18.25: seq=37 ttl=50 time=79.959 ms
ping_10 | 64 bytes from 99.24.18.25: seq=30 ttl=50 time=80.240 ms
ping_8  | 64 bytes from 99.24.18.25: seq=32 ttl=50 time=80.260 ms
ping_5  | 64 bytes from 99.24.18.25: seq=35 ttl=50 time=80.384 ms
ping_9  | 64 bytes from 99.24.18.25: seq=33 ttl=50 time=80.261 ms
ping_7  | 64 bytes from 99.24.18.25: seq=35 ttl=50 time=80.283 ms
ping_6  | 64 bytes from 99.24.18.25: seq=34 ttl=50 time=80.209 ms
ping_3  | 64 bytes from 99.24.18.25: seq=31 ttl=50 time=80.353 ms
ping_4  | 64 bytes from 99.24.18.25: seq=30 ttl=50 time=80.243 ms
ping_1  | 64 bytes from 99.24.18.25: seq=37 ttl=50 time=80.265 ms
ping_2  | 64 bytes from 99.24.18.25: seq=38 ttl=50 time=80.787 ms
ping_10 | 64 bytes from 99.24.18.25: seq=31 ttl=50 time=80.470 ms
ping_8  | 64 bytes from 99.24.18.25: seq=33 ttl=50 time=80.180 ms
ping_5  | 64 bytes from 99.24.18.25: seq=36 ttl=50 time=81.341 ms
ping_9  | 64 bytes from 99.24.18.25: seq=34 ttl=50 time=80.236 ms
ping_7  | 64 bytes from 99.24.18.25: seq=36 ttl=50 time=80.302 ms
ping_6  | 64 bytes from 99.24.18.25: seq=35 ttl=50 time=80.393 ms
ping_3  | 64 bytes from 99.24.18.25: seq=32 ttl=50 time=80.238 ms
ping_4  | 64 bytes from 99.24.18.25: seq=31 ttl=50 time=84.719 ms
ping_1  | 64 bytes from 99.24.18.25: seq=38 ttl=50 time=80.310 ms
ping_2  | 64 bytes from 99.24.18.25: seq=39 ttl=50 time=80.493 ms
ping_10 | 64 bytes from 99.24.18.25: seq=32 ttl=50 time=79.908 ms
ping_8  | 64 bytes from 99.24.18.25: seq=34 ttl=50 time=81.094 ms
ping_5  | 64 bytes from 99.24.18.25: seq=37 ttl=50 time=79.950 ms
ping_9  | 64 bytes from 99.24.18.25: seq=35 ttl=50 time=80.129 ms
ping_7  | 64 bytes from 99.24.18.25: seq=37 ttl=50 time=80.237 ms
ping_6  | 64 bytes from 99.24.18.25: seq=36 ttl=50 time=80.282 ms
ping_3  | 64 bytes from 99.24.18.25: seq=33 ttl=50 time=80.256 ms
ping_4  | 64 bytes from 99.24.18.25: seq=32 ttl=50 time=80.376 ms
ping_1  | 64 bytes from 99.24.18.25: seq=39 ttl=50 time=80.259 ms
ping_2  | 64 bytes from 99.24.18.25: seq=40 ttl=50 time=80.489 ms
ping_10 | 64 bytes from 99.24.18.25: seq=33 ttl=50 time=80.484 ms
ping_8  | 64 bytes from 99.24.18.25: seq=35 ttl=50 time=80.426 ms
ping_5  | 64 bytes from 99.24.18.25: seq=38 ttl=50 time=80.455 ms
ping_9  | 64 bytes from 99.24.18.25: seq=36 ttl=50 time=80.329 ms
ping_7  | 64 bytes from 99.24.18.25: seq=38 ttl=50 time=80.280 ms
ping_6  | 64 bytes from 99.24.18.25: seq=37 ttl=50 time=80.373 ms
ping_3  | 64 bytes from 99.24.18.25: seq=34 ttl=50 time=80.209 ms
ping_4  | 64 bytes from 99.24.18.25: seq=33 ttl=50 time=80.255 ms
ping_1  | 64 bytes from 99.24.18.25: seq=40 ttl=50 time=80.262 ms
ping_2  | 64 bytes from 99.24.18.25: seq=41 ttl=50 time=80.190 ms
ping_10 | 64 bytes from 99.24.18.25: seq=34 ttl=50 time=80.361 ms
ping_8  | 64 bytes from 99.24.18.25: seq=36 ttl=50 time=80.417 ms
ping_5  | 64 bytes from 99.24.18.25: seq=39 ttl=50 time=80.415 ms
ping_9  | 64 bytes from 99.24.18.25: seq=37 ttl=50 time=80.462 ms
ping_7  | 64 bytes from 99.24.18.25: seq=39 ttl=50 time=80.201 ms
ping_6  | 64 bytes from 99.24.18.25: seq=38 ttl=50 time=80.345 ms
ping_3  | 64 bytes from 99.24.18.25: seq=35 ttl=50 time=80.297 ms
ping_4  | 64 bytes from 99.24.18.25: seq=34 ttl=50 time=84.798 ms
ping_1  | 64 bytes from 99.24.18.25: seq=41 ttl=50 time=80.468 ms
ping_2  | 64 bytes from 99.24.18.25: seq=42 ttl=50 time=80.516 ms
ping_10 | 64 bytes from 99.24.18.25: seq=35 ttl=50 time=80.291 ms
ping_8  | 64 bytes from 99.24.18.25: seq=37 ttl=50 time=80.331 ms
ping_5  | 64 bytes from 99.24.18.25: seq=40 ttl=50 time=79.863 ms
ping_9  | 64 bytes from 99.24.18.25: seq=38 ttl=50 time=80.249 ms
ping_7  | 64 bytes from 99.24.18.25: seq=40 ttl=50 time=80.341 ms
ping_6  | 64 bytes from 99.24.18.25: seq=39 ttl=50 time=80.244 ms
ping_3  | 64 bytes from 99.24.18.25: seq=36 ttl=50 time=80.384 ms
ping_4  | 64 bytes from 99.24.18.25: seq=35 ttl=50 time=81.186 ms
ping_1  | 64 bytes from 99.24.18.25: seq=42 ttl=50 time=80.477 ms
ping_2  | 64 bytes from 99.24.18.25: seq=43 ttl=50 time=80.218 ms
ping_10 | 64 bytes from 99.24.18.25: seq=36 ttl=50 time=79.961 ms
ping_8  | 64 bytes from 99.24.18.25: seq=38 ttl=50 time=80.258 ms
ping_5  | 64 bytes from 99.24.18.25: seq=41 ttl=50 time=84.919 ms
ping_9  | 64 bytes from 99.24.18.25: seq=39 ttl=50 time=80.096 ms
ping_7  | 64 bytes from 99.24.18.25: seq=41 ttl=50 time=80.186 ms
ping_6  | 64 bytes from 99.24.18.25: seq=40 ttl=50 time=79.938 ms
ping_3  | 64 bytes from 99.24.18.25: seq=37 ttl=50 time=83.613 ms
ping_4  | 64 bytes from 99.24.18.25: seq=36 ttl=50 time=80.385 ms
ping_1  | 64 bytes from 99.24.18.25: seq=43 ttl=50 time=80.547 ms
ping_2  | 64 bytes from 99.24.18.25: seq=44 ttl=50 time=80.371 ms
ping_10 | 64 bytes from 99.24.18.25: seq=37 ttl=50 time=80.359 ms
ping_8  | 64 bytes from 99.24.18.25: seq=39 ttl=50 time=80.099 ms
ping_5  | 64 bytes from 99.24.18.25: seq=42 ttl=50 time=80.511 ms
ping_9  | 64 bytes from 99.24.18.25: seq=40 ttl=50 time=81.459 ms
ping_7  | 64 bytes from 99.24.18.25: seq=42 ttl=50 time=80.216 ms
ping_6  | 64 bytes from 99.24.18.25: seq=41 ttl=50 time=79.859 ms
ping_3  | 64 bytes from 99.24.18.25: seq=38 ttl=50 time=80.242 ms
ping_4  | 64 bytes from 99.24.18.25: seq=37 ttl=50 time=80.311 ms
ping_1  | 64 bytes from 99.24.18.25: seq=44 ttl=50 time=80.489 ms
ping_2  | 64 bytes from 99.24.18.25: seq=45 ttl=50 time=80.333 ms
ping_10 | 64 bytes from 99.24.18.25: seq=38 ttl=50 time=79.987 ms
ping_8  | 64 bytes from 99.24.18.25: seq=40 ttl=50 time=80.183 ms
ping_5  | 64 bytes from 99.24.18.25: seq=43 ttl=50 time=80.055 ms
ping_9  | 64 bytes from 99.24.18.25: seq=41 ttl=50 time=84.802 ms
ping_7  | 64 bytes from 99.24.18.25: seq=43 ttl=50 time=80.118 ms
ping_6  | 64 bytes from 99.24.18.25: seq=42 ttl=50 time=80.035 ms
ping_3  | 64 bytes from 99.24.18.25: seq=39 ttl=50 time=79.954 ms
ping_4  | 64 bytes from 99.24.18.25: seq=38 ttl=50 time=80.331 ms
ping_1  | 64 bytes from 99.24.18.25: seq=45 ttl=50 time=80.318 ms
ping_2  | 64 bytes from 99.24.18.25: seq=46 ttl=50 time=80.315 ms
ping_10 | 64 bytes from 99.24.18.25: seq=39 ttl=50 time=80.191 ms
ping_8  | 64 bytes from 99.24.18.25: seq=41 ttl=50 time=80.171 ms
ping_5  | 64 bytes from 99.24.18.25: seq=44 ttl=50 time=80.490 ms
ping_9  | 64 bytes from 99.24.18.25: seq=42 ttl=50 time=80.259 ms
ping_7  | 64 bytes from 99.24.18.25: seq=44 ttl=50 time=80.230 ms
ping_6  | 64 bytes from 99.24.18.25: seq=43 ttl=50 time=80.225 ms
ping_3  | 64 bytes from 99.24.18.25: seq=40 ttl=50 time=80.236 ms
ping_4  | 64 bytes from 99.24.18.25: seq=39 ttl=50 time=80.337 ms
ping_1  | 64 bytes from 99.24.18.25: seq=46 ttl=50 time=80.341 ms
ping_2  | 64 bytes from 99.24.18.25: seq=47 ttl=50 time=80.071 ms
ping_10 | 64 bytes from 99.24.18.25: seq=40 ttl=50 time=80.402 ms
ping_8  | 64 bytes from 99.24.18.25: seq=42 ttl=50 time=80.514 ms
ping_5  | 64 bytes from 99.24.18.25: seq=45 ttl=50 time=80.478 ms
ping_9  | 64 bytes from 99.24.18.25: seq=43 ttl=50 time=80.251 ms
ping_7  | 64 bytes from 99.24.18.25: seq=45 ttl=50 time=80.157 ms
ping_6  | 64 bytes from 99.24.18.25: seq=44 ttl=50 time=79.886 ms
ping_3  | 64 bytes from 99.24.18.25: seq=41 ttl=50 time=80.232 ms
ping_4  | 64 bytes from 99.24.18.25: seq=40 ttl=50 time=80.334 ms
ping_1  | 64 bytes from 99.24.18.25: seq=47 ttl=50 time=80.304 ms
ping_2  | 64 bytes from 99.24.18.25: seq=48 ttl=50 time=80.378 ms
ping_10 | 64 bytes from 99.24.18.25: seq=41 ttl=50 time=80.401 ms
ping_8  | 64 bytes from 99.24.18.25: seq=43 ttl=50 time=80.084 ms
ping_5  | 64 bytes from 99.24.18.25: seq=46 ttl=50 time=80.308 ms
ping_9  | 64 bytes from 99.24.18.25: seq=44 ttl=50 time=80.105 ms
ping_7  | 64 bytes from 99.24.18.25: seq=46 ttl=50 time=80.205 ms
ping_6  | 64 bytes from 99.24.18.25: seq=45 ttl=50 time=80.421 ms
ping_3  | 64 bytes from 99.24.18.25: seq=42 ttl=50 time=80.188 ms
ping_4  | 64 bytes from 99.24.18.25: seq=41 ttl=50 time=79.933 ms
ping_1  | 64 bytes from 99.24.18.25: seq=48 ttl=50 time=80.242 ms
ping_2  | 64 bytes from 99.24.18.25: seq=49 ttl=50 time=79.943 ms
ping_10 | 64 bytes from 99.24.18.25: seq=42 ttl=50 time=80.324 ms
ping_8  | 64 bytes from 99.24.18.25: seq=44 ttl=50 time=84.586 ms
ping_5  | 64 bytes from 99.24.18.25: seq=47 ttl=50 time=80.419 ms
ping_9  | 64 bytes from 99.24.18.25: seq=45 ttl=50 time=80.202 ms
ping_7  | 64 bytes from 99.24.18.25: seq=47 ttl=50 time=80.248 ms
ping_6  | 64 bytes from 99.24.18.25: seq=46 ttl=50 time=80.155 ms
ping_3  | 64 bytes from 99.24.18.25: seq=43 ttl=50 time=80.270 ms
ping_4  | 64 bytes from 99.24.18.25: seq=42 ttl=50 time=85.908 ms
ping_1  | 64 bytes from 99.24.18.25: seq=49 ttl=50 time=80.077 ms
ping_2  | 64 bytes from 99.24.18.25: seq=50 ttl=50 time=80.333 ms
ping_10 | 64 bytes from 99.24.18.25: seq=43 ttl=50 time=81.533 ms
ping_8  | 64 bytes from 99.24.18.25: seq=45 ttl=50 time=80.457 ms
ping_5  | 64 bytes from 99.24.18.25: seq=48 ttl=50 time=80.362 ms
ping_9  | 64 bytes from 99.24.18.25: seq=46 ttl=50 time=79.920 ms
ping_7  | 64 bytes from 99.24.18.25: seq=48 ttl=50 time=81.493 ms
ping_6  | 64 bytes from 99.24.18.25: seq=47 ttl=50 time=80.073 ms
ping_3  | 64 bytes from 99.24.18.25: seq=44 ttl=50 time=80.264 ms
ping_4  | 64 bytes from 99.24.18.25: seq=43 ttl=50 time=81.932 ms
ping_1  | 64 bytes from 99.24.18.25: seq=50 ttl=50 time=80.059 ms
ping_2  | 64 bytes from 99.24.18.25: seq=51 ttl=50 time=80.286 ms
ping_10 | 64 bytes from 99.24.18.25: seq=44 ttl=50 time=80.455 ms
ping_8  | 64 bytes from 99.24.18.25: seq=46 ttl=50 time=80.312 ms
ping_5  | 64 bytes from 99.24.18.25: seq=49 ttl=50 time=80.348 ms
ping_9  | 64 bytes from 99.24.18.25: seq=47 ttl=50 time=79.859 ms
ping_7  | 64 bytes from 99.24.18.25: seq=49 ttl=50 time=80.156 ms
ping_6  | 64 bytes from 99.24.18.25: seq=48 ttl=50 time=80.362 ms
ping_3  | 64 bytes from 99.24.18.25: seq=45 ttl=50 time=80.199 ms
ping_4  | 64 bytes from 99.24.18.25: seq=44 ttl=50 time=79.948 ms
ping_1  | 64 bytes from 99.24.18.25: seq=51 ttl=50 time=80.489 ms
ping_2  | 64 bytes from 99.24.18.25: seq=52 ttl=50 time=80.258 ms
ping_10 | 64 bytes from 99.24.18.25: seq=45 ttl=50 time=80.284 ms
ping_8  | 64 bytes from 99.24.18.25: seq=47 ttl=50 time=80.319 ms
ping_5  | 64 bytes from 99.24.18.25: seq=50 ttl=50 time=80.077 ms
ping_9  | 64 bytes from 99.24.18.25: seq=48 ttl=50 time=80.555 ms
ping_7  | 64 bytes from 99.24.18.25: seq=50 ttl=50 time=80.152 ms
ping_6  | 64 bytes from 99.24.18.25: seq=49 ttl=50 time=80.409 ms
ping_3  | 64 bytes from 99.24.18.25: seq=46 ttl=50 time=80.338 ms
ping_4  | 64 bytes from 99.24.18.25: seq=45 ttl=50 time=80.254 ms
ping_1  | 64 bytes from 99.24.18.25: seq=52 ttl=50 time=80.311 ms
ping_2  | 64 bytes from 99.24.18.25: seq=53 ttl=50 time=80.409 ms
ping_10 | 64 bytes from 99.24.18.25: seq=46 ttl=50 time=80.262 ms
ping_8  | 64 bytes from 99.24.18.25: seq=48 ttl=50 time=80.310 ms
ping_5  | 64 bytes from 99.24.18.25: seq=51 ttl=50 time=80.255 ms
ping_9  | 64 bytes from 99.24.18.25: seq=49 ttl=50 time=80.643 ms
ping_7  | 64 bytes from 99.24.18.25: seq=51 ttl=50 time=79.826 ms
ping_6  | 64 bytes from 99.24.18.25: seq=50 ttl=50 time=80.153 ms
ping_3  | 64 bytes from 99.24.18.25: seq=47 ttl=50 time=80.191 ms
ping_4  | 64 bytes from 99.24.18.25: seq=46 ttl=50 time=80.198 ms
ping_1  | 64 bytes from 99.24.18.25: seq=53 ttl=50 time=81.201 ms
ping_2  | 64 bytes from 99.24.18.25: seq=54 ttl=50 time=80.330 ms
ping_10 | 64 bytes from 99.24.18.25: seq=47 ttl=50 time=80.484 ms
ping_8  | 64 bytes from 99.24.18.25: seq=49 ttl=50 time=85.080 ms
ping_5  | 64 bytes from 99.24.18.25: seq=52 ttl=50 time=85.888 ms
ping_9  | 64 bytes from 99.24.18.25: seq=50 ttl=50 time=80.349 ms
ping_7  | 64 bytes from 99.24.18.25: seq=52 ttl=50 time=80.278 ms
ping_6  | 64 bytes from 99.24.18.25: seq=51 ttl=50 time=80.269 ms
ping_3  | 64 bytes from 99.24.18.25: seq=48 ttl=50 time=80.254 ms
ping_4  | 64 bytes from 99.24.18.25: seq=47 ttl=50 time=80.075 ms
ping_1  | 64 bytes from 99.24.18.25: seq=54 ttl=50 time=81.203 ms
ping_2  | 64 bytes from 99.24.18.25: seq=55 ttl=50 time=80.242 ms
ping_10 | 64 bytes from 99.24.18.25: seq=48 ttl=50 time=80.427 ms
ping_8  | 64 bytes from 99.24.18.25: seq=50 ttl=50 time=80.404 ms
ping_5  | 64 bytes from 99.24.18.25: seq=53 ttl=50 time=80.361 ms
ping_9  | 64 bytes from 99.24.18.25: seq=51 ttl=50 time=80.843 ms
ping_7  | 64 bytes from 99.24.18.25: seq=53 ttl=50 time=80.224 ms
ping_6  | 64 bytes from 99.24.18.25: seq=52 ttl=50 time=79.880 ms
ping_3  | 64 bytes from 99.24.18.25: seq=49 ttl=50 time=80.220 ms
ping_4  | 64 bytes from 99.24.18.25: seq=48 ttl=50 time=80.298 ms
ping_1  | 64 bytes from 99.24.18.25: seq=55 ttl=50 time=80.295 ms
ping_2  | 64 bytes from 99.24.18.25: seq=56 ttl=50 time=80.442 ms
ping_10 | 64 bytes from 99.24.18.25: seq=49 ttl=50 time=80.221 ms
ping_8  | 64 bytes from 99.24.18.25: seq=51 ttl=50 time=81.756 ms
ping_5  | 64 bytes from 99.24.18.25: seq=54 ttl=50 time=80.185 ms
ping_9  | 64 bytes from 99.24.18.25: seq=52 ttl=50 time=79.964 ms
ping_7  | 64 bytes from 99.24.18.25: seq=54 ttl=50 time=80.111 ms
ping_6  | 64 bytes from 99.24.18.25: seq=53 ttl=50 time=79.855 ms
ping_3  | 64 bytes from 99.24.18.25: seq=50 ttl=50 time=80.375 ms
ping_4  | 64 bytes from 99.24.18.25: seq=49 ttl=50 time=80.115 ms
ping_1  | 64 bytes from 99.24.18.25: seq=56 ttl=50 time=80.392 ms
ping_2  | 64 bytes from 99.24.18.25: seq=57 ttl=50 time=84.841 ms
ping_10 | 64 bytes from 99.24.18.25: seq=50 ttl=50 time=80.288 ms
ping_8  | 64 bytes from 99.24.18.25: seq=52 ttl=50 time=80.325 ms
ping_5  | 64 bytes from 99.24.18.25: seq=55 ttl=50 time=80.436 ms
ping_9  | 64 bytes from 99.24.18.25: seq=53 ttl=50 time=80.273 ms
ping_7  | 64 bytes from 99.24.18.25: seq=55 ttl=50 time=80.262 ms
ping_6  | 64 bytes from 99.24.18.25: seq=54 ttl=50 time=80.333 ms
ping_3  | 64 bytes from 99.24.18.25: seq=51 ttl=50 time=80.106 ms
ping_4  | 64 bytes from 99.24.18.25: seq=50 ttl=50 time=80.217 ms
ping_1  | 64 bytes from 99.24.18.25: seq=57 ttl=50 time=80.287 ms
ping_2  | 64 bytes from 99.24.18.25: seq=58 ttl=50 time=80.180 ms
ping_10 | 64 bytes from 99.24.18.25: seq=51 ttl=50 time=82.935 ms
ping_8  | 64 bytes from 99.24.18.25: seq=53 ttl=50 time=80.444 ms
ping_5  | 64 bytes from 99.24.18.25: seq=56 ttl=50 time=80.143 ms
ping_9  | 64 bytes from 99.24.18.25: seq=54 ttl=50 time=80.323 ms
ping_7  | 64 bytes from 99.24.18.25: seq=56 ttl=50 time=80.304 ms
ping_6  | 64 bytes from 99.24.18.25: seq=55 ttl=50 time=80.237 ms
ping_3  | 64 bytes from 99.24.18.25: seq=52 ttl=50 time=80.248 ms
ping_4  | 64 bytes from 99.24.18.25: seq=51 ttl=50 time=80.410 ms
ping_1  | 64 bytes from 99.24.18.25: seq=58 ttl=50 time=80.572 ms
ping_2  | 64 bytes from 99.24.18.25: seq=59 ttl=50 time=80.433 ms
ping_10 | 64 bytes from 99.24.18.25: seq=52 ttl=50 time=79.941 ms
ping_8  | 64 bytes from 99.24.18.25: seq=54 ttl=50 time=79.941 ms
ping_5  | 64 bytes from 99.24.18.25: seq=57 ttl=50 time=82.122 ms
ping_9  | 64 bytes from 99.24.18.25: seq=55 ttl=50 time=82.932 ms
ping_7  | 64 bytes from 99.24.18.25: seq=57 ttl=50 time=85.015 ms
ping_6  | 64 bytes from 99.24.18.25: seq=56 ttl=50 time=83.610 ms
ping_3  | 64 bytes from 99.24.18.25: seq=53 ttl=50 time=79.866 ms
ping_4  | 64 bytes from 99.24.18.25: seq=52 ttl=50 time=80.539 ms
ping_1  | 64 bytes from 99.24.18.25: seq=59 ttl=50 time=79.935 ms
ping_2  | 64 bytes from 99.24.18.25: seq=60 ttl=50 time=79.853 ms
ping_10 | 64 bytes from 99.24.18.25: seq=53 ttl=50 time=80.264 ms
ping_8  | 64 bytes from 99.24.18.25: seq=55 ttl=50 time=79.976 ms
ping_5  | 64 bytes from 99.24.18.25: seq=58 ttl=50 time=80.454 ms
ping_9  | 64 bytes from 99.24.18.25: seq=56 ttl=50 time=79.926 ms
ping_7  | 64 bytes from 99.24.18.25: seq=58 ttl=50 time=80.176 ms
ping_6  | 64 bytes from 99.24.18.25: seq=57 ttl=50 time=80.183 ms
ping_3  | 64 bytes from 99.24.18.25: seq=54 ttl=50 time=80.350 ms
ping_4  | 64 bytes from 99.24.18.25: seq=53 ttl=50 time=80.269 ms
ping_1  | 64 bytes from 99.24.18.25: seq=60 ttl=50 time=80.489 ms
ping_2  | 64 bytes from 99.24.18.25: seq=61 ttl=50 time=80.292 ms
ping_10 | 64 bytes from 99.24.18.25: seq=54 ttl=50 time=79.884 ms
ping_8  | 64 bytes from 99.24.18.25: seq=56 ttl=50 time=80.201 ms
ping_5  | 64 bytes from 99.24.18.25: seq=59 ttl=50 time=80.021 ms
ping_9  | 64 bytes from 99.24.18.25: seq=57 ttl=50 time=79.892 ms
ping_7  | 64 bytes from 99.24.18.25: seq=59 ttl=50 time=80.167 ms
ping_6  | 64 bytes from 99.24.18.25: seq=58 ttl=50 time=79.865 ms
ping_3  | 64 bytes from 99.24.18.25: seq=55 ttl=50 time=79.934 ms
ping_4  | 64 bytes from 99.24.18.25: seq=54 ttl=50 time=80.097 ms
ping_1  | 64 bytes from 99.24.18.25: seq=61 ttl=50 time=80.252 ms
ping_2  | 64 bytes from 99.24.18.25: seq=62 ttl=50 time=80.243 ms
ping_10 | 64 bytes from 99.24.18.25: seq=55 ttl=50 time=80.523 ms
ping_8  | 64 bytes from 99.24.18.25: seq=57 ttl=50 time=80.167 ms
ping_5  | 64 bytes from 99.24.18.25: seq=60 ttl=50 time=80.283 ms
ping_9  | 64 bytes from 99.24.18.25: seq=58 ttl=50 time=86.005 ms
ping_7  | 64 bytes from 99.24.18.25: seq=60 ttl=50 time=80.248 ms
ping_6  | 64 bytes from 99.24.18.25: seq=59 ttl=50 time=80.306 ms
ping_3  | 64 bytes from 99.24.18.25: seq=56 ttl=50 time=80.202 ms
ping_4  | 64 bytes from 99.24.18.25: seq=55 ttl=50 time=80.077 ms
ping_1  | 64 bytes from 99.24.18.25: seq=62 ttl=50 time=80.308 ms
ping_2  | 64 bytes from 99.24.18.25: seq=63 ttl=50 time=80.325 ms
ping_10 | 64 bytes from 99.24.18.25: seq=56 ttl=50 time=80.342 ms
ping_8  | 64 bytes from 99.24.18.25: seq=58 ttl=50 time=80.111 ms
ping_5  | 64 bytes from 99.24.18.25: seq=61 ttl=50 time=80.482 ms
ping_9  | 64 bytes from 99.24.18.25: seq=59 ttl=50 time=80.507 ms
ping_7  | 64 bytes from 99.24.18.25: seq=61 ttl=50 time=80.236 ms
ping_6  | 64 bytes from 99.24.18.25: seq=60 ttl=50 time=80.402 ms
ping_3  | 64 bytes from 99.24.18.25: seq=57 ttl=50 time=80.137 ms
ping_4  | 64 bytes from 99.24.18.25: seq=56 ttl=50 time=80.509 ms
ping_1  | 64 bytes from 99.24.18.25: seq=63 ttl=50 time=80.487 ms
ping_2  | 64 bytes from 99.24.18.25: seq=64 ttl=50 time=80.333 ms
ping_10 | 64 bytes from 99.24.18.25: seq=57 ttl=50 time=80.171 ms
ping_8  | 64 bytes from 99.24.18.25: seq=59 ttl=50 time=80.251 ms
ping_5  | 64 bytes from 99.24.18.25: seq=62 ttl=50 time=80.440 ms
ping_9  | 64 bytes from 99.24.18.25: seq=60 ttl=50 time=80.508 ms
ping_7  | 64 bytes from 99.24.18.25: seq=62 ttl=50 time=80.063 ms
ping_6  | 64 bytes from 99.24.18.25: seq=61 ttl=50 time=79.956 ms
ping_3  | 64 bytes from 99.24.18.25: seq=58 ttl=50 time=80.138 ms
ping_4  | 64 bytes from 99.24.18.25: seq=57 ttl=50 time=80.276 ms
ping_1  | 64 bytes from 99.24.18.25: seq=64 ttl=50 time=80.557 ms
ping_2  | 64 bytes from 99.24.18.25: seq=65 ttl=50 time=80.260 ms
ping_10 | 64 bytes from 99.24.18.25: seq=58 ttl=50 time=80.502 ms
ping_8  | 64 bytes from 99.24.18.25: seq=60 ttl=50 time=80.027 ms
ping_5  | 64 bytes from 99.24.18.25: seq=63 ttl=50 time=80.517 ms
ping_9  | 64 bytes from 99.24.18.25: seq=61 ttl=50 time=80.293 ms
ping_7  | 64 bytes from 99.24.18.25: seq=63 ttl=50 time=79.973 ms
ping_6  | 64 bytes from 99.24.18.25: seq=62 ttl=50 time=80.096 ms
ping_3  | 64 bytes from 99.24.18.25: seq=59 ttl=50 time=80.175 ms
ping_4  | 64 bytes from 99.24.18.25: seq=58 ttl=50 time=80.359 ms
ping_1  | 64 bytes from 99.24.18.25: seq=65 ttl=50 time=80.380 ms
ping_2  | 64 bytes from 99.24.18.25: seq=66 ttl=50 time=80.190 ms
ping_10 | 64 bytes from 99.24.18.25: seq=59 ttl=50 time=80.498 ms
ping_8  | 64 bytes from 99.24.18.25: seq=61 ttl=50 time=80.435 ms
ping_5  | 64 bytes from 99.24.18.25: seq=64 ttl=50 time=80.232 ms
ping_9  | 64 bytes from 99.24.18.25: seq=62 ttl=50 time=80.253 ms
ping_7  | 64 bytes from 99.24.18.25: seq=64 ttl=50 time=80.330 ms
ping_6  | 64 bytes from 99.24.18.25: seq=63 ttl=50 time=80.124 ms
ping_3  | 64 bytes from 99.24.18.25: seq=60 ttl=50 time=80.223 ms
ping_4  | 64 bytes from 99.24.18.25: seq=59 ttl=50 time=80.285 ms
ping_1  | 64 bytes from 99.24.18.25: seq=66 ttl=50 time=80.372 ms
ping_2  | 64 bytes from 99.24.18.25: seq=67 ttl=50 time=80.177 ms
ping_10 | 64 bytes from 99.24.18.25: seq=60 ttl=50 time=80.566 ms
ping_8  | 64 bytes from 99.24.18.25: seq=62 ttl=50 time=80.162 ms
ping_5  | 64 bytes from 99.24.18.25: seq=65 ttl=50 time=80.330 ms
ping_9  | 64 bytes from 99.24.18.25: seq=63 ttl=50 time=79.925 ms
ping_7  | 64 bytes from 99.24.18.25: seq=65 ttl=50 time=80.195 ms
ping_6  | 64 bytes from 99.24.18.25: seq=64 ttl=50 time=80.326 ms
ping_3  | 64 bytes from 99.24.18.25: seq=61 ttl=50 time=79.947 ms
ping_4  | 64 bytes from 99.24.18.25: seq=60 ttl=50 time=79.996 ms
ping_1  | 64 bytes from 99.24.18.25: seq=67 ttl=50 time=80.296 ms
ping_2  | 64 bytes from 99.24.18.25: seq=68 ttl=50 time=80.216 ms
ping_10 | 64 bytes from 99.24.18.25: seq=61 ttl=50 time=79.945 ms
ping_8  | 64 bytes from 99.24.18.25: seq=63 ttl=50 time=81.053 ms
ping_5  | 64 bytes from 99.24.18.25: seq=66 ttl=50 time=80.495 ms
ping_9  | 64 bytes from 99.24.18.25: seq=64 ttl=50 time=80.334 ms
ping_7  | 64 bytes from 99.24.18.25: seq=66 ttl=50 time=80.349 ms
ping_6  | 64 bytes from 99.24.18.25: seq=65 ttl=50 time=80.271 ms
ping_3  | 64 bytes from 99.24.18.25: seq=62 ttl=50 time=80.256 ms
ping_4  | 64 bytes from 99.24.18.25: seq=61 ttl=50 time=80.387 ms
ping_1  | 64 bytes from 99.24.18.25: seq=68 ttl=50 time=81.290 ms
ping_2  | 64 bytes from 99.24.18.25: seq=69 ttl=50 time=80.288 ms
ping_10 | 64 bytes from 99.24.18.25: seq=62 ttl=50 time=81.920 ms
ping_8  | 64 bytes from 99.24.18.25: seq=64 ttl=50 time=80.436 ms
ping_5  | 64 bytes from 99.24.18.25: seq=67 ttl=50 time=80.359 ms
ping_9  | 64 bytes from 99.24.18.25: seq=65 ttl=50 time=80.278 ms
ping_7  | 64 bytes from 99.24.18.25: seq=67 ttl=50 time=80.334 ms
ping_6  | 64 bytes from 99.24.18.25: seq=66 ttl=50 time=80.527 ms
ping_3  | 64 bytes from 99.24.18.25: seq=63 ttl=50 time=80.349 ms
ping_4  | 64 bytes from 99.24.18.25: seq=62 ttl=50 time=79.993 ms
ping_1  | 64 bytes from 99.24.18.25: seq=69 ttl=50 time=80.308 ms
ping_2  | 64 bytes from 99.24.18.25: seq=70 ttl=50 time=80.137 ms
ping_10 | 64 bytes from 99.24.18.25: seq=63 ttl=50 time=80.301 ms
ping_8  | 64 bytes from 99.24.18.25: seq=65 ttl=50 time=80.567 ms
ping_5  | 64 bytes from 99.24.18.25: seq=68 ttl=50 time=79.942 ms
ping_9  | 64 bytes from 99.24.18.25: seq=66 ttl=50 time=80.691 ms
ping_7  | 64 bytes from 99.24.18.25: seq=68 ttl=50 time=80.935 ms
ping_6  | 64 bytes from 99.24.18.25: seq=67 ttl=50 time=80.156 ms
ping_3  | 64 bytes from 99.24.18.25: seq=64 ttl=50 time=80.300 ms
ping_4  | 64 bytes from 99.24.18.25: seq=63 ttl=50 time=80.319 ms
ping_1  | 64 bytes from 99.24.18.25: seq=70 ttl=50 time=80.328 ms
ping_2  | 64 bytes from 99.24.18.25: seq=71 ttl=50 time=80.559 ms
ping_10 | 64 bytes from 99.24.18.25: seq=64 ttl=50 time=80.223 ms
ping_8  | 64 bytes from 99.24.18.25: seq=66 ttl=50 time=80.259 ms
ping_5  | 64 bytes from 99.24.18.25: seq=69 ttl=50 time=80.472 ms
ping_9  | 64 bytes from 99.24.18.25: seq=67 ttl=50 time=80.307 ms
ping_7  | 64 bytes from 99.24.18.25: seq=69 ttl=50 time=80.181 ms
ping_6  | 64 bytes from 99.24.18.25: seq=68 ttl=50 time=80.534 ms
ping_3  | 64 bytes from 99.24.18.25: seq=65 ttl=50 time=82.273 ms
ping_4  | 64 bytes from 99.24.18.25: seq=64 ttl=50 time=80.013 ms
ping_1  | 64 bytes from 99.24.18.25: seq=71 ttl=50 time=80.139 ms
ping_2  | 64 bytes from 99.24.18.25: seq=72 ttl=50 time=80.320 ms
ping_10 | 64 bytes from 99.24.18.25: seq=65 ttl=50 time=80.517 ms
ping_8  | 64 bytes from 99.24.18.25: seq=67 ttl=50 time=80.225 ms
ping_5  | 64 bytes from 99.24.18.25: seq=70 ttl=50 time=81.027 ms
ping_9  | 64 bytes from 99.24.18.25: seq=68 ttl=50 time=80.497 ms
ping_7  | 64 bytes from 99.24.18.25: seq=70 ttl=50 time=80.199 ms
ping_6  | 64 bytes from 99.24.18.25: seq=69 ttl=50 time=80.540 ms
ping_3  | 64 bytes from 99.24.18.25: seq=66 ttl=50 time=80.362 ms
ping_4  | 64 bytes from 99.24.18.25: seq=65 ttl=50 time=80.364 ms
ping_1  | 64 bytes from 99.24.18.25: seq=72 ttl=50 time=80.526 ms
ping_2  | 64 bytes from 99.24.18.25: seq=73 ttl=50 time=80.578 ms
ping_10 | 64 bytes from 99.24.18.25: seq=66 ttl=50 time=85.435 ms
ping_8  | 64 bytes from 99.24.18.25: seq=68 ttl=50 time=80.578 ms
ping_5  | 64 bytes from 99.24.18.25: seq=71 ttl=50 time=80.586 ms
ping_9  | 64 bytes from 99.24.18.25: seq=69 ttl=50 time=82.389 ms
ping_7  | 64 bytes from 99.24.18.25: seq=71 ttl=50 time=80.282 ms
ping_6  | 64 bytes from 99.24.18.25: seq=70 ttl=50 time=80.121 ms
ping_3  | 64 bytes from 99.24.18.25: seq=67 ttl=50 time=80.653 ms
ping_4  | 64 bytes from 99.24.18.25: seq=66 ttl=50 time=79.984 ms
ping_1  | 64 bytes from 99.24.18.25: seq=73 ttl=50 time=80.417 ms
ping_2  | 64 bytes from 99.24.18.25: seq=74 ttl=50 time=80.041 ms
ping_10 | 64 bytes from 99.24.18.25: seq=67 ttl=50 time=80.005 ms
ping_8  | 64 bytes from 99.24.18.25: seq=69 ttl=50 time=80.847 ms
ping_5  | 64 bytes from 99.24.18.25: seq=72 ttl=50 time=80.333 ms
ping_9  | 64 bytes from 99.24.18.25: seq=70 ttl=50 time=80.250 ms
ping_7  | 64 bytes from 99.24.18.25: seq=72 ttl=50 time=80.262 ms
ping_6  | 64 bytes from 99.24.18.25: seq=71 ttl=50 time=80.339 ms
ping_3  | 64 bytes from 99.24.18.25: seq=68 ttl=50 time=80.751 ms
ping_4  | 64 bytes from 99.24.18.25: seq=67 ttl=50 time=80.475 ms
ping_1  | 64 bytes from 99.24.18.25: seq=74 ttl=50 time=80.424 ms
ping_2  | 64 bytes from 99.24.18.25: seq=75 ttl=50 time=80.349 ms
ping_10 | 64 bytes from 99.24.18.25: seq=68 ttl=50 time=80.294 ms
ping_8  | 64 bytes from 99.24.18.25: seq=70 ttl=50 time=80.334 ms
ping_5  | 64 bytes from 99.24.18.25: seq=73 ttl=50 time=80.473 ms
ping_9  | 64 bytes from 99.24.18.25: seq=71 ttl=50 time=80.163 ms
ping_7  | 64 bytes from 99.24.18.25: seq=73 ttl=50 time=80.242 ms
ping_6  | 64 bytes from 99.24.18.25: seq=72 ttl=50 time=80.291 ms
ping_3  | 64 bytes from 99.24.18.25: seq=69 ttl=50 time=80.380 ms
ping_4  | 64 bytes from 99.24.18.25: seq=68 ttl=50 time=80.032 ms
ping_1  | 64 bytes from 99.24.18.25: seq=75 ttl=50 time=80.259 ms
ping_2  | 64 bytes from 99.24.18.25: seq=76 ttl=50 time=80.363 ms
ping_10 | 64 bytes from 99.24.18.25: seq=69 ttl=50 time=80.289 ms
ping_8  | 64 bytes from 99.24.18.25: seq=71 ttl=50 time=80.313 ms
ping_5  | 64 bytes from 99.24.18.25: seq=74 ttl=50 time=80.500 ms
ping_9  | 64 bytes from 99.24.18.25: seq=72 ttl=50 time=80.702 ms
ping_7  | 64 bytes from 99.24.18.25: seq=74 ttl=50 time=79.923 ms
ping_6  | 64 bytes from 99.24.18.25: seq=73 ttl=50 time=80.136 ms
ping_3  | 64 bytes from 99.24.18.25: seq=70 ttl=50 time=80.364 ms
ping_4  | 64 bytes from 99.24.18.25: seq=69 ttl=50 time=79.871 ms
ping_1  | 64 bytes from 99.24.18.25: seq=76 ttl=50 time=80.050 ms
ping_2  | 64 bytes from 99.24.18.25: seq=77 ttl=50 time=80.093 ms
ping_10 | 64 bytes from 99.24.18.25: seq=70 ttl=50 time=79.955 ms
ping_8  | 64 bytes from 99.24.18.25: seq=72 ttl=50 time=80.476 ms
ping_5  | 64 bytes from 99.24.18.25: seq=75 ttl=50 time=80.228 ms
ping_9  | 64 bytes from 99.24.18.25: seq=73 ttl=50 time=80.419 ms
ping_7  | 64 bytes from 99.24.18.25: seq=75 ttl=50 time=80.282 ms
ping_6  | 64 bytes from 99.24.18.25: seq=74 ttl=50 time=80.340 ms
ping_3  | 64 bytes from 99.24.18.25: seq=71 ttl=50 time=80.253 ms
ping_4  | 64 bytes from 99.24.18.25: seq=70 ttl=50 time=80.505 ms
ping_1  | 64 bytes from 99.24.18.25: seq=77 ttl=50 time=80.338 ms
ping_2  | 64 bytes from 99.24.18.25: seq=78 ttl=50 time=80.471 ms
ping_10 | 64 bytes from 99.24.18.25: seq=71 ttl=50 time=80.293 ms
ping_8  | 64 bytes from 99.24.18.25: seq=73 ttl=50 time=80.361 ms
ping_5  | 64 bytes from 99.24.18.25: seq=76 ttl=50 time=83.088 ms
ping_9  | 64 bytes from 99.24.18.25: seq=74 ttl=50 time=80.352 ms
ping_7  | 64 bytes from 99.24.18.25: seq=76 ttl=50 time=79.930 ms
ping_6  | 64 bytes from 99.24.18.25: seq=75 ttl=50 time=80.399 ms
ping_3  | 64 bytes from 99.24.18.25: seq=72 ttl=50 time=80.221 ms
ping_4  | 64 bytes from 99.24.18.25: seq=71 ttl=50 time=80.307 ms
ping_1  | 64 bytes from 99.24.18.25: seq=78 ttl=50 time=80.428 ms
ping_2  | 64 bytes from 99.24.18.25: seq=79 ttl=50 time=80.433 ms
ping_10 | 64 bytes from 99.24.18.25: seq=72 ttl=50 time=80.104 ms
ping_8  | 64 bytes from 99.24.18.25: seq=74 ttl=50 time=80.179 ms
ping_5  | 64 bytes from 99.24.18.25: seq=77 ttl=50 time=80.424 ms
ping_9  | 64 bytes from 99.24.18.25: seq=75 ttl=50 time=79.933 ms
ping_7  | 64 bytes from 99.24.18.25: seq=77 ttl=50 time=80.136 ms
ping_6  | 64 bytes from 99.24.18.25: seq=76 ttl=50 time=80.545 ms
ping_3  | 64 bytes from 99.24.18.25: seq=73 ttl=50 time=80.359 ms
ping_4  | 64 bytes from 99.24.18.25: seq=72 ttl=50 time=80.304 ms
ping_1  | 64 bytes from 99.24.18.25: seq=79 ttl=50 time=80.462 ms
ping_2  | 64 bytes from 99.24.18.25: seq=80 ttl=50 time=80.471 ms
ping_10 | 64 bytes from 99.24.18.25: seq=73 ttl=50 time=80.508 ms
ping_8  | 64 bytes from 99.24.18.25: seq=75 ttl=50 time=80.321 ms
ping_5  | 64 bytes from 99.24.18.25: seq=78 ttl=50 time=80.465 ms
ping_9  | 64 bytes from 99.24.18.25: seq=76 ttl=50 time=80.457 ms
ping_7  | 64 bytes from 99.24.18.25: seq=78 ttl=50 time=80.258 ms
ping_6  | 64 bytes from 99.24.18.25: seq=77 ttl=50 time=80.316 ms
ping_3  | 64 bytes from 99.24.18.25: seq=74 ttl=50 time=80.234 ms
ping_4  | 64 bytes from 99.24.18.25: seq=73 ttl=50 time=80.382 ms
ping_1  | 64 bytes from 99.24.18.25: seq=80 ttl=50 time=80.087 ms
ping_2  | 64 bytes from 99.24.18.25: seq=81 ttl=50 time=80.129 ms
ping_10 | 64 bytes from 99.24.18.25: seq=74 ttl=50 time=79.979 ms
ping_8  | 64 bytes from 99.24.18.25: seq=76 ttl=50 time=80.263 ms
ping_5  | 64 bytes from 99.24.18.25: seq=79 ttl=50 time=80.349 ms
ping_9  | 64 bytes from 99.24.18.25: seq=77 ttl=50 time=80.343 ms
ping_7  | 64 bytes from 99.24.18.25: seq=79 ttl=50 time=79.997 ms
ping_6  | 64 bytes from 99.24.18.25: seq=78 ttl=50 time=80.482 ms
ping_3  | 64 bytes from 99.24.18.25: seq=75 ttl=50 time=80.356 ms
ping_4  | 64 bytes from 99.24.18.25: seq=74 ttl=50 time=80.129 ms
ping_1  | 64 bytes from 99.24.18.25: seq=81 ttl=50 time=80.363 ms
ping_2  | 64 bytes from 99.24.18.25: seq=82 ttl=50 time=80.494 ms
ping_10 | 64 bytes from 99.24.18.25: seq=75 ttl=50 time=80.331 ms
ping_8  | 64 bytes from 99.24.18.25: seq=77 ttl=50 time=80.424 ms
ping_5  | 64 bytes from 99.24.18.25: seq=80 ttl=50 time=80.305 ms
ping_9  | 64 bytes from 99.24.18.25: seq=78 ttl=50 time=81.738 ms
ping_7  | 64 bytes from 99.24.18.25: seq=80 ttl=50 time=80.319 ms
ping_6  | 64 bytes from 99.24.18.25: seq=79 ttl=50 time=80.358 ms
ping_3  | 64 bytes from 99.24.18.25: seq=76 ttl=50 time=80.414 ms
ping_4  | 64 bytes from 99.24.18.25: seq=75 ttl=50 time=80.447 ms
ping_1  | 64 bytes from 99.24.18.25: seq=82 ttl=50 time=80.020 ms
ping_2  | 64 bytes from 99.24.18.25: seq=83 ttl=50 time=80.486 ms
ping_10 | 64 bytes from 99.24.18.25: seq=76 ttl=50 time=80.127 ms
ping_8  | 64 bytes from 99.24.18.25: seq=78 ttl=50 time=80.303 ms
ping_5  | 64 bytes from 99.24.18.25: seq=81 ttl=50 time=79.983 ms
ping_9  | 64 bytes from 99.24.18.25: seq=79 ttl=50 time=80.460 ms
ping_7  | 64 bytes from 99.24.18.25: seq=81 ttl=50 time=80.233 ms
ping_6  | 64 bytes from 99.24.18.25: seq=80 ttl=50 time=80.236 ms
ping_3  | 64 bytes from 99.24.18.25: seq=77 ttl=50 time=80.466 ms
ping_4  | 64 bytes from 99.24.18.25: seq=76 ttl=50 time=79.993 ms
ping_1  | 64 bytes from 99.24.18.25: seq=83 ttl=50 time=80.521 ms
ping_2  | 64 bytes from 99.24.18.25: seq=84 ttl=50 time=80.280 ms
ping_10 | 64 bytes from 99.24.18.25: seq=77 ttl=50 time=79.942 ms
ping_8  | 64 bytes from 99.24.18.25: seq=79 ttl=50 time=80.136 ms
ping_5  | 64 bytes from 99.24.18.25: seq=82 ttl=50 time=79.969 ms
ping_9  | 64 bytes from 99.24.18.25: seq=80 ttl=50 time=80.276 ms
ping_7  | 64 bytes from 99.24.18.25: seq=82 ttl=50 time=80.092 ms
ping_6  | 64 bytes from 99.24.18.25: seq=81 ttl=50 time=80.372 ms
ping_3  | 64 bytes from 99.24.18.25: seq=78 ttl=50 time=81.533 ms
ping_4  | 64 bytes from 99.24.18.25: seq=77 ttl=50 time=80.458 ms
ping_1  | 64 bytes from 99.24.18.25: seq=84 ttl=50 time=80.314 ms
ping_2  | 64 bytes from 99.24.18.25: seq=85 ttl=50 time=80.281 ms
ping_10 | 64 bytes from 99.24.18.25: seq=78 ttl=50 time=80.248 ms
ping_8  | 64 bytes from 99.24.18.25: seq=80 ttl=50 time=80.324 ms
ping_5  | 64 bytes from 99.24.18.25: seq=83 ttl=50 time=80.156 ms
ping_9  | 64 bytes from 99.24.18.25: seq=81 ttl=50 time=80.246 ms
ping_7  | 64 bytes from 99.24.18.25: seq=83 ttl=50 time=80.224 ms
ping_6  | 64 bytes from 99.24.18.25: seq=82 ttl=50 time=80.110 ms
ping_3  | 64 bytes from 99.24.18.25: seq=79 ttl=50 time=80.388 ms
ping_4  | 64 bytes from 99.24.18.25: seq=78 ttl=50 time=79.961 ms
ping_1  | 64 bytes from 99.24.18.25: seq=85 ttl=50 time=79.988 ms
ping_2  | 64 bytes from 99.24.18.25: seq=86 ttl=50 time=80.558 ms
ping_10 | 64 bytes from 99.24.18.25: seq=79 ttl=50 time=80.508 ms
ping_8  | 64 bytes from 99.24.18.25: seq=81 ttl=50 time=79.886 ms
ping_5  | 64 bytes from 99.24.18.25: seq=84 ttl=50 time=80.003 ms
ping_9  | 64 bytes from 99.24.18.25: seq=82 ttl=50 time=80.504 ms
ping_7  | 64 bytes from 99.24.18.25: seq=84 ttl=50 time=79.946 ms
ping_6  | 64 bytes from 99.24.18.25: seq=83 ttl=50 time=80.188 ms
ping_3  | 64 bytes from 99.24.18.25: seq=80 ttl=50 time=80.392 ms
ping_4  | 64 bytes from 99.24.18.25: seq=79 ttl=50 time=80.290 ms
ping_1  | 64 bytes from 99.24.18.25: seq=86 ttl=50 time=80.313 ms
ping_2  | 64 bytes from 99.24.18.25: seq=87 ttl=50 time=80.083 ms
ping_10 | 64 bytes from 99.24.18.25: seq=80 ttl=50 time=80.271 ms
ping_8  | 64 bytes from 99.24.18.25: seq=82 ttl=50 time=80.713 ms
ping_5  | 64 bytes from 99.24.18.25: seq=85 ttl=50 time=80.179 ms
ping_9  | 64 bytes from 99.24.18.25: seq=83 ttl=50 time=79.938 ms
ping_7  | 64 bytes from 99.24.18.25: seq=85 ttl=50 time=80.071 ms
ping_6  | 64 bytes from 99.24.18.25: seq=84 ttl=50 time=79.891 ms
ping_3  | 64 bytes from 99.24.18.25: seq=81 ttl=50 time=80.076 ms
ping_4  | 64 bytes from 99.24.18.25: seq=80 ttl=50 time=80.039 ms
ping_1  | 64 bytes from 99.24.18.25: seq=87 ttl=50 time=80.317 ms
ping_2  | 64 bytes from 99.24.18.25: seq=88 ttl=50 time=80.088 ms
ping_10 | 64 bytes from 99.24.18.25: seq=81 ttl=50 time=80.553 ms
ping_8  | 64 bytes from 99.24.18.25: seq=83 ttl=50 time=80.455 ms
ping_5  | 64 bytes from 99.24.18.25: seq=86 ttl=50 time=80.359 ms
ping_9  | 64 bytes from 99.24.18.25: seq=84 ttl=50 time=80.550 ms
ping_7  | 64 bytes from 99.24.18.25: seq=86 ttl=50 time=80.255 ms
ping_6  | 64 bytes from 99.24.18.25: seq=85 ttl=50 time=80.137 ms
ping_3  | 64 bytes from 99.24.18.25: seq=82 ttl=50 time=80.334 ms
ping_4  | 64 bytes from 99.24.18.25: seq=81 ttl=50 time=80.456 ms
ping_1  | 64 bytes from 99.24.18.25: seq=88 ttl=50 time=80.416 ms
ping_2  | 64 bytes from 99.24.18.25: seq=89 ttl=50 time=81.297 ms
ping_10 | 64 bytes from 99.24.18.25: seq=82 ttl=50 time=79.835 ms
ping_8  | 64 bytes from 99.24.18.25: seq=84 ttl=50 time=79.937 ms
ping_5  | 64 bytes from 99.24.18.25: seq=87 ttl=50 time=80.360 ms
ping_9  | 64 bytes from 99.24.18.25: seq=85 ttl=50 time=80.411 ms
ping_7  | 64 bytes from 99.24.18.25: seq=87 ttl=50 time=80.262 ms
ping_6  | 64 bytes from 99.24.18.25: seq=86 ttl=50 time=80.257 ms
ping_3  | 64 bytes from 99.24.18.25: seq=83 ttl=50 time=80.167 ms
ping_4  | 64 bytes from 99.24.18.25: seq=82 ttl=50 time=80.143 ms
ping_1  | 64 bytes from 99.24.18.25: seq=89 ttl=50 time=80.037 ms
ping_2  | 64 bytes from 99.24.18.25: seq=90 ttl=50 time=80.028 ms
ping_10 | 64 bytes from 99.24.18.25: seq=83 ttl=50 time=80.420 ms
ping_8  | 64 bytes from 99.24.18.25: seq=85 ttl=50 time=80.311 ms
ping_5  | 64 bytes from 99.24.18.25: seq=88 ttl=50 time=80.398 ms
ping_9  | 64 bytes from 99.24.18.25: seq=86 ttl=50 time=80.250 ms
ping_7  | 64 bytes from 99.24.18.25: seq=88 ttl=50 time=80.237 ms
ping_6  | 64 bytes from 99.24.18.25: seq=87 ttl=50 time=80.435 ms
ping_3  | 64 bytes from 99.24.18.25: seq=84 ttl=50 time=80.482 ms
ping_4  | 64 bytes from 99.24.18.25: seq=83 ttl=50 time=79.946 ms
ping_1  | 64 bytes from 99.24.18.25: seq=90 ttl=50 time=80.242 ms
ping_2  | 64 bytes from 99.24.18.25: seq=91 ttl=50 time=80.514 ms
ping_10 | 64 bytes from 99.24.18.25: seq=84 ttl=50 time=79.998 ms
ping_8  | 64 bytes from 99.24.18.25: seq=86 ttl=50 time=80.534 ms
ping_5  | 64 bytes from 99.24.18.25: seq=89 ttl=50 time=80.012 ms
ping_9  | 64 bytes from 99.24.18.25: seq=87 ttl=50 time=79.897 ms
ping_7  | 64 bytes from 99.24.18.25: seq=89 ttl=50 time=79.900 ms
ping_6  | 64 bytes from 99.24.18.25: seq=88 ttl=50 time=79.932 ms
ping_3  | 64 bytes from 99.24.18.25: seq=85 ttl=50 time=79.897 ms
ping_4  | 64 bytes from 99.24.18.25: seq=84 ttl=50 time=79.985 ms
ping_1  | 64 bytes from 99.24.18.25: seq=91 ttl=50 time=80.016 ms
ping_2  | 64 bytes from 99.24.18.25: seq=92 ttl=50 time=79.881 ms
ping_10 | 64 bytes from 99.24.18.25: seq=85 ttl=50 time=80.256 ms
ping_8  | 64 bytes from 99.24.18.25: seq=87 ttl=50 time=80.434 ms
ping_5  | 64 bytes from 99.24.18.25: seq=90 ttl=50 time=80.397 ms
ping_9  | 64 bytes from 99.24.18.25: seq=88 ttl=50 time=80.014 ms
ping_7  | 64 bytes from 99.24.18.25: seq=90 ttl=50 time=79.974 ms
ping_6  | 64 bytes from 99.24.18.25: seq=89 ttl=50 time=79.939 ms
ping_3  | 64 bytes from 99.24.18.25: seq=86 ttl=50 time=80.418 ms
ping_4  | 64 bytes from 99.24.18.25: seq=85 ttl=50 time=80.586 ms
ping_1  | 64 bytes from 99.24.18.25: seq=92 ttl=50 time=79.999 ms
ping_2  | 64 bytes from 99.24.18.25: seq=93 ttl=50 time=80.147 ms
ping_10 | 64 bytes from 99.24.18.25: seq=86 ttl=50 time=80.076 ms
ping_8  | 64 bytes from 99.24.18.25: seq=88 ttl=50 time=80.515 ms
ping_5  | 64 bytes from 99.24.18.25: seq=91 ttl=50 time=80.345 ms
ping_9  | 64 bytes from 99.24.18.25: seq=89 ttl=50 time=80.307 ms
ping_7  | 64 bytes from 99.24.18.25: seq=91 ttl=50 time=80.241 ms
ping_6  | 64 bytes from 99.24.18.25: seq=90 ttl=50 time=80.314 ms
ping_3  | 64 bytes from 99.24.18.25: seq=87 ttl=50 time=80.232 ms
ping_4  | 64 bytes from 99.24.18.25: seq=86 ttl=50 time=80.502 ms
ping_1  | 64 bytes from 99.24.18.25: seq=93 ttl=50 time=80.332 ms
ping_2  | 64 bytes from 99.24.18.25: seq=94 ttl=50 time=80.555 ms
ping_10 | 64 bytes from 99.24.18.25: seq=87 ttl=50 time=79.948 ms
ping_8  | 64 bytes from 99.24.18.25: seq=89 ttl=50 time=80.411 ms
ping_5  | 64 bytes from 99.24.18.25: seq=92 ttl=50 time=79.942 ms
ping_9  | 64 bytes from 99.24.18.25: seq=90 ttl=50 time=79.824 ms
ping_7  | 64 bytes from 99.24.18.25: seq=92 ttl=50 time=80.203 ms
ping_6  | 64 bytes from 99.24.18.25: seq=91 ttl=50 time=80.149 ms
ping_3  | 64 bytes from 99.24.18.25: seq=88 ttl=50 time=80.507 ms
ping_4  | 64 bytes from 99.24.18.25: seq=87 ttl=50 time=80.916 ms
ping_1  | 64 bytes from 99.24.18.25: seq=94 ttl=50 time=80.366 ms
ping_2  | 64 bytes from 99.24.18.25: seq=95 ttl=50 time=80.421 ms
ping_10 | 64 bytes from 99.24.18.25: seq=88 ttl=50 time=80.203 ms
ping_8  | 64 bytes from 99.24.18.25: seq=90 ttl=50 time=83.057 ms
ping_5  | 64 bytes from 99.24.18.25: seq=93 ttl=50 time=80.435 ms
ping_9  | 64 bytes from 99.24.18.25: seq=91 ttl=50 time=80.367 ms
ping_7  | 64 bytes from 99.24.18.25: seq=93 ttl=50 time=80.132 ms
ping_6  | 64 bytes from 99.24.18.25: seq=92 ttl=50 time=80.352 ms
ping_3  | 64 bytes from 99.24.18.25: seq=89 ttl=50 time=80.244 ms
ping_4  | 64 bytes from 99.24.18.25: seq=88 ttl=50 time=80.265 ms
ping_1  | 64 bytes from 99.24.18.25: seq=95 ttl=50 time=80.258 ms
ping_2  | 64 bytes from 99.24.18.25: seq=96 ttl=50 time=79.965 ms
ping_10 | 64 bytes from 99.24.18.25: seq=89 ttl=50 time=80.107 ms
ping_8  | 64 bytes from 99.24.18.25: seq=91 ttl=50 time=80.364 ms
ping_5  | 64 bytes from 99.24.18.25: seq=94 ttl=50 time=80.393 ms
ping_9  | 64 bytes from 99.24.18.25: seq=92 ttl=50 time=80.376 ms
ping_7  | 64 bytes from 99.24.18.25: seq=94 ttl=50 time=80.278 ms
ping_6  | 64 bytes from 99.24.18.25: seq=93 ttl=50 time=90.227 ms
ping_3  | 64 bytes from 99.24.18.25: seq=90 ttl=50 time=80.148 ms
ping_4  | 64 bytes from 99.24.18.25: seq=89 ttl=50 time=80.261 ms
ping_1  | 64 bytes from 99.24.18.25: seq=96 ttl=50 time=80.395 ms
ping_2  | 64 bytes from 99.24.18.25: seq=97 ttl=50 time=79.963 ms
ping_10 | 64 bytes from 99.24.18.25: seq=90 ttl=50 time=80.100 ms
ping_8  | 64 bytes from 99.24.18.25: seq=92 ttl=50 time=80.279 ms
ping_5  | 64 bytes from 99.24.18.25: seq=95 ttl=50 time=80.314 ms
ping_9  | 64 bytes from 99.24.18.25: seq=93 ttl=50 time=80.397 ms
ping_7  | 64 bytes from 99.24.18.25: seq=95 ttl=50 time=80.237 ms
ping_6  | 64 bytes from 99.24.18.25: seq=94 ttl=50 time=80.027 ms
ping_3  | 64 bytes from 99.24.18.25: seq=91 ttl=50 time=79.936 ms
ping_4  | 64 bytes from 99.24.18.25: seq=90 ttl=50 time=79.977 ms
ping_1  | 64 bytes from 99.24.18.25: seq=97 ttl=50 time=80.196 ms
ping_2  | 64 bytes from 99.24.18.25: seq=98 ttl=50 time=81.706 ms
ping_10 | 64 bytes from 99.24.18.25: seq=91 ttl=50 time=80.139 ms
ping_8  | 64 bytes from 99.24.18.25: seq=93 ttl=50 time=80.328 ms
ping_5  | 64 bytes from 99.24.18.25: seq=96 ttl=50 time=80.172 ms
ping_9  | 64 bytes from 99.24.18.25: seq=94 ttl=50 time=80.377 ms
ping_7  | 64 bytes from 99.24.18.25: seq=96 ttl=50 time=80.243 ms
ping_6  | 64 bytes from 99.24.18.25: seq=95 ttl=50 time=80.311 ms
ping_3  | 64 bytes from 99.24.18.25: seq=92 ttl=50 time=80.322 ms
ping_4  | 64 bytes from 99.24.18.25: seq=91 ttl=50 time=80.197 ms
ping_1  | 64 bytes from 99.24.18.25: seq=98 ttl=50 time=80.063 ms
ping_2  | 64 bytes from 99.24.18.25: seq=99 ttl=50 time=87.346 ms
ping_2  | 
ping_2  | --- nyc.speedtest.sbcglobal.net ping statistics ---
ping_2  | 100 packets transmitted, 100 packets received, 0% packet loss
ping_2  | round-trip min/avg/max = 79.812/80.405/87.346 ms
ping_10 | 64 bytes from 99.24.18.25: seq=92 ttl=50 time=79.858 ms
ping_8  | 64 bytes from 99.24.18.25: seq=94 ttl=50 time=79.847 ms
ping_5  | 64 bytes from 99.24.18.25: seq=97 ttl=50 time=80.108 ms
softwareoverhead_ping_2 exited with code 0
ping_9  | 64 bytes from 99.24.18.25: seq=95 ttl=50 time=79.995 ms
ping_7  | 64 bytes from 99.24.18.25: seq=97 ttl=50 time=80.180 ms
ping_6  | 64 bytes from 99.24.18.25: seq=96 ttl=50 time=80.224 ms
ping_3  | 64 bytes from 99.24.18.25: seq=93 ttl=50 time=79.933 ms
ping_4  | 64 bytes from 99.24.18.25: seq=92 ttl=50 time=79.922 ms
ping_1  | 64 bytes from 99.24.18.25: seq=99 ttl=50 time=79.890 ms
ping_1  | 
ping_1  | --- nyc.speedtest.sbcglobal.net ping statistics ---
ping_1  | 100 packets transmitted, 100 packets received, 0% packet loss
ping_1  | round-trip min/avg/max = 79.654/80.357/86.782 ms
ping_10 | 64 bytes from 99.24.18.25: seq=93 ttl=50 time=79.819 ms
softwareoverhead_ping_1 exited with code 0
ping_8  | 64 bytes from 99.24.18.25: seq=95 ttl=50 time=80.221 ms
ping_5  | 64 bytes from 99.24.18.25: seq=98 ttl=50 time=80.060 ms
ping_9  | 64 bytes from 99.24.18.25: seq=96 ttl=50 time=80.277 ms
ping_7  | 64 bytes from 99.24.18.25: seq=98 ttl=50 time=80.238 ms
ping_6  | 64 bytes from 99.24.18.25: seq=97 ttl=50 time=80.252 ms
ping_3  | 64 bytes from 99.24.18.25: seq=94 ttl=50 time=80.437 ms
ping_4  | 64 bytes from 99.24.18.25: seq=93 ttl=50 time=80.094 ms
ping_10 | 64 bytes from 99.24.18.25: seq=94 ttl=50 time=80.312 ms
ping_8  | 64 bytes from 99.24.18.25: seq=96 ttl=50 time=80.056 ms
ping_5  | 64 bytes from 99.24.18.25: seq=99 ttl=50 time=80.289 ms
ping_5  | 
ping_5  | --- nyc.speedtest.sbcglobal.net ping statistics ---
ping_5  | 100 packets transmitted, 100 packets received, 0% packet loss
ping_5  | round-trip min/avg/max = 79.804/80.447/85.888 ms
ping_9  | 64 bytes from 99.24.18.25: seq=97 ttl=50 time=79.841 ms
ping_7  | 64 bytes from 99.24.18.25: seq=99 ttl=50 time=79.940 ms
ping_7  | 
ping_7  | --- nyc.speedtest.sbcglobal.net ping statistics ---
ping_7  | 100 packets transmitted, 100 packets received, 0% packet loss
ping_7  | round-trip min/avg/max = 79.684/80.325/85.015 ms
ping_6  | 64 bytes from 99.24.18.25: seq=98 ttl=50 time=79.798 ms
ping_3  | 64 bytes from 99.24.18.25: seq=95 ttl=50 time=79.820 ms
ping_4  | 64 bytes from 99.24.18.25: seq=94 ttl=50 time=79.931 ms
softwareoverhead_ping_5 exited with code 0
softwareoverhead_ping_7 exited with code 0
ping_10 | 64 bytes from 99.24.18.25: seq=95 ttl=50 time=80.329 ms
ping_8  | 64 bytes from 99.24.18.25: seq=97 ttl=50 time=80.617 ms
ping_9  | 64 bytes from 99.24.18.25: seq=98 ttl=50 time=80.552 ms
ping_6  | 64 bytes from 99.24.18.25: seq=99 ttl=50 time=80.296 ms
ping_6  | 
ping_6  | --- nyc.speedtest.sbcglobal.net ping statistics ---
ping_6  | 100 packets transmitted, 100 packets received, 0% packet loss
ping_6  | round-trip min/avg/max = 79.798/80.356/90.227 ms
ping_3  | 64 bytes from 99.24.18.25: seq=96 ttl=50 time=79.858 ms
ping_4  | 64 bytes from 99.24.18.25: seq=95 ttl=50 time=79.818 ms
softwareoverhead_ping_6 exited with code 0
ping_10 | 64 bytes from 99.24.18.25: seq=96 ttl=50 time=79.832 ms
ping_8  | 64 bytes from 99.24.18.25: seq=98 ttl=50 time=80.027 ms
ping_9  | 64 bytes from 99.24.18.25: seq=99 ttl=50 time=80.132 ms
ping_9  | 
ping_9  | --- nyc.speedtest.sbcglobal.net ping statistics ---
ping_9  | 100 packets transmitted, 100 packets received, 0% packet loss
ping_9  | round-trip min/avg/max = 79.810/80.449/86.005 ms
ping_3  | 64 bytes from 99.24.18.25: seq=97 ttl=50 time=80.028 ms
ping_4  | 64 bytes from 99.24.18.25: seq=96 ttl=50 time=79.797 ms
softwareoverhead_ping_9 exited with code 0
ping_10 | 64 bytes from 99.24.18.25: seq=97 ttl=50 time=79.867 ms
ping_8  | 64 bytes from 99.24.18.25: seq=99 ttl=50 time=79.857 ms
ping_8  | 
ping_8  | --- nyc.speedtest.sbcglobal.net ping statistics ---
ping_8  | 100 packets transmitted, 100 packets received, 0% packet loss
ping_8  | round-trip min/avg/max = 79.782/80.420/85.080 ms
ping_3  | 64 bytes from 99.24.18.25: seq=98 ttl=50 time=79.949 ms
ping_4  | 64 bytes from 99.24.18.25: seq=97 ttl=50 time=79.913 ms
softwareoverhead_ping_8 exited with code 0
ping_10 | 64 bytes from 99.24.18.25: seq=98 ttl=50 time=80.438 ms
ping_3  | 64 bytes from 99.24.18.25: seq=99 ttl=50 time=80.409 ms
ping_3  | 
ping_3  | --- nyc.speedtest.sbcglobal.net ping statistics ---
ping_3  | 100 packets transmitted, 100 packets received, 0% packet loss
ping_3  | round-trip min/avg/max = 79.768/80.319/83.613 ms
ping_4  | 64 bytes from 99.24.18.25: seq=98 ttl=50 time=80.038 ms
softwareoverhead_ping_3 exited with code 0
ping_10 | 64 bytes from 99.24.18.25: seq=99 ttl=50 time=80.394 ms
ping_10 | 
ping_10 | --- nyc.speedtest.sbcglobal.net ping statistics ---
ping_10 | 100 packets transmitted, 100 packets received, 0% packet loss
ping_10 | round-trip min/avg/max = 79.819/80.358/85.435 ms
softwareoverhead_ping_10 exited with code 0
ping_4  | 64 bytes from 99.24.18.25: seq=99 ttl=50 time=79.897 ms
ping_4  | 
ping_4  | --- nyc.speedtest.sbcglobal.net ping statistics ---
ping_4  | 100 packets transmitted, 100 packets received, 0% packet loss
ping_4  | round-trip min/avg/max = 79.797/80.409/85.908 ms
softwareoverhead_ping_4 exited with code 0
