     1	.8 
     2	.6 
     3	.8 
     4	.3 
     5	.6 
     6	.8 
     7	.4 
     8	.6 
     9	.5 
    10	.4 
    11	.6 
    12	.4 
    13	.6 
    14	.6 
    15	.8 
    16	.5 
    17	.9 
    18	.9 
    19	.6 
    20	.4 
    21	.8 
    22	.8 
    23	.0 
    24	.6 
    25	.6 
    26	.8 
    27	.8 
    28	.9 
    29	.1 
    30	.9 
    31	.6 
    32	.6 
    33	.8 
    34	.8 
    35	.9 
    36	.6 
    37	.8 
    38	.8 
    39	.6 
    40	.6 
    41	.6 
    42	.9 
    43	.9 
    44	.6 
    45	.8 
    46	.8 
    47	.8 
    48	.9 
    49	.5 
    50	.6 
    51	.5 
    52	.8 
    53	.3 
    54	.8 
    55	.6 
    56	.8 
    57	.8 
    58	.8 
    59	.8 
    60	.8 
    61	.8 
    62	.9 
    63	.8 
    64	.6 
    65	.6 
    66	.8 
    67	.8 
    68	.8 
    69	.9 
    70	.8 
    71	.6 
    72	.8 
    73	.6 
    74	.9 
    75	.8 
    76	.6 
    77	.8 
    78	.8 
    79	.6 
    80	.5 
    81	.9 
    82	.4 
    83	.5 
    84	.9 
    85	.4 
    86	.9 
    87	.3 
    88	.8 
    89	.8 
    90	.6 
    91	.9 
    92	.6 
    93	.6 
    94	.9 
    95	.9 
    96	.6 
    97	.5 
    98	.9 
    99	.8 
   100	.6 
   101	.9 
   102	.5 
   103	.9 
   104	.9 
   105	.6 
   106	.5 
   107	.9 
   108	.6 
   109	.9 
   110	.8 
   111	.8 
   112	.6 
   113	.8 
   114	.6 
   115	.5 
   116	.8 
   117	.9 
   118	.8 
   119	.6 
   120	.6 
   121	.9 
   122	.8 
   123	.9 
   124	.9 
   125	.9 
   126	.6 
   127	.8 
   128	.8 
   129	.6 
   130	.5 
   131	.6 
   132	.6 
   133	.0 
   134	.6 
   135	.8 
   136	.6 
   137	.4 
   138	.9 
   139	.8 
   140	.8 
   141	.9 
   142	.8 
   143	.9 
   144	.6 
   145	.6 
   146	.8 
   147	.8 
   148	.6 
   149	.9 
   150	.9 
   151	.6 
   152	.9 
   153	.8 
   154	.6 
   155	.9 
   156	.8 
   157	.8 
   158	.9 
   159	.6 
   160	.9 
   161	.6 
   162	.8 
   163	.6 
   164	.8 
   165	.9 
   166	.5 
   167	.8 
   168	.5 
   169	.6 
   170	.5 
   171	.8 
   172	.9 
   173	.5 
   174	.8 
   175	.8 
   176	.8 
   177	.6 
   178	.8 
   179	.8 
   180	.6 
   181	.8 
   182	.4 
   183	.8 
   184	.9 
   185	.8 
   186	.6 
   187	.9 
   188	.8 
   189	.6 
   190	.9 
   191	.3 
   192	.7 
   193	.9 
   194	.8 
   195	.8 
   196	.5 
   197	.6 
   198	.3 
   199	.6 
   200	.5 
   201	.4 
