ping_17 | round-trip min/avg/max = 119.361/120.382/126.056 ms
ping_3  | round-trip min/avg/max = 119.436/120.223/126.108 ms
ping_9  | round-trip min/avg/max = 119.377/119.673/120.060 ms
ping_7  | round-trip min/avg/max = 119.340/119.680/120.937 ms
ping_11 | round-trip min/avg/max = 119.270/119.531/119.773 ms
ping_14 | round-trip min/avg/max = 119.325/120.098/125.162 ms
ping_6  | round-trip min/avg/max = 119.409/119.874/122.857 ms
ping_13 | round-trip min/avg/max = 119.350/119.730/121.210 ms
ping_18 | round-trip min/avg/max = 119.404/119.956/125.500 ms
ping_20 | round-trip min/avg/max = 119.276/119.896/127.117 ms
ping_15 | round-trip min/avg/max = 119.334/120.069/126.721 ms
ping_16 | round-trip min/avg/max = 119.302/120.156/127.570 ms
ping_2  | round-trip min/avg/max = 119.369/119.647/119.971 ms
ping_1  | round-trip min/avg/max = 119.410/119.821/122.358 ms
ping_8  | round-trip min/avg/max = 119.228/119.548/120.049 ms
ping_10 | round-trip min/avg/max = 119.368/119.569/119.913 ms
ping_12 | round-trip min/avg/max = 119.353/119.687/120.235 ms
ping_19 | round-trip min/avg/max = 119.357/119.615/120.464 ms
ping_4  | round-trip min/avg/max = 119.374/119.807/123.041 ms
ping_5  | round-trip min/avg/max = 119.309/119.651/120.039 ms
ping_32 | round-trip min/avg/max = 119.414/119.680/120.055 ms
ping_36 | round-trip min/avg/max = 119.365/119.639/120.127 ms
ping_35 | round-trip min/avg/max = 119.331/119.621/119.982 ms
ping_39 | round-trip min/avg/max = 119.431/119.736/120.176 ms
ping_34 | round-trip min/avg/max = 119.431/119.766/122.101 ms
ping_29 | round-trip min/avg/max = 119.341/119.610/120.312 ms
ping_31 | round-trip min/avg/max = 119.318/119.626/120.012 ms
ping_28 | round-trip min/avg/max = 119.379/119.742/120.168 ms
ping_26 | round-trip min/avg/max = 119.397/119.701/120.149 ms
ping_25 | round-trip min/avg/max = 119.383/119.674/120.002 ms
ping_37 | round-trip min/avg/max = 119.388/119.647/120.138 ms
ping_27 | round-trip min/avg/max = 119.310/119.621/119.956 ms
ping_21 | round-trip min/avg/max = 119.336/119.641/120.148 ms
ping_22 | round-trip min/avg/max = 119.324/119.639/121.862 ms
ping_33 | round-trip min/avg/max = 119.399/119.681/120.045 ms
ping_24 | round-trip min/avg/max = 119.344/119.656/120.069 ms
ping_23 | round-trip min/avg/max = 119.380/119.594/120.091 ms
ping_30 | round-trip min/avg/max = 119.321/119.587/119.967 ms
ping_38 | round-trip min/avg/max = 119.293/119.620/119.979 ms
ping_40 | round-trip min/avg/max = 119.326/119.726/120.950 ms
