     1	287 
     2	288 
     3	301 
     4	368 
     5	414 
     6	405 
     7	398 
     8	385 
     9	377 
    10	369 
    11	364 
    12	357 
    13	353 
    14	349 
    15	369 
    16	452 
    17	479 
    18	470 
    19	457 
    20	442 
    21	437 
    22	433 
    23	425 
    24	421 
    25	417 
    26	413 
    27	409 
    28	406 
    29	402 
    30	391 
    31	384 
    32	376 
    33	370 
    34	367 
    35	358 
    36	355 
    37	352 
    38	349 
    39	349 
    40	349 
    41	340 
    42	335 
    43	325 
    44	313 
    45	310 
    46	307 
    47	301 
    48	299 
    49	296 
    50	293 
