top - 23:22:57 up  2:39,  1 user,  load average: 0.04, 0.66, 1.57
Tasks: 475 total,   1 running, 414 sleeping,   0 stopped,   0 zombie
%Cpu(s):  3.4 us,  1.8 sy,  0.0 ni, 94.7 id,  0.1 wa,  0.0 hi,  0.0 si,  0.0 st
KiB Mem : 16278768 total, 11841644 free,  1486360 used,  2950764 buff/cache
KiB Swap: 16630780 total, 16630780 free,        0 used. 14342076 avail Mem 

  PID USER      PR  NI    VIRT    RES    SHR S  %CPU %MEM     TIME+ COMMAND
  703 systemd+  20   0   71176   6764   5524 S  28.6  0.0   0:06.84 systemd-re+
14838 kenenth   20   0   41908   3868   3208 R   9.5  0.0   0:00.03 top
   16 root      20   0       0      0      0 S   4.8  0.0   0:00.94 ksoftirqd/1
   28 root      20   0       0      0      0 S   4.8  0.0   0:01.62 ksoftirqd/3

top - 23:22:58 up  2:39,  1 user,  load average: 0.04, 0.66, 1.57
Tasks: 475 total,   1 running, 414 sleeping,   0 stopped,   0 zombie
%Cpu(s):  0.2 us,  0.9 sy,  0.0 ni, 98.5 id,  0.0 wa,  0.0 hi,  0.4 si,  0.0 st
KiB Mem : 16278768 total, 11841644 free,  1486360 used,  2950764 buff/cache
KiB Swap: 16630780 total, 16630780 free,        0 used. 14342076 avail Mem 

  PID USER      PR  NI    VIRT    RES    SHR S  %CPU %MEM     TIME+ COMMAND
14838 kenenth   20   0   42040   4128   3208 R   2.9  0.0   0:00.06 top
   28 root      20   0       0      0      0 S   1.9  0.0   0:01.64 ksoftirqd/3
 1985 kenenth   20   0 3540348 243700  96104 S   1.0  1.5   5:09.25 gnome-shell

top - 23:22:59 up  2:39,  1 user,  load average: 0.04, 0.66, 1.57
Tasks: 475 total,   1 running, 414 sleeping,   0 stopped,   0 zombie
%Cpu(s):  0.1 us,  0.4 sy,  0.0 ni, 99.1 id,  0.0 wa,  0.0 hi,  0.4 si,  0.0 st
KiB Mem : 16278768 total, 11841644 free,  1486360 used,  2950764 buff/cache
KiB Swap: 16630780 total, 16630780 free,        0 used. 14342076 avail Mem 

  PID USER      PR  NI    VIRT    RES    SHR S  %CPU %MEM     TIME+ COMMAND
   28 root      20   0       0      0      0 S   2.0  0.0   0:01.66 ksoftirqd/3
 1780 root      20   0  433932  94760  61668 S   2.0  0.6   1:51.53 Xorg
14838 kenenth   20   0   42040   4128   3208 R   2.0  0.0   0:00.08 top

top - 23:23:00 up  2:39,  1 user,  load average: 0.04, 0.66, 1.57
Tasks: 475 total,   1 running, 414 sleeping,   0 stopped,   0 zombie
%Cpu(s):  0.4 us,  0.7 sy,  0.0 ni, 98.8 id,  0.0 wa,  0.0 hi,  0.1 si,  0.0 st
KiB Mem : 16278768 total, 11840848 free,  1486856 used,  2951064 buff/cache
KiB Swap: 16630780 total, 16630780 free,        0 used. 14341576 avail Mem 

  PID USER      PR  NI    VIRT    RES    SHR S  %CPU %MEM     TIME+ COMMAND
14838 kenenth   20   0   42040   4128   3208 R   2.9  0.0   0:00.11 top
 1985 kenenth   20   0 3540348 243700  96104 S   2.0  1.5   5:09.27 gnome-shell
   28 root      20   0       0      0      0 S   1.0  0.0   0:01.67 ksoftirqd/3