PING 216.58.195.238 (216.58.195.238) 56(84) bytes of data.
64 bytes from 216.58.195.238: icmp_seq=1 ttl=54 time=13.0 ms
PING 216.58.195.238 (216.58.195.238) 56(84) bytes of data.
64 bytes from 216.58.195.238: icmp_seq=1 ttl=54 time=13.0 ms
PING 216.58.195.238 (216.58.195.238) 56(84) bytes of data.
64 bytes from 216.58.195.238: icmp_seq=1 ttl=54 time=13.0 ms
PING 216.58.195.238 (216.58.195.238) 56(84) bytes of data.
64 bytes from 216.58.195.238: icmp_seq=1 ttl=54 time=12.9 ms
64 bytes from 216.58.195.238: icmp_seq=2 ttl=54 time=13.2 ms
64 bytes from 216.58.195.238: icmp_seq=2 ttl=54 time=13.2 ms
64 bytes from 216.58.195.238: icmp_seq=2 ttl=54 time=13.2 ms
64 bytes from 216.58.195.238: icmp_seq=2 ttl=54 time=13.3 ms
64 bytes from 216.58.195.238: icmp_seq=3 ttl=54 time=13.3 ms
64 bytes from 216.58.195.238: icmp_seq=3 ttl=54 time=13.3 ms
64 bytes from 216.58.195.238: icmp_seq=3 ttl=54 time=13.4 ms
64 bytes from 216.58.195.238: icmp_seq=3 ttl=54 time=13.4 ms
64 bytes from 216.58.195.238: icmp_seq=4 ttl=54 time=13.2 ms
64 bytes from 216.58.195.238: icmp_seq=4 ttl=54 time=13.3 ms
64 bytes from 216.58.195.238: icmp_seq=4 ttl=54 time=13.3 ms
64 bytes from 216.58.195.238: icmp_seq=4 ttl=54 time=13.3 ms
64 bytes from 216.58.195.238: icmp_seq=5 ttl=54 time=13.3 ms
64 bytes from 216.58.195.238: icmp_seq=5 ttl=54 time=13.4 ms
64 bytes from 216.58.195.238: icmp_seq=5 ttl=54 time=13.2 ms
64 bytes from 216.58.195.238: icmp_seq=5 ttl=54 time=13.0 ms
64 bytes from 216.58.195.238: icmp_seq=6 ttl=54 time=13.5 ms
64 bytes from 216.58.195.238: icmp_seq=6 ttl=54 time=13.5 ms
64 bytes from 216.58.195.238: icmp_seq=6 ttl=54 time=13.5 ms
64 bytes from 216.58.195.238: icmp_seq=6 ttl=54 time=13.5 ms
64 bytes from 216.58.195.238: icmp_seq=7 ttl=54 time=13.0 ms
64 bytes from 216.58.195.238: icmp_seq=7 ttl=54 time=13.0 ms
64 bytes from 216.58.195.238: icmp_seq=7 ttl=54 time=12.9 ms
64 bytes from 216.58.195.238: icmp_seq=7 ttl=54 time=13.4 ms
64 bytes from 216.58.195.238: icmp_seq=8 ttl=54 time=13.2 ms
64 bytes from 216.58.195.238: icmp_seq=8 ttl=54 time=13.1 ms
64 bytes from 216.58.195.238: icmp_seq=8 ttl=54 time=13.2 ms
64 bytes from 216.58.195.238: icmp_seq=8 ttl=54 time=13.2 ms
64 bytes from 216.58.195.238: icmp_seq=9 ttl=54 time=13.2 ms
64 bytes from 216.58.195.238: icmp_seq=9 ttl=54 time=13.0 ms
64 bytes from 216.58.195.238: icmp_seq=9 ttl=54 time=13.0 ms
64 bytes from 216.58.195.238: icmp_seq=9 ttl=54 time=13.0 ms
64 bytes from 216.58.195.238: icmp_seq=10 ttl=54 time=12.8 ms
64 bytes from 216.58.195.238: icmp_seq=10 ttl=54 time=13.2 ms
64 bytes from 216.58.195.238: icmp_seq=10 ttl=54 time=12.9 ms
64 bytes from 216.58.195.238: icmp_seq=10 ttl=54 time=12.8 ms
64 bytes from 216.58.195.238: icmp_seq=11 ttl=54 time=13.3 ms
64 bytes from 216.58.195.238: icmp_seq=11 ttl=54 time=13.4 ms
64 bytes from 216.58.195.238: icmp_seq=11 ttl=54 time=13.4 ms
64 bytes from 216.58.195.238: icmp_seq=11 ttl=54 time=13.0 ms
64 bytes from 216.58.195.238: icmp_seq=12 ttl=54 time=13.3 ms
64 bytes from 216.58.195.238: icmp_seq=12 ttl=54 time=13.4 ms
64 bytes from 216.58.195.238: icmp_seq=12 ttl=54 time=13.4 ms
64 bytes from 216.58.195.238: icmp_seq=12 ttl=54 time=13.4 ms
64 bytes from 216.58.195.238: icmp_seq=13 ttl=54 time=13.4 ms
64 bytes from 216.58.195.238: icmp_seq=13 ttl=54 time=13.4 ms
64 bytes from 216.58.195.238: icmp_seq=13 ttl=54 time=13.4 ms
64 bytes from 216.58.195.238: icmp_seq=13 ttl=54 time=13.4 ms
64 bytes from 216.58.195.238: icmp_seq=14 ttl=54 time=13.6 ms
64 bytes from 216.58.195.238: icmp_seq=14 ttl=54 time=13.7 ms
64 bytes from 216.58.195.238: icmp_seq=14 ttl=54 time=13.7 ms
64 bytes from 216.58.195.238: icmp_seq=14 ttl=54 time=13.7 ms
64 bytes from 216.58.195.238: icmp_seq=15 ttl=54 time=13.3 ms
64 bytes from 216.58.195.238: icmp_seq=15 ttl=54 time=13.4 ms
64 bytes from 216.58.195.238: icmp_seq=15 ttl=54 time=13.4 ms
64 bytes from 216.58.195.238: icmp_seq=15 ttl=54 time=13.4 ms
64 bytes from 216.58.195.238: icmp_seq=16 ttl=54 time=13.5 ms
64 bytes from 216.58.195.238: icmp_seq=16 ttl=54 time=13.5 ms
64 bytes from 216.58.195.238: icmp_seq=16 ttl=54 time=13.6 ms
64 bytes from 216.58.195.238: icmp_seq=16 ttl=54 time=13.6 ms
64 bytes from 216.58.195.238: icmp_seq=17 ttl=54 time=13.2 ms
64 bytes from 216.58.195.238: icmp_seq=17 ttl=54 time=13.2 ms
64 bytes from 216.58.195.238: icmp_seq=17 ttl=54 time=13.3 ms
64 bytes from 216.58.195.238: icmp_seq=17 ttl=54 time=13.2 ms
64 bytes from 216.58.195.238: icmp_seq=18 ttl=54 time=13.0 ms
64 bytes from 216.58.195.238: icmp_seq=18 ttl=54 time=13.1 ms
64 bytes from 216.58.195.238: icmp_seq=18 ttl=54 time=13.1 ms
64 bytes from 216.58.195.238: icmp_seq=18 ttl=54 time=13.1 ms
64 bytes from 216.58.195.238: icmp_seq=19 ttl=54 time=13.5 ms
64 bytes from 216.58.195.238: icmp_seq=19 ttl=54 time=13.5 ms
64 bytes from 216.58.195.238: icmp_seq=19 ttl=54 time=13.5 ms
64 bytes from 216.58.195.238: icmp_seq=19 ttl=54 time=13.5 ms
64 bytes from 216.58.195.238: icmp_seq=20 ttl=54 time=13.1 ms
64 bytes from 216.58.195.238: icmp_seq=20 ttl=54 time=13.0 ms
64 bytes from 216.58.195.238: icmp_seq=20 ttl=54 time=13.1 ms
64 bytes from 216.58.195.238: icmp_seq=20 ttl=54 time=13.1 ms
64 bytes from 216.58.195.238: icmp_seq=21 ttl=54 time=13.4 ms
64 bytes from 216.58.195.238: icmp_seq=21 ttl=54 time=13.5 ms
64 bytes from 216.58.195.238: icmp_seq=21 ttl=54 time=13.5 ms
64 bytes from 216.58.195.238: icmp_seq=21 ttl=54 time=13.5 ms
64 bytes from 216.58.195.238: icmp_seq=22 ttl=54 time=13.5 ms
64 bytes from 216.58.195.238: icmp_seq=22 ttl=54 time=13.6 ms
64 bytes from 216.58.195.238: icmp_seq=22 ttl=54 time=13.6 ms
64 bytes from 216.58.195.238: icmp_seq=22 ttl=54 time=13.6 ms
64 bytes from 216.58.195.238: icmp_seq=23 ttl=54 time=13.1 ms
64 bytes from 216.58.195.238: icmp_seq=23 ttl=54 time=13.1 ms
64 bytes from 216.58.195.238: icmp_seq=23 ttl=54 time=13.1 ms
64 bytes from 216.58.195.238: icmp_seq=23 ttl=54 time=13.1 ms
64 bytes from 216.58.195.238: icmp_seq=24 ttl=54 time=13.2 ms
64 bytes from 216.58.195.238: icmp_seq=24 ttl=54 time=13.2 ms
64 bytes from 216.58.195.238: icmp_seq=24 ttl=54 time=13.2 ms
64 bytes from 216.58.195.238: icmp_seq=24 ttl=54 time=13.2 ms
64 bytes from 216.58.195.238: icmp_seq=25 ttl=54 time=13.3 ms
64 bytes from 216.58.195.238: icmp_seq=25 ttl=54 time=13.4 ms
64 bytes from 216.58.195.238: icmp_seq=25 ttl=54 time=13.4 ms
64 bytes from 216.58.195.238: icmp_seq=25 ttl=54 time=13.4 ms
64 bytes from 216.58.195.238: icmp_seq=26 ttl=54 time=13.4 ms
64 bytes from 216.58.195.238: icmp_seq=26 ttl=54 time=12.9 ms
64 bytes from 216.58.195.238: icmp_seq=26 ttl=54 time=12.9 ms
64 bytes from 216.58.195.238: icmp_seq=26 ttl=54 time=12.9 ms
64 bytes from 216.58.195.238: icmp_seq=27 ttl=54 time=13.4 ms
64 bytes from 216.58.195.238: icmp_seq=27 ttl=54 time=13.4 ms
64 bytes from 216.58.195.238: icmp_seq=27 ttl=54 time=13.4 ms
64 bytes from 216.58.195.238: icmp_seq=27 ttl=54 time=13.4 ms
64 bytes from 216.58.195.238: icmp_seq=28 ttl=54 time=13.4 ms
64 bytes from 216.58.195.238: icmp_seq=28 ttl=54 time=13.3 ms
64 bytes from 216.58.195.238: icmp_seq=28 ttl=54 time=13.4 ms
64 bytes from 216.58.195.238: icmp_seq=28 ttl=54 time=13.4 ms
64 bytes from 216.58.195.238: icmp_seq=29 ttl=54 time=13.3 ms
64 bytes from 216.58.195.238: icmp_seq=29 ttl=54 time=13.4 ms
64 bytes from 216.58.195.238: icmp_seq=29 ttl=54 time=13.3 ms
64 bytes from 216.58.195.238: icmp_seq=29 ttl=54 time=13.3 ms
64 bytes from 216.58.195.238: icmp_seq=30 ttl=54 time=13.5 ms
64 bytes from 216.58.195.238: icmp_seq=30 ttl=54 time=13.5 ms
64 bytes from 216.58.195.238: icmp_seq=30 ttl=54 time=13.5 ms
64 bytes from 216.58.195.238: icmp_seq=30 ttl=54 time=13.5 ms
64 bytes from 216.58.195.238: icmp_seq=31 ttl=54 time=13.3 ms
64 bytes from 216.58.195.238: icmp_seq=31 ttl=54 time=13.3 ms
64 bytes from 216.58.195.238: icmp_seq=31 ttl=54 time=13.3 ms
64 bytes from 216.58.195.238: icmp_seq=31 ttl=54 time=13.3 ms
64 bytes from 216.58.195.238: icmp_seq=32 ttl=54 time=13.5 ms
64 bytes from 216.58.195.238: icmp_seq=32 ttl=54 time=13.5 ms
64 bytes from 216.58.195.238: icmp_seq=32 ttl=54 time=13.6 ms
64 bytes from 216.58.195.238: icmp_seq=32 ttl=54 time=13.6 ms
64 bytes from 216.58.195.238: icmp_seq=33 ttl=54 time=13.4 ms
64 bytes from 216.58.195.238: icmp_seq=33 ttl=54 time=13.5 ms
64 bytes from 216.58.195.238: icmp_seq=33 ttl=54 time=13.5 ms
64 bytes from 216.58.195.238: icmp_seq=33 ttl=54 time=13.5 ms
64 bytes from 216.58.195.238: icmp_seq=34 ttl=54 time=13.3 ms
64 bytes from 216.58.195.238: icmp_seq=34 ttl=54 time=13.3 ms
64 bytes from 216.58.195.238: icmp_seq=34 ttl=54 time=13.3 ms
64 bytes from 216.58.195.238: icmp_seq=34 ttl=54 time=13.3 ms
64 bytes from 216.58.195.238: icmp_seq=35 ttl=54 time=13.3 ms
64 bytes from 216.58.195.238: icmp_seq=35 ttl=54 time=13.5 ms
64 bytes from 216.58.195.238: icmp_seq=35 ttl=54 time=13.2 ms
64 bytes from 216.58.195.238: icmp_seq=35 ttl=54 time=13.3 ms
64 bytes from 216.58.195.238: icmp_seq=36 ttl=54 time=13.5 ms
64 bytes from 216.58.195.238: icmp_seq=36 ttl=54 time=13.5 ms
64 bytes from 216.58.195.238: icmp_seq=36 ttl=54 time=13.5 ms
64 bytes from 216.58.195.238: icmp_seq=36 ttl=54 time=13.6 ms
64 bytes from 216.58.195.238: icmp_seq=37 ttl=54 time=13.5 ms
64 bytes from 216.58.195.238: icmp_seq=37 ttl=54 time=13.5 ms
64 bytes from 216.58.195.238: icmp_seq=37 ttl=54 time=13.6 ms
64 bytes from 216.58.195.238: icmp_seq=37 ttl=54 time=13.5 ms
64 bytes from 216.58.195.238: icmp_seq=38 ttl=54 time=13.0 ms
64 bytes from 216.58.195.238: icmp_seq=38 ttl=54 time=13.0 ms
64 bytes from 216.58.195.238: icmp_seq=38 ttl=54 time=13.0 ms
64 bytes from 216.58.195.238: icmp_seq=38 ttl=54 time=13.0 ms
64 bytes from 216.58.195.238: icmp_seq=39 ttl=54 time=13.3 ms
64 bytes from 216.58.195.238: icmp_seq=39 ttl=54 time=13.1 ms
64 bytes from 216.58.195.238: icmp_seq=39 ttl=54 time=13.1 ms
64 bytes from 216.58.195.238: icmp_seq=39 ttl=54 time=13.1 ms
64 bytes from 216.58.195.238: icmp_seq=40 ttl=54 time=13.4 ms
64 bytes from 216.58.195.238: icmp_seq=40 ttl=54 time=13.5 ms
64 bytes from 216.58.195.238: icmp_seq=40 ttl=54 time=13.3 ms
64 bytes from 216.58.195.238: icmp_seq=40 ttl=54 time=13.3 ms
64 bytes from 216.58.195.238: icmp_seq=41 ttl=54 time=13.0 ms
64 bytes from 216.58.195.238: icmp_seq=41 ttl=54 time=13.1 ms
64 bytes from 216.58.195.238: icmp_seq=41 ttl=54 time=13.1 ms
64 bytes from 216.58.195.238: icmp_seq=41 ttl=54 time=13.1 ms
64 bytes from 216.58.195.238: icmp_seq=42 ttl=54 time=13.1 ms
64 bytes from 216.58.195.238: icmp_seq=42 ttl=54 time=13.1 ms
64 bytes from 216.58.195.238: icmp_seq=42 ttl=54 time=13.0 ms
64 bytes from 216.58.195.238: icmp_seq=42 ttl=54 time=13.1 ms
64 bytes from 216.58.195.238: icmp_seq=43 ttl=54 time=13.3 ms
64 bytes from 216.58.195.238: icmp_seq=43 ttl=54 time=13.3 ms
64 bytes from 216.58.195.238: icmp_seq=43 ttl=54 time=13.3 ms
64 bytes from 216.58.195.238: icmp_seq=43 ttl=54 time=13.3 ms
64 bytes from 216.58.195.238: icmp_seq=44 ttl=54 time=13.0 ms
64 bytes from 216.58.195.238: icmp_seq=44 ttl=54 time=13.0 ms
64 bytes from 216.58.195.238: icmp_seq=44 ttl=54 time=13.0 ms
64 bytes from 216.58.195.238: icmp_seq=44 ttl=54 time=13.0 ms
64 bytes from 216.58.195.238: icmp_seq=45 ttl=54 time=13.4 ms
64 bytes from 216.58.195.238: icmp_seq=45 ttl=54 time=13.4 ms
64 bytes from 216.58.195.238: icmp_seq=45 ttl=54 time=13.5 ms
64 bytes from 216.58.195.238: icmp_seq=45 ttl=54 time=13.5 ms
64 bytes from 216.58.195.238: icmp_seq=46 ttl=54 time=13.3 ms
64 bytes from 216.58.195.238: icmp_seq=46 ttl=54 time=13.2 ms
64 bytes from 216.58.195.238: icmp_seq=46 ttl=54 time=13.3 ms
64 bytes from 216.58.195.238: icmp_seq=46 ttl=54 time=13.3 ms
64 bytes from 216.58.195.238: icmp_seq=47 ttl=54 time=13.5 ms
64 bytes from 216.58.195.238: icmp_seq=47 ttl=54 time=13.5 ms
64 bytes from 216.58.195.238: icmp_seq=47 ttl=54 time=13.5 ms
64 bytes from 216.58.195.238: icmp_seq=47 ttl=54 time=13.4 ms
64 bytes from 216.58.195.238: icmp_seq=48 ttl=54 time=13.6 ms
64 bytes from 216.58.195.238: icmp_seq=48 ttl=54 time=13.5 ms
64 bytes from 216.58.195.238: icmp_seq=48 ttl=54 time=13.6 ms
64 bytes from 216.58.195.238: icmp_seq=48 ttl=54 time=13.6 ms
64 bytes from 216.58.195.238: icmp_seq=49 ttl=54 time=13.4 ms
64 bytes from 216.58.195.238: icmp_seq=49 ttl=54 time=13.4 ms
64 bytes from 216.58.195.238: icmp_seq=49 ttl=54 time=13.4 ms
64 bytes from 216.58.195.238: icmp_seq=49 ttl=54 time=13.4 ms
64 bytes from 216.58.195.238: icmp_seq=50 ttl=54 time=13.3 ms
64 bytes from 216.58.195.238: icmp_seq=50 ttl=54 time=13.3 ms
64 bytes from 216.58.195.238: icmp_seq=50 ttl=54 time=13.4 ms
64 bytes from 216.58.195.238: icmp_seq=50 ttl=54 time=13.4 ms
64 bytes from 216.58.195.238: icmp_seq=51 ttl=54 time=13.4 ms
64 bytes from 216.58.195.238: icmp_seq=51 ttl=54 time=13.5 ms
64 bytes from 216.58.195.238: icmp_seq=51 ttl=54 time=13.5 ms
64 bytes from 216.58.195.238: icmp_seq=51 ttl=54 time=13.5 ms
64 bytes from 216.58.195.238: icmp_seq=52 ttl=54 time=13.3 ms
64 bytes from 216.58.195.238: icmp_seq=52 ttl=54 time=13.0 ms
64 bytes from 216.58.195.238: icmp_seq=52 ttl=54 time=13.0 ms
64 bytes from 216.58.195.238: icmp_seq=52 ttl=54 time=13.0 ms
64 bytes from 216.58.195.238: icmp_seq=53 ttl=54 time=13.3 ms
64 bytes from 216.58.195.238: icmp_seq=53 ttl=54 time=13.4 ms
64 bytes from 216.58.195.238: icmp_seq=53 ttl=54 time=13.4 ms
64 bytes from 216.58.195.238: icmp_seq=53 ttl=54 time=13.4 ms
64 bytes from 216.58.195.238: icmp_seq=54 ttl=54 time=13.3 ms
64 bytes from 216.58.195.238: icmp_seq=54 ttl=54 time=13.3 ms
64 bytes from 216.58.195.238: icmp_seq=54 ttl=54 time=13.3 ms
64 bytes from 216.58.195.238: icmp_seq=54 ttl=54 time=13.4 ms
64 bytes from 216.58.195.238: icmp_seq=55 ttl=54 time=13.6 ms
64 bytes from 216.58.195.238: icmp_seq=55 ttl=54 time=13.6 ms
64 bytes from 216.58.195.238: icmp_seq=55 ttl=54 time=13.7 ms
64 bytes from 216.58.195.238: icmp_seq=55 ttl=54 time=13.6 ms
64 bytes from 216.58.195.238: icmp_seq=56 ttl=54 time=13.5 ms
64 bytes from 216.58.195.238: icmp_seq=56 ttl=54 time=13.5 ms
64 bytes from 216.58.195.238: icmp_seq=56 ttl=54 time=13.6 ms
64 bytes from 216.58.195.238: icmp_seq=56 ttl=54 time=13.6 ms
64 bytes from 216.58.195.238: icmp_seq=57 ttl=54 time=13.3 ms
64 bytes from 216.58.195.238: icmp_seq=57 ttl=54 time=13.4 ms
64 bytes from 216.58.195.238: icmp_seq=57 ttl=54 time=13.4 ms
64 bytes from 216.58.195.238: icmp_seq=57 ttl=54 time=13.4 ms
64 bytes from 216.58.195.238: icmp_seq=58 ttl=54 time=13.6 ms
64 bytes from 216.58.195.238: icmp_seq=58 ttl=54 time=13.6 ms
64 bytes from 216.58.195.238: icmp_seq=58 ttl=54 time=13.6 ms
64 bytes from 216.58.195.238: icmp_seq=58 ttl=54 time=13.6 ms
64 bytes from 216.58.195.238: icmp_seq=59 ttl=54 time=13.0 ms
64 bytes from 216.58.195.238: icmp_seq=59 ttl=54 time=13.1 ms
64 bytes from 216.58.195.238: icmp_seq=59 ttl=54 time=13.1 ms
64 bytes from 216.58.195.238: icmp_seq=59 ttl=54 time=13.1 ms
64 bytes from 216.58.195.238: icmp_seq=60 ttl=54 time=13.3 ms
64 bytes from 216.58.195.238: icmp_seq=60 ttl=54 time=13.3 ms
64 bytes from 216.58.195.238: icmp_seq=60 ttl=54 time=13.3 ms
64 bytes from 216.58.195.238: icmp_seq=60 ttl=54 time=13.4 ms
64 bytes from 216.58.195.238: icmp_seq=61 ttl=54 time=13.5 ms
64 bytes from 216.58.195.238: icmp_seq=61 ttl=54 time=13.6 ms
64 bytes from 216.58.195.238: icmp_seq=61 ttl=54 time=13.6 ms
64 bytes from 216.58.195.238: icmp_seq=61 ttl=54 time=13.6 ms
64 bytes from 216.58.195.238: icmp_seq=62 ttl=54 time=13.5 ms
64 bytes from 216.58.195.238: icmp_seq=62 ttl=54 time=13.4 ms
64 bytes from 216.58.195.238: icmp_seq=62 ttl=54 time=13.5 ms
64 bytes from 216.58.195.238: icmp_seq=62 ttl=54 time=13.5 ms
64 bytes from 216.58.195.238: icmp_seq=63 ttl=54 time=13.5 ms
64 bytes from 216.58.195.238: icmp_seq=63 ttl=54 time=13.6 ms
64 bytes from 216.58.195.238: icmp_seq=63 ttl=54 time=13.6 ms
64 bytes from 216.58.195.238: icmp_seq=63 ttl=54 time=13.6 ms
64 bytes from 216.58.195.238: icmp_seq=64 ttl=54 time=13.5 ms
64 bytes from 216.58.195.238: icmp_seq=64 ttl=54 time=13.6 ms
64 bytes from 216.58.195.238: icmp_seq=64 ttl=54 time=13.6 ms
64 bytes from 216.58.195.238: icmp_seq=64 ttl=54 time=13.6 ms
64 bytes from 216.58.195.238: icmp_seq=65 ttl=54 time=13.5 ms
64 bytes from 216.58.195.238: icmp_seq=65 ttl=54 time=13.6 ms
64 bytes from 216.58.195.238: icmp_seq=65 ttl=54 time=13.6 ms
64 bytes from 216.58.195.238: icmp_seq=65 ttl=54 time=13.6 ms
64 bytes from 216.58.195.238: icmp_seq=66 ttl=54 time=13.4 ms
64 bytes from 216.58.195.238: icmp_seq=66 ttl=54 time=13.5 ms
64 bytes from 216.58.195.238: icmp_seq=66 ttl=54 time=13.5 ms
64 bytes from 216.58.195.238: icmp_seq=66 ttl=54 time=13.5 ms
64 bytes from 216.58.195.238: icmp_seq=67 ttl=54 time=13.2 ms
64 bytes from 216.58.195.238: icmp_seq=67 ttl=54 time=13.3 ms
64 bytes from 216.58.195.238: icmp_seq=67 ttl=54 time=13.3 ms
64 bytes from 216.58.195.238: icmp_seq=67 ttl=54 time=13.3 ms
64 bytes from 216.58.195.238: icmp_seq=68 ttl=54 time=13.3 ms
64 bytes from 216.58.195.238: icmp_seq=68 ttl=54 time=13.3 ms
64 bytes from 216.58.195.238: icmp_seq=68 ttl=54 time=13.3 ms
64 bytes from 216.58.195.238: icmp_seq=68 ttl=54 time=13.3 ms
64 bytes from 216.58.195.238: icmp_seq=69 ttl=54 time=13.5 ms
64 bytes from 216.58.195.238: icmp_seq=69 ttl=54 time=13.5 ms
64 bytes from 216.58.195.238: icmp_seq=69 ttl=54 time=13.5 ms
64 bytes from 216.58.195.238: icmp_seq=69 ttl=54 time=13.5 ms
64 bytes from 216.58.195.238: icmp_seq=70 ttl=54 time=13.3 ms
64 bytes from 216.58.195.238: icmp_seq=70 ttl=54 time=13.4 ms
64 bytes from 216.58.195.238: icmp_seq=70 ttl=54 time=13.4 ms
64 bytes from 216.58.195.238: icmp_seq=70 ttl=54 time=13.4 ms
64 bytes from 216.58.195.238: icmp_seq=71 ttl=54 time=13.3 ms
64 bytes from 216.58.195.238: icmp_seq=71 ttl=54 time=13.3 ms
64 bytes from 216.58.195.238: icmp_seq=71 ttl=54 time=13.3 ms
64 bytes from 216.58.195.238: icmp_seq=71 ttl=54 time=13.3 ms
64 bytes from 216.58.195.238: icmp_seq=72 ttl=54 time=13.0 ms
64 bytes from 216.58.195.238: icmp_seq=72 ttl=54 time=13.1 ms
64 bytes from 216.58.195.238: icmp_seq=72 ttl=54 time=13.0 ms
64 bytes from 216.58.195.238: icmp_seq=72 ttl=54 time=13.0 ms
64 bytes from 216.58.195.238: icmp_seq=73 ttl=54 time=13.6 ms
64 bytes from 216.58.195.238: icmp_seq=73 ttl=54 time=13.5 ms
64 bytes from 216.58.195.238: icmp_seq=73 ttl=54 time=13.6 ms
64 bytes from 216.58.195.238: icmp_seq=73 ttl=54 time=13.5 ms
64 bytes from 216.58.195.238: icmp_seq=74 ttl=54 time=13.6 ms
64 bytes from 216.58.195.238: icmp_seq=74 ttl=54 time=13.5 ms
64 bytes from 216.58.195.238: icmp_seq=74 ttl=54 time=13.6 ms
64 bytes from 216.58.195.238: icmp_seq=74 ttl=54 time=13.6 ms
64 bytes from 216.58.195.238: icmp_seq=75 ttl=54 time=13.0 ms
64 bytes from 216.58.195.238: icmp_seq=75 ttl=54 time=13.1 ms
64 bytes from 216.58.195.238: icmp_seq=75 ttl=54 time=13.1 ms
64 bytes from 216.58.195.238: icmp_seq=75 ttl=54 time=13.1 ms
64 bytes from 216.58.195.238: icmp_seq=76 ttl=54 time=13.5 ms
64 bytes from 216.58.195.238: icmp_seq=76 ttl=54 time=13.5 ms
64 bytes from 216.58.195.238: icmp_seq=76 ttl=54 time=13.4 ms
64 bytes from 216.58.195.238: icmp_seq=76 ttl=54 time=13.5 ms
64 bytes from 216.58.195.238: icmp_seq=77 ttl=54 time=13.5 ms
64 bytes from 216.58.195.238: icmp_seq=77 ttl=54 time=13.5 ms
64 bytes from 216.58.195.238: icmp_seq=77 ttl=54 time=13.5 ms
64 bytes from 216.58.195.238: icmp_seq=77 ttl=54 time=13.6 ms
64 bytes from 216.58.195.238: icmp_seq=78 ttl=54 time=13.5 ms
64 bytes from 216.58.195.238: icmp_seq=78 ttl=54 time=13.6 ms
64 bytes from 216.58.195.238: icmp_seq=78 ttl=54 time=13.6 ms
64 bytes from 216.58.195.238: icmp_seq=78 ttl=54 time=13.6 ms
64 bytes from 216.58.195.238: icmp_seq=79 ttl=54 time=13.3 ms
64 bytes from 216.58.195.238: icmp_seq=79 ttl=54 time=13.2 ms
64 bytes from 216.58.195.238: icmp_seq=79 ttl=54 time=13.5 ms
64 bytes from 216.58.195.238: icmp_seq=79 ttl=54 time=13.2 ms
64 bytes from 216.58.195.238: icmp_seq=80 ttl=54 time=13.4 ms
64 bytes from 216.58.195.238: icmp_seq=80 ttl=54 time=13.3 ms
64 bytes from 216.58.195.238: icmp_seq=80 ttl=54 time=13.4 ms
64 bytes from 216.58.195.238: icmp_seq=80 ttl=54 time=13.4 ms
64 bytes from 216.58.195.238: icmp_seq=81 ttl=54 time=13.5 ms
64 bytes from 216.58.195.238: icmp_seq=81 ttl=54 time=13.6 ms
64 bytes from 216.58.195.238: icmp_seq=81 ttl=54 time=13.6 ms
64 bytes from 216.58.195.238: icmp_seq=81 ttl=54 time=13.6 ms
64 bytes from 216.58.195.238: icmp_seq=82 ttl=54 time=13.6 ms
64 bytes from 216.58.195.238: icmp_seq=82 ttl=54 time=13.5 ms
64 bytes from 216.58.195.238: icmp_seq=82 ttl=54 time=13.6 ms
64 bytes from 216.58.195.238: icmp_seq=82 ttl=54 time=13.6 ms
64 bytes from 216.58.195.238: icmp_seq=83 ttl=54 time=13.4 ms
64 bytes from 216.58.195.238: icmp_seq=83 ttl=54 time=13.4 ms
64 bytes from 216.58.195.238: icmp_seq=83 ttl=54 time=13.3 ms
64 bytes from 216.58.195.238: icmp_seq=83 ttl=54 time=13.4 ms
64 bytes from 216.58.195.238: icmp_seq=84 ttl=54 time=13.6 ms
64 bytes from 216.58.195.238: icmp_seq=84 ttl=54 time=13.6 ms
64 bytes from 216.58.195.238: icmp_seq=84 ttl=54 time=13.6 ms
64 bytes from 216.58.195.238: icmp_seq=84 ttl=54 time=13.6 ms
64 bytes from 216.58.195.238: icmp_seq=85 ttl=54 time=13.4 ms
64 bytes from 216.58.195.238: icmp_seq=85 ttl=54 time=13.4 ms
64 bytes from 216.58.195.238: icmp_seq=85 ttl=54 time=13.4 ms
64 bytes from 216.58.195.238: icmp_seq=85 ttl=54 time=13.4 ms
64 bytes from 216.58.195.238: icmp_seq=86 ttl=54 time=13.3 ms
64 bytes from 216.58.195.238: icmp_seq=86 ttl=54 time=13.4 ms
64 bytes from 216.58.195.238: icmp_seq=86 ttl=54 time=13.4 ms
64 bytes from 216.58.195.238: icmp_seq=86 ttl=54 time=13.4 ms
64 bytes from 216.58.195.238: icmp_seq=87 ttl=54 time=14.4 ms
64 bytes from 216.58.195.238: icmp_seq=87 ttl=54 time=14.4 ms
64 bytes from 216.58.195.238: icmp_seq=87 ttl=54 time=14.4 ms
64 bytes from 216.58.195.238: icmp_seq=87 ttl=54 time=14.5 ms
64 bytes from 216.58.195.238: icmp_seq=88 ttl=54 time=13.2 ms
64 bytes from 216.58.195.238: icmp_seq=88 ttl=54 time=13.3 ms
64 bytes from 216.58.195.238: icmp_seq=88 ttl=54 time=13.3 ms
64 bytes from 216.58.195.238: icmp_seq=88 ttl=54 time=13.3 ms
64 bytes from 216.58.195.238: icmp_seq=89 ttl=54 time=13.3 ms
64 bytes from 216.58.195.238: icmp_seq=89 ttl=54 time=13.2 ms
64 bytes from 216.58.195.238: icmp_seq=89 ttl=54 time=13.3 ms
64 bytes from 216.58.195.238: icmp_seq=89 ttl=54 time=13.3 ms
64 bytes from 216.58.195.238: icmp_seq=90 ttl=54 time=13.0 ms
64 bytes from 216.58.195.238: icmp_seq=90 ttl=54 time=13.0 ms
64 bytes from 216.58.195.238: icmp_seq=90 ttl=54 time=13.0 ms
64 bytes from 216.58.195.238: icmp_seq=90 ttl=54 time=13.0 ms
64 bytes from 216.58.195.238: icmp_seq=91 ttl=54 time=13.2 ms
64 bytes from 216.58.195.238: icmp_seq=91 ttl=54 time=13.1 ms
64 bytes from 216.58.195.238: icmp_seq=91 ttl=54 time=13.1 ms
64 bytes from 216.58.195.238: icmp_seq=91 ttl=54 time=13.1 ms
64 bytes from 216.58.195.238: icmp_seq=92 ttl=54 time=13.0 ms
64 bytes from 216.58.195.238: icmp_seq=92 ttl=54 time=13.0 ms
64 bytes from 216.58.195.238: icmp_seq=92 ttl=54 time=13.0 ms
64 bytes from 216.58.195.238: icmp_seq=92 ttl=54 time=13.0 ms
64 bytes from 216.58.195.238: icmp_seq=93 ttl=54 time=13.4 ms
64 bytes from 216.58.195.238: icmp_seq=93 ttl=54 time=13.4 ms
64 bytes from 216.58.195.238: icmp_seq=93 ttl=54 time=13.4 ms
64 bytes from 216.58.195.238: icmp_seq=93 ttl=54 time=13.4 ms
64 bytes from 216.58.195.238: icmp_seq=94 ttl=54 time=13.5 ms
64 bytes from 216.58.195.238: icmp_seq=94 ttl=54 time=13.7 ms
64 bytes from 216.58.195.238: icmp_seq=94 ttl=54 time=13.6 ms
64 bytes from 216.58.195.238: icmp_seq=94 ttl=54 time=12.9 ms
64 bytes from 216.58.195.238: icmp_seq=95 ttl=54 time=13.6 ms
64 bytes from 216.58.195.238: icmp_seq=95 ttl=54 time=13.6 ms
64 bytes from 216.58.195.238: icmp_seq=95 ttl=54 time=13.5 ms
64 bytes from 216.58.195.238: icmp_seq=95 ttl=54 time=13.6 ms
64 bytes from 216.58.195.238: icmp_seq=96 ttl=54 time=13.4 ms
64 bytes from 216.58.195.238: icmp_seq=96 ttl=54 time=13.3 ms
64 bytes from 216.58.195.238: icmp_seq=96 ttl=54 time=13.3 ms
64 bytes from 216.58.195.238: icmp_seq=96 ttl=54 time=13.4 ms
64 bytes from 216.58.195.238: icmp_seq=97 ttl=54 time=13.1 ms
64 bytes from 216.58.195.238: icmp_seq=97 ttl=54 time=13.1 ms
64 bytes from 216.58.195.238: icmp_seq=97 ttl=54 time=13.1 ms
64 bytes from 216.58.195.238: icmp_seq=97 ttl=54 time=13.1 ms
64 bytes from 216.58.195.238: icmp_seq=98 ttl=54 time=13.2 ms
64 bytes from 216.58.195.238: icmp_seq=98 ttl=54 time=13.1 ms
64 bytes from 216.58.195.238: icmp_seq=98 ttl=54 time=13.2 ms
64 bytes from 216.58.195.238: icmp_seq=98 ttl=54 time=13.2 ms
64 bytes from 216.58.195.238: icmp_seq=99 ttl=54 time=13.1 ms
64 bytes from 216.58.195.238: icmp_seq=99 ttl=54 time=13.0 ms
64 bytes from 216.58.195.238: icmp_seq=99 ttl=54 time=13.1 ms
64 bytes from 216.58.195.238: icmp_seq=99 ttl=54 time=13.1 ms
64 bytes from 216.58.195.238: icmp_seq=100 ttl=54 time=13.5 ms
64 bytes from 216.58.195.238: icmp_seq=100 ttl=54 time=13.5 ms
64 bytes from 216.58.195.238: icmp_seq=100 ttl=54 time=13.5 ms
64 bytes from 216.58.195.238: icmp_seq=100 ttl=54 time=13.5 ms




--- 216.58.195.238 ping statistics ---
100 packets transmitted, 100 received, 0% packet loss, time 99179ms
rtt min/avg/max/mdev = 12.893/13.394/14.497/0.278 ms
--- 216.58.195.238 ping statistics ---
100 packets transmitted, 100 received, 0% packet loss, time 99180ms
rtt min/avg/max/mdev = 12.970/13.401/14.512/0.266 ms
--- 216.58.195.238 ping statistics ---
100 packets transmitted, 100 received, 0% packet loss, time 99180ms
rtt min/avg/max/mdev = 12.885/13.397/14.481/0.240 ms
--- 216.58.195.238 ping statistics ---
100 packets transmitted, 100 received, 0% packet loss, time 99180ms
rtt min/avg/max/mdev = 12.934/13.403/14.416/0.233 ms
