     1	288 
     2	289 
     3	309 
     4	379 
     5	414 
     6	402 
     7	394 
     8	381 
     9	375 
    10	369 
    11	366 
    12	363 
    13	358 
    14	350 
    15	387 
    16	470 
    17	478 
    18	468 
    19	461 
    20	451 
    21	448 
    22	444 
    23	440 
    24	436 
    25	432 
    26	428 
    27	424 
    28	414 
    29	404 
    30	391 
    31	385 
    32	376 
    33	370 
    34	367 
    35	364 
    36	361 
    37	358 
    38	352 
    39	352 
    40	349 
    41	340 
    42	337 
    43	328 
    44	322 
    45	319 
    46	315 
    47	313 
    48	310 
    49	305 
    50	304 
    51	301 
    52	298 
    53	295 
