ping_1  | round-trip min/avg/max = 79.800/79.945/80.343 ms
ping_76 | round-trip min/avg/max = 79.719/79.976/80.306 ms
ping_57 | round-trip min/avg/max = 79.731/80.258/82.144 ms
ping_9  | round-trip min/avg/max = 79.756/79.996/80.665 ms
ping_97 | round-trip min/avg/max = 79.691/79.884/80.237 ms
ping_66 | round-trip min/avg/max = 79.734/80.012/80.889 ms
ping_63 | round-trip min/avg/max = 79.733/79.945/80.198 ms
ping_20 | round-trip min/avg/max = 79.743/79.858/80.109 ms
ping_100 | round-trip min/avg/max = 79.725/80.033/80.936 ms
ping_25 | round-trip min/avg/max = 79.644/79.812/80.132 ms
ping_78 | round-trip min/avg/max = 79.795/80.016/80.314 ms
ping_55 | round-trip min/avg/max = 79.733/79.826/79.872 ms
ping_31 | round-trip min/avg/max = 79.765/79.836/80.017 ms
ping_30 | round-trip min/avg/max = 79.737/79.786/79.848 ms
ping_23 | round-trip min/avg/max = 79.767/79.819/79.854 ms
ping_41 | round-trip min/avg/max = 79.701/79.889/80.442 ms
ping_24 | round-trip min/avg/max = 79.711/79.772/79.822 ms
ping_89 | round-trip min/avg/max = 79.777/79.806/79.830 ms
ping_84 | round-trip min/avg/max = 79.703/79.838/79.922 ms
ping_35 | round-trip min/avg/max = 79.730/79.825/79.950 ms
ping_70 | round-trip min/avg/max = 79.717/79.745/79.815 ms
ping_45 | round-trip min/avg/max = 79.714/79.955/80.608 ms
ping_85 | round-trip min/avg/max = 79.764/79.983/80.745 ms
ping_95 | round-trip min/avg/max = 79.706/79.908/80.494 ms
ping_65 | round-trip min/avg/max = 79.742/79.780/79.807 ms
ping_14 | round-trip min/avg/max = 79.777/80.344/81.469 ms
ping_88 | round-trip min/avg/max = 79.791/80.104/81.133 ms
ping_68 | round-trip min/avg/max = 79.752/79.851/80.013 ms
ping_87 | round-trip min/avg/max = 79.772/80.310/82.229 ms
ping_77 | round-trip min/avg/max = 79.777/79.844/79.915 ms
ping_99 | round-trip min/avg/max = 79.767/80.580/82.889 ms
ping_90 | round-trip min/avg/max = 79.788/80.435/82.018 ms
ping_81 | round-trip min/avg/max = 79.762/80.864/84.971 ms
ping_96 | round-trip min/avg/max = 79.726/79.874/80.177 ms
ping_39 | round-trip min/avg/max = 79.732/80.285/82.139 ms
ping_94 | round-trip min/avg/max = 79.740/79.805/79.870 ms
ping_50 | round-trip min/avg/max = 79.754/79.851/80.052 ms
ping_22 | round-trip min/avg/max = 79.740/79.837/79.982 ms
ping_8  | round-trip min/avg/max = 79.725/79.930/80.184 ms
ping_58 | round-trip min/avg/max = 79.766/80.027/80.327 ms
ping_61 | round-trip min/avg/max = 79.722/80.756/84.401 ms
ping_49 | round-trip min/avg/max = 79.872/80.083/80.311 ms
ping_83 | round-trip min/avg/max = 79.774/79.957/80.320 ms
ping_18 | round-trip min/avg/max = 79.690/79.990/80.687 ms
ping_15 | round-trip min/avg/max = 79.812/80.166/81.161 ms
ping_56 | round-trip min/avg/max = 79.857/80.760/83.341 ms
ping_17 | round-trip min/avg/max = 79.690/79.826/79.947 ms
ping_82 | round-trip min/avg/max = 79.726/79.891/80.092 ms
ping_27 | round-trip min/avg/max = 79.733/79.863/79.979 ms
ping_3  | round-trip min/avg/max = 79.684/79.881/80.048 ms
ping_2  | round-trip min/avg/max = 79.757/79.814/79.884 ms
ping_74 | round-trip min/avg/max = 79.822/80.199/80.577 ms
ping_6  | round-trip min/avg/max = 79.729/79.840/79.933 ms
ping_46 | round-trip min/avg/max = 79.681/79.849/80.117 ms
ping_62 | round-trip min/avg/max = 79.750/79.842/79.945 ms
ping_21 | round-trip min/avg/max = 79.763/80.227/81.561 ms
ping_71 | round-trip min/avg/max = 79.779/80.006/80.134 ms
ping_52 | round-trip min/avg/max = 79.781/80.004/80.601 ms
ping_4  | round-trip min/avg/max = 79.741/79.984/80.216 ms
ping_60 | round-trip min/avg/max = 79.706/79.949/80.234 ms
ping_67 | round-trip min/avg/max = 79.713/79.790/79.893 ms
ping_86 | round-trip min/avg/max = 79.794/80.918/84.620 ms
ping_26 | round-trip min/avg/max = 79.776/79.870/79.943 ms
ping_16 | round-trip min/avg/max = 79.760/79.799/79.834 ms
ping_98 | round-trip min/avg/max = 79.714/79.893/80.150 ms
ping_69 | round-trip min/avg/max = 79.714/79.850/79.947 ms
ping_79 | round-trip min/avg/max = 79.714/80.765/82.492 ms
ping_36 | round-trip min/avg/max = 79.764/79.813/79.888 ms
ping_28 | round-trip min/avg/max = 79.719/79.807/79.973 ms
ping_13 | round-trip min/avg/max = 79.837/79.974/80.238 ms
ping_91 | round-trip min/avg/max = 79.758/79.941/80.493 ms
ping_32 | round-trip min/avg/max = 79.754/79.801/79.924 ms
ping_80 | round-trip min/avg/max = 79.736/80.812/84.437 ms
ping_34 | round-trip min/avg/max = 79.734/79.833/80.048 ms
ping_37 | round-trip min/avg/max = 79.712/80.002/80.447 ms
ping_75 | round-trip min/avg/max = 79.706/79.920/80.287 ms
ping_5  | round-trip min/avg/max = 79.733/80.239/81.821 ms
ping_93 | round-trip min/avg/max = 79.738/81.035/83.512 ms
ping_42 | round-trip min/avg/max = 79.694/80.399/81.793 ms
ping_72 | round-trip min/avg/max = 79.814/80.158/81.134 ms
ping_43 | round-trip min/avg/max = 79.787/80.105/80.778 ms
ping_59 | round-trip min/avg/max = 79.738/79.905/80.146 ms
ping_53 | round-trip min/avg/max = 79.746/79.817/79.932 ms
ping_48 | round-trip min/avg/max = 79.695/79.860/80.154 ms
ping_19 | round-trip min/avg/max = 79.771/80.001/80.379 ms
ping_40 | round-trip min/avg/max = 79.764/80.114/80.820 ms
ping_64 | round-trip min/avg/max = 79.731/79.893/80.055 ms
ping_44 | round-trip min/avg/max = 79.784/79.869/79.999 ms
ping_73 | round-trip min/avg/max = 79.802/80.644/83.616 ms
ping_33 | round-trip min/avg/max = 79.867/80.078/80.306 ms
ping_38 | round-trip min/avg/max = 79.722/80.018/80.311 ms
ping_54 | round-trip min/avg/max = 79.786/80.418/82.636 ms
ping_10 | round-trip min/avg/max = 79.797/79.969/80.355 ms
ping_92 | round-trip min/avg/max = 79.758/80.611/83.223 ms
ping_51 | round-trip min/avg/max = 79.718/80.352/81.179 ms
ping_11 | round-trip min/avg/max = 79.752/80.031/80.764 ms
ping_47 | round-trip min/avg/max = 79.815/81.178/83.257 ms
ping_7  | round-trip min/avg/max = 79.807/80.263/81.476 ms
ping_173 | round-trip min/avg/max = 79.846/80.496/83.056 ms
ping_12 | round-trip min/avg/max = 79.704/79.789/79.918 ms
ping_29 | round-trip min/avg/max = 79.772/79.827/79.893 ms
ping_168 | round-trip min/avg/max = 79.833/80.236/80.897 ms
ping_138 | round-trip min/avg/max = 79.853/80.274/80.666 ms
ping_164 | round-trip min/avg/max = 79.818/80.046/80.818 ms
ping_137 | round-trip min/avg/max = 79.804/79.959/80.157 ms
ping_106 | round-trip min/avg/max = 79.750/79.886/80.045 ms
ping_133 | round-trip min/avg/max = 79.730/79.787/79.858 ms
ping_163 | round-trip min/avg/max = 79.707/80.095/81.175 ms
ping_107 | round-trip min/avg/max = 79.759/79.807/79.859 ms
ping_171 | round-trip min/avg/max = 79.766/79.870/80.146 ms
ping_170 | round-trip min/avg/max = 79.773/79.941/80.452 ms
ping_190 | round-trip min/avg/max = 79.752/80.584/83.615 ms
ping_153 | round-trip min/avg/max = 79.747/80.056/80.891 ms
ping_185 | round-trip min/avg/max = 79.772/81.971/88.448 ms
ping_104 | round-trip min/avg/max = 79.729/79.875/80.116 ms
ping_181 | round-trip min/avg/max = 79.704/79.828/79.959 ms
ping_187 | round-trip min/avg/max = 79.775/79.827/79.880 ms
ping_152 | round-trip min/avg/max = 79.747/79.837/80.032 ms
ping_176 | round-trip min/avg/max = 79.781/79.820/79.886 ms
ping_130 | round-trip min/avg/max = 79.782/79.900/80.094 ms
ping_175 | round-trip min/avg/max = 79.718/79.813/79.876 ms
ping_191 | round-trip min/avg/max = 79.765/79.820/79.891 ms
ping_172 | round-trip min/avg/max = 79.800/80.958/85.233 ms
ping_177 | round-trip min/avg/max = 79.730/80.064/81.173 ms
ping_165 | round-trip min/avg/max = 79.780/79.909/80.114 ms
ping_111 | round-trip min/avg/max = 79.761/79.848/79.916 ms
ping_109 | round-trip min/avg/max = 79.762/79.855/79.908 ms
ping_158 | round-trip min/avg/max = 79.816/80.108/81.143 ms
ping_112 | round-trip min/avg/max = 79.755/80.242/81.179 ms
ping_166 | round-trip min/avg/max = 79.805/79.932/80.173 ms
ping_186 | round-trip min/avg/max = 79.760/79.879/79.965 ms
ping_183 | round-trip min/avg/max = 79.777/79.839/79.990 ms
ping_149 | round-trip min/avg/max = 79.786/80.125/81.288 ms
ping_200 | round-trip min/avg/max = 79.756/80.079/81.199 ms
ping_197 | round-trip min/avg/max = 79.701/79.770/79.855 ms
ping_105 | round-trip min/avg/max = 79.756/79.859/80.122 ms
ping_167 | round-trip min/avg/max = 79.774/79.999/80.237 ms
ping_124 | round-trip min/avg/max = 79.752/79.900/80.193 ms
ping_128 | round-trip min/avg/max = 79.866/80.320/81.843 ms
ping_131 | round-trip min/avg/max = 79.752/79.909/80.222 ms
ping_140 | round-trip min/avg/max = 79.723/79.919/80.313 ms
ping_143 | round-trip min/avg/max = 79.763/79.849/79.999 ms
ping_195 | round-trip min/avg/max = 79.738/80.280/81.524 ms
ping_192 | round-trip min/avg/max = 79.716/79.828/80.026 ms
ping_134 | round-trip min/avg/max = 79.768/80.006/80.315 ms
ping_113 | round-trip min/avg/max = 79.729/79.958/80.170 ms
ping_139 | round-trip min/avg/max = 79.921/80.261/80.915 ms
ping_160 | round-trip min/avg/max = 79.742/79.854/79.980 ms
ping_199 | round-trip min/avg/max = 79.742/79.949/80.082 ms
ping_136 | round-trip min/avg/max = 79.701/79.906/80.191 ms
ping_161 | round-trip min/avg/max = 79.736/80.013/80.311 ms
ping_102 | round-trip min/avg/max = 79.652/79.743/79.898 ms
ping_159 | round-trip min/avg/max = 79.751/79.920/80.103 ms
ping_144 | round-trip min/avg/max = 79.692/79.866/80.000 ms
ping_103 | round-trip min/avg/max = 79.712/79.788/79.944 ms
ping_154 | round-trip min/avg/max = 79.801/79.951/80.337 ms
ping_125 | round-trip min/avg/max = 79.752/79.833/80.037 ms
ping_119 | round-trip min/avg/max = 79.762/79.874/79.980 ms
ping_126 | round-trip min/avg/max = 79.741/79.856/80.180 ms
ping_116 | round-trip min/avg/max = 79.663/83.618/97.224 ms
ping_135 | round-trip min/avg/max = 79.767/79.980/80.166 ms
ping_180 | round-trip min/avg/max = 79.691/84.555/101.104 ms
ping_147 | round-trip min/avg/max = 79.806/79.971/80.339 ms
ping_108 | round-trip min/avg/max = 79.709/80.042/80.585 ms
ping_145 | round-trip min/avg/max = 79.757/80.279/81.570 ms
ping_121 | round-trip min/avg/max = 79.684/79.805/79.981 ms
ping_174 | round-trip min/avg/max = 79.630/80.326/80.767 ms
ping_110 | round-trip min/avg/max = 79.779/79.973/80.345 ms
ping_184 | round-trip min/avg/max = 79.656/80.201/80.973 ms
ping_150 | round-trip min/avg/max = 79.705/80.035/80.874 ms
ping_198 | round-trip min/avg/max = 79.754/79.950/80.401 ms
ping_194 | round-trip min/avg/max = 79.790/80.017/80.681 ms
ping_129 | round-trip min/avg/max = 79.800/79.977/80.500 ms
ping_169 | round-trip min/avg/max = 79.792/80.168/81.144 ms
ping_123 | round-trip min/avg/max = 79.724/79.769/79.803 ms
ping_115 | round-trip min/avg/max = 79.747/80.055/80.841 ms
ping_132 | round-trip min/avg/max = 79.760/80.140/81.006 ms
ping_151 | round-trip min/avg/max = 79.675/79.784/79.902 ms
ping_155 | round-trip min/avg/max = 79.666/79.908/80.288 ms
ping_117 | round-trip min/avg/max = 79.798/79.950/80.265 ms
ping_178 | round-trip min/avg/max = 79.728/80.322/81.730 ms
ping_148 | round-trip min/avg/max = 79.714/79.955/80.361 ms
ping_101 | round-trip min/avg/max = 79.771/80.083/80.343 ms
ping_120 | round-trip min/avg/max = 79.738/79.813/79.873 ms
ping_182 | round-trip min/avg/max = 79.730/79.851/79.982 ms
ping_142 | round-trip min/avg/max = 79.719/79.945/80.378 ms
ping_189 | round-trip min/avg/max = 79.805/80.318/82.296 ms
ping_162 | round-trip min/avg/max = 79.835/80.251/80.715 ms
ping_188 | round-trip min/avg/max = 80.160/81.110/82.744 ms
ping_122 | round-trip min/avg/max = 79.938/80.295/81.338 ms
ping_196 | round-trip min/avg/max = 79.717/80.023/80.188 ms
ping_146 | round-trip min/avg/max = 79.943/80.180/80.958 ms
ping_193 | round-trip min/avg/max = 79.726/80.028/80.294 ms
ping_114 | round-trip min/avg/max = 79.756/79.932/80.175 ms
ping_118 | round-trip min/avg/max = 79.706/80.101/80.426 ms
ping_141 | round-trip min/avg/max = 79.741/80.258/81.005 ms
ping_179 | round-trip min/avg/max = 79.624/79.802/80.094 ms
ping_156 | round-trip min/avg/max = 79.707/79.967/80.137 ms
ping_157 | round-trip min/avg/max = 79.813/79.943/80.382 ms
ping_127 | round-trip min/avg/max = 79.708/80.405/81.041 ms
