ping_2  | round-trip min/avg/max = 0.428/0.768/0.940 ms
ping_8  | round-trip min/avg/max = 0.383/0.778/0.988 ms
ping_7  | round-trip min/avg/max = 0.446/0.712/0.937 ms
ping_4  | round-trip min/avg/max = 0.422/0.795/1.008 ms
ping_5  | round-trip min/avg/max = 0.413/0.625/0.914 ms
ping_10 | round-trip min/avg/max = 0.379/0.789/1.023 ms
ping_3  | round-trip min/avg/max = 0.399/0.731/0.952 ms
ping_6  | round-trip min/avg/max = 0.468/0.818/1.840 ms
ping_9  | round-trip min/avg/max = 0.456/0.776/0.960 ms
ping_1  | round-trip min/avg/max = 0.468/0.736/1.012 ms
ping_13 | round-trip min/avg/max = 0.446/0.794/0.953 ms
ping_16 | round-trip min/avg/max = 0.434/0.768/0.953 ms
ping_12 | round-trip min/avg/max = 0.434/0.623/0.922 ms
ping_17 | round-trip min/avg/max = 0.454/0.773/0.978 ms
ping_15 | round-trip min/avg/max = 0.392/0.599/0.922 ms
ping_18 | round-trip min/avg/max = 0.421/0.792/0.926 ms
ping_14 | round-trip min/avg/max = 0.432/0.791/0.955 ms
ping_19 | round-trip min/avg/max = 0.385/0.568/0.818 ms
ping_11 | round-trip min/avg/max = 0.381/0.800/1.005 ms
ping_20 | round-trip min/avg/max = 0.436/0.734/1.004 ms
