     1	284 
     2	285 
     3	318 
     4	348 
     5	341 
     6	333 
     7	326 
     8	321 
     9	316 
    10	367 
    11	381 
    12	371 
    13	367 
    14	363 
    15	359 
    16	355 
    17	351 
    18	347 
    19	347 
    20	347 
    21	347 
    22	347 
    23	347 
    24	347 
    25	347 
    26	347 
    27	347 
    28	347 
    29	347 
    30	347 
    31	347 
    32	347 
    33	347 
    34	347 
    35	347 
    36	347 
    37	347 
    38	347 
    39	347 
    40	347 
    41	347 
    42	347 
    43	347 
    44	347 
    45	347 
    46	347 
    47	347 
    48	347 
    49	347 
    50	347 
    51	347 
    52	344 
    53	341 
    54	335 
    55	332 
    56	336 
    57	320 
    58	320 
    59	317 
    60	311 
    61	305 
    62	304 
    63	302 
    64	295 
    65	293 
    66	292 
    67	287 
