     1	1380956 
     2	1380956 
     3	1380956 
     4	1942352 
     5	1942352 
     6	1942352 
     7	1686928 
     8	1686928 
     9	1686928 
    10	1508588 
    11	1508588 
    12	1508588 
    13	1973160 
    14	1973160 
    15	1973160 
    16	1723616 
    17	1723616 
    18	1723616 
    19	1477412 
    20	1477412 
    21	1477412 
    22	1476844 
    23	1476844 
    24	1476844 
    25	1476880 
    26	1476880 
    27	1476880 
    28	1476832 
    29	1476832 
    30	1476832 
    31	1476860 
    32	1476860 
    33	1476860 
    34	1471240 
    35	1471240 
    36	1471240 
    37	1471256 
    38	1471256 
    39	1471256 
    40	1471200 
    41	1471200 
    42	1464508 
    43	1464508 
    44	1464508 
    45	1464636 
    46	1464636 
    47	1464636 
    48	1464572 
    49	1464572 
    50	1464572 
    51	1464596 
    52	1464596 
    53	1464596 
    54	1453788 
    55	1453788 
    56	1453788 
    57	1447116 
    58	1447116 
    59	1447116 
    60	1440052 
    61	1440052 
    62	1440052 
    63	1430556 
    64	1430556 
    65	1430556 
    66	1422364 
    67	1422364 
