Attaching to softwareoverhead_ping_1, softwareoverhead_ping_4, softwareoverhead_ping_2, softwareoverhead_ping_3, softwareoverhead_ping_7, softwareoverhead_ping_9, softwareoverhead_ping_10, softwareoverhead_ping_8, softwareoverhead_ping_6, softwareoverhead_ping_5, softwareoverhead_ping_14, softwareoverhead_ping_13, softwareoverhead_ping_19, softwareoverhead_ping_12, softwareoverhead_ping_17, softwareoverhead_ping_18, softwareoverhead_ping_16, softwareoverhead_ping_11, softwareoverhead_ping_20, softwareoverhead_ping_15
ping_1  | PING speedtest.xsmedia.com (199.66.198.2): 56 data bytes
ping_1  | 64 bytes from 199.66.198.2: seq=0 ttl=55 time=21.670 ms
ping_1  | 64 bytes from 199.66.198.2: seq=1 ttl=55 time=21.519 ms
ping_4  | PING speedtest.xsmedia.com (199.66.198.2): 56 data bytes
ping_2  | PING speedtest.xsmedia.com (199.66.198.2): 56 data bytes
ping_1  | 64 bytes from 199.66.198.2: seq=2 ttl=55 time=21.942 ms
ping_1  | 64 bytes from 199.66.198.2: seq=3 ttl=55 time=21.990 ms
ping_2  | 64 bytes from 199.66.198.2: seq=0 ttl=55 time=21.389 ms
ping_4  | 64 bytes from 199.66.198.2: seq=0 ttl=55 time=21.417 ms
ping_4  | 64 bytes from 199.66.198.2: seq=1 ttl=55 time=21.692 ms
ping_1  | 64 bytes from 199.66.198.2: seq=4 ttl=55 time=21.975 ms
ping_2  | 64 bytes from 199.66.198.2: seq=1 ttl=55 time=21.949 ms
ping_7  | PING speedtest.xsmedia.com (199.66.198.2): 56 data bytes
ping_3  | PING speedtest.xsmedia.com (199.66.198.2): 56 data bytes
ping_3  | 64 bytes from 199.66.198.2: seq=0 ttl=55 time=23.503 ms
ping_7  | 64 bytes from 199.66.198.2: seq=0 ttl=55 time=21.629 ms
ping_10 | PING speedtest.xsmedia.com (199.66.198.2): 56 data bytes
ping_2  | 64 bytes from 199.66.198.2: seq=2 ttl=55 time=24.036 ms
ping_10 | 64 bytes from 199.66.198.2: seq=0 ttl=55 time=21.417 ms
ping_9  | PING speedtest.xsmedia.com (199.66.198.2): 56 data bytes
ping_1  | 64 bytes from 199.66.198.2: seq=5 ttl=55 time=21.892 ms
ping_4  | 64 bytes from 199.66.198.2: seq=2 ttl=55 time=22.044 ms
ping_3  | 64 bytes from 199.66.198.2: seq=1 ttl=55 time=21.544 ms
ping_10 | 64 bytes from 199.66.198.2: seq=1 ttl=55 time=21.451 ms
ping_7  | 64 bytes from 199.66.198.2: seq=1 ttl=55 time=21.869 ms
ping_1  | 64 bytes from 199.66.198.2: seq=6 ttl=55 time=21.990 ms
ping_4  | 64 bytes from 199.66.198.2: seq=3 ttl=55 time=22.109 ms
ping_2  | 64 bytes from 199.66.198.2: seq=3 ttl=55 time=22.013 ms
ping_7  | 64 bytes from 199.66.198.2: seq=2 ttl=55 time=21.853 ms
ping_3  | 64 bytes from 199.66.198.2: seq=2 ttl=55 time=21.594 ms
ping_4  | 64 bytes from 199.66.198.2: seq=4 ttl=55 time=21.566 ms
ping_8  | PING speedtest.xsmedia.com (199.66.198.2): 56 data bytes
ping_9  | 64 bytes from 199.66.198.2: seq=0 ttl=55 time=21.361 ms
ping_2  | 64 bytes from 199.66.198.2: seq=4 ttl=55 time=22.006 ms
ping_1  | 64 bytes from 199.66.198.2: seq=7 ttl=55 time=21.745 ms
ping_10 | 64 bytes from 199.66.198.2: seq=2 ttl=55 time=21.596 ms
ping_7  | 64 bytes from 199.66.198.2: seq=3 ttl=55 time=21.950 ms
ping_8  | 64 bytes from 199.66.198.2: seq=0 ttl=55 time=21.436 ms
ping_7  | 64 bytes from 199.66.198.2: seq=4 ttl=55 time=21.649 ms
ping_3  | 64 bytes from 199.66.198.2: seq=3 ttl=55 time=21.692 ms
ping_4  | 64 bytes from 199.66.198.2: seq=5 ttl=55 time=21.516 ms
ping_2  | 64 bytes from 199.66.198.2: seq=5 ttl=55 time=21.997 ms
ping_10 | 64 bytes from 199.66.198.2: seq=3 ttl=55 time=22.490 ms
ping_9  | 64 bytes from 199.66.198.2: seq=1 ttl=55 time=21.957 ms
ping_8  | 64 bytes from 199.66.198.2: seq=1 ttl=55 time=21.728 ms
ping_6  | PING speedtest.xsmedia.com (199.66.198.2): 56 data bytes
ping_9  | 64 bytes from 199.66.198.2: seq=2 ttl=55 time=21.689 ms
ping_1  | 64 bytes from 199.66.198.2: seq=8 ttl=55 time=22.381 ms
ping_10 | 64 bytes from 199.66.198.2: seq=4 ttl=55 time=21.475 ms
ping_8  | 64 bytes from 199.66.198.2: seq=2 ttl=55 time=21.323 ms
ping_5  | PING speedtest.xsmedia.com (199.66.198.2): 56 data bytes
ping_6  | 64 bytes from 199.66.198.2: seq=0 ttl=55 time=21.480 ms
ping_4  | 64 bytes from 199.66.198.2: seq=6 ttl=55 time=21.836 ms
ping_3  | 64 bytes from 199.66.198.2: seq=4 ttl=55 time=21.774 ms
ping_7  | 64 bytes from 199.66.198.2: seq=5 ttl=55 time=21.955 ms
ping_2  | 64 bytes from 199.66.198.2: seq=6 ttl=55 time=21.679 ms
ping_6  | 64 bytes from 199.66.198.2: seq=1 ttl=55 time=21.959 ms
ping_4  | 64 bytes from 199.66.198.2: seq=7 ttl=55 time=21.393 ms
ping_9  | 64 bytes from 199.66.198.2: seq=3 ttl=55 time=21.782 ms
ping_2  | 64 bytes from 199.66.198.2: seq=7 ttl=55 time=21.447 ms
ping_10 | 64 bytes from 199.66.198.2: seq=5 ttl=55 time=21.891 ms
ping_1  | 64 bytes from 199.66.198.2: seq=9 ttl=55 time=21.507 ms
ping_5  | 64 bytes from 199.66.198.2: seq=0 ttl=55 time=21.465 ms
ping_3  | 64 bytes from 199.66.198.2: seq=5 ttl=55 time=21.664 ms
ping_9  | 64 bytes from 199.66.198.2: seq=4 ttl=55 time=21.663 ms
ping_8  | 64 bytes from 199.66.198.2: seq=3 ttl=55 time=21.426 ms
ping_4  | 64 bytes from 199.66.198.2: seq=8 ttl=55 time=21.471 ms
ping_5  | 64 bytes from 199.66.198.2: seq=1 ttl=55 time=21.458 ms
ping_2  | 64 bytes from 199.66.198.2: seq=8 ttl=55 time=21.600 ms
ping_4  | 64 bytes from 199.66.198.2: seq=9 ttl=55 time=21.960 ms
ping_14 | PING speedtest.xsmedia.com (199.66.198.2): 56 data bytes
ping_3  | 64 bytes from 199.66.198.2: seq=6 ttl=55 time=21.849 ms
ping_6  | 64 bytes from 199.66.198.2: seq=2 ttl=55 time=21.436 ms
ping_1  | 64 bytes from 199.66.198.2: seq=10 ttl=55 time=21.546 ms
ping_10 | 64 bytes from 199.66.198.2: seq=6 ttl=55 time=21.939 ms
ping_7  | 64 bytes from 199.66.198.2: seq=6 ttl=55 time=21.494 ms
ping_8  | 64 bytes from 199.66.198.2: seq=4 ttl=55 time=21.600 ms
ping_10 | 64 bytes from 199.66.198.2: seq=7 ttl=55 time=21.723 ms
ping_10 | 64 bytes from 199.66.198.2: seq=8 ttl=55 time=22.067 ms
ping_13 | PING speedtest.xsmedia.com (199.66.198.2): 56 data bytes
ping_5  | 64 bytes from 199.66.198.2: seq=2 ttl=55 time=21.561 ms
ping_1  | 64 bytes from 199.66.198.2: seq=11 ttl=55 time=21.706 ms
ping_8  | 64 bytes from 199.66.198.2: seq=5 ttl=55 time=21.878 ms
ping_2  | 64 bytes from 199.66.198.2: seq=9 ttl=55 time=21.650 ms
ping_9  | 64 bytes from 199.66.198.2: seq=5 ttl=55 time=21.476 ms
ping_6  | 64 bytes from 199.66.198.2: seq=3 ttl=55 time=21.548 ms
ping_19 | PING speedtest.xsmedia.com (199.66.198.2): 56 data bytes
ping_7  | 64 bytes from 199.66.198.2: seq=7 ttl=55 time=21.678 ms
ping_10 | 64 bytes from 199.66.198.2: seq=9 ttl=55 time=21.612 ms
ping_14 | 64 bytes from 199.66.198.2: seq=0 ttl=55 time=21.574 ms
ping_4  | 64 bytes from 199.66.198.2: seq=10 ttl=55 time=22.017 ms
ping_8  | 64 bytes from 199.66.198.2: seq=6 ttl=55 time=21.878 ms
ping_19 | 64 bytes from 199.66.198.2: seq=0 ttl=55 time=21.470 ms
ping_1  | 64 bytes from 199.66.198.2: seq=12 ttl=55 time=21.610 ms
ping_14 | 64 bytes from 199.66.198.2: seq=1 ttl=55 time=21.682 ms
ping_2  | 64 bytes from 199.66.198.2: seq=10 ttl=55 time=21.999 ms
ping_6  | 64 bytes from 199.66.198.2: seq=4 ttl=55 time=21.643 ms
ping_17 | PING speedtest.xsmedia.com (199.66.198.2): 56 data bytes
ping_9  | 64 bytes from 199.66.198.2: seq=6 ttl=55 time=21.910 ms
ping_4  | 64 bytes from 199.66.198.2: seq=11 ttl=55 time=22.039 ms
ping_5  | 64 bytes from 199.66.198.2: seq=3 ttl=55 time=21.894 ms
ping_19 | 64 bytes from 199.66.198.2: seq=1 ttl=55 time=22.062 ms
ping_14 | 64 bytes from 199.66.198.2: seq=2 ttl=55 time=21.886 ms
ping_6  | 64 bytes from 199.66.198.2: seq=5 ttl=55 time=21.465 ms
ping_10 | 64 bytes from 199.66.198.2: seq=10 ttl=55 time=21.662 ms
ping_8  | 64 bytes from 199.66.198.2: seq=7 ttl=55 time=21.666 ms
ping_4  | 64 bytes from 199.66.198.2: seq=12 ttl=55 time=21.891 ms
ping_2  | 64 bytes from 199.66.198.2: seq=11 ttl=55 time=21.679 ms
ping_5  | 64 bytes from 199.66.198.2: seq=4 ttl=55 time=21.617 ms
ping_19 | 64 bytes from 199.66.198.2: seq=2 ttl=55 time=22.094 ms
ping_1  | 64 bytes from 199.66.198.2: seq=13 ttl=55 time=21.873 ms
ping_17 | 64 bytes from 199.66.198.2: seq=0 ttl=55 time=21.560 ms
ping_14 | 64 bytes from 199.66.198.2: seq=3 ttl=55 time=21.690 ms
ping_19 | 64 bytes from 199.66.198.2: seq=3 ttl=55 time=21.966 ms
ping_8  | 64 bytes from 199.66.198.2: seq=8 ttl=55 time=21.607 ms
ping_4  | 64 bytes from 199.66.198.2: seq=13 ttl=55 time=22.071 ms
ping_2  | 64 bytes from 199.66.198.2: seq=12 ttl=55 time=21.633 ms
ping_5  | 64 bytes from 199.66.198.2: seq=5 ttl=55 time=21.895 ms
ping_12 | PING speedtest.xsmedia.com (199.66.198.2): 56 data bytes
ping_5  | 64 bytes from 199.66.198.2: seq=6 ttl=55 time=21.983 ms
ping_9  | 64 bytes from 199.66.198.2: seq=7 ttl=55 time=22.094 ms
ping_12 | 64 bytes from 199.66.198.2: seq=0 ttl=55 time=21.519 ms
ping_6  | 64 bytes from 199.66.198.2: seq=6 ttl=55 time=21.855 ms
ping_3  | 64 bytes from 199.66.198.2: seq=7 ttl=55 time=21.433 ms
ping_4  | 64 bytes from 199.66.198.2: seq=14 ttl=55 time=21.741 ms
ping_2  | 64 bytes from 199.66.198.2: seq=13 ttl=55 time=21.494 ms
ping_17 | 64 bytes from 199.66.198.2: seq=1 ttl=55 time=21.535 ms
ping_19 | 64 bytes from 199.66.198.2: seq=4 ttl=55 time=21.650 ms
ping_5  | 64 bytes from 199.66.198.2: seq=7 ttl=55 time=21.566 ms
ping_7  | 64 bytes from 199.66.198.2: seq=8 ttl=55 time=22.145 ms
ping_9  | 64 bytes from 199.66.198.2: seq=8 ttl=55 time=21.588 ms
ping_13 | 64 bytes from 199.66.198.2: seq=0 ttl=55 time=21.528 ms
ping_17 | 64 bytes from 199.66.198.2: seq=2 ttl=55 time=22.042 ms
ping_14 | 64 bytes from 199.66.198.2: seq=4 ttl=55 time=21.967 ms
ping_8  | 64 bytes from 199.66.198.2: seq=9 ttl=55 time=21.807 ms
ping_19 | 64 bytes from 199.66.198.2: seq=5 ttl=55 time=21.735 ms
ping_7  | 64 bytes from 199.66.198.2: seq=9 ttl=55 time=21.594 ms
ping_2  | 64 bytes from 199.66.198.2: seq=14 ttl=55 time=22.116 ms
ping_6  | 64 bytes from 199.66.198.2: seq=7 ttl=55 time=21.776 ms
ping_12 | 64 bytes from 199.66.198.2: seq=1 ttl=55 time=21.875 ms
ping_13 | 64 bytes from 199.66.198.2: seq=1 ttl=55 time=21.641 ms
ping_1  | 64 bytes from 199.66.198.2: seq=14 ttl=55 time=21.562 ms
ping_3  | 64 bytes from 199.66.198.2: seq=8 ttl=55 time=21.908 ms
ping_7  | 64 bytes from 199.66.198.2: seq=10 ttl=55 time=21.620 ms
ping_1  | 64 bytes from 199.66.198.2: seq=15 ttl=55 time=21.590 ms
ping_9  | 64 bytes from 199.66.198.2: seq=9 ttl=55 time=22.148 ms
ping_3  | 64 bytes from 199.66.198.2: seq=9 ttl=55 time=21.756 ms
ping_7  | 64 bytes from 199.66.198.2: seq=11 ttl=55 time=21.630 ms
ping_16 | PING speedtest.xsmedia.com (199.66.198.2): 56 data bytes
ping_18 | PING speedtest.xsmedia.com (199.66.198.2): 56 data bytes
ping_6  | 64 bytes from 199.66.198.2: seq=8 ttl=55 time=21.688 ms
ping_14 | 64 bytes from 199.66.198.2: seq=5 ttl=55 time=21.568 ms
ping_14 | 64 bytes from 199.66.198.2: seq=6 ttl=55 time=21.772 ms
ping_13 | 64 bytes from 199.66.198.2: seq=2 ttl=55 time=21.793 ms
ping_11 | PING speedtest.xsmedia.com (199.66.198.2): 56 data bytes
ping_12 | 64 bytes from 199.66.198.2: seq=2 ttl=55 time=21.462 ms
ping_17 | 64 bytes from 199.66.198.2: seq=3 ttl=55 time=22.075 ms
ping_3  | 64 bytes from 199.66.198.2: seq=10 ttl=55 time=21.933 ms
ping_20 | PING speedtest.xsmedia.com (199.66.198.2): 56 data bytes
ping_7  | 64 bytes from 199.66.198.2: seq=12 ttl=55 time=22.110 ms
ping_12 | 64 bytes from 199.66.198.2: seq=3 ttl=55 time=21.708 ms
ping_3  | 64 bytes from 199.66.198.2: seq=11 ttl=55 time=21.684 ms
ping_13 | 64 bytes from 199.66.198.2: seq=3 ttl=55 time=21.905 ms
ping_17 | 64 bytes from 199.66.198.2: seq=4 ttl=55 time=21.472 ms
ping_11 | 64 bytes from 199.66.198.2: seq=0 ttl=55 time=21.389 ms
ping_18 | 64 bytes from 199.66.198.2: seq=0 ttl=55 time=21.508 ms
ping_13 | 64 bytes from 199.66.198.2: seq=4 ttl=55 time=21.442 ms
ping_9  | 64 bytes from 199.66.198.2: seq=10 ttl=55 time=21.567 ms
ping_12 | 64 bytes from 199.66.198.2: seq=4 ttl=55 time=21.620 ms
ping_11 | 64 bytes from 199.66.198.2: seq=1 ttl=55 time=21.916 ms
ping_15 | PING speedtest.xsmedia.com (199.66.198.2): 56 data bytes
ping_7  | 64 bytes from 199.66.198.2: seq=13 ttl=55 time=21.447 ms
ping_18 | 64 bytes from 199.66.198.2: seq=1 ttl=55 time=21.612 ms
ping_16 | 64 bytes from 199.66.198.2: seq=0 ttl=55 time=21.444 ms
ping_12 | 64 bytes from 199.66.198.2: seq=5 ttl=55 time=21.652 ms
ping_20 | 64 bytes from 199.66.198.2: seq=0 ttl=55 time=21.821 ms
ping_9  | 64 bytes from 199.66.198.2: seq=11 ttl=55 time=21.815 ms
ping_13 | 64 bytes from 199.66.198.2: seq=5 ttl=55 time=21.432 ms
ping_15 | 64 bytes from 199.66.198.2: seq=0 ttl=55 time=21.424 ms
ping_13 | 64 bytes from 199.66.198.2: seq=6 ttl=55 time=21.564 ms
ping_9  | 64 bytes from 199.66.198.2: seq=12 ttl=55 time=21.634 ms
ping_16 | 64 bytes from 199.66.198.2: seq=1 ttl=55 time=21.618 ms
ping_3  | 64 bytes from 199.66.198.2: seq=12 ttl=55 time=21.500 ms
ping_18 | 64 bytes from 199.66.198.2: seq=2 ttl=55 time=21.539 ms
ping_16 | 64 bytes from 199.66.198.2: seq=2 ttl=55 time=21.635 ms
ping_18 | 64 bytes from 199.66.198.2: seq=3 ttl=55 time=21.609 ms
ping_20 | 64 bytes from 199.66.198.2: seq=1 ttl=55 time=21.618 ms
ping_3  | 64 bytes from 199.66.198.2: seq=13 ttl=55 time=21.391 ms
ping_3  | 64 bytes from 199.66.198.2: seq=14 ttl=55 time=21.640 ms
ping_6  | 64 bytes from 199.66.198.2: seq=9 ttl=55 time=21.554 ms
ping_10 | 64 bytes from 199.66.198.2: seq=11 ttl=55 time=21.627 ms
ping_4  | 64 bytes from 199.66.198.2: seq=15 ttl=55 time=21.521 ms
ping_8  | 64 bytes from 199.66.198.2: seq=10 ttl=55 time=21.496 ms
ping_5  | 64 bytes from 199.66.198.2: seq=8 ttl=55 time=21.790 ms
ping_19 | 64 bytes from 199.66.198.2: seq=6 ttl=55 time=22.063 ms
ping_1  | 64 bytes from 199.66.198.2: seq=16 ttl=55 time=21.674 ms
ping_14 | 64 bytes from 199.66.198.2: seq=7 ttl=55 time=22.097 ms
ping_2  | 64 bytes from 199.66.198.2: seq=15 ttl=55 time=21.980 ms
ping_11 | 64 bytes from 199.66.198.2: seq=2 ttl=55 time=22.036 ms
ping_12 | 64 bytes from 199.66.198.2: seq=6 ttl=55 time=21.723 ms
ping_18 | 64 bytes from 199.66.198.2: seq=4 ttl=55 time=22.066 ms
ping_13 | 64 bytes from 199.66.198.2: seq=7 ttl=55 time=21.985 ms
ping_3  | 64 bytes from 199.66.198.2: seq=15 ttl=55 time=21.941 ms
ping_20 | 64 bytes from 199.66.198.2: seq=2 ttl=55 time=21.940 ms
ping_16 | 64 bytes from 199.66.198.2: seq=3 ttl=55 time=21.954 ms
ping_9  | 64 bytes from 199.66.198.2: seq=13 ttl=55 time=21.687 ms
ping_7  | 64 bytes from 199.66.198.2: seq=14 ttl=55 time=21.734 ms
ping_17 | 64 bytes from 199.66.198.2: seq=5 ttl=55 time=21.934 ms
ping_15 | 64 bytes from 199.66.198.2: seq=1 ttl=55 time=22.068 ms
ping_6  | 64 bytes from 199.66.198.2: seq=10 ttl=55 time=21.669 ms
ping_10 | 64 bytes from 199.66.198.2: seq=12 ttl=55 time=21.668 ms
ping_4  | 64 bytes from 199.66.198.2: seq=16 ttl=55 time=21.642 ms
ping_8  | 64 bytes from 199.66.198.2: seq=11 ttl=55 time=21.686 ms
ping_5  | 64 bytes from 199.66.198.2: seq=9 ttl=55 time=22.042 ms
ping_19 | 64 bytes from 199.66.198.2: seq=7 ttl=55 time=22.237 ms
ping_1  | 64 bytes from 199.66.198.2: seq=17 ttl=55 time=21.783 ms
ping_14 | 64 bytes from 199.66.198.2: seq=8 ttl=55 time=21.962 ms
ping_2  | 64 bytes from 199.66.198.2: seq=16 ttl=55 time=21.997 ms
ping_11 | 64 bytes from 199.66.198.2: seq=3 ttl=55 time=21.957 ms
ping_12 | 64 bytes from 199.66.198.2: seq=7 ttl=55 time=22.070 ms
ping_18 | 64 bytes from 199.66.198.2: seq=5 ttl=55 time=22.068 ms
ping_13 | 64 bytes from 199.66.198.2: seq=8 ttl=55 time=22.031 ms
ping_3  | 64 bytes from 199.66.198.2: seq=16 ttl=55 time=22.015 ms
ping_20 | 64 bytes from 199.66.198.2: seq=3 ttl=55 time=21.626 ms
ping_16 | 64 bytes from 199.66.198.2: seq=4 ttl=55 time=22.011 ms
ping_9  | 64 bytes from 199.66.198.2: seq=14 ttl=55 time=21.840 ms
ping_7  | 64 bytes from 199.66.198.2: seq=15 ttl=55 time=22.117 ms
ping_17 | 64 bytes from 199.66.198.2: seq=6 ttl=55 time=22.107 ms
ping_15 | 64 bytes from 199.66.198.2: seq=2 ttl=55 time=22.214 ms
ping_6  | 64 bytes from 199.66.198.2: seq=11 ttl=55 time=21.692 ms
ping_10 | 64 bytes from 199.66.198.2: seq=13 ttl=55 time=21.669 ms
ping_4  | 64 bytes from 199.66.198.2: seq=17 ttl=55 time=22.008 ms
ping_8  | 64 bytes from 199.66.198.2: seq=12 ttl=55 time=21.652 ms
ping_5  | 64 bytes from 199.66.198.2: seq=10 ttl=55 time=22.008 ms
ping_19 | 64 bytes from 199.66.198.2: seq=8 ttl=55 time=21.977 ms
ping_1  | 64 bytes from 199.66.198.2: seq=18 ttl=55 time=21.719 ms
ping_14 | 64 bytes from 199.66.198.2: seq=9 ttl=55 time=21.565 ms
ping_2  | 64 bytes from 199.66.198.2: seq=17 ttl=55 time=21.609 ms
ping_11 | 64 bytes from 199.66.198.2: seq=4 ttl=55 time=22.062 ms
ping_12 | 64 bytes from 199.66.198.2: seq=8 ttl=55 time=21.809 ms
ping_18 | 64 bytes from 199.66.198.2: seq=6 ttl=55 time=21.938 ms
ping_13 | 64 bytes from 199.66.198.2: seq=9 ttl=55 time=21.858 ms
ping_3  | 64 bytes from 199.66.198.2: seq=17 ttl=55 time=21.942 ms
ping_20 | 64 bytes from 199.66.198.2: seq=4 ttl=55 time=21.990 ms
ping_16 | 64 bytes from 199.66.198.2: seq=5 ttl=55 time=22.027 ms
ping_9  | 64 bytes from 199.66.198.2: seq=15 ttl=55 time=22.143 ms
ping_7  | 64 bytes from 199.66.198.2: seq=16 ttl=55 time=22.008 ms
ping_17 | 64 bytes from 199.66.198.2: seq=7 ttl=55 time=21.884 ms
ping_15 | 64 bytes from 199.66.198.2: seq=3 ttl=55 time=21.952 ms
ping_6  | 64 bytes from 199.66.198.2: seq=12 ttl=55 time=21.670 ms
ping_10 | 64 bytes from 199.66.198.2: seq=14 ttl=55 time=21.654 ms
ping_4  | 64 bytes from 199.66.198.2: seq=18 ttl=55 time=21.955 ms
ping_8  | 64 bytes from 199.66.198.2: seq=13 ttl=55 time=21.535 ms
ping_5  | 64 bytes from 199.66.198.2: seq=11 ttl=55 time=21.825 ms
ping_19 | 64 bytes from 199.66.198.2: seq=9 ttl=55 time=22.203 ms
ping_1  | 64 bytes from 199.66.198.2: seq=19 ttl=55 time=22.013 ms
ping_14 | 64 bytes from 199.66.198.2: seq=10 ttl=55 time=21.660 ms
ping_2  | 64 bytes from 199.66.198.2: seq=18 ttl=55 time=21.885 ms
ping_11 | 64 bytes from 199.66.198.2: seq=5 ttl=55 time=22.161 ms
ping_12 | 64 bytes from 199.66.198.2: seq=9 ttl=55 time=21.995 ms
ping_18 | 64 bytes from 199.66.198.2: seq=7 ttl=55 time=21.927 ms
ping_13 | 64 bytes from 199.66.198.2: seq=10 ttl=55 time=21.560 ms
ping_3  | 64 bytes from 199.66.198.2: seq=18 ttl=55 time=21.568 ms
ping_20 | 64 bytes from 199.66.198.2: seq=5 ttl=55 time=21.881 ms
ping_16 | 64 bytes from 199.66.198.2: seq=6 ttl=55 time=21.979 ms
ping_9  | 64 bytes from 199.66.198.2: seq=16 ttl=55 time=22.151 ms
ping_7  | 64 bytes from 199.66.198.2: seq=17 ttl=55 time=22.105 ms
ping_17 | 64 bytes from 199.66.198.2: seq=8 ttl=55 time=21.939 ms
ping_15 | 64 bytes from 199.66.198.2: seq=4 ttl=55 time=21.982 ms
ping_6  | 64 bytes from 199.66.198.2: seq=13 ttl=55 time=21.661 ms
ping_10 | 64 bytes from 199.66.198.2: seq=15 ttl=55 time=21.674 ms
ping_4  | 64 bytes from 199.66.198.2: seq=19 ttl=55 time=21.953 ms
ping_8  | 64 bytes from 199.66.198.2: seq=14 ttl=55 time=21.572 ms
ping_5  | 64 bytes from 199.66.198.2: seq=12 ttl=55 time=21.616 ms
ping_19 | 64 bytes from 199.66.198.2: seq=10 ttl=55 time=22.167 ms
ping_1  | 64 bytes from 199.66.198.2: seq=20 ttl=55 time=21.762 ms
ping_14 | 64 bytes from 199.66.198.2: seq=11 ttl=55 time=22.043 ms
ping_2  | 64 bytes from 199.66.198.2: seq=19 ttl=55 time=21.953 ms
ping_11 | 64 bytes from 199.66.198.2: seq=6 ttl=55 time=22.042 ms
ping_12 | 64 bytes from 199.66.198.2: seq=10 ttl=55 time=21.964 ms
ping_18 | 64 bytes from 199.66.198.2: seq=8 ttl=55 time=22.125 ms
ping_13 | 64 bytes from 199.66.198.2: seq=11 ttl=55 time=21.685 ms
ping_3  | 64 bytes from 199.66.198.2: seq=19 ttl=55 time=22.151 ms
ping_20 | 64 bytes from 199.66.198.2: seq=6 ttl=55 time=21.735 ms
ping_16 | 64 bytes from 199.66.198.2: seq=7 ttl=55 time=21.915 ms
ping_9  | 64 bytes from 199.66.198.2: seq=17 ttl=55 time=21.853 ms
ping_7  | 64 bytes from 199.66.198.2: seq=18 ttl=55 time=22.017 ms
ping_17 | 64 bytes from 199.66.198.2: seq=9 ttl=55 time=21.887 ms
ping_15 | 64 bytes from 199.66.198.2: seq=5 ttl=55 time=21.834 ms
ping_6  | 64 bytes from 199.66.198.2: seq=14 ttl=55 time=22.038 ms
ping_10 | 64 bytes from 199.66.198.2: seq=16 ttl=55 time=22.025 ms
ping_4  | 64 bytes from 199.66.198.2: seq=20 ttl=55 time=21.981 ms
ping_8  | 64 bytes from 199.66.198.2: seq=15 ttl=55 time=21.706 ms
ping_5  | 64 bytes from 199.66.198.2: seq=13 ttl=55 time=21.578 ms
ping_19 | 64 bytes from 199.66.198.2: seq=11 ttl=55 time=22.081 ms
ping_1  | 64 bytes from 199.66.198.2: seq=21 ttl=55 time=21.815 ms
ping_14 | 64 bytes from 199.66.198.2: seq=12 ttl=55 time=21.703 ms
ping_2  | 64 bytes from 199.66.198.2: seq=20 ttl=55 time=21.858 ms
ping_11 | 64 bytes from 199.66.198.2: seq=7 ttl=55 time=22.017 ms
ping_12 | 64 bytes from 199.66.198.2: seq=11 ttl=55 time=21.978 ms
ping_18 | 64 bytes from 199.66.198.2: seq=9 ttl=55 time=22.024 ms
ping_13 | 64 bytes from 199.66.198.2: seq=12 ttl=55 time=21.977 ms
ping_3  | 64 bytes from 199.66.198.2: seq=20 ttl=55 time=21.573 ms
ping_20 | 64 bytes from 199.66.198.2: seq=7 ttl=55 time=21.629 ms
ping_16 | 64 bytes from 199.66.198.2: seq=8 ttl=55 time=21.941 ms
ping_9  | 64 bytes from 199.66.198.2: seq=18 ttl=55 time=22.012 ms
ping_7  | 64 bytes from 199.66.198.2: seq=19 ttl=55 time=21.941 ms
ping_17 | 64 bytes from 199.66.198.2: seq=10 ttl=55 time=21.925 ms
ping_15 | 64 bytes from 199.66.198.2: seq=6 ttl=55 time=22.031 ms
ping_6  | 64 bytes from 199.66.198.2: seq=15 ttl=55 time=21.829 ms
ping_10 | 64 bytes from 199.66.198.2: seq=17 ttl=55 time=21.841 ms
ping_4  | 64 bytes from 199.66.198.2: seq=21 ttl=55 time=21.967 ms
ping_8  | 64 bytes from 199.66.198.2: seq=16 ttl=55 time=21.567 ms
ping_5  | 64 bytes from 199.66.198.2: seq=14 ttl=55 time=21.957 ms
ping_19 | 64 bytes from 199.66.198.2: seq=12 ttl=55 time=22.212 ms
ping_1  | 64 bytes from 199.66.198.2: seq=22 ttl=55 time=21.798 ms
ping_14 | 64 bytes from 199.66.198.2: seq=13 ttl=55 time=22.082 ms
ping_2  | 64 bytes from 199.66.198.2: seq=21 ttl=55 time=21.627 ms
ping_11 | 64 bytes from 199.66.198.2: seq=8 ttl=55 time=21.987 ms
ping_12 | 64 bytes from 199.66.198.2: seq=12 ttl=55 time=21.790 ms
ping_18 | 64 bytes from 199.66.198.2: seq=10 ttl=55 time=21.906 ms
ping_13 | 64 bytes from 199.66.198.2: seq=13 ttl=55 time=21.999 ms
ping_3  | 64 bytes from 199.66.198.2: seq=21 ttl=55 time=22.067 ms
ping_20 | 64 bytes from 199.66.198.2: seq=8 ttl=55 time=21.823 ms
ping_16 | 64 bytes from 199.66.198.2: seq=9 ttl=55 time=21.717 ms
ping_9  | 64 bytes from 199.66.198.2: seq=19 ttl=55 time=21.886 ms
ping_7  | 64 bytes from 199.66.198.2: seq=20 ttl=55 time=22.019 ms
ping_17 | 64 bytes from 199.66.198.2: seq=11 ttl=55 time=21.929 ms
ping_15 | 64 bytes from 199.66.198.2: seq=7 ttl=55 time=21.965 ms
ping_6  | 64 bytes from 199.66.198.2: seq=16 ttl=55 time=22.341 ms
ping_10 | 64 bytes from 199.66.198.2: seq=18 ttl=55 time=22.319 ms
ping_4  | 64 bytes from 199.66.198.2: seq=22 ttl=55 time=21.934 ms
ping_8  | 64 bytes from 199.66.198.2: seq=17 ttl=55 time=21.592 ms
ping_5  | 64 bytes from 199.66.198.2: seq=15 ttl=55 time=21.945 ms
ping_19 | 64 bytes from 199.66.198.2: seq=13 ttl=55 time=21.905 ms
ping_1  | 64 bytes from 199.66.198.2: seq=23 ttl=55 time=21.864 ms
ping_14 | 64 bytes from 199.66.198.2: seq=14 ttl=55 time=21.988 ms
ping_2  | 64 bytes from 199.66.198.2: seq=22 ttl=55 time=22.088 ms
ping_11 | 64 bytes from 199.66.198.2: seq=9 ttl=55 time=22.055 ms
ping_12 | 64 bytes from 199.66.198.2: seq=13 ttl=55 time=22.085 ms
ping_18 | 64 bytes from 199.66.198.2: seq=11 ttl=55 time=22.010 ms
ping_13 | 64 bytes from 199.66.198.2: seq=14 ttl=55 time=22.189 ms
ping_3  | 64 bytes from 199.66.198.2: seq=22 ttl=55 time=21.992 ms
ping_20 | 64 bytes from 199.66.198.2: seq=9 ttl=55 time=22.013 ms
ping_16 | 64 bytes from 199.66.198.2: seq=10 ttl=55 time=21.982 ms
ping_9  | 64 bytes from 199.66.198.2: seq=20 ttl=55 time=21.709 ms
ping_7  | 64 bytes from 199.66.198.2: seq=21 ttl=55 time=22.034 ms
ping_17 | 64 bytes from 199.66.198.2: seq=12 ttl=55 time=21.663 ms
ping_15 | 64 bytes from 199.66.198.2: seq=8 ttl=55 time=21.993 ms
ping_10 | 64 bytes from 199.66.198.2: seq=19 ttl=55 time=22.106 ms
ping_6  | 64 bytes from 199.66.198.2: seq=17 ttl=55 time=22.113 ms
ping_4  | 64 bytes from 199.66.198.2: seq=23 ttl=55 time=21.872 ms
ping_8  | 64 bytes from 199.66.198.2: seq=18 ttl=55 time=21.755 ms
ping_5  | 64 bytes from 199.66.198.2: seq=16 ttl=55 time=21.633 ms
ping_19 | 64 bytes from 199.66.198.2: seq=14 ttl=55 time=22.136 ms
ping_1  | 64 bytes from 199.66.198.2: seq=24 ttl=55 time=21.749 ms
ping_14 | 64 bytes from 199.66.198.2: seq=15 ttl=55 time=21.982 ms
ping_2  | 64 bytes from 199.66.198.2: seq=23 ttl=55 time=21.850 ms
ping_11 | 64 bytes from 199.66.198.2: seq=10 ttl=55 time=21.899 ms
ping_12 | 64 bytes from 199.66.198.2: seq=14 ttl=55 time=21.982 ms
ping_18 | 64 bytes from 199.66.198.2: seq=12 ttl=55 time=21.995 ms
ping_13 | 64 bytes from 199.66.198.2: seq=15 ttl=55 time=21.990 ms
ping_3  | 64 bytes from 199.66.198.2: seq=23 ttl=55 time=22.288 ms
ping_20 | 64 bytes from 199.66.198.2: seq=10 ttl=55 time=21.847 ms
ping_16 | 64 bytes from 199.66.198.2: seq=11 ttl=55 time=21.995 ms
ping_9  | 64 bytes from 199.66.198.2: seq=21 ttl=55 time=21.825 ms
ping_7  | 64 bytes from 199.66.198.2: seq=22 ttl=55 time=22.113 ms
ping_17 | 64 bytes from 199.66.198.2: seq=13 ttl=55 time=21.962 ms
ping_15 | 64 bytes from 199.66.198.2: seq=9 ttl=55 time=22.102 ms
ping_10 | 64 bytes from 199.66.198.2: seq=20 ttl=55 time=22.039 ms
ping_6  | 64 bytes from 199.66.198.2: seq=18 ttl=55 time=22.051 ms
ping_4  | 64 bytes from 199.66.198.2: seq=24 ttl=55 time=21.672 ms
ping_8  | 64 bytes from 199.66.198.2: seq=19 ttl=55 time=21.601 ms
ping_5  | 64 bytes from 199.66.198.2: seq=17 ttl=55 time=21.764 ms
ping_19 | 64 bytes from 199.66.198.2: seq=15 ttl=55 time=22.266 ms
ping_1  | 64 bytes from 199.66.198.2: seq=25 ttl=55 time=21.701 ms
ping_14 | 64 bytes from 199.66.198.2: seq=16 ttl=55 time=21.978 ms
ping_2  | 64 bytes from 199.66.198.2: seq=24 ttl=55 time=21.959 ms
ping_11 | 64 bytes from 199.66.198.2: seq=11 ttl=55 time=22.181 ms
ping_12 | 64 bytes from 199.66.198.2: seq=15 ttl=55 time=21.693 ms
ping_18 | 64 bytes from 199.66.198.2: seq=13 ttl=55 time=21.982 ms
ping_13 | 64 bytes from 199.66.198.2: seq=16 ttl=55 time=22.266 ms
ping_3  | 64 bytes from 199.66.198.2: seq=24 ttl=55 time=22.205 ms
ping_20 | 64 bytes from 199.66.198.2: seq=11 ttl=55 time=21.911 ms
ping_16 | 64 bytes from 199.66.198.2: seq=12 ttl=55 time=22.045 ms
ping_9  | 64 bytes from 199.66.198.2: seq=22 ttl=55 time=22.110 ms
ping_7  | 64 bytes from 199.66.198.2: seq=23 ttl=55 time=22.190 ms
ping_17 | 64 bytes from 199.66.198.2: seq=14 ttl=55 time=21.596 ms
ping_15 | 64 bytes from 199.66.198.2: seq=10 ttl=55 time=21.957 ms
ping_6  | 64 bytes from 199.66.198.2: seq=19 ttl=55 time=21.964 ms
ping_10 | 64 bytes from 199.66.198.2: seq=21 ttl=55 time=21.915 ms
ping_4  | 64 bytes from 199.66.198.2: seq=25 ttl=55 time=21.522 ms
ping_8  | 64 bytes from 199.66.198.2: seq=20 ttl=55 time=21.426 ms
ping_5  | 64 bytes from 199.66.198.2: seq=18 ttl=55 time=21.480 ms
ping_19 | 64 bytes from 199.66.198.2: seq=16 ttl=55 time=21.988 ms
ping_1  | 64 bytes from 199.66.198.2: seq=26 ttl=55 time=21.922 ms
ping_14 | 64 bytes from 199.66.198.2: seq=17 ttl=55 time=22.189 ms
ping_2  | 64 bytes from 199.66.198.2: seq=25 ttl=55 time=21.901 ms
ping_11 | 64 bytes from 199.66.198.2: seq=12 ttl=55 time=22.107 ms
ping_12 | 64 bytes from 199.66.198.2: seq=16 ttl=55 time=22.081 ms
ping_18 | 64 bytes from 199.66.198.2: seq=14 ttl=55 time=21.962 ms
ping_13 | 64 bytes from 199.66.198.2: seq=17 ttl=55 time=21.959 ms
ping_3  | 64 bytes from 199.66.198.2: seq=25 ttl=55 time=22.026 ms
ping_20 | 64 bytes from 199.66.198.2: seq=12 ttl=55 time=21.965 ms
ping_16 | 64 bytes from 199.66.198.2: seq=13 ttl=55 time=21.971 ms
ping_9  | 64 bytes from 199.66.198.2: seq=23 ttl=55 time=22.188 ms
ping_7  | 64 bytes from 199.66.198.2: seq=24 ttl=55 time=21.898 ms
ping_17 | 64 bytes from 199.66.198.2: seq=15 ttl=55 time=22.093 ms
ping_15 | 64 bytes from 199.66.198.2: seq=11 ttl=55 time=22.106 ms
ping_10 | 64 bytes from 199.66.198.2: seq=22 ttl=55 time=21.918 ms
ping_6  | 64 bytes from 199.66.198.2: seq=20 ttl=55 time=21.882 ms
ping_4  | 64 bytes from 199.66.198.2: seq=26 ttl=55 time=21.667 ms
ping_8  | 64 bytes from 199.66.198.2: seq=21 ttl=55 time=21.383 ms
ping_5  | 64 bytes from 199.66.198.2: seq=19 ttl=55 time=21.668 ms
ping_19 | 64 bytes from 199.66.198.2: seq=17 ttl=55 time=21.924 ms
ping_1  | 64 bytes from 199.66.198.2: seq=27 ttl=55 time=21.779 ms
ping_14 | 64 bytes from 199.66.198.2: seq=18 ttl=55 time=21.620 ms
ping_2  | 64 bytes from 199.66.198.2: seq=26 ttl=55 time=22.186 ms
ping_11 | 64 bytes from 199.66.198.2: seq=13 ttl=55 time=21.867 ms
ping_12 | 64 bytes from 199.66.198.2: seq=17 ttl=55 time=22.030 ms
ping_18 | 64 bytes from 199.66.198.2: seq=15 ttl=55 time=21.807 ms
ping_13 | 64 bytes from 199.66.198.2: seq=18 ttl=55 time=21.858 ms
ping_3  | 64 bytes from 199.66.198.2: seq=26 ttl=55 time=22.092 ms
ping_20 | 64 bytes from 199.66.198.2: seq=13 ttl=55 time=21.683 ms
ping_16 | 64 bytes from 199.66.198.2: seq=14 ttl=55 time=21.846 ms
ping_9  | 64 bytes from 199.66.198.2: seq=24 ttl=55 time=22.162 ms
ping_7  | 64 bytes from 199.66.198.2: seq=25 ttl=55 time=21.638 ms
ping_17 | 64 bytes from 199.66.198.2: seq=16 ttl=55 time=22.123 ms
ping_15 | 64 bytes from 199.66.198.2: seq=12 ttl=55 time=21.760 ms
ping_10 | 64 bytes from 199.66.198.2: seq=23 ttl=55 time=21.619 ms
ping_6  | 64 bytes from 199.66.198.2: seq=21 ttl=55 time=21.654 ms
ping_8  | 64 bytes from 199.66.198.2: seq=22 ttl=55 time=21.797 ms
ping_4  | 64 bytes from 199.66.198.2: seq=27 ttl=55 time=21.956 ms
ping_5  | 64 bytes from 199.66.198.2: seq=20 ttl=55 time=21.551 ms
ping_19 | 64 bytes from 199.66.198.2: seq=18 ttl=55 time=21.914 ms
ping_1  | 64 bytes from 199.66.198.2: seq=28 ttl=55 time=21.933 ms
ping_14 | 64 bytes from 199.66.198.2: seq=19 ttl=55 time=21.923 ms
ping_2  | 64 bytes from 199.66.198.2: seq=27 ttl=55 time=22.171 ms
ping_11 | 64 bytes from 199.66.198.2: seq=14 ttl=55 time=21.598 ms
ping_12 | 64 bytes from 199.66.198.2: seq=18 ttl=55 time=22.177 ms
ping_18 | 64 bytes from 199.66.198.2: seq=16 ttl=55 time=22.018 ms
ping_13 | 64 bytes from 199.66.198.2: seq=19 ttl=55 time=22.149 ms
ping_3  | 64 bytes from 199.66.198.2: seq=27 ttl=55 time=22.168 ms
ping_20 | 64 bytes from 199.66.198.2: seq=14 ttl=55 time=21.880 ms
ping_16 | 64 bytes from 199.66.198.2: seq=15 ttl=55 time=22.008 ms
ping_9  | 64 bytes from 199.66.198.2: seq=25 ttl=55 time=21.696 ms
ping_7  | 64 bytes from 199.66.198.2: seq=26 ttl=55 time=22.057 ms
ping_17 | 64 bytes from 199.66.198.2: seq=17 ttl=55 time=21.990 ms
ping_15 | 64 bytes from 199.66.198.2: seq=13 ttl=55 time=21.921 ms
ping_10 | 64 bytes from 199.66.198.2: seq=24 ttl=55 time=21.900 ms
ping_6  | 64 bytes from 199.66.198.2: seq=22 ttl=55 time=21.869 ms
ping_8  | 64 bytes from 199.66.198.2: seq=23 ttl=55 time=21.759 ms
ping_4  | 64 bytes from 199.66.198.2: seq=28 ttl=55 time=21.792 ms
ping_5  | 64 bytes from 199.66.198.2: seq=21 ttl=55 time=21.922 ms
ping_19 | 64 bytes from 199.66.198.2: seq=19 ttl=55 time=21.541 ms
ping_1  | 64 bytes from 199.66.198.2: seq=29 ttl=55 time=22.129 ms
ping_14 | 64 bytes from 199.66.198.2: seq=20 ttl=55 time=22.014 ms
ping_2  | 64 bytes from 199.66.198.2: seq=28 ttl=55 time=21.950 ms
ping_11 | 64 bytes from 199.66.198.2: seq=15 ttl=55 time=21.701 ms
ping_12 | 64 bytes from 199.66.198.2: seq=19 ttl=55 time=21.875 ms
ping_18 | 64 bytes from 199.66.198.2: seq=17 ttl=55 time=22.017 ms
ping_13 | 64 bytes from 199.66.198.2: seq=20 ttl=55 time=22.280 ms
ping_3  | 64 bytes from 199.66.198.2: seq=28 ttl=55 time=21.645 ms
ping_20 | 64 bytes from 199.66.198.2: seq=15 ttl=55 time=21.669 ms
ping_16 | 64 bytes from 199.66.198.2: seq=16 ttl=55 time=21.573 ms
ping_9  | 64 bytes from 199.66.198.2: seq=26 ttl=55 time=21.634 ms
ping_7  | 64 bytes from 199.66.198.2: seq=27 ttl=55 time=21.683 ms
ping_17 | 64 bytes from 199.66.198.2: seq=18 ttl=55 time=22.004 ms
ping_15 | 64 bytes from 199.66.198.2: seq=14 ttl=55 time=21.720 ms
ping_6  | 64 bytes from 199.66.198.2: seq=23 ttl=55 time=21.659 ms
ping_10 | 64 bytes from 199.66.198.2: seq=25 ttl=55 time=21.619 ms
ping_8  | 64 bytes from 199.66.198.2: seq=24 ttl=55 time=21.920 ms
ping_4  | 64 bytes from 199.66.198.2: seq=29 ttl=55 time=21.915 ms
ping_5  | 64 bytes from 199.66.198.2: seq=22 ttl=55 time=21.899 ms
ping_19 | 64 bytes from 199.66.198.2: seq=20 ttl=55 time=22.008 ms
ping_1  | 64 bytes from 199.66.198.2: seq=30 ttl=55 time=21.890 ms
ping_14 | 64 bytes from 199.66.198.2: seq=21 ttl=55 time=21.880 ms
ping_2  | 64 bytes from 199.66.198.2: seq=29 ttl=55 time=22.049 ms
ping_11 | 64 bytes from 199.66.198.2: seq=16 ttl=55 time=22.203 ms
ping_12 | 64 bytes from 199.66.198.2: seq=20 ttl=55 time=22.268 ms
ping_18 | 64 bytes from 199.66.198.2: seq=18 ttl=55 time=22.086 ms
ping_13 | 64 bytes from 199.66.198.2: seq=21 ttl=55 time=22.095 ms
ping_3  | 64 bytes from 199.66.198.2: seq=29 ttl=55 time=21.912 ms
ping_20 | 64 bytes from 199.66.198.2: seq=16 ttl=55 time=21.957 ms
ping_16 | 64 bytes from 199.66.198.2: seq=17 ttl=55 time=21.785 ms
ping_9  | 64 bytes from 199.66.198.2: seq=27 ttl=55 time=22.183 ms
ping_7  | 64 bytes from 199.66.198.2: seq=28 ttl=55 time=22.077 ms
ping_17 | 64 bytes from 199.66.198.2: seq=19 ttl=55 time=22.075 ms
ping_15 | 64 bytes from 199.66.198.2: seq=15 ttl=55 time=22.079 ms
ping_10 | 64 bytes from 199.66.198.2: seq=26 ttl=55 time=22.157 ms
ping_6  | 64 bytes from 199.66.198.2: seq=24 ttl=55 time=22.134 ms
ping_8  | 64 bytes from 199.66.198.2: seq=25 ttl=55 time=22.022 ms
ping_4  | 64 bytes from 199.66.198.2: seq=30 ttl=55 time=22.005 ms
ping_5  | 64 bytes from 199.66.198.2: seq=23 ttl=55 time=22.152 ms
ping_19 | 64 bytes from 199.66.198.2: seq=21 ttl=55 time=21.751 ms
ping_1  | 64 bytes from 199.66.198.2: seq=31 ttl=55 time=21.755 ms
ping_14 | 64 bytes from 199.66.198.2: seq=22 ttl=55 time=21.969 ms
ping_2  | 64 bytes from 199.66.198.2: seq=30 ttl=55 time=21.980 ms
ping_11 | 64 bytes from 199.66.198.2: seq=17 ttl=55 time=22.185 ms
ping_12 | 64 bytes from 199.66.198.2: seq=21 ttl=55 time=22.112 ms
ping_18 | 64 bytes from 199.66.198.2: seq=19 ttl=55 time=21.624 ms
ping_13 | 64 bytes from 199.66.198.2: seq=22 ttl=55 time=21.560 ms
ping_3  | 64 bytes from 199.66.198.2: seq=30 ttl=55 time=21.917 ms
ping_20 | 64 bytes from 199.66.198.2: seq=17 ttl=55 time=21.885 ms
ping_16 | 64 bytes from 199.66.198.2: seq=18 ttl=55 time=21.895 ms
ping_9  | 64 bytes from 199.66.198.2: seq=28 ttl=55 time=22.131 ms
ping_7  | 64 bytes from 199.66.198.2: seq=29 ttl=55 time=21.954 ms
ping_17 | 64 bytes from 199.66.198.2: seq=20 ttl=55 time=21.934 ms
ping_15 | 64 bytes from 199.66.198.2: seq=16 ttl=55 time=21.965 ms
ping_6  | 64 bytes from 199.66.198.2: seq=25 ttl=55 time=22.109 ms
ping_10 | 64 bytes from 199.66.198.2: seq=27 ttl=55 time=22.086 ms
ping_4  | 64 bytes from 199.66.198.2: seq=31 ttl=55 time=21.936 ms
ping_8  | 64 bytes from 199.66.198.2: seq=26 ttl=55 time=21.966 ms
ping_5  | 64 bytes from 199.66.198.2: seq=24 ttl=55 time=22.091 ms
ping_19 | 64 bytes from 199.66.198.2: seq=22 ttl=55 time=22.112 ms
ping_1  | 64 bytes from 199.66.198.2: seq=32 ttl=55 time=21.565 ms
ping_14 | 64 bytes from 199.66.198.2: seq=23 ttl=55 time=21.928 ms
ping_2  | 64 bytes from 199.66.198.2: seq=31 ttl=55 time=21.967 ms
ping_11 | 64 bytes from 199.66.198.2: seq=18 ttl=55 time=21.953 ms
ping_12 | 64 bytes from 199.66.198.2: seq=22 ttl=55 time=21.739 ms
ping_18 | 64 bytes from 199.66.198.2: seq=20 ttl=55 time=21.717 ms
ping_13 | 64 bytes from 199.66.198.2: seq=23 ttl=55 time=21.651 ms
ping_3  | 64 bytes from 199.66.198.2: seq=31 ttl=55 time=22.137 ms
ping_20 | 64 bytes from 199.66.198.2: seq=18 ttl=55 time=21.969 ms
ping_16 | 64 bytes from 199.66.198.2: seq=19 ttl=55 time=21.919 ms
ping_9  | 64 bytes from 199.66.198.2: seq=29 ttl=55 time=22.005 ms
ping_7  | 64 bytes from 199.66.198.2: seq=30 ttl=55 time=22.209 ms
ping_17 | 64 bytes from 199.66.198.2: seq=21 ttl=55 time=22.029 ms
ping_15 | 64 bytes from 199.66.198.2: seq=17 ttl=55 time=22.068 ms
ping_10 | 64 bytes from 199.66.198.2: seq=28 ttl=55 time=21.863 ms
ping_6  | 64 bytes from 199.66.198.2: seq=26 ttl=55 time=21.893 ms
ping_8  | 64 bytes from 199.66.198.2: seq=27 ttl=55 time=21.675 ms
ping_4  | 64 bytes from 199.66.198.2: seq=32 ttl=55 time=21.629 ms
ping_5  | 64 bytes from 199.66.198.2: seq=25 ttl=55 time=21.627 ms
ping_19 | 64 bytes from 199.66.198.2: seq=23 ttl=55 time=22.179 ms
ping_1  | 64 bytes from 199.66.198.2: seq=33 ttl=55 time=21.880 ms
ping_14 | 64 bytes from 199.66.198.2: seq=24 ttl=55 time=21.976 ms
ping_2  | 64 bytes from 199.66.198.2: seq=32 ttl=55 time=21.904 ms
ping_11 | 64 bytes from 199.66.198.2: seq=19 ttl=55 time=22.095 ms
ping_12 | 64 bytes from 199.66.198.2: seq=23 ttl=55 time=21.983 ms
ping_18 | 64 bytes from 199.66.198.2: seq=21 ttl=55 time=22.131 ms
ping_13 | 64 bytes from 199.66.198.2: seq=24 ttl=55 time=22.042 ms
ping_3  | 64 bytes from 199.66.198.2: seq=32 ttl=55 time=21.914 ms
ping_20 | 64 bytes from 199.66.198.2: seq=19 ttl=55 time=21.969 ms
ping_16 | 64 bytes from 199.66.198.2: seq=20 ttl=55 time=21.872 ms
ping_9  | 64 bytes from 199.66.198.2: seq=30 ttl=55 time=22.072 ms
ping_7  | 64 bytes from 199.66.198.2: seq=31 ttl=55 time=21.999 ms
ping_17 | 64 bytes from 199.66.198.2: seq=22 ttl=55 time=21.761 ms
ping_15 | 64 bytes from 199.66.198.2: seq=18 ttl=55 time=22.111 ms
ping_10 | 64 bytes from 199.66.198.2: seq=29 ttl=55 time=21.894 ms
ping_6  | 64 bytes from 199.66.198.2: seq=27 ttl=55 time=21.929 ms
ping_4  | 64 bytes from 199.66.198.2: seq=33 ttl=55 time=21.671 ms
ping_8  | 64 bytes from 199.66.198.2: seq=28 ttl=55 time=21.712 ms
ping_5  | 64 bytes from 199.66.198.2: seq=26 ttl=55 time=21.519 ms
ping_19 | 64 bytes from 199.66.198.2: seq=24 ttl=55 time=22.164 ms
ping_1  | 64 bytes from 199.66.198.2: seq=34 ttl=55 time=22.090 ms
ping_14 | 64 bytes from 199.66.198.2: seq=25 ttl=55 time=21.596 ms
ping_2  | 64 bytes from 199.66.198.2: seq=33 ttl=55 time=21.914 ms
ping_11 | 64 bytes from 199.66.198.2: seq=20 ttl=55 time=22.203 ms
ping_12 | 64 bytes from 199.66.198.2: seq=24 ttl=55 time=22.217 ms
ping_18 | 64 bytes from 199.66.198.2: seq=22 ttl=55 time=21.635 ms
ping_13 | 64 bytes from 199.66.198.2: seq=25 ttl=55 time=22.055 ms
ping_3  | 64 bytes from 199.66.198.2: seq=33 ttl=55 time=21.928 ms
ping_20 | 64 bytes from 199.66.198.2: seq=20 ttl=55 time=21.708 ms
ping_16 | 64 bytes from 199.66.198.2: seq=21 ttl=55 time=21.991 ms
ping_9  | 64 bytes from 199.66.198.2: seq=31 ttl=55 time=22.256 ms
ping_7  | 64 bytes from 199.66.198.2: seq=32 ttl=55 time=22.118 ms
ping_17 | 64 bytes from 199.66.198.2: seq=23 ttl=55 time=22.124 ms
ping_15 | 64 bytes from 199.66.198.2: seq=19 ttl=55 time=22.021 ms
ping_6  | 64 bytes from 199.66.198.2: seq=28 ttl=55 time=22.104 ms
ping_10 | 64 bytes from 199.66.198.2: seq=30 ttl=55 time=22.061 ms
ping_4  | 64 bytes from 199.66.198.2: seq=34 ttl=55 time=21.966 ms
ping_8  | 64 bytes from 199.66.198.2: seq=29 ttl=55 time=21.994 ms
ping_5  | 64 bytes from 199.66.198.2: seq=27 ttl=55 time=22.085 ms
ping_19 | 64 bytes from 199.66.198.2: seq=25 ttl=55 time=22.137 ms
ping_1  | 64 bytes from 199.66.198.2: seq=35 ttl=55 time=21.961 ms
ping_14 | 64 bytes from 199.66.198.2: seq=26 ttl=55 time=22.163 ms
ping_2  | 64 bytes from 199.66.198.2: seq=34 ttl=55 time=21.850 ms
ping_11 | 64 bytes from 199.66.198.2: seq=21 ttl=55 time=21.774 ms
ping_12 | 64 bytes from 199.66.198.2: seq=25 ttl=55 time=22.057 ms
ping_18 | 64 bytes from 199.66.198.2: seq=23 ttl=55 time=21.996 ms
ping_13 | 64 bytes from 199.66.198.2: seq=26 ttl=55 time=22.037 ms
ping_3  | 64 bytes from 199.66.198.2: seq=34 ttl=55 time=21.946 ms
ping_20 | 64 bytes from 199.66.198.2: seq=21 ttl=55 time=21.992 ms
ping_16 | 64 bytes from 199.66.198.2: seq=22 ttl=55 time=21.961 ms
ping_9  | 64 bytes from 199.66.198.2: seq=32 ttl=55 time=22.210 ms
ping_7  | 64 bytes from 199.66.198.2: seq=33 ttl=55 time=21.918 ms
ping_17 | 64 bytes from 199.66.198.2: seq=24 ttl=55 time=21.859 ms
ping_15 | 64 bytes from 199.66.198.2: seq=20 ttl=55 time=21.673 ms
ping_6  | 64 bytes from 199.66.198.2: seq=29 ttl=55 time=22.060 ms
ping_10 | 64 bytes from 199.66.198.2: seq=31 ttl=55 time=22.017 ms
ping_4  | 64 bytes from 199.66.198.2: seq=35 ttl=55 time=21.652 ms
ping_8  | 64 bytes from 199.66.198.2: seq=30 ttl=55 time=21.691 ms
ping_5  | 64 bytes from 199.66.198.2: seq=28 ttl=55 time=22.171 ms
ping_19 | 64 bytes from 199.66.198.2: seq=26 ttl=55 time=21.950 ms
ping_1  | 64 bytes from 199.66.198.2: seq=36 ttl=55 time=22.036 ms
ping_14 | 64 bytes from 199.66.198.2: seq=27 ttl=55 time=21.509 ms
ping_2  | 64 bytes from 199.66.198.2: seq=35 ttl=55 time=21.428 ms
ping_11 | 64 bytes from 199.66.198.2: seq=22 ttl=55 time=21.841 ms
ping_12 | 64 bytes from 199.66.198.2: seq=26 ttl=55 time=22.182 ms
ping_18 | 64 bytes from 199.66.198.2: seq=24 ttl=55 time=21.970 ms
ping_13 | 64 bytes from 199.66.198.2: seq=27 ttl=55 time=21.901 ms
ping_3  | 64 bytes from 199.66.198.2: seq=35 ttl=55 time=21.955 ms
ping_20 | 64 bytes from 199.66.198.2: seq=22 ttl=55 time=21.613 ms
ping_16 | 64 bytes from 199.66.198.2: seq=23 ttl=55 time=21.547 ms
ping_9  | 64 bytes from 199.66.198.2: seq=33 ttl=55 time=21.486 ms
ping_7  | 64 bytes from 199.66.198.2: seq=34 ttl=55 time=21.988 ms
ping_17 | 64 bytes from 199.66.198.2: seq=25 ttl=55 time=22.058 ms
ping_15 | 64 bytes from 199.66.198.2: seq=21 ttl=55 time=21.999 ms
ping_6  | 64 bytes from 199.66.198.2: seq=30 ttl=55 time=22.008 ms
ping_10 | 64 bytes from 199.66.198.2: seq=32 ttl=55 time=22.047 ms
ping_8  | 64 bytes from 199.66.198.2: seq=31 ttl=55 time=21.685 ms
ping_4  | 64 bytes from 199.66.198.2: seq=36 ttl=55 time=21.693 ms
ping_5  | 64 bytes from 199.66.198.2: seq=29 ttl=55 time=21.585 ms
ping_19 | 64 bytes from 199.66.198.2: seq=27 ttl=55 time=22.226 ms
ping_1  | 64 bytes from 199.66.198.2: seq=37 ttl=55 time=22.001 ms
ping_14 | 64 bytes from 199.66.198.2: seq=28 ttl=55 time=21.637 ms
ping_2  | 64 bytes from 199.66.198.2: seq=36 ttl=55 time=21.797 ms
ping_11 | 64 bytes from 199.66.198.2: seq=23 ttl=55 time=21.911 ms
ping_12 | 64 bytes from 199.66.198.2: seq=27 ttl=55 time=21.991 ms
ping_18 | 64 bytes from 199.66.198.2: seq=25 ttl=55 time=21.720 ms
ping_13 | 64 bytes from 199.66.198.2: seq=28 ttl=55 time=22.085 ms
ping_3  | 64 bytes from 199.66.198.2: seq=36 ttl=55 time=22.001 ms
ping_20 | 64 bytes from 199.66.198.2: seq=23 ttl=55 time=21.903 ms
ping_16 | 64 bytes from 199.66.198.2: seq=24 ttl=55 time=21.864 ms
ping_9  | 64 bytes from 199.66.198.2: seq=34 ttl=55 time=22.128 ms
ping_7  | 64 bytes from 199.66.198.2: seq=35 ttl=55 time=21.595 ms
ping_17 | 64 bytes from 199.66.198.2: seq=26 ttl=55 time=22.026 ms
ping_15 | 64 bytes from 199.66.198.2: seq=22 ttl=55 time=21.882 ms
ping_10 | 64 bytes from 199.66.198.2: seq=33 ttl=55 time=22.041 ms
ping_6  | 64 bytes from 199.66.198.2: seq=31 ttl=55 time=22.000 ms
ping_8  | 64 bytes from 199.66.198.2: seq=32 ttl=55 time=21.719 ms
ping_4  | 64 bytes from 199.66.198.2: seq=37 ttl=55 time=21.719 ms
ping_5  | 64 bytes from 199.66.198.2: seq=30 ttl=55 time=21.612 ms
ping_19 | 64 bytes from 199.66.198.2: seq=28 ttl=55 time=21.950 ms
ping_1  | 64 bytes from 199.66.198.2: seq=38 ttl=55 time=21.673 ms
ping_14 | 64 bytes from 199.66.198.2: seq=29 ttl=55 time=21.569 ms
ping_2  | 64 bytes from 199.66.198.2: seq=37 ttl=55 time=22.056 ms
ping_11 | 64 bytes from 199.66.198.2: seq=24 ttl=55 time=21.613 ms
ping_12 | 64 bytes from 199.66.198.2: seq=28 ttl=55 time=21.482 ms
ping_18 | 64 bytes from 199.66.198.2: seq=26 ttl=55 time=21.548 ms
ping_13 | 64 bytes from 199.66.198.2: seq=29 ttl=55 time=21.610 ms
ping_3  | 64 bytes from 199.66.198.2: seq=37 ttl=55 time=21.650 ms
ping_20 | 64 bytes from 199.66.198.2: seq=24 ttl=55 time=21.560 ms
ping_16 | 64 bytes from 199.66.198.2: seq=25 ttl=55 time=21.858 ms
ping_9  | 64 bytes from 199.66.198.2: seq=35 ttl=55 time=21.665 ms
ping_7  | 64 bytes from 199.66.198.2: seq=36 ttl=55 time=21.599 ms
ping_17 | 64 bytes from 199.66.198.2: seq=27 ttl=55 time=21.505 ms
ping_15 | 64 bytes from 199.66.198.2: seq=23 ttl=55 time=21.459 ms
ping_6  | 64 bytes from 199.66.198.2: seq=32 ttl=55 time=21.616 ms
ping_10 | 64 bytes from 199.66.198.2: seq=34 ttl=55 time=21.667 ms
ping_4  | 64 bytes from 199.66.198.2: seq=38 ttl=55 time=21.663 ms
ping_8  | 64 bytes from 199.66.198.2: seq=33 ttl=55 time=21.643 ms
ping_5  | 64 bytes from 199.66.198.2: seq=31 ttl=55 time=21.594 ms
ping_19 | 64 bytes from 199.66.198.2: seq=29 ttl=55 time=22.131 ms
ping_1  | 64 bytes from 199.66.198.2: seq=39 ttl=55 time=21.735 ms
ping_14 | 64 bytes from 199.66.198.2: seq=30 ttl=55 time=22.056 ms
ping_2  | 64 bytes from 199.66.198.2: seq=38 ttl=55 time=21.646 ms
ping_11 | 64 bytes from 199.66.198.2: seq=25 ttl=55 time=21.599 ms
ping_12 | 64 bytes from 199.66.198.2: seq=29 ttl=55 time=21.772 ms
ping_18 | 64 bytes from 199.66.198.2: seq=27 ttl=55 time=21.798 ms
ping_13 | 64 bytes from 199.66.198.2: seq=30 ttl=55 time=21.927 ms
ping_3  | 64 bytes from 199.66.198.2: seq=38 ttl=55 time=21.833 ms
ping_20 | 64 bytes from 199.66.198.2: seq=25 ttl=55 time=21.976 ms
ping_16 | 64 bytes from 199.66.198.2: seq=26 ttl=55 time=21.838 ms
ping_9  | 64 bytes from 199.66.198.2: seq=36 ttl=55 time=21.748 ms
ping_7  | 64 bytes from 199.66.198.2: seq=37 ttl=55 time=22.078 ms
ping_17 | 64 bytes from 199.66.198.2: seq=28 ttl=55 time=22.001 ms
ping_15 | 64 bytes from 199.66.198.2: seq=24 ttl=55 time=21.979 ms
ping_6  | 64 bytes from 199.66.198.2: seq=33 ttl=55 time=21.702 ms
ping_10 | 64 bytes from 199.66.198.2: seq=35 ttl=55 time=21.703 ms
ping_4  | 64 bytes from 199.66.198.2: seq=39 ttl=55 time=22.005 ms
ping_8  | 64 bytes from 199.66.198.2: seq=34 ttl=55 time=22.005 ms
ping_5  | 64 bytes from 199.66.198.2: seq=32 ttl=55 time=22.017 ms
ping_19 | 64 bytes from 199.66.198.2: seq=30 ttl=55 time=22.065 ms
ping_1  | 64 bytes from 199.66.198.2: seq=40 ttl=55 time=21.710 ms
ping_14 | 64 bytes from 199.66.198.2: seq=31 ttl=55 time=22.197 ms
ping_2  | 64 bytes from 199.66.198.2: seq=39 ttl=55 time=22.017 ms
ping_11 | 64 bytes from 199.66.198.2: seq=26 ttl=55 time=22.003 ms
ping_12 | 64 bytes from 199.66.198.2: seq=30 ttl=55 time=22.005 ms
ping_18 | 64 bytes from 199.66.198.2: seq=28 ttl=55 time=22.218 ms
ping_13 | 64 bytes from 199.66.198.2: seq=31 ttl=55 time=21.705 ms
ping_3  | 64 bytes from 199.66.198.2: seq=39 ttl=55 time=21.942 ms
ping_20 | 64 bytes from 199.66.198.2: seq=26 ttl=55 time=21.644 ms
ping_16 | 64 bytes from 199.66.198.2: seq=27 ttl=55 time=21.821 ms
ping_9  | 64 bytes from 199.66.198.2: seq=37 ttl=55 time=21.979 ms
ping_7  | 64 bytes from 199.66.198.2: seq=38 ttl=55 time=21.991 ms
ping_17 | 64 bytes from 199.66.198.2: seq=29 ttl=55 time=22.099 ms
ping_15 | 64 bytes from 199.66.198.2: seq=25 ttl=55 time=22.185 ms
ping_10 | 64 bytes from 199.66.198.2: seq=36 ttl=55 time=21.674 ms
ping_6  | 64 bytes from 199.66.198.2: seq=34 ttl=55 time=21.635 ms
ping_4  | 64 bytes from 199.66.198.2: seq=40 ttl=55 time=21.681 ms
ping_8  | 64 bytes from 199.66.198.2: seq=35 ttl=55 time=21.681 ms
ping_5  | 64 bytes from 199.66.198.2: seq=33 ttl=55 time=21.625 ms
ping_19 | 64 bytes from 199.66.198.2: seq=31 ttl=55 time=22.102 ms
ping_1  | 64 bytes from 199.66.198.2: seq=41 ttl=55 time=21.805 ms
ping_14 | 64 bytes from 199.66.198.2: seq=32 ttl=55 time=22.204 ms
ping_2  | 64 bytes from 199.66.198.2: seq=40 ttl=55 time=21.985 ms
ping_11 | 64 bytes from 199.66.198.2: seq=27 ttl=55 time=21.725 ms
ping_12 | 64 bytes from 199.66.198.2: seq=31 ttl=55 time=22.034 ms
ping_18 | 64 bytes from 199.66.198.2: seq=29 ttl=55 time=21.915 ms
ping_13 | 64 bytes from 199.66.198.2: seq=32 ttl=55 time=21.958 ms
ping_3  | 64 bytes from 199.66.198.2: seq=40 ttl=55 time=22.100 ms
ping_20 | 64 bytes from 199.66.198.2: seq=27 ttl=55 time=21.748 ms
ping_16 | 64 bytes from 199.66.198.2: seq=28 ttl=55 time=21.824 ms
ping_9  | 64 bytes from 199.66.198.2: seq=38 ttl=55 time=22.210 ms
ping_7  | 64 bytes from 199.66.198.2: seq=39 ttl=55 time=22.157 ms
ping_17 | 64 bytes from 199.66.198.2: seq=30 ttl=55 time=21.935 ms
ping_15 | 64 bytes from 199.66.198.2: seq=26 ttl=55 time=22.002 ms
ping_6  | 64 bytes from 199.66.198.2: seq=35 ttl=55 time=21.801 ms
ping_10 | 64 bytes from 199.66.198.2: seq=37 ttl=55 time=21.831 ms
ping_4  | 64 bytes from 199.66.198.2: seq=41 ttl=55 time=21.743 ms
ping_8  | 64 bytes from 199.66.198.2: seq=36 ttl=55 time=21.743 ms
ping_5  | 64 bytes from 199.66.198.2: seq=34 ttl=55 time=21.908 ms
ping_19 | 64 bytes from 199.66.198.2: seq=32 ttl=55 time=21.962 ms
ping_1  | 64 bytes from 199.66.198.2: seq=42 ttl=55 time=21.665 ms
ping_14 | 64 bytes from 199.66.198.2: seq=33 ttl=55 time=21.969 ms
ping_2  | 64 bytes from 199.66.198.2: seq=41 ttl=55 time=21.868 ms
ping_11 | 64 bytes from 199.66.198.2: seq=28 ttl=55 time=21.516 ms
ping_12 | 64 bytes from 199.66.198.2: seq=32 ttl=55 time=21.609 ms
ping_18 | 64 bytes from 199.66.198.2: seq=30 ttl=55 time=22.119 ms
ping_13 | 64 bytes from 199.66.198.2: seq=33 ttl=55 time=21.941 ms
ping_3  | 64 bytes from 199.66.198.2: seq=41 ttl=55 time=21.660 ms
ping_20 | 64 bytes from 199.66.198.2: seq=28 ttl=55 time=21.992 ms
ping_16 | 64 bytes from 199.66.198.2: seq=29 ttl=55 time=21.878 ms
ping_9  | 64 bytes from 199.66.198.2: seq=39 ttl=55 time=22.065 ms
ping_7  | 64 bytes from 199.66.198.2: seq=40 ttl=55 time=21.948 ms
ping_17 | 64 bytes from 199.66.198.2: seq=31 ttl=55 time=22.001 ms
ping_15 | 64 bytes from 199.66.198.2: seq=27 ttl=55 time=21.942 ms
ping_10 | 64 bytes from 199.66.198.2: seq=38 ttl=55 time=21.764 ms
ping_6  | 64 bytes from 199.66.198.2: seq=36 ttl=55 time=21.725 ms
ping_4  | 64 bytes from 199.66.198.2: seq=42 ttl=55 time=21.677 ms
ping_8  | 64 bytes from 199.66.198.2: seq=37 ttl=55 time=21.637 ms
ping_5  | 64 bytes from 199.66.198.2: seq=35 ttl=55 time=21.537 ms
ping_19 | 64 bytes from 199.66.198.2: seq=33 ttl=55 time=21.920 ms
ping_1  | 64 bytes from 199.66.198.2: seq=43 ttl=55 time=21.733 ms
ping_14 | 64 bytes from 199.66.198.2: seq=34 ttl=55 time=21.975 ms
ping_2  | 64 bytes from 199.66.198.2: seq=42 ttl=55 time=22.196 ms
ping_11 | 64 bytes from 199.66.198.2: seq=29 ttl=55 time=21.967 ms
ping_12 | 64 bytes from 199.66.198.2: seq=33 ttl=55 time=21.596 ms
ping_18 | 64 bytes from 199.66.198.2: seq=31 ttl=55 time=21.597 ms
ping_13 | 64 bytes from 199.66.198.2: seq=34 ttl=55 time=21.678 ms
ping_3  | 64 bytes from 199.66.198.2: seq=42 ttl=55 time=22.169 ms
ping_20 | 64 bytes from 199.66.198.2: seq=29 ttl=55 time=21.976 ms
ping_16 | 64 bytes from 199.66.198.2: seq=30 ttl=55 time=21.916 ms
ping_9  | 64 bytes from 199.66.198.2: seq=40 ttl=55 time=21.837 ms
ping_7  | 64 bytes from 199.66.198.2: seq=41 ttl=55 time=22.177 ms
ping_17 | 64 bytes from 199.66.198.2: seq=32 ttl=55 time=22.008 ms
ping_15 | 64 bytes from 199.66.198.2: seq=28 ttl=55 time=21.821 ms
ping_10 | 64 bytes from 199.66.198.2: seq=39 ttl=55 time=21.905 ms
ping_6  | 64 bytes from 199.66.198.2: seq=37 ttl=55 time=21.877 ms
ping_8  | 64 bytes from 199.66.198.2: seq=38 ttl=55 time=21.677 ms
ping_4  | 64 bytes from 199.66.198.2: seq=43 ttl=55 time=21.725 ms
ping_5  | 64 bytes from 199.66.198.2: seq=36 ttl=55 time=21.624 ms
ping_19 | 64 bytes from 199.66.198.2: seq=34 ttl=55 time=22.094 ms
ping_1  | 64 bytes from 199.66.198.2: seq=44 ttl=55 time=21.836 ms
ping_14 | 64 bytes from 199.66.198.2: seq=35 ttl=55 time=21.647 ms
ping_2  | 64 bytes from 199.66.198.2: seq=43 ttl=55 time=22.045 ms
ping_11 | 64 bytes from 199.66.198.2: seq=30 ttl=55 time=22.045 ms
ping_12 | 64 bytes from 199.66.198.2: seq=34 ttl=55 time=22.053 ms
ping_18 | 64 bytes from 199.66.198.2: seq=32 ttl=55 time=21.634 ms
ping_13 | 64 bytes from 199.66.198.2: seq=35 ttl=55 time=22.052 ms
ping_3  | 64 bytes from 199.66.198.2: seq=43 ttl=55 time=22.113 ms
ping_20 | 64 bytes from 199.66.198.2: seq=30 ttl=55 time=21.861 ms
ping_16 | 64 bytes from 199.66.198.2: seq=31 ttl=55 time=21.746 ms
ping_9  | 64 bytes from 199.66.198.2: seq=41 ttl=55 time=22.219 ms
ping_7  | 64 bytes from 199.66.198.2: seq=42 ttl=55 time=22.195 ms
ping_17 | 64 bytes from 199.66.198.2: seq=33 ttl=55 time=22.316 ms
ping_15 | 64 bytes from 199.66.198.2: seq=29 ttl=55 time=22.000 ms
ping_6  | 64 bytes from 199.66.198.2: seq=38 ttl=55 time=21.986 ms
ping_10 | 64 bytes from 199.66.198.2: seq=40 ttl=55 time=22.028 ms
ping_4  | 64 bytes from 199.66.198.2: seq=44 ttl=55 time=21.805 ms
ping_8  | 64 bytes from 199.66.198.2: seq=39 ttl=55 time=21.805 ms
ping_5  | 64 bytes from 199.66.198.2: seq=37 ttl=55 time=21.989 ms
ping_19 | 64 bytes from 199.66.198.2: seq=35 ttl=55 time=22.186 ms
ping_1  | 64 bytes from 199.66.198.2: seq=45 ttl=55 time=21.785 ms
ping_14 | 64 bytes from 199.66.198.2: seq=36 ttl=55 time=22.060 ms
ping_2  | 64 bytes from 199.66.198.2: seq=44 ttl=55 time=21.633 ms
ping_11 | 64 bytes from 199.66.198.2: seq=31 ttl=55 time=21.620 ms
ping_12 | 64 bytes from 199.66.198.2: seq=35 ttl=55 time=21.974 ms
ping_18 | 64 bytes from 199.66.198.2: seq=33 ttl=55 time=21.830 ms
ping_13 | 64 bytes from 199.66.198.2: seq=36 ttl=55 time=22.145 ms
ping_3  | 64 bytes from 199.66.198.2: seq=44 ttl=55 time=22.132 ms
ping_20 | 64 bytes from 199.66.198.2: seq=31 ttl=55 time=21.956 ms
ping_16 | 64 bytes from 199.66.198.2: seq=32 ttl=55 time=21.779 ms
ping_9  | 64 bytes from 199.66.198.2: seq=42 ttl=55 time=22.219 ms
ping_7  | 64 bytes from 199.66.198.2: seq=43 ttl=55 time=22.140 ms
ping_17 | 64 bytes from 199.66.198.2: seq=34 ttl=55 time=21.602 ms
ping_15 | 64 bytes from 199.66.198.2: seq=30 ttl=55 time=21.580 ms
ping_10 | 64 bytes from 199.66.198.2: seq=41 ttl=55 time=21.969 ms
ping_6  | 64 bytes from 199.66.198.2: seq=39 ttl=55 time=21.936 ms
ping_8  | 64 bytes from 199.66.198.2: seq=40 ttl=55 time=21.970 ms
ping_4  | 64 bytes from 199.66.198.2: seq=45 ttl=55 time=21.995 ms
ping_5  | 64 bytes from 199.66.198.2: seq=38 ttl=55 time=21.912 ms
ping_19 | 64 bytes from 199.66.198.2: seq=36 ttl=55 time=21.939 ms
ping_1  | 64 bytes from 199.66.198.2: seq=46 ttl=55 time=21.945 ms
ping_14 | 64 bytes from 199.66.198.2: seq=37 ttl=55 time=22.150 ms
ping_2  | 64 bytes from 199.66.198.2: seq=45 ttl=55 time=22.006 ms
ping_11 | 64 bytes from 199.66.198.2: seq=32 ttl=55 time=22.171 ms
ping_12 | 64 bytes from 199.66.198.2: seq=36 ttl=55 time=21.896 ms
ping_18 | 64 bytes from 199.66.198.2: seq=34 ttl=55 time=21.897 ms
ping_13 | 64 bytes from 199.66.198.2: seq=37 ttl=55 time=21.797 ms
ping_3  | 64 bytes from 199.66.198.2: seq=45 ttl=55 time=22.173 ms
ping_20 | 64 bytes from 199.66.198.2: seq=32 ttl=55 time=21.885 ms
ping_16 | 64 bytes from 199.66.198.2: seq=33 ttl=55 time=21.913 ms
ping_9  | 64 bytes from 199.66.198.2: seq=43 ttl=55 time=21.655 ms
ping_7  | 64 bytes from 199.66.198.2: seq=44 ttl=55 time=21.985 ms
ping_17 | 64 bytes from 199.66.198.2: seq=35 ttl=55 time=22.234 ms
ping_15 | 64 bytes from 199.66.198.2: seq=31 ttl=55 time=22.119 ms
ping_10 | 64 bytes from 199.66.198.2: seq=42 ttl=55 time=22.308 ms
ping_6  | 64 bytes from 199.66.198.2: seq=40 ttl=55 time=22.287 ms
ping_8  | 64 bytes from 199.66.198.2: seq=41 ttl=55 time=22.141 ms
ping_4  | 64 bytes from 199.66.198.2: seq=46 ttl=55 time=22.120 ms
ping_5  | 64 bytes from 199.66.198.2: seq=39 ttl=55 time=21.880 ms
ping_19 | 64 bytes from 199.66.198.2: seq=37 ttl=55 time=21.615 ms
ping_1  | 64 bytes from 199.66.198.2: seq=47 ttl=55 time=21.944 ms
ping_14 | 64 bytes from 199.66.198.2: seq=38 ttl=55 time=22.145 ms
ping_2  | 64 bytes from 199.66.198.2: seq=46 ttl=55 time=22.130 ms
ping_11 | 64 bytes from 199.66.198.2: seq=33 ttl=55 time=21.942 ms
ping_12 | 64 bytes from 199.66.198.2: seq=37 ttl=55 time=21.889 ms
ping_18 | 64 bytes from 199.66.198.2: seq=35 ttl=55 time=21.554 ms
ping_13 | 64 bytes from 199.66.198.2: seq=38 ttl=55 time=22.005 ms
ping_3  | 64 bytes from 199.66.198.2: seq=46 ttl=55 time=21.614 ms
ping_20 | 64 bytes from 199.66.198.2: seq=33 ttl=55 time=21.583 ms
ping_16 | 64 bytes from 199.66.198.2: seq=34 ttl=55 time=21.804 ms
ping_9  | 64 bytes from 199.66.198.2: seq=44 ttl=55 time=21.701 ms
ping_7  | 64 bytes from 199.66.198.2: seq=45 ttl=55 time=21.960 ms
ping_17 | 64 bytes from 199.66.198.2: seq=36 ttl=55 time=22.088 ms
ping_15 | 64 bytes from 199.66.198.2: seq=32 ttl=55 time=21.863 ms
ping_6  | 64 bytes from 199.66.198.2: seq=41 ttl=55 time=22.021 ms
ping_10 | 64 bytes from 199.66.198.2: seq=43 ttl=55 time=22.060 ms
ping_8  | 64 bytes from 199.66.198.2: seq=42 ttl=55 time=22.098 ms
ping_4  | 64 bytes from 199.66.198.2: seq=47 ttl=55 time=22.098 ms
ping_5  | 64 bytes from 199.66.198.2: seq=40 ttl=55 time=22.206 ms
ping_19 | 64 bytes from 199.66.198.2: seq=38 ttl=55 time=22.187 ms
ping_1  | 64 bytes from 199.66.198.2: seq=48 ttl=55 time=21.603 ms
ping_14 | 64 bytes from 199.66.198.2: seq=39 ttl=55 time=21.925 ms
ping_2  | 64 bytes from 199.66.198.2: seq=47 ttl=55 time=21.522 ms
ping_11 | 64 bytes from 199.66.198.2: seq=34 ttl=55 time=22.168 ms
ping_12 | 64 bytes from 199.66.198.2: seq=38 ttl=55 time=21.870 ms
ping_18 | 64 bytes from 199.66.198.2: seq=36 ttl=55 time=21.541 ms
ping_13 | 64 bytes from 199.66.198.2: seq=39 ttl=55 time=21.976 ms
ping_3  | 64 bytes from 199.66.198.2: seq=47 ttl=55 time=25.292 ms
ping_20 | 64 bytes from 199.66.198.2: seq=34 ttl=55 time=22.024 ms
ping_16 | 64 bytes from 199.66.198.2: seq=35 ttl=55 time=21.632 ms
ping_9  | 64 bytes from 199.66.198.2: seq=45 ttl=55 time=22.200 ms
ping_7  | 64 bytes from 199.66.198.2: seq=46 ttl=55 time=21.898 ms
ping_17 | 64 bytes from 199.66.198.2: seq=37 ttl=55 time=21.834 ms
ping_15 | 64 bytes from 199.66.198.2: seq=33 ttl=55 time=22.019 ms
ping_6  | 64 bytes from 199.66.198.2: seq=42 ttl=55 time=22.034 ms
ping_10 | 64 bytes from 199.66.198.2: seq=44 ttl=55 time=21.995 ms
ping_4  | 64 bytes from 199.66.198.2: seq=48 ttl=55 time=22.020 ms
ping_8  | 64 bytes from 199.66.198.2: seq=43 ttl=55 time=22.029 ms
ping_5  | 64 bytes from 199.66.198.2: seq=41 ttl=55 time=21.911 ms
ping_19 | 64 bytes from 199.66.198.2: seq=39 ttl=55 time=22.200 ms
ping_1  | 64 bytes from 199.66.198.2: seq=49 ttl=55 time=22.031 ms
ping_1  | 
ping_1  | --- speedtest.xsmedia.com ping statistics ---
ping_1  | 50 packets transmitted, 50 packets received, 0% packet loss
ping_1  | round-trip min/avg/max = 21.507/21.815/22.381 ms
ping_14 | 64 bytes from 199.66.198.2: seq=40 ttl=55 time=21.961 ms
ping_2  | 64 bytes from 199.66.198.2: seq=48 ttl=55 time=21.467 ms
ping_11 | 64 bytes from 199.66.198.2: seq=35 ttl=55 time=21.559 ms
ping_12 | 64 bytes from 199.66.198.2: seq=39 ttl=55 time=21.499 ms
ping_18 | 64 bytes from 199.66.198.2: seq=37 ttl=55 time=21.594 ms
ping_13 | 64 bytes from 199.66.198.2: seq=40 ttl=55 time=21.535 ms
softwareoverhead_ping_1 exited with code 0
ping_3  | 64 bytes from 199.66.198.2: seq=48 ttl=55 time=21.635 ms
ping_20 | 64 bytes from 199.66.198.2: seq=35 ttl=55 time=21.694 ms
ping_16 | 64 bytes from 199.66.198.2: seq=36 ttl=55 time=21.593 ms
ping_9  | 64 bytes from 199.66.198.2: seq=46 ttl=55 time=21.889 ms
ping_7  | 64 bytes from 199.66.198.2: seq=47 ttl=55 time=21.933 ms
ping_17 | 64 bytes from 199.66.198.2: seq=38 ttl=55 time=21.963 ms
ping_15 | 64 bytes from 199.66.198.2: seq=34 ttl=55 time=22.089 ms
ping_6  | 64 bytes from 199.66.198.2: seq=43 ttl=55 time=22.087 ms
ping_10 | 64 bytes from 199.66.198.2: seq=45 ttl=55 time=22.102 ms
ping_8  | 64 bytes from 199.66.198.2: seq=44 ttl=55 time=21.712 ms
ping_4  | 64 bytes from 199.66.198.2: seq=49 ttl=55 time=21.712 ms
ping_4  | 
ping_4  | --- speedtest.xsmedia.com ping statistics ---
ping_4  | 50 packets transmitted, 50 packets received, 0% packet loss
ping_4  | round-trip min/avg/max = 21.393/21.812/22.120 ms
ping_5  | 64 bytes from 199.66.198.2: seq=42 ttl=55 time=21.918 ms
softwareoverhead_ping_4 exited with code 0
ping_19 | 64 bytes from 199.66.198.2: seq=40 ttl=55 time=21.543 ms
ping_14 | 64 bytes from 199.66.198.2: seq=41 ttl=55 time=21.577 ms
ping_2  | 64 bytes from 199.66.198.2: seq=49 ttl=55 time=21.521 ms
ping_2  | 
ping_2  | --- speedtest.xsmedia.com ping statistics ---
ping_2  | 50 packets transmitted, 50 packets received, 0% packet loss
ping_2  | round-trip min/avg/max = 21.389/21.893/24.036 ms
ping_11 | 64 bytes from 199.66.198.2: seq=36 ttl=55 time=21.635 ms
ping_12 | 64 bytes from 199.66.198.2: seq=40 ttl=55 time=21.539 ms
ping_18 | 64 bytes from 199.66.198.2: seq=38 ttl=55 time=21.526 ms
ping_13 | 64 bytes from 199.66.198.2: seq=41 ttl=55 time=21.732 ms
ping_3  | 64 bytes from 199.66.198.2: seq=49 ttl=55 time=21.645 ms
ping_3  | 
ping_3  | --- speedtest.xsmedia.com ping statistics ---
ping_3  | 50 packets transmitted, 50 packets received, 0% packet loss
ping_3  | round-trip min/avg/max = 21.391/21.964/25.292 ms
ping_20 | 64 bytes from 199.66.198.2: seq=36 ttl=55 time=21.552 ms
ping_16 | 64 bytes from 199.66.198.2: seq=37 ttl=55 time=21.416 ms
ping_9  | 64 bytes from 199.66.198.2: seq=47 ttl=55 time=21.459 ms
softwareoverhead_ping_2 exited with code 0
ping_7  | 64 bytes from 199.66.198.2: seq=48 ttl=55 time=21.395 ms
ping_17 | 64 bytes from 199.66.198.2: seq=39 ttl=55 time=21.436 ms
ping_15 | 64 bytes from 199.66.198.2: seq=35 ttl=55 time=21.544 ms
ping_10 | 64 bytes from 199.66.198.2: seq=46 ttl=55 time=21.588 ms
ping_6  | 64 bytes from 199.66.198.2: seq=44 ttl=55 time=21.625 ms
ping_8  | 64 bytes from 199.66.198.2: seq=45 ttl=55 time=21.532 ms
ping_5  | 64 bytes from 199.66.198.2: seq=43 ttl=55 time=21.936 ms
softwareoverhead_ping_3 exited with code 0
ping_19 | 64 bytes from 199.66.198.2: seq=41 ttl=55 time=21.904 ms
ping_14 | 64 bytes from 199.66.198.2: seq=42 ttl=55 time=21.951 ms
ping_11 | 64 bytes from 199.66.198.2: seq=37 ttl=55 time=21.890 ms
ping_12 | 64 bytes from 199.66.198.2: seq=41 ttl=55 time=22.121 ms
ping_18 | 64 bytes from 199.66.198.2: seq=39 ttl=55 time=22.100 ms
ping_13 | 64 bytes from 199.66.198.2: seq=42 ttl=55 time=21.934 ms
ping_20 | 64 bytes from 199.66.198.2: seq=37 ttl=55 time=22.121 ms
ping_16 | 64 bytes from 199.66.198.2: seq=38 ttl=55 time=21.701 ms
ping_9  | 64 bytes from 199.66.198.2: seq=48 ttl=55 time=21.979 ms
ping_7  | 64 bytes from 199.66.198.2: seq=49 ttl=55 time=21.756 ms
ping_7  | 
ping_7  | --- speedtest.xsmedia.com ping statistics ---
ping_7  | 50 packets transmitted, 50 packets received, 0% packet loss
ping_7  | round-trip min/avg/max = 21.395/21.904/22.209 ms
ping_17 | 64 bytes from 199.66.198.2: seq=40 ttl=55 time=21.488 ms
ping_15 | 64 bytes from 199.66.198.2: seq=36 ttl=55 time=21.475 ms
ping_10 | 64 bytes from 199.66.198.2: seq=47 ttl=55 time=21.468 ms
ping_6  | 64 bytes from 199.66.198.2: seq=45 ttl=55 time=21.515 ms
ping_8  | 64 bytes from 199.66.198.2: seq=46 ttl=55 time=21.354 ms
ping_5  | 64 bytes from 199.66.198.2: seq=44 ttl=55 time=21.393 ms
softwareoverhead_ping_7 exited with code 0
ping_19 | 64 bytes from 199.66.198.2: seq=42 ttl=55 time=21.939 ms
ping_14 | 64 bytes from 199.66.198.2: seq=43 ttl=55 time=22.049 ms
ping_11 | 64 bytes from 199.66.198.2: seq=38 ttl=55 time=21.987 ms
ping_12 | 64 bytes from 199.66.198.2: seq=42 ttl=55 time=21.888 ms
ping_18 | 64 bytes from 199.66.198.2: seq=40 ttl=55 time=22.164 ms
ping_13 | 64 bytes from 199.66.198.2: seq=43 ttl=55 time=21.671 ms
ping_20 | 64 bytes from 199.66.198.2: seq=38 ttl=55 time=21.802 ms
ping_16 | 64 bytes from 199.66.198.2: seq=39 ttl=55 time=21.746 ms
ping_9  | 64 bytes from 199.66.198.2: seq=49 ttl=55 time=22.148 ms
ping_9  | 
ping_9  | --- speedtest.xsmedia.com ping statistics ---
ping_9  | 50 packets transmitted, 50 packets received, 0% packet loss
ping_9  | round-trip min/avg/max = 21.361/21.900/22.256 ms
ping_17 | 64 bytes from 199.66.198.2: seq=41 ttl=55 time=21.460 ms
ping_15 | 64 bytes from 199.66.198.2: seq=37 ttl=55 time=21.651 ms
ping_10 | 64 bytes from 199.66.198.2: seq=48 ttl=55 time=21.558 ms
ping_6  | 64 bytes from 199.66.198.2: seq=46 ttl=55 time=21.605 ms
ping_8  | 64 bytes from 199.66.198.2: seq=47 ttl=55 time=21.453 ms
ping_5  | 64 bytes from 199.66.198.2: seq=45 ttl=55 time=21.542 ms
softwareoverhead_ping_9 exited with code 0
ping_19 | 64 bytes from 199.66.198.2: seq=43 ttl=55 time=21.881 ms
ping_14 | 64 bytes from 199.66.198.2: seq=44 ttl=55 time=22.107 ms
ping_11 | 64 bytes from 199.66.198.2: seq=39 ttl=55 time=21.859 ms
ping_12 | 64 bytes from 199.66.198.2: seq=43 ttl=55 time=21.908 ms
ping_18 | 64 bytes from 199.66.198.2: seq=41 ttl=55 time=21.999 ms
ping_13 | 64 bytes from 199.66.198.2: seq=44 ttl=55 time=22.039 ms
ping_20 | 64 bytes from 199.66.198.2: seq=39 ttl=55 time=21.842 ms
ping_16 | 64 bytes from 199.66.198.2: seq=40 ttl=55 time=21.943 ms
ping_17 | 64 bytes from 199.66.198.2: seq=42 ttl=55 time=22.185 ms
ping_15 | 64 bytes from 199.66.198.2: seq=38 ttl=55 time=22.041 ms
ping_6  | 64 bytes from 199.66.198.2: seq=47 ttl=55 time=21.888 ms
ping_10 | 64 bytes from 199.66.198.2: seq=49 ttl=55 time=21.911 ms
ping_10 | 
ping_10 | --- speedtest.xsmedia.com ping statistics ---
ping_10 | 50 packets transmitted, 50 packets received, 0% packet loss
ping_10 | round-trip min/avg/max = 21.417/21.852/22.490 ms
ping_8  | 64 bytes from 199.66.198.2: seq=48 ttl=55 time=22.012 ms
ping_5  | 64 bytes from 199.66.198.2: seq=46 ttl=55 time=22.004 ms
ping_19 | 64 bytes from 199.66.198.2: seq=44 ttl=55 time=21.873 ms
softwareoverhead_ping_10 exited with code 0
ping_14 | 64 bytes from 199.66.198.2: seq=45 ttl=55 time=21.444 ms
ping_11 | 64 bytes from 199.66.198.2: seq=40 ttl=55 time=22.058 ms
ping_12 | 64 bytes from 199.66.198.2: seq=44 ttl=55 time=21.634 ms
ping_18 | 64 bytes from 199.66.198.2: seq=42 ttl=55 time=21.551 ms
ping_13 | 64 bytes from 199.66.198.2: seq=45 ttl=55 time=22.025 ms
ping_20 | 64 bytes from 199.66.198.2: seq=40 ttl=55 time=21.823 ms
ping_16 | 64 bytes from 199.66.198.2: seq=41 ttl=55 time=21.670 ms
ping_17 | 64 bytes from 199.66.198.2: seq=43 ttl=55 time=21.851 ms
ping_15 | 64 bytes from 199.66.198.2: seq=39 ttl=55 time=21.737 ms
ping_6  | 64 bytes from 199.66.198.2: seq=48 ttl=55 time=21.612 ms
ping_8  | 64 bytes from 199.66.198.2: seq=49 ttl=55 time=21.856 ms
ping_8  | 
ping_8  | --- speedtest.xsmedia.com ping statistics ---
ping_8  | 50 packets transmitted, 50 packets received, 0% packet loss
ping_8  | round-trip min/avg/max = 21.323/21.712/22.141 ms
ping_5  | 64 bytes from 199.66.198.2: seq=47 ttl=55 time=21.621 ms
softwareoverhead_ping_8 exited with code 0
ping_19 | 64 bytes from 199.66.198.2: seq=45 ttl=55 time=23.003 ms
ping_14 | 64 bytes from 199.66.198.2: seq=46 ttl=55 time=21.987 ms
ping_11 | 64 bytes from 199.66.198.2: seq=41 ttl=55 time=22.006 ms
ping_12 | 64 bytes from 199.66.198.2: seq=45 ttl=55 time=21.921 ms
ping_18 | 64 bytes from 199.66.198.2: seq=43 ttl=55 time=22.170 ms
ping_13 | 64 bytes from 199.66.198.2: seq=46 ttl=55 time=21.957 ms
ping_20 | 64 bytes from 199.66.198.2: seq=41 ttl=55 time=21.522 ms
ping_16 | 64 bytes from 199.66.198.2: seq=42 ttl=55 time=21.896 ms
ping_17 | 64 bytes from 199.66.198.2: seq=44 ttl=55 time=21.612 ms
ping_15 | 64 bytes from 199.66.198.2: seq=40 ttl=55 time=21.823 ms
ping_6  | 64 bytes from 199.66.198.2: seq=49 ttl=55 time=21.576 ms
ping_6  | 
ping_6  | --- speedtest.xsmedia.com ping statistics ---
ping_6  | 50 packets transmitted, 50 packets received, 0% packet loss
ping_6  | round-trip min/avg/max = 21.436/21.825/22.341 ms
ping_5  | 64 bytes from 199.66.198.2: seq=48 ttl=55 time=21.567 ms
ping_19 | 64 bytes from 199.66.198.2: seq=46 ttl=55 time=21.470 ms
softwareoverhead_ping_6 exited with code 0
ping_14 | 64 bytes from 199.66.198.2: seq=47 ttl=55 time=21.984 ms
ping_11 | 64 bytes from 199.66.198.2: seq=42 ttl=55 time=21.553 ms
ping_12 | 64 bytes from 199.66.198.2: seq=46 ttl=55 time=22.216 ms
ping_18 | 64 bytes from 199.66.198.2: seq=44 ttl=55 time=21.655 ms
ping_13 | 64 bytes from 199.66.198.2: seq=47 ttl=55 time=22.051 ms
ping_20 | 64 bytes from 199.66.198.2: seq=42 ttl=55 time=22.272 ms
ping_16 | 64 bytes from 199.66.198.2: seq=43 ttl=55 time=22.142 ms
ping_17 | 64 bytes from 199.66.198.2: seq=45 ttl=55 time=22.190 ms
ping_15 | 64 bytes from 199.66.198.2: seq=41 ttl=55 time=21.652 ms
ping_5  | 64 bytes from 199.66.198.2: seq=49 ttl=55 time=21.970 ms
ping_5  | 
ping_5  | --- speedtest.xsmedia.com ping statistics ---
ping_5  | 50 packets transmitted, 50 packets received, 0% packet loss
ping_5  | round-trip min/avg/max = 21.393/21.782/22.206 ms
ping_19 | 64 bytes from 199.66.198.2: seq=47 ttl=55 time=21.763 ms
softwareoverhead_ping_5 exited with code 0
ping_14 | 64 bytes from 199.66.198.2: seq=48 ttl=55 time=21.427 ms
ping_11 | 64 bytes from 199.66.198.2: seq=43 ttl=55 time=21.527 ms
ping_12 | 64 bytes from 199.66.198.2: seq=47 ttl=55 time=21.896 ms
ping_18 | 64 bytes from 199.66.198.2: seq=45 ttl=55 time=22.158 ms
ping_13 | 64 bytes from 199.66.198.2: seq=48 ttl=55 time=21.998 ms
ping_20 | 64 bytes from 199.66.198.2: seq=43 ttl=55 time=21.704 ms
ping_16 | 64 bytes from 199.66.198.2: seq=44 ttl=55 time=21.864 ms
ping_17 | 64 bytes from 199.66.198.2: seq=46 ttl=55 time=22.234 ms
ping_15 | 64 bytes from 199.66.198.2: seq=42 ttl=55 time=21.933 ms
ping_19 | 64 bytes from 199.66.198.2: seq=48 ttl=55 time=22.119 ms
ping_14 | 64 bytes from 199.66.198.2: seq=49 ttl=55 time=21.988 ms
ping_14 | 
ping_14 | --- speedtest.xsmedia.com ping statistics ---
ping_14 | 50 packets transmitted, 50 packets received, 0% packet loss
ping_14 | round-trip min/avg/max = 21.427/21.879/22.204 ms
ping_11 | 64 bytes from 199.66.198.2: seq=44 ttl=55 time=21.474 ms
ping_12 | 64 bytes from 199.66.198.2: seq=48 ttl=55 time=21.536 ms
ping_18 | 64 bytes from 199.66.198.2: seq=46 ttl=55 time=21.638 ms
ping_13 | 64 bytes from 199.66.198.2: seq=49 ttl=55 time=21.611 ms
ping_13 | 
ping_13 | --- speedtest.xsmedia.com ping statistics ---
ping_13 | 50 packets transmitted, 50 packets received, 0% packet loss
ping_13 | round-trip min/avg/max = 21.432/21.877/22.280 ms
ping_20 | 64 bytes from 199.66.198.2: seq=44 ttl=55 time=21.698 ms
softwareoverhead_ping_14 exited with code 0
ping_16 | 64 bytes from 199.66.198.2: seq=45 ttl=55 time=21.438 ms
ping_17 | 64 bytes from 199.66.198.2: seq=47 ttl=55 time=21.578 ms
ping_15 | 64 bytes from 199.66.198.2: seq=43 ttl=55 time=21.557 ms
softwareoverhead_ping_13 exited with code 0
ping_19 | 64 bytes from 199.66.198.2: seq=49 ttl=55 time=21.579 ms
ping_19 | 
ping_19 | --- speedtest.xsmedia.com ping statistics ---
ping_19 | 50 packets transmitted, 50 packets received, 0% packet loss
ping_19 | round-trip min/avg/max = 21.470/21.990/23.003 ms
ping_11 | 64 bytes from 199.66.198.2: seq=45 ttl=55 time=21.787 ms
ping_12 | 64 bytes from 199.66.198.2: seq=49 ttl=55 time=21.609 ms
ping_12 | 
ping_12 | --- speedtest.xsmedia.com ping statistics ---
ping_12 | 50 packets transmitted, 50 packets received, 0% packet loss
ping_12 | round-trip min/avg/max = 21.462/21.871/22.268 ms
ping_18 | 64 bytes from 199.66.198.2: seq=47 ttl=55 time=21.512 ms
softwareoverhead_ping_19 exited with code 0
ping_20 | 64 bytes from 199.66.198.2: seq=45 ttl=55 time=21.545 ms
ping_16 | 64 bytes from 199.66.198.2: seq=46 ttl=55 time=21.493 ms
ping_17 | 64 bytes from 199.66.198.2: seq=48 ttl=55 time=22.013 ms
ping_15 | 64 bytes from 199.66.198.2: seq=44 ttl=55 time=21.596 ms
softwareoverhead_ping_12 exited with code 0
ping_11 | 64 bytes from 199.66.198.2: seq=46 ttl=55 time=22.260 ms
ping_18 | 64 bytes from 199.66.198.2: seq=48 ttl=55 time=21.923 ms
ping_20 | 64 bytes from 199.66.198.2: seq=46 ttl=55 time=21.690 ms
ping_16 | 64 bytes from 199.66.198.2: seq=47 ttl=55 time=21.912 ms
ping_17 | 64 bytes from 199.66.198.2: seq=49 ttl=55 time=22.029 ms
ping_17 | 
ping_17 | --- speedtest.xsmedia.com ping statistics ---
ping_17 | 50 packets transmitted, 50 packets received, 0% packet loss
ping_17 | round-trip min/avg/max = 21.436/21.904/22.316 ms
ping_15 | 64 bytes from 199.66.198.2: seq=45 ttl=55 time=21.949 ms
softwareoverhead_ping_17 exited with code 0
ping_11 | 64 bytes from 199.66.198.2: seq=47 ttl=55 time=21.887 ms
ping_18 | 64 bytes from 199.66.198.2: seq=49 ttl=55 time=21.653 ms
ping_18 | 
ping_18 | --- speedtest.xsmedia.com ping statistics ---
ping_18 | 50 packets transmitted, 50 packets received, 0% packet loss
ping_18 | round-trip min/avg/max = 21.508/21.845/22.218 ms
ping_20 | 64 bytes from 199.66.198.2: seq=47 ttl=55 time=21.539 ms
ping_16 | 64 bytes from 199.66.198.2: seq=48 ttl=55 time=21.868 ms
ping_15 | 64 bytes from 199.66.198.2: seq=46 ttl=55 time=21.886 ms
softwareoverhead_ping_18 exited with code 0
ping_11 | 64 bytes from 199.66.198.2: seq=48 ttl=55 time=22.023 ms
ping_20 | 64 bytes from 199.66.198.2: seq=48 ttl=55 time=21.902 ms
ping_16 | 64 bytes from 199.66.198.2: seq=49 ttl=55 time=21.766 ms
ping_16 | 
ping_16 | --- speedtest.xsmedia.com ping statistics ---
ping_16 | 50 packets transmitted, 50 packets received, 0% packet loss
ping_16 | round-trip min/avg/max = 21.416/21.819/22.142 ms
ping_15 | 64 bytes from 199.66.198.2: seq=47 ttl=55 time=21.442 ms
softwareoverhead_ping_16 exited with code 0
ping_11 | 64 bytes from 199.66.198.2: seq=49 ttl=55 time=21.992 ms
ping_11 | 
ping_11 | --- speedtest.xsmedia.com ping statistics ---
ping_11 | 50 packets transmitted, 50 packets received, 0% packet loss
ping_11 | round-trip min/avg/max = 21.389/21.900/22.260 ms
ping_20 | 64 bytes from 199.66.198.2: seq=49 ttl=55 time=21.686 ms
ping_20 | 
ping_20 | --- speedtest.xsmedia.com ping statistics ---
ping_20 | 50 packets transmitted, 50 packets received, 0% packet loss
ping_20 | round-trip min/avg/max = 21.522/21.812/22.272 ms
softwareoverhead_ping_11 exited with code 0
ping_15 | 64 bytes from 199.66.198.2: seq=48 ttl=55 time=21.799 ms
softwareoverhead_ping_20 exited with code 0
ping_15 | 64 bytes from 199.66.198.2: seq=49 ttl=55 time=26.693 ms
ping_15 | 
ping_15 | --- speedtest.xsmedia.com ping statistics ---
ping_15 | 50 packets transmitted, 50 packets received, 0% packet loss
ping_15 | round-trip min/avg/max = 21.424/21.973/26.693 ms
softwareoverhead_ping_15 exited with code 0
