Attaching to softwareoverhead_ping_2, softwareoverhead_ping_1, softwareoverhead_ping_3, softwareoverhead_ping_6, softwareoverhead_ping_9, softwareoverhead_ping_7, softwareoverhead_ping_4, softwareoverhead_ping_10, softwareoverhead_ping_5, softwareoverhead_ping_8
ping_2  | PING nyc.speedtest.sbcglobal.net (99.24.18.25): 56 data bytes
ping_2  | 64 bytes from 99.24.18.25: seq=0 ttl=50 time=80.159 ms
ping_2  | 64 bytes from 99.24.18.25: seq=1 ttl=50 time=79.764 ms
ping_2  | 64 bytes from 99.24.18.25: seq=2 ttl=50 time=80.039 ms
ping_1  | PING nyc.speedtest.sbcglobal.net (99.24.18.25): 56 data bytes
ping_1  | 64 bytes from 99.24.18.25: seq=0 ttl=50 time=79.723 ms
ping_6  | PING nyc.speedtest.sbcglobal.net (99.24.18.25): 56 data bytes
ping_1  | 64 bytes from 99.24.18.25: seq=1 ttl=50 time=80.550 ms
ping_6  | 64 bytes from 99.24.18.25: seq=0 ttl=50 time=79.957 ms
ping_6  | 64 bytes from 99.24.18.25: seq=1 ttl=50 time=80.187 ms
ping_6  | 64 bytes from 99.24.18.25: seq=2 ttl=50 time=79.852 ms
ping_2  | 64 bytes from 99.24.18.25: seq=3 ttl=50 time=80.304 ms
ping_3  | PING nyc.speedtest.sbcglobal.net (99.24.18.25): 56 data bytes
ping_2  | 64 bytes from 99.24.18.25: seq=4 ttl=50 time=80.271 ms
ping_1  | 64 bytes from 99.24.18.25: seq=2 ttl=50 time=79.976 ms
ping_2  | 64 bytes from 99.24.18.25: seq=5 ttl=50 time=80.659 ms
ping_3  | 64 bytes from 99.24.18.25: seq=0 ttl=50 time=80.448 ms
ping_1  | 64 bytes from 99.24.18.25: seq=3 ttl=50 time=80.079 ms
ping_6  | 64 bytes from 99.24.18.25: seq=3 ttl=50 time=80.145 ms
ping_2  | 64 bytes from 99.24.18.25: seq=6 ttl=50 time=80.019 ms
ping_2  | 64 bytes from 99.24.18.25: seq=7 ttl=50 time=80.031 ms
ping_2  | 64 bytes from 99.24.18.25: seq=8 ttl=50 time=80.155 ms
ping_9  | PING nyc.speedtest.sbcglobal.net (99.24.18.25): 56 data bytes
ping_1  | 64 bytes from 99.24.18.25: seq=4 ttl=50 time=81.064 ms
ping_7  | PING nyc.speedtest.sbcglobal.net (99.24.18.25): 56 data bytes
ping_3  | 64 bytes from 99.24.18.25: seq=1 ttl=50 time=80.632 ms
ping_3  | 64 bytes from 99.24.18.25: seq=2 ttl=50 time=80.340 ms
ping_5  | PING nyc.speedtest.sbcglobal.net (99.24.18.25): 56 data bytes
ping_7  | 64 bytes from 99.24.18.25: seq=0 ttl=50 time=80.065 ms
ping_6  | 64 bytes from 99.24.18.25: seq=4 ttl=50 time=80.237 ms
ping_9  | 64 bytes from 99.24.18.25: seq=0 ttl=50 time=80.096 ms
ping_7  | 64 bytes from 99.24.18.25: seq=1 ttl=50 time=79.962 ms
ping_5  | 64 bytes from 99.24.18.25: seq=0 ttl=50 time=79.964 ms
ping_2  | 64 bytes from 99.24.18.25: seq=9 ttl=50 time=82.019 ms
ping_8  | PING nyc.speedtest.sbcglobal.net (99.24.18.25): 56 data bytes
ping_9  | 64 bytes from 99.24.18.25: seq=1 ttl=50 time=79.909 ms
ping_10 | PING nyc.speedtest.sbcglobal.net (99.24.18.25): 56 data bytes
ping_5  | 64 bytes from 99.24.18.25: seq=1 ttl=50 time=79.844 ms
ping_4  | PING nyc.speedtest.sbcglobal.net (99.24.18.25): 56 data bytes
ping_1  | 64 bytes from 99.24.18.25: seq=5 ttl=50 time=80.141 ms
ping_7  | 64 bytes from 99.24.18.25: seq=2 ttl=50 time=79.846 ms
ping_6  | 64 bytes from 99.24.18.25: seq=5 ttl=50 time=79.944 ms
ping_1  | 64 bytes from 99.24.18.25: seq=6 ttl=50 time=79.878 ms
ping_7  | 64 bytes from 99.24.18.25: seq=3 ttl=50 time=79.785 ms
ping_10 | 64 bytes from 99.24.18.25: seq=0 ttl=50 time=80.375 ms
ping_9  | 64 bytes from 99.24.18.25: seq=2 ttl=50 time=80.061 ms
ping_6  | 64 bytes from 99.24.18.25: seq=6 ttl=50 time=80.265 ms
ping_9  | 64 bytes from 99.24.18.25: seq=3 ttl=50 time=80.756 ms
ping_4  | 64 bytes from 99.24.18.25: seq=0 ttl=50 time=80.326 ms
ping_3  | 64 bytes from 99.24.18.25: seq=3 ttl=50 time=79.738 ms
ping_9  | 64 bytes from 99.24.18.25: seq=4 ttl=50 time=79.786 ms
ping_7  | 64 bytes from 99.24.18.25: seq=4 ttl=50 time=79.898 ms
ping_1  | 64 bytes from 99.24.18.25: seq=7 ttl=50 time=80.190 ms
ping_10 | 64 bytes from 99.24.18.25: seq=1 ttl=50 time=80.225 ms
ping_4  | 64 bytes from 99.24.18.25: seq=1 ttl=50 time=80.204 ms
ping_3  | 64 bytes from 99.24.18.25: seq=4 ttl=50 time=79.847 ms
ping_1  | 64 bytes from 99.24.18.25: seq=8 ttl=50 time=80.668 ms
ping_4  | 64 bytes from 99.24.18.25: seq=2 ttl=50 time=80.180 ms
ping_9  | 64 bytes from 99.24.18.25: seq=5 ttl=50 time=80.061 ms
ping_3  | 64 bytes from 99.24.18.25: seq=5 ttl=50 time=80.586 ms
ping_10 | 64 bytes from 99.24.18.25: seq=2 ttl=50 time=79.809 ms
ping_3  | 64 bytes from 99.24.18.25: seq=6 ttl=50 time=80.554 ms
ping_3  | 64 bytes from 99.24.18.25: seq=7 ttl=50 time=80.450 ms
ping_4  | 64 bytes from 99.24.18.25: seq=3 ttl=50 time=79.811 ms
ping_8  | 64 bytes from 99.24.18.25: seq=0 ttl=50 time=80.718 ms
ping_1  | 64 bytes from 99.24.18.25: seq=9 ttl=50 time=80.731 ms
ping_2  | 64 bytes from 99.24.18.25: seq=10 ttl=50 time=80.391 ms
ping_9  | 64 bytes from 99.24.18.25: seq=6 ttl=50 time=80.047 ms
ping_6  | 64 bytes from 99.24.18.25: seq=7 ttl=50 time=80.190 ms
ping_3  | 64 bytes from 99.24.18.25: seq=8 ttl=50 time=80.212 ms
ping_7  | 64 bytes from 99.24.18.25: seq=5 ttl=50 time=80.378 ms
ping_5  | 64 bytes from 99.24.18.25: seq=2 ttl=50 time=80.175 ms
ping_10 | 64 bytes from 99.24.18.25: seq=3 ttl=50 time=80.349 ms
ping_4  | 64 bytes from 99.24.18.25: seq=4 ttl=50 time=80.136 ms
ping_8  | 64 bytes from 99.24.18.25: seq=1 ttl=50 time=80.407 ms
ping_1  | 64 bytes from 99.24.18.25: seq=10 ttl=50 time=80.423 ms
ping_2  | 64 bytes from 99.24.18.25: seq=11 ttl=50 time=80.491 ms
ping_9  | 64 bytes from 99.24.18.25: seq=7 ttl=50 time=80.293 ms
ping_6  | 64 bytes from 99.24.18.25: seq=8 ttl=50 time=80.471 ms
ping_3  | 64 bytes from 99.24.18.25: seq=9 ttl=50 time=80.142 ms
ping_7  | 64 bytes from 99.24.18.25: seq=6 ttl=50 time=80.357 ms
ping_5  | 64 bytes from 99.24.18.25: seq=3 ttl=50 time=80.401 ms
ping_10 | 64 bytes from 99.24.18.25: seq=4 ttl=50 time=80.312 ms
ping_4  | 64 bytes from 99.24.18.25: seq=5 ttl=50 time=80.661 ms
ping_8  | 64 bytes from 99.24.18.25: seq=2 ttl=50 time=80.160 ms
ping_1  | 64 bytes from 99.24.18.25: seq=11 ttl=50 time=80.415 ms
ping_2  | 64 bytes from 99.24.18.25: seq=12 ttl=50 time=80.347 ms
ping_9  | 64 bytes from 99.24.18.25: seq=8 ttl=50 time=80.306 ms
ping_6  | 64 bytes from 99.24.18.25: seq=9 ttl=50 time=79.956 ms
ping_3  | 64 bytes from 99.24.18.25: seq=10 ttl=50 time=79.844 ms
ping_7  | 64 bytes from 99.24.18.25: seq=7 ttl=50 time=80.245 ms
ping_5  | 64 bytes from 99.24.18.25: seq=4 ttl=50 time=80.735 ms
ping_10 | 64 bytes from 99.24.18.25: seq=5 ttl=50 time=80.293 ms
ping_4  | 64 bytes from 99.24.18.25: seq=6 ttl=50 time=79.989 ms
ping_8  | 64 bytes from 99.24.18.25: seq=3 ttl=50 time=80.291 ms
ping_1  | 64 bytes from 99.24.18.25: seq=12 ttl=50 time=80.462 ms
ping_2  | 64 bytes from 99.24.18.25: seq=13 ttl=50 time=80.916 ms
ping_9  | 64 bytes from 99.24.18.25: seq=9 ttl=50 time=81.013 ms
ping_6  | 64 bytes from 99.24.18.25: seq=10 ttl=50 time=80.478 ms
ping_3  | 64 bytes from 99.24.18.25: seq=11 ttl=50 time=80.090 ms
ping_7  | 64 bytes from 99.24.18.25: seq=8 ttl=50 time=80.587 ms
ping_5  | 64 bytes from 99.24.18.25: seq=5 ttl=50 time=80.169 ms
ping_10 | 64 bytes from 99.24.18.25: seq=6 ttl=50 time=80.227 ms
ping_4  | 64 bytes from 99.24.18.25: seq=7 ttl=50 time=80.270 ms
ping_8  | 64 bytes from 99.24.18.25: seq=4 ttl=50 time=80.195 ms
ping_1  | 64 bytes from 99.24.18.25: seq=13 ttl=50 time=79.950 ms
ping_2  | 64 bytes from 99.24.18.25: seq=14 ttl=50 time=80.464 ms
ping_9  | 64 bytes from 99.24.18.25: seq=10 ttl=50 time=80.506 ms
ping_6  | 64 bytes from 99.24.18.25: seq=11 ttl=50 time=79.891 ms
ping_3  | 64 bytes from 99.24.18.25: seq=12 ttl=50 time=79.982 ms
ping_7  | 64 bytes from 99.24.18.25: seq=9 ttl=50 time=80.288 ms
ping_5  | 64 bytes from 99.24.18.25: seq=6 ttl=50 time=80.263 ms
ping_10 | 64 bytes from 99.24.18.25: seq=7 ttl=50 time=80.293 ms
ping_4  | 64 bytes from 99.24.18.25: seq=8 ttl=50 time=80.478 ms
ping_8  | 64 bytes from 99.24.18.25: seq=5 ttl=50 time=80.311 ms
ping_1  | 64 bytes from 99.24.18.25: seq=14 ttl=50 time=79.952 ms
ping_2  | 64 bytes from 99.24.18.25: seq=15 ttl=50 time=80.631 ms
ping_9  | 64 bytes from 99.24.18.25: seq=11 ttl=50 time=80.549 ms
ping_6  | 64 bytes from 99.24.18.25: seq=12 ttl=50 time=80.134 ms
ping_3  | 64 bytes from 99.24.18.25: seq=13 ttl=50 time=80.681 ms
ping_7  | 64 bytes from 99.24.18.25: seq=10 ttl=50 time=80.179 ms
ping_5  | 64 bytes from 99.24.18.25: seq=7 ttl=50 time=80.019 ms
ping_10 | 64 bytes from 99.24.18.25: seq=8 ttl=50 time=80.381 ms
ping_4  | 64 bytes from 99.24.18.25: seq=9 ttl=50 time=80.854 ms
ping_8  | 64 bytes from 99.24.18.25: seq=6 ttl=50 time=80.090 ms
ping_1  | 64 bytes from 99.24.18.25: seq=15 ttl=50 time=80.519 ms
ping_2  | 64 bytes from 99.24.18.25: seq=16 ttl=50 time=80.455 ms
ping_9  | 64 bytes from 99.24.18.25: seq=12 ttl=50 time=80.134 ms
ping_6  | 64 bytes from 99.24.18.25: seq=13 ttl=50 time=80.286 ms
ping_3  | 64 bytes from 99.24.18.25: seq=14 ttl=50 time=80.203 ms
ping_7  | 64 bytes from 99.24.18.25: seq=11 ttl=50 time=79.990 ms
ping_5  | 64 bytes from 99.24.18.25: seq=8 ttl=50 time=80.080 ms
ping_10 | 64 bytes from 99.24.18.25: seq=9 ttl=50 time=79.988 ms
ping_4  | 64 bytes from 99.24.18.25: seq=10 ttl=50 time=80.304 ms
ping_8  | 64 bytes from 99.24.18.25: seq=7 ttl=50 time=80.133 ms
ping_1  | 64 bytes from 99.24.18.25: seq=16 ttl=50 time=80.512 ms
ping_2  | 64 bytes from 99.24.18.25: seq=17 ttl=50 time=79.935 ms
ping_9  | 64 bytes from 99.24.18.25: seq=13 ttl=50 time=80.443 ms
ping_6  | 64 bytes from 99.24.18.25: seq=14 ttl=50 time=80.568 ms
ping_3  | 64 bytes from 99.24.18.25: seq=15 ttl=50 time=80.005 ms
ping_7  | 64 bytes from 99.24.18.25: seq=12 ttl=50 time=80.406 ms
ping_5  | 64 bytes from 99.24.18.25: seq=9 ttl=50 time=80.091 ms
ping_10 | 64 bytes from 99.24.18.25: seq=10 ttl=50 time=80.632 ms
ping_4  | 64 bytes from 99.24.18.25: seq=11 ttl=50 time=79.953 ms
ping_8  | 64 bytes from 99.24.18.25: seq=8 ttl=50 time=80.263 ms
ping_1  | 64 bytes from 99.24.18.25: seq=17 ttl=50 time=80.782 ms
ping_2  | 64 bytes from 99.24.18.25: seq=18 ttl=50 time=80.152 ms
ping_9  | 64 bytes from 99.24.18.25: seq=14 ttl=50 time=80.524 ms
ping_6  | 64 bytes from 99.24.18.25: seq=15 ttl=50 time=80.451 ms
ping_3  | 64 bytes from 99.24.18.25: seq=16 ttl=50 time=80.031 ms
ping_7  | 64 bytes from 99.24.18.25: seq=13 ttl=50 time=80.100 ms
ping_5  | 64 bytes from 99.24.18.25: seq=10 ttl=50 time=80.249 ms
ping_10 | 64 bytes from 99.24.18.25: seq=11 ttl=50 time=80.273 ms
ping_4  | 64 bytes from 99.24.18.25: seq=12 ttl=50 time=80.359 ms
ping_8  | 64 bytes from 99.24.18.25: seq=9 ttl=50 time=79.882 ms
ping_1  | 64 bytes from 99.24.18.25: seq=18 ttl=50 time=80.394 ms
ping_2  | 64 bytes from 99.24.18.25: seq=19 ttl=50 time=79.874 ms
ping_9  | 64 bytes from 99.24.18.25: seq=15 ttl=50 time=80.434 ms
ping_6  | 64 bytes from 99.24.18.25: seq=16 ttl=50 time=80.230 ms
ping_3  | 64 bytes from 99.24.18.25: seq=17 ttl=50 time=80.273 ms
ping_7  | 64 bytes from 99.24.18.25: seq=14 ttl=50 time=80.294 ms
ping_5  | 64 bytes from 99.24.18.25: seq=11 ttl=50 time=80.051 ms
ping_10 | 64 bytes from 99.24.18.25: seq=12 ttl=50 time=80.677 ms
ping_4  | 64 bytes from 99.24.18.25: seq=13 ttl=50 time=82.280 ms
ping_8  | 64 bytes from 99.24.18.25: seq=10 ttl=50 time=79.954 ms
ping_1  | 64 bytes from 99.24.18.25: seq=19 ttl=50 time=80.085 ms
ping_2  | 64 bytes from 99.24.18.25: seq=20 ttl=50 time=81.825 ms
ping_9  | 64 bytes from 99.24.18.25: seq=16 ttl=50 time=80.040 ms
ping_6  | 64 bytes from 99.24.18.25: seq=17 ttl=50 time=80.496 ms
ping_3  | 64 bytes from 99.24.18.25: seq=18 ttl=50 time=80.019 ms
ping_7  | 64 bytes from 99.24.18.25: seq=15 ttl=50 time=80.379 ms
ping_5  | 64 bytes from 99.24.18.25: seq=12 ttl=50 time=80.497 ms
ping_10 | 64 bytes from 99.24.18.25: seq=13 ttl=50 time=80.270 ms
ping_4  | 64 bytes from 99.24.18.25: seq=14 ttl=50 time=80.288 ms
ping_8  | 64 bytes from 99.24.18.25: seq=11 ttl=50 time=80.230 ms
ping_1  | 64 bytes from 99.24.18.25: seq=20 ttl=50 time=80.274 ms
ping_2  | 64 bytes from 99.24.18.25: seq=21 ttl=50 time=80.283 ms
ping_9  | 64 bytes from 99.24.18.25: seq=17 ttl=50 time=80.231 ms
ping_6  | 64 bytes from 99.24.18.25: seq=18 ttl=50 time=81.632 ms
ping_3  | 64 bytes from 99.24.18.25: seq=19 ttl=50 time=79.941 ms
ping_7  | 64 bytes from 99.24.18.25: seq=16 ttl=50 time=80.178 ms
ping_5  | 64 bytes from 99.24.18.25: seq=13 ttl=50 time=80.152 ms
ping_10 | 64 bytes from 99.24.18.25: seq=14 ttl=50 time=80.256 ms
ping_4  | 64 bytes from 99.24.18.25: seq=15 ttl=50 time=79.927 ms
ping_8  | 64 bytes from 99.24.18.25: seq=12 ttl=50 time=80.095 ms
ping_1  | 64 bytes from 99.24.18.25: seq=21 ttl=50 time=80.370 ms
ping_2  | 64 bytes from 99.24.18.25: seq=22 ttl=50 time=79.965 ms
ping_9  | 64 bytes from 99.24.18.25: seq=18 ttl=50 time=80.071 ms
ping_6  | 64 bytes from 99.24.18.25: seq=19 ttl=50 time=80.314 ms
ping_3  | 64 bytes from 99.24.18.25: seq=20 ttl=50 time=80.105 ms
ping_7  | 64 bytes from 99.24.18.25: seq=17 ttl=50 time=81.308 ms
ping_5  | 64 bytes from 99.24.18.25: seq=14 ttl=50 time=80.678 ms
ping_10 | 64 bytes from 99.24.18.25: seq=15 ttl=50 time=80.342 ms
ping_4  | 64 bytes from 99.24.18.25: seq=16 ttl=50 time=81.022 ms
ping_8  | 64 bytes from 99.24.18.25: seq=13 ttl=50 time=79.877 ms
ping_1  | 64 bytes from 99.24.18.25: seq=22 ttl=50 time=80.230 ms
ping_2  | 64 bytes from 99.24.18.25: seq=23 ttl=50 time=80.277 ms
ping_9  | 64 bytes from 99.24.18.25: seq=19 ttl=50 time=80.346 ms
ping_6  | 64 bytes from 99.24.18.25: seq=20 ttl=50 time=80.440 ms
ping_3  | 64 bytes from 99.24.18.25: seq=21 ttl=50 time=79.949 ms
ping_7  | 64 bytes from 99.24.18.25: seq=18 ttl=50 time=80.594 ms
ping_5  | 64 bytes from 99.24.18.25: seq=15 ttl=50 time=80.404 ms
ping_10 | 64 bytes from 99.24.18.25: seq=16 ttl=50 time=80.361 ms
ping_4  | 64 bytes from 99.24.18.25: seq=17 ttl=50 time=80.291 ms
ping_8  | 64 bytes from 99.24.18.25: seq=14 ttl=50 time=80.126 ms
ping_1  | 64 bytes from 99.24.18.25: seq=23 ttl=50 time=80.236 ms
ping_2  | 64 bytes from 99.24.18.25: seq=24 ttl=50 time=80.729 ms
ping_9  | 64 bytes from 99.24.18.25: seq=20 ttl=50 time=80.512 ms
ping_6  | 64 bytes from 99.24.18.25: seq=21 ttl=50 time=80.555 ms
ping_3  | 64 bytes from 99.24.18.25: seq=22 ttl=50 time=79.907 ms
ping_7  | 64 bytes from 99.24.18.25: seq=19 ttl=50 time=80.406 ms
ping_5  | 64 bytes from 99.24.18.25: seq=16 ttl=50 time=80.343 ms
ping_10 | 64 bytes from 99.24.18.25: seq=17 ttl=50 time=80.254 ms
ping_4  | 64 bytes from 99.24.18.25: seq=18 ttl=50 time=80.500 ms
ping_8  | 64 bytes from 99.24.18.25: seq=15 ttl=50 time=80.116 ms
ping_1  | 64 bytes from 99.24.18.25: seq=24 ttl=50 time=80.292 ms
ping_2  | 64 bytes from 99.24.18.25: seq=25 ttl=50 time=80.293 ms
ping_9  | 64 bytes from 99.24.18.25: seq=21 ttl=50 time=80.321 ms
ping_6  | 64 bytes from 99.24.18.25: seq=22 ttl=50 time=80.517 ms
ping_3  | 64 bytes from 99.24.18.25: seq=23 ttl=50 time=79.913 ms
ping_7  | 64 bytes from 99.24.18.25: seq=20 ttl=50 time=80.289 ms
ping_5  | 64 bytes from 99.24.18.25: seq=17 ttl=50 time=80.069 ms
ping_10 | 64 bytes from 99.24.18.25: seq=18 ttl=50 time=80.338 ms
ping_4  | 64 bytes from 99.24.18.25: seq=19 ttl=50 time=80.520 ms
ping_8  | 64 bytes from 99.24.18.25: seq=16 ttl=50 time=79.923 ms
ping_1  | 64 bytes from 99.24.18.25: seq=25 ttl=50 time=79.887 ms
ping_2  | 64 bytes from 99.24.18.25: seq=26 ttl=50 time=79.832 ms
ping_9  | 64 bytes from 99.24.18.25: seq=22 ttl=50 time=80.534 ms
ping_6  | 64 bytes from 99.24.18.25: seq=23 ttl=50 time=80.400 ms
ping_3  | 64 bytes from 99.24.18.25: seq=24 ttl=50 time=80.163 ms
ping_7  | 64 bytes from 99.24.18.25: seq=21 ttl=50 time=80.679 ms
ping_5  | 64 bytes from 99.24.18.25: seq=18 ttl=50 time=80.132 ms
ping_10 | 64 bytes from 99.24.18.25: seq=19 ttl=50 time=80.349 ms
ping_4  | 64 bytes from 99.24.18.25: seq=20 ttl=50 time=80.537 ms
ping_8  | 64 bytes from 99.24.18.25: seq=17 ttl=50 time=80.306 ms
ping_1  | 64 bytes from 99.24.18.25: seq=26 ttl=50 time=80.421 ms
ping_2  | 64 bytes from 99.24.18.25: seq=27 ttl=50 time=80.635 ms
ping_9  | 64 bytes from 99.24.18.25: seq=23 ttl=50 time=80.259 ms
ping_6  | 64 bytes from 99.24.18.25: seq=24 ttl=50 time=80.264 ms
ping_3  | 64 bytes from 99.24.18.25: seq=25 ttl=50 time=80.223 ms
ping_7  | 64 bytes from 99.24.18.25: seq=22 ttl=50 time=80.398 ms
ping_5  | 64 bytes from 99.24.18.25: seq=19 ttl=50 time=81.803 ms
ping_10 | 64 bytes from 99.24.18.25: seq=20 ttl=50 time=82.176 ms
ping_4  | 64 bytes from 99.24.18.25: seq=21 ttl=50 time=82.509 ms
ping_8  | 64 bytes from 99.24.18.25: seq=18 ttl=50 time=84.191 ms
ping_1  | 64 bytes from 99.24.18.25: seq=27 ttl=50 time=93.204 ms
ping_2  | 64 bytes from 99.24.18.25: seq=28 ttl=50 time=93.377 ms
ping_9  | 64 bytes from 99.24.18.25: seq=24 ttl=50 time=85.928 ms
ping_6  | 64 bytes from 99.24.18.25: seq=25 ttl=50 time=86.883 ms
ping_3  | 64 bytes from 99.24.18.25: seq=26 ttl=50 time=88.560 ms
ping_7  | 64 bytes from 99.24.18.25: seq=23 ttl=50 time=90.044 ms
ping_5  | 64 bytes from 99.24.18.25: seq=20 ttl=50 time=93.244 ms
ping_10 | 64 bytes from 99.24.18.25: seq=21 ttl=50 time=93.397 ms
ping_4  | 64 bytes from 99.24.18.25: seq=22 ttl=50 time=83.127 ms
ping_8  | 64 bytes from 99.24.18.25: seq=19 ttl=50 time=82.401 ms
ping_1  | 64 bytes from 99.24.18.25: seq=28 ttl=50 time=83.316 ms
ping_2  | 64 bytes from 99.24.18.25: seq=29 ttl=50 time=82.242 ms
ping_9  | 64 bytes from 99.24.18.25: seq=25 ttl=50 time=82.446 ms
ping_6  | 64 bytes from 99.24.18.25: seq=26 ttl=50 time=82.348 ms
ping_3  | 64 bytes from 99.24.18.25: seq=27 ttl=50 time=80.957 ms
ping_7  | 64 bytes from 99.24.18.25: seq=24 ttl=50 time=82.407 ms
ping_5  | 64 bytes from 99.24.18.25: seq=21 ttl=50 time=81.966 ms
ping_10 | 64 bytes from 99.24.18.25: seq=22 ttl=50 time=82.450 ms
ping_4  | 64 bytes from 99.24.18.25: seq=23 ttl=50 time=82.781 ms
ping_8  | 64 bytes from 99.24.18.25: seq=20 ttl=50 time=83.038 ms
ping_1  | 64 bytes from 99.24.18.25: seq=29 ttl=50 time=80.011 ms
ping_2  | 64 bytes from 99.24.18.25: seq=30 ttl=50 time=80.211 ms
ping_9  | 64 bytes from 99.24.18.25: seq=26 ttl=50 time=80.811 ms
ping_6  | 64 bytes from 99.24.18.25: seq=27 ttl=50 time=81.625 ms
ping_3  | 64 bytes from 99.24.18.25: seq=28 ttl=50 time=80.374 ms
ping_7  | 64 bytes from 99.24.18.25: seq=25 ttl=50 time=82.937 ms
ping_5  | 64 bytes from 99.24.18.25: seq=22 ttl=50 time=82.262 ms
ping_10 | 64 bytes from 99.24.18.25: seq=23 ttl=50 time=82.336 ms
ping_4  | 64 bytes from 99.24.18.25: seq=24 ttl=50 time=82.397 ms
ping_8  | 64 bytes from 99.24.18.25: seq=21 ttl=50 time=82.176 ms
ping_1  | 64 bytes from 99.24.18.25: seq=30 ttl=50 time=82.993 ms
ping_2  | 64 bytes from 99.24.18.25: seq=31 ttl=50 time=83.059 ms
ping_9  | 64 bytes from 99.24.18.25: seq=27 ttl=50 time=83.159 ms
ping_6  | 64 bytes from 99.24.18.25: seq=28 ttl=50 time=82.927 ms
ping_3  | 64 bytes from 99.24.18.25: seq=29 ttl=50 time=82.846 ms
ping_7  | 64 bytes from 99.24.18.25: seq=26 ttl=50 time=82.834 ms
ping_5  | 64 bytes from 99.24.18.25: seq=23 ttl=50 time=82.471 ms
ping_10 | 64 bytes from 99.24.18.25: seq=24 ttl=50 time=82.367 ms
ping_4  | 64 bytes from 99.24.18.25: seq=25 ttl=50 time=82.451 ms
ping_8  | 64 bytes from 99.24.18.25: seq=22 ttl=50 time=82.591 ms
ping_1  | 64 bytes from 99.24.18.25: seq=31 ttl=50 time=82.340 ms
ping_2  | 64 bytes from 99.24.18.25: seq=32 ttl=50 time=83.158 ms
ping_9  | 64 bytes from 99.24.18.25: seq=28 ttl=50 time=80.490 ms
ping_6  | 64 bytes from 99.24.18.25: seq=29 ttl=50 time=81.623 ms
ping_3  | 64 bytes from 99.24.18.25: seq=30 ttl=50 time=83.170 ms
ping_7  | 64 bytes from 99.24.18.25: seq=27 ttl=50 time=83.180 ms
ping_5  | 64 bytes from 99.24.18.25: seq=24 ttl=50 time=83.165 ms
ping_10 | 64 bytes from 99.24.18.25: seq=25 ttl=50 time=83.318 ms
ping_4  | 64 bytes from 99.24.18.25: seq=26 ttl=50 time=83.762 ms
ping_8  | 64 bytes from 99.24.18.25: seq=23 ttl=50 time=83.359 ms
ping_1  | 64 bytes from 99.24.18.25: seq=32 ttl=50 time=83.783 ms
ping_2  | 64 bytes from 99.24.18.25: seq=33 ttl=50 time=83.966 ms
ping_9  | 64 bytes from 99.24.18.25: seq=29 ttl=50 time=83.420 ms
ping_6  | 64 bytes from 99.24.18.25: seq=30 ttl=50 time=83.643 ms
ping_3  | 64 bytes from 99.24.18.25: seq=31 ttl=50 time=83.506 ms
ping_7  | 64 bytes from 99.24.18.25: seq=28 ttl=50 time=84.117 ms
ping_5  | 64 bytes from 99.24.18.25: seq=25 ttl=50 time=80.533 ms
ping_10 | 64 bytes from 99.24.18.25: seq=26 ttl=50 time=80.818 ms
ping_4  | 64 bytes from 99.24.18.25: seq=27 ttl=50 time=81.992 ms
ping_8  | 64 bytes from 99.24.18.25: seq=24 ttl=50 time=84.434 ms
ping_1  | 64 bytes from 99.24.18.25: seq=33 ttl=50 time=83.896 ms
ping_2  | 64 bytes from 99.24.18.25: seq=34 ttl=50 time=83.394 ms
ping_9  | 64 bytes from 99.24.18.25: seq=30 ttl=50 time=81.675 ms
ping_6  | 64 bytes from 99.24.18.25: seq=31 ttl=50 time=83.503 ms
ping_3  | 64 bytes from 99.24.18.25: seq=32 ttl=50 time=84.847 ms
ping_7  | 64 bytes from 99.24.18.25: seq=29 ttl=50 time=84.769 ms
ping_5  | 64 bytes from 99.24.18.25: seq=26 ttl=50 time=84.708 ms
ping_10 | 64 bytes from 99.24.18.25: seq=27 ttl=50 time=84.981 ms
ping_4  | 64 bytes from 99.24.18.25: seq=28 ttl=50 time=85.014 ms
ping_8  | 64 bytes from 99.24.18.25: seq=25 ttl=50 time=84.881 ms
ping_1  | 64 bytes from 99.24.18.25: seq=34 ttl=50 time=85.338 ms
ping_2  | 64 bytes from 99.24.18.25: seq=35 ttl=50 time=85.012 ms
ping_9  | 64 bytes from 99.24.18.25: seq=31 ttl=50 time=85.456 ms
ping_6  | 64 bytes from 99.24.18.25: seq=32 ttl=50 time=84.995 ms
ping_3  | 64 bytes from 99.24.18.25: seq=33 ttl=50 time=85.183 ms
ping_7  | 64 bytes from 99.24.18.25: seq=30 ttl=50 time=85.165 ms
ping_5  | 64 bytes from 99.24.18.25: seq=27 ttl=50 time=88.022 ms
ping_10 | 64 bytes from 99.24.18.25: seq=28 ttl=50 time=85.539 ms
ping_4  | 64 bytes from 99.24.18.25: seq=29 ttl=50 time=85.522 ms
ping_8  | 64 bytes from 99.24.18.25: seq=26 ttl=50 time=85.611 ms
ping_1  | 64 bytes from 99.24.18.25: seq=35 ttl=50 time=85.407 ms
ping_2  | 64 bytes from 99.24.18.25: seq=36 ttl=50 time=85.689 ms
ping_9  | 64 bytes from 99.24.18.25: seq=32 ttl=50 time=83.312 ms
ping_6  | 64 bytes from 99.24.18.25: seq=33 ttl=50 time=85.181 ms
ping_3  | 64 bytes from 99.24.18.25: seq=34 ttl=50 time=86.264 ms
ping_7  | 64 bytes from 99.24.18.25: seq=31 ttl=50 time=86.198 ms
ping_5  | 64 bytes from 99.24.18.25: seq=28 ttl=50 time=87.356 ms
ping_10 | 64 bytes from 99.24.18.25: seq=29 ttl=50 time=86.916 ms
ping_4  | 64 bytes from 99.24.18.25: seq=30 ttl=50 time=86.677 ms
ping_8  | 64 bytes from 99.24.18.25: seq=27 ttl=50 time=86.273 ms
ping_1  | 64 bytes from 99.24.18.25: seq=36 ttl=50 time=86.819 ms
ping_2  | 64 bytes from 99.24.18.25: seq=37 ttl=50 time=86.642 ms
ping_9  | 64 bytes from 99.24.18.25: seq=33 ttl=50 time=87.169 ms
ping_6  | 64 bytes from 99.24.18.25: seq=34 ttl=50 time=86.800 ms
ping_3  | 64 bytes from 99.24.18.25: seq=35 ttl=50 time=86.837 ms
ping_7  | 64 bytes from 99.24.18.25: seq=32 ttl=50 time=88.072 ms
ping_5  | 64 bytes from 99.24.18.25: seq=29 ttl=50 time=87.960 ms
ping_10 | 64 bytes from 99.24.18.25: seq=30 ttl=50 time=87.810 ms
ping_4  | 64 bytes from 99.24.18.25: seq=31 ttl=50 time=87.944 ms
ping_8  | 64 bytes from 99.24.18.25: seq=28 ttl=50 time=80.157 ms
ping_1  | 64 bytes from 99.24.18.25: seq=37 ttl=50 time=80.331 ms
ping_2  | 64 bytes from 99.24.18.25: seq=38 ttl=50 time=80.749 ms
ping_9  | 64 bytes from 99.24.18.25: seq=34 ttl=50 time=81.205 ms
ping_6  | 64 bytes from 99.24.18.25: seq=35 ttl=50 time=83.241 ms
ping_3  | 64 bytes from 99.24.18.25: seq=36 ttl=50 time=80.189 ms
ping_7  | 64 bytes from 99.24.18.25: seq=33 ttl=50 time=80.151 ms
ping_5  | 64 bytes from 99.24.18.25: seq=30 ttl=50 time=80.013 ms
ping_10 | 64 bytes from 99.24.18.25: seq=31 ttl=50 time=80.225 ms
ping_4  | 64 bytes from 99.24.18.25: seq=32 ttl=50 time=80.671 ms
ping_8  | 64 bytes from 99.24.18.25: seq=29 ttl=50 time=82.152 ms
ping_1  | 64 bytes from 99.24.18.25: seq=38 ttl=50 time=88.226 ms
ping_2  | 64 bytes from 99.24.18.25: seq=39 ttl=50 time=86.333 ms
ping_9  | 64 bytes from 99.24.18.25: seq=35 ttl=50 time=88.731 ms
ping_6  | 64 bytes from 99.24.18.25: seq=36 ttl=50 time=88.662 ms
ping_3  | 64 bytes from 99.24.18.25: seq=37 ttl=50 time=85.626 ms
ping_7  | 64 bytes from 99.24.18.25: seq=34 ttl=50 time=80.239 ms
ping_5  | 64 bytes from 99.24.18.25: seq=31 ttl=50 time=83.644 ms
ping_10 | 64 bytes from 99.24.18.25: seq=32 ttl=50 time=84.024 ms
ping_4  | 64 bytes from 99.24.18.25: seq=33 ttl=50 time=80.043 ms
ping_8  | 64 bytes from 99.24.18.25: seq=30 ttl=50 time=80.358 ms
ping_1  | 64 bytes from 99.24.18.25: seq=39 ttl=50 time=81.109 ms
ping_2  | 64 bytes from 99.24.18.25: seq=40 ttl=50 time=80.310 ms
ping_9  | 64 bytes from 99.24.18.25: seq=36 ttl=50 time=80.382 ms
ping_6  | 64 bytes from 99.24.18.25: seq=37 ttl=50 time=80.172 ms
ping_3  | 64 bytes from 99.24.18.25: seq=38 ttl=50 time=80.254 ms
ping_7  | 64 bytes from 99.24.18.25: seq=35 ttl=50 time=80.220 ms
ping_5  | 64 bytes from 99.24.18.25: seq=32 ttl=50 time=80.175 ms
ping_10 | 64 bytes from 99.24.18.25: seq=33 ttl=50 time=80.185 ms
ping_4  | 64 bytes from 99.24.18.25: seq=34 ttl=50 time=80.533 ms
ping_8  | 64 bytes from 99.24.18.25: seq=31 ttl=50 time=80.449 ms
ping_1  | 64 bytes from 99.24.18.25: seq=40 ttl=50 time=89.306 ms
ping_2  | 64 bytes from 99.24.18.25: seq=41 ttl=50 time=88.988 ms
ping_9  | 64 bytes from 99.24.18.25: seq=37 ttl=50 time=89.326 ms
ping_6  | 64 bytes from 99.24.18.25: seq=38 ttl=50 time=88.871 ms
ping_3  | 64 bytes from 99.24.18.25: seq=39 ttl=50 time=89.203 ms
ping_7  | 64 bytes from 99.24.18.25: seq=36 ttl=50 time=88.911 ms
ping_5  | 64 bytes from 99.24.18.25: seq=33 ttl=50 time=89.770 ms
ping_10 | 64 bytes from 99.24.18.25: seq=34 ttl=50 time=89.029 ms
ping_4  | 64 bytes from 99.24.18.25: seq=35 ttl=50 time=90.131 ms
ping_8  | 64 bytes from 99.24.18.25: seq=32 ttl=50 time=86.271 ms
ping_1  | 64 bytes from 99.24.18.25: seq=41 ttl=50 time=90.176 ms
ping_2  | 64 bytes from 99.24.18.25: seq=42 ttl=50 time=89.663 ms
ping_9  | 64 bytes from 99.24.18.25: seq=38 ttl=50 time=89.959 ms
ping_6  | 64 bytes from 99.24.18.25: seq=39 ttl=50 time=90.168 ms
ping_3  | 64 bytes from 99.24.18.25: seq=40 ttl=50 time=90.439 ms
ping_7  | 64 bytes from 99.24.18.25: seq=37 ttl=50 time=90.598 ms
ping_5  | 64 bytes from 99.24.18.25: seq=34 ttl=50 time=90.150 ms
ping_10 | 64 bytes from 99.24.18.25: seq=35 ttl=50 time=89.619 ms
ping_4  | 64 bytes from 99.24.18.25: seq=36 ttl=50 time=90.106 ms
ping_8  | 64 bytes from 99.24.18.25: seq=33 ttl=50 time=90.637 ms
ping_1  | 64 bytes from 99.24.18.25: seq=42 ttl=50 time=91.426 ms
ping_2  | 64 bytes from 99.24.18.25: seq=43 ttl=50 time=92.365 ms
ping_9  | 64 bytes from 99.24.18.25: seq=39 ttl=50 time=86.180 ms
ping_6  | 64 bytes from 99.24.18.25: seq=40 ttl=50 time=87.804 ms
ping_3  | 64 bytes from 99.24.18.25: seq=41 ttl=50 time=80.140 ms
ping_7  | 64 bytes from 99.24.18.25: seq=38 ttl=50 time=80.195 ms
ping_5  | 64 bytes from 99.24.18.25: seq=35 ttl=50 time=80.301 ms
ping_10 | 64 bytes from 99.24.18.25: seq=36 ttl=50 time=80.149 ms
ping_4  | 64 bytes from 99.24.18.25: seq=37 ttl=50 time=80.298 ms
ping_8  | 64 bytes from 99.24.18.25: seq=34 ttl=50 time=80.483 ms
ping_1  | 64 bytes from 99.24.18.25: seq=43 ttl=50 time=91.567 ms
ping_2  | 64 bytes from 99.24.18.25: seq=44 ttl=50 time=86.506 ms
ping_9  | 64 bytes from 99.24.18.25: seq=40 ttl=50 time=91.086 ms
ping_6  | 64 bytes from 99.24.18.25: seq=41 ttl=50 time=92.215 ms
ping_3  | 64 bytes from 99.24.18.25: seq=42 ttl=50 time=92.646 ms
ping_7  | 64 bytes from 99.24.18.25: seq=39 ttl=50 time=91.881 ms
ping_5  | 64 bytes from 99.24.18.25: seq=36 ttl=50 time=96.347 ms
ping_10 | 64 bytes from 99.24.18.25: seq=37 ttl=50 time=92.560 ms
ping_4  | 64 bytes from 99.24.18.25: seq=38 ttl=50 time=92.209 ms
ping_8  | 64 bytes from 99.24.18.25: seq=35 ttl=50 time=92.598 ms
ping_1  | 64 bytes from 99.24.18.25: seq=44 ttl=50 time=92.475 ms
ping_2  | 64 bytes from 99.24.18.25: seq=45 ttl=50 time=83.131 ms
ping_9  | 64 bytes from 99.24.18.25: seq=41 ttl=50 time=83.189 ms
ping_6  | 64 bytes from 99.24.18.25: seq=42 ttl=50 time=83.606 ms
ping_3  | 64 bytes from 99.24.18.25: seq=43 ttl=50 time=84.520 ms
ping_7  | 64 bytes from 99.24.18.25: seq=40 ttl=50 time=81.540 ms
ping_5  | 64 bytes from 99.24.18.25: seq=37 ttl=50 time=81.698 ms
ping_10 | 64 bytes from 99.24.18.25: seq=38 ttl=50 time=82.177 ms
ping_4  | 64 bytes from 99.24.18.25: seq=39 ttl=50 time=82.939 ms
ping_8  | 64 bytes from 99.24.18.25: seq=36 ttl=50 time=84.587 ms
ping_1  | 64 bytes from 99.24.18.25: seq=45 ttl=50 time=86.065 ms
ping_2  | 64 bytes from 99.24.18.25: seq=46 ttl=50 time=80.685 ms
ping_9  | 64 bytes from 99.24.18.25: seq=42 ttl=50 time=80.444 ms
ping_6  | 64 bytes from 99.24.18.25: seq=43 ttl=50 time=80.081 ms
ping_3  | 64 bytes from 99.24.18.25: seq=44 ttl=50 time=80.301 ms
ping_7  | 64 bytes from 99.24.18.25: seq=41 ttl=50 time=80.533 ms
ping_5  | 64 bytes from 99.24.18.25: seq=38 ttl=50 time=81.236 ms
ping_10 | 64 bytes from 99.24.18.25: seq=39 ttl=50 time=80.198 ms
ping_4  | 64 bytes from 99.24.18.25: seq=40 ttl=50 time=80.019 ms
ping_8  | 64 bytes from 99.24.18.25: seq=37 ttl=50 time=80.540 ms
ping_1  | 64 bytes from 99.24.18.25: seq=46 ttl=50 time=80.450 ms
ping_2  | 64 bytes from 99.24.18.25: seq=47 ttl=50 time=80.612 ms
ping_9  | 64 bytes from 99.24.18.25: seq=43 ttl=50 time=80.355 ms
ping_6  | 64 bytes from 99.24.18.25: seq=44 ttl=50 time=80.448 ms
ping_3  | 64 bytes from 99.24.18.25: seq=45 ttl=50 time=80.088 ms
ping_7  | 64 bytes from 99.24.18.25: seq=42 ttl=50 time=80.218 ms
ping_5  | 64 bytes from 99.24.18.25: seq=39 ttl=50 time=81.551 ms
ping_10 | 64 bytes from 99.24.18.25: seq=40 ttl=50 time=80.738 ms
ping_4  | 64 bytes from 99.24.18.25: seq=41 ttl=50 time=80.168 ms
ping_8  | 64 bytes from 99.24.18.25: seq=38 ttl=50 time=80.497 ms
ping_1  | 64 bytes from 99.24.18.25: seq=47 ttl=50 time=80.425 ms
ping_2  | 64 bytes from 99.24.18.25: seq=48 ttl=50 time=80.639 ms
ping_9  | 64 bytes from 99.24.18.25: seq=44 ttl=50 time=80.333 ms
ping_6  | 64 bytes from 99.24.18.25: seq=45 ttl=50 time=80.324 ms
ping_3  | 64 bytes from 99.24.18.25: seq=46 ttl=50 time=80.168 ms
ping_7  | 64 bytes from 99.24.18.25: seq=43 ttl=50 time=80.145 ms
ping_5  | 64 bytes from 99.24.18.25: seq=40 ttl=50 time=79.940 ms
ping_10 | 64 bytes from 99.24.18.25: seq=41 ttl=50 time=80.100 ms
ping_4  | 64 bytes from 99.24.18.25: seq=42 ttl=50 time=80.777 ms
ping_8  | 64 bytes from 99.24.18.25: seq=39 ttl=50 time=80.662 ms
ping_1  | 64 bytes from 99.24.18.25: seq=48 ttl=50 time=80.517 ms
ping_2  | 64 bytes from 99.24.18.25: seq=49 ttl=50 time=80.313 ms
ping_9  | 64 bytes from 99.24.18.25: seq=45 ttl=50 time=80.917 ms
ping_6  | 64 bytes from 99.24.18.25: seq=46 ttl=50 time=80.212 ms
ping_3  | 64 bytes from 99.24.18.25: seq=47 ttl=50 time=80.138 ms
ping_7  | 64 bytes from 99.24.18.25: seq=44 ttl=50 time=80.467 ms
ping_5  | 64 bytes from 99.24.18.25: seq=41 ttl=50 time=80.619 ms
ping_10 | 64 bytes from 99.24.18.25: seq=42 ttl=50 time=79.891 ms
ping_4  | 64 bytes from 99.24.18.25: seq=43 ttl=50 time=80.204 ms
ping_8  | 64 bytes from 99.24.18.25: seq=40 ttl=50 time=80.296 ms
ping_1  | 64 bytes from 99.24.18.25: seq=49 ttl=50 time=80.009 ms
ping_2  | 64 bytes from 99.24.18.25: seq=50 ttl=50 time=80.307 ms
ping_9  | 64 bytes from 99.24.18.25: seq=46 ttl=50 time=80.380 ms
ping_6  | 64 bytes from 99.24.18.25: seq=47 ttl=50 time=80.505 ms
ping_3  | 64 bytes from 99.24.18.25: seq=48 ttl=50 time=79.938 ms
ping_7  | 64 bytes from 99.24.18.25: seq=45 ttl=50 time=80.146 ms
ping_5  | 64 bytes from 99.24.18.25: seq=42 ttl=50 time=80.283 ms
ping_10 | 64 bytes from 99.24.18.25: seq=43 ttl=50 time=80.004 ms
ping_4  | 64 bytes from 99.24.18.25: seq=44 ttl=50 time=80.462 ms
ping_8  | 64 bytes from 99.24.18.25: seq=41 ttl=50 time=80.151 ms
ping_1  | 64 bytes from 99.24.18.25: seq=50 ttl=50 time=80.179 ms
ping_2  | 64 bytes from 99.24.18.25: seq=51 ttl=50 time=80.399 ms
ping_9  | 64 bytes from 99.24.18.25: seq=47 ttl=50 time=80.446 ms
ping_6  | 64 bytes from 99.24.18.25: seq=48 ttl=50 time=80.256 ms
ping_3  | 64 bytes from 99.24.18.25: seq=49 ttl=50 time=79.979 ms
ping_7  | 64 bytes from 99.24.18.25: seq=46 ttl=50 time=80.464 ms
ping_5  | 64 bytes from 99.24.18.25: seq=43 ttl=50 time=79.866 ms
ping_10 | 64 bytes from 99.24.18.25: seq=44 ttl=50 time=80.564 ms
ping_4  | 64 bytes from 99.24.18.25: seq=45 ttl=50 time=80.466 ms
ping_8  | 64 bytes from 99.24.18.25: seq=42 ttl=50 time=80.190 ms
ping_1  | 64 bytes from 99.24.18.25: seq=51 ttl=50 time=81.866 ms
ping_2  | 64 bytes from 99.24.18.25: seq=52 ttl=50 time=80.835 ms
ping_9  | 64 bytes from 99.24.18.25: seq=48 ttl=50 time=80.254 ms
ping_6  | 64 bytes from 99.24.18.25: seq=49 ttl=50 time=80.708 ms
ping_3  | 64 bytes from 99.24.18.25: seq=50 ttl=50 time=80.211 ms
ping_7  | 64 bytes from 99.24.18.25: seq=47 ttl=50 time=80.536 ms
ping_5  | 64 bytes from 99.24.18.25: seq=44 ttl=50 time=80.114 ms
ping_10 | 64 bytes from 99.24.18.25: seq=45 ttl=50 time=79.947 ms
ping_4  | 64 bytes from 99.24.18.25: seq=46 ttl=50 time=81.033 ms
ping_8  | 64 bytes from 99.24.18.25: seq=43 ttl=50 time=80.152 ms
ping_1  | 64 bytes from 99.24.18.25: seq=52 ttl=50 time=80.357 ms
ping_2  | 64 bytes from 99.24.18.25: seq=53 ttl=50 time=80.320 ms
ping_9  | 64 bytes from 99.24.18.25: seq=49 ttl=50 time=80.406 ms
ping_6  | 64 bytes from 99.24.18.25: seq=50 ttl=50 time=80.409 ms
ping_3  | 64 bytes from 99.24.18.25: seq=51 ttl=50 time=80.147 ms
ping_7  | 64 bytes from 99.24.18.25: seq=48 ttl=50 time=80.232 ms
ping_5  | 64 bytes from 99.24.18.25: seq=45 ttl=50 time=82.341 ms
ping_10 | 64 bytes from 99.24.18.25: seq=46 ttl=50 time=82.298 ms
ping_4  | 64 bytes from 99.24.18.25: seq=47 ttl=50 time=80.476 ms
ping_8  | 64 bytes from 99.24.18.25: seq=44 ttl=50 time=80.645 ms
ping_1  | 64 bytes from 99.24.18.25: seq=53 ttl=50 time=80.489 ms
ping_2  | 64 bytes from 99.24.18.25: seq=54 ttl=50 time=80.331 ms
ping_9  | 64 bytes from 99.24.18.25: seq=50 ttl=50 time=80.295 ms
ping_6  | 64 bytes from 99.24.18.25: seq=51 ttl=50 time=80.617 ms
ping_3  | 64 bytes from 99.24.18.25: seq=52 ttl=50 time=79.959 ms
ping_7  | 64 bytes from 99.24.18.25: seq=49 ttl=50 time=80.119 ms
ping_5  | 64 bytes from 99.24.18.25: seq=46 ttl=50 time=80.603 ms
ping_10 | 64 bytes from 99.24.18.25: seq=47 ttl=50 time=80.830 ms
ping_4  | 64 bytes from 99.24.18.25: seq=48 ttl=50 time=79.926 ms
ping_8  | 64 bytes from 99.24.18.25: seq=45 ttl=50 time=80.398 ms
ping_1  | 64 bytes from 99.24.18.25: seq=54 ttl=50 time=80.036 ms
ping_2  | 64 bytes from 99.24.18.25: seq=55 ttl=50 time=80.330 ms
ping_9  | 64 bytes from 99.24.18.25: seq=51 ttl=50 time=80.373 ms
ping_6  | 64 bytes from 99.24.18.25: seq=52 ttl=50 time=80.015 ms
ping_3  | 64 bytes from 99.24.18.25: seq=53 ttl=50 time=80.120 ms
ping_7  | 64 bytes from 99.24.18.25: seq=50 ttl=50 time=79.967 ms
ping_5  | 64 bytes from 99.24.18.25: seq=47 ttl=50 time=80.556 ms
ping_10 | 64 bytes from 99.24.18.25: seq=48 ttl=50 time=80.527 ms
ping_4  | 64 bytes from 99.24.18.25: seq=49 ttl=50 time=80.225 ms
ping_8  | 64 bytes from 99.24.18.25: seq=46 ttl=50 time=80.907 ms
ping_1  | 64 bytes from 99.24.18.25: seq=55 ttl=50 time=81.728 ms
ping_2  | 64 bytes from 99.24.18.25: seq=56 ttl=50 time=80.638 ms
ping_9  | 64 bytes from 99.24.18.25: seq=52 ttl=50 time=80.495 ms
ping_6  | 64 bytes from 99.24.18.25: seq=53 ttl=50 time=80.413 ms
ping_3  | 64 bytes from 99.24.18.25: seq=54 ttl=50 time=80.218 ms
ping_7  | 64 bytes from 99.24.18.25: seq=51 ttl=50 time=79.994 ms
ping_5  | 64 bytes from 99.24.18.25: seq=48 ttl=50 time=80.452 ms
ping_10 | 64 bytes from 99.24.18.25: seq=49 ttl=50 time=80.518 ms
ping_4  | 64 bytes from 99.24.18.25: seq=50 ttl=50 time=80.439 ms
ping_8  | 64 bytes from 99.24.18.25: seq=47 ttl=50 time=80.304 ms
ping_1  | 64 bytes from 99.24.18.25: seq=56 ttl=50 time=81.055 ms
ping_2  | 64 bytes from 99.24.18.25: seq=57 ttl=50 time=80.427 ms
ping_9  | 64 bytes from 99.24.18.25: seq=53 ttl=50 time=80.269 ms
ping_6  | 64 bytes from 99.24.18.25: seq=54 ttl=50 time=80.402 ms
ping_3  | 64 bytes from 99.24.18.25: seq=55 ttl=50 time=80.374 ms
ping_7  | 64 bytes from 99.24.18.25: seq=52 ttl=50 time=80.326 ms
ping_5  | 64 bytes from 99.24.18.25: seq=49 ttl=50 time=80.685 ms
ping_10 | 64 bytes from 99.24.18.25: seq=50 ttl=50 time=80.511 ms
ping_4  | 64 bytes from 99.24.18.25: seq=51 ttl=50 time=80.494 ms
ping_8  | 64 bytes from 99.24.18.25: seq=48 ttl=50 time=81.336 ms
ping_1  | 64 bytes from 99.24.18.25: seq=57 ttl=50 time=81.093 ms
ping_2  | 64 bytes from 99.24.18.25: seq=58 ttl=50 time=80.161 ms
ping_9  | 64 bytes from 99.24.18.25: seq=54 ttl=50 time=80.231 ms
ping_6  | 64 bytes from 99.24.18.25: seq=55 ttl=50 time=80.798 ms
ping_3  | 64 bytes from 99.24.18.25: seq=56 ttl=50 time=80.227 ms
ping_7  | 64 bytes from 99.24.18.25: seq=53 ttl=50 time=80.176 ms
ping_5  | 64 bytes from 99.24.18.25: seq=50 ttl=50 time=80.720 ms
ping_10 | 64 bytes from 99.24.18.25: seq=51 ttl=50 time=80.437 ms
ping_4  | 64 bytes from 99.24.18.25: seq=52 ttl=50 time=80.176 ms
ping_8  | 64 bytes from 99.24.18.25: seq=49 ttl=50 time=80.265 ms
ping_1  | 64 bytes from 99.24.18.25: seq=58 ttl=50 time=80.386 ms
ping_2  | 64 bytes from 99.24.18.25: seq=59 ttl=50 time=80.530 ms
ping_9  | 64 bytes from 99.24.18.25: seq=55 ttl=50 time=80.230 ms
ping_6  | 64 bytes from 99.24.18.25: seq=56 ttl=50 time=80.050 ms
ping_3  | 64 bytes from 99.24.18.25: seq=57 ttl=50 time=79.875 ms
ping_7  | 64 bytes from 99.24.18.25: seq=54 ttl=50 time=80.356 ms
ping_5  | 64 bytes from 99.24.18.25: seq=51 ttl=50 time=80.349 ms
ping_10 | 64 bytes from 99.24.18.25: seq=52 ttl=50 time=80.411 ms
ping_4  | 64 bytes from 99.24.18.25: seq=53 ttl=50 time=81.587 ms
ping_8  | 64 bytes from 99.24.18.25: seq=50 ttl=50 time=80.784 ms
ping_1  | 64 bytes from 99.24.18.25: seq=59 ttl=50 time=80.600 ms
ping_2  | 64 bytes from 99.24.18.25: seq=60 ttl=50 time=80.499 ms
ping_9  | 64 bytes from 99.24.18.25: seq=56 ttl=50 time=80.598 ms
ping_6  | 64 bytes from 99.24.18.25: seq=57 ttl=50 time=80.127 ms
ping_3  | 64 bytes from 99.24.18.25: seq=58 ttl=50 time=79.957 ms
ping_7  | 64 bytes from 99.24.18.25: seq=55 ttl=50 time=80.251 ms
ping_5  | 64 bytes from 99.24.18.25: seq=52 ttl=50 time=80.347 ms
ping_10 | 64 bytes from 99.24.18.25: seq=53 ttl=50 time=80.354 ms
ping_4  | 64 bytes from 99.24.18.25: seq=54 ttl=50 time=80.543 ms
ping_8  | 64 bytes from 99.24.18.25: seq=51 ttl=50 time=80.157 ms
ping_1  | 64 bytes from 99.24.18.25: seq=60 ttl=50 time=83.174 ms
ping_2  | 64 bytes from 99.24.18.25: seq=61 ttl=50 time=80.343 ms
ping_9  | 64 bytes from 99.24.18.25: seq=57 ttl=50 time=80.262 ms
ping_6  | 64 bytes from 99.24.18.25: seq=58 ttl=50 time=80.031 ms
ping_3  | 64 bytes from 99.24.18.25: seq=59 ttl=50 time=79.891 ms
ping_7  | 64 bytes from 99.24.18.25: seq=56 ttl=50 time=80.150 ms
ping_5  | 64 bytes from 99.24.18.25: seq=53 ttl=50 time=82.436 ms
ping_10 | 64 bytes from 99.24.18.25: seq=54 ttl=50 time=81.706 ms
ping_4  | 64 bytes from 99.24.18.25: seq=55 ttl=50 time=80.643 ms
ping_8  | 64 bytes from 99.24.18.25: seq=52 ttl=50 time=80.873 ms
ping_1  | 64 bytes from 99.24.18.25: seq=61 ttl=50 time=80.309 ms
ping_2  | 64 bytes from 99.24.18.25: seq=62 ttl=50 time=80.338 ms
ping_9  | 64 bytes from 99.24.18.25: seq=58 ttl=50 time=80.511 ms
ping_6  | 64 bytes from 99.24.18.25: seq=59 ttl=50 time=80.440 ms
ping_3  | 64 bytes from 99.24.18.25: seq=60 ttl=50 time=80.125 ms
ping_7  | 64 bytes from 99.24.18.25: seq=57 ttl=50 time=80.055 ms
ping_5  | 64 bytes from 99.24.18.25: seq=54 ttl=50 time=80.560 ms
ping_10 | 64 bytes from 99.24.18.25: seq=55 ttl=50 time=80.502 ms
ping_4  | 64 bytes from 99.24.18.25: seq=56 ttl=50 time=80.029 ms
ping_8  | 64 bytes from 99.24.18.25: seq=53 ttl=50 time=80.369 ms
ping_1  | 64 bytes from 99.24.18.25: seq=62 ttl=50 time=80.417 ms
ping_2  | 64 bytes from 99.24.18.25: seq=63 ttl=50 time=79.988 ms
ping_9  | 64 bytes from 99.24.18.25: seq=59 ttl=50 time=80.531 ms
ping_6  | 64 bytes from 99.24.18.25: seq=60 ttl=50 time=80.285 ms
ping_3  | 64 bytes from 99.24.18.25: seq=61 ttl=50 time=80.505 ms
ping_7  | 64 bytes from 99.24.18.25: seq=58 ttl=50 time=80.520 ms
ping_5  | 64 bytes from 99.24.18.25: seq=55 ttl=50 time=80.165 ms
ping_10 | 64 bytes from 99.24.18.25: seq=56 ttl=50 time=80.396 ms
ping_4  | 64 bytes from 99.24.18.25: seq=57 ttl=50 time=80.165 ms
ping_8  | 64 bytes from 99.24.18.25: seq=54 ttl=50 time=80.437 ms
ping_1  | 64 bytes from 99.24.18.25: seq=63 ttl=50 time=80.790 ms
ping_2  | 64 bytes from 99.24.18.25: seq=64 ttl=50 time=80.404 ms
ping_9  | 64 bytes from 99.24.18.25: seq=60 ttl=50 time=80.873 ms
ping_6  | 64 bytes from 99.24.18.25: seq=61 ttl=50 time=80.343 ms
ping_3  | 64 bytes from 99.24.18.25: seq=62 ttl=50 time=80.154 ms
ping_7  | 64 bytes from 99.24.18.25: seq=59 ttl=50 time=81.418 ms
ping_5  | 64 bytes from 99.24.18.25: seq=56 ttl=50 time=79.934 ms
ping_10 | 64 bytes from 99.24.18.25: seq=57 ttl=50 time=80.363 ms
ping_4  | 64 bytes from 99.24.18.25: seq=58 ttl=50 time=81.231 ms
ping_8  | 64 bytes from 99.24.18.25: seq=55 ttl=50 time=81.826 ms
ping_1  | 64 bytes from 99.24.18.25: seq=64 ttl=50 time=80.234 ms
ping_2  | 64 bytes from 99.24.18.25: seq=65 ttl=50 time=80.590 ms
ping_9  | 64 bytes from 99.24.18.25: seq=61 ttl=50 time=80.288 ms
ping_6  | 64 bytes from 99.24.18.25: seq=62 ttl=50 time=81.582 ms
ping_3  | 64 bytes from 99.24.18.25: seq=63 ttl=50 time=79.895 ms
ping_7  | 64 bytes from 99.24.18.25: seq=60 ttl=50 time=80.517 ms
ping_5  | 64 bytes from 99.24.18.25: seq=57 ttl=50 time=79.949 ms
ping_10 | 64 bytes from 99.24.18.25: seq=58 ttl=50 time=80.668 ms
ping_4  | 64 bytes from 99.24.18.25: seq=59 ttl=50 time=80.008 ms
ping_8  | 64 bytes from 99.24.18.25: seq=56 ttl=50 time=80.470 ms
ping_1  | 64 bytes from 99.24.18.25: seq=65 ttl=50 time=80.237 ms
ping_2  | 64 bytes from 99.24.18.25: seq=66 ttl=50 time=80.519 ms
ping_9  | 64 bytes from 99.24.18.25: seq=62 ttl=50 time=81.986 ms
ping_6  | 64 bytes from 99.24.18.25: seq=63 ttl=50 time=80.238 ms
ping_3  | 64 bytes from 99.24.18.25: seq=64 ttl=50 time=80.359 ms
ping_7  | 64 bytes from 99.24.18.25: seq=61 ttl=50 time=80.687 ms
ping_5  | 64 bytes from 99.24.18.25: seq=58 ttl=50 time=80.219 ms
ping_10 | 64 bytes from 99.24.18.25: seq=59 ttl=50 time=80.332 ms
ping_4  | 64 bytes from 99.24.18.25: seq=60 ttl=50 time=80.443 ms
ping_8  | 64 bytes from 99.24.18.25: seq=57 ttl=50 time=80.361 ms
ping_1  | 64 bytes from 99.24.18.25: seq=66 ttl=50 time=80.412 ms
ping_2  | 64 bytes from 99.24.18.25: seq=67 ttl=50 time=80.281 ms
ping_9  | 64 bytes from 99.24.18.25: seq=63 ttl=50 time=80.565 ms
ping_6  | 64 bytes from 99.24.18.25: seq=64 ttl=50 time=80.496 ms
ping_3  | 64 bytes from 99.24.18.25: seq=65 ttl=50 time=80.421 ms
ping_7  | 64 bytes from 99.24.18.25: seq=62 ttl=50 time=80.517 ms
ping_5  | 64 bytes from 99.24.18.25: seq=59 ttl=50 time=80.252 ms
ping_10 | 64 bytes from 99.24.18.25: seq=60 ttl=50 time=81.997 ms
ping_4  | 64 bytes from 99.24.18.25: seq=61 ttl=50 time=80.466 ms
ping_8  | 64 bytes from 99.24.18.25: seq=58 ttl=50 time=79.937 ms
ping_1  | 64 bytes from 99.24.18.25: seq=67 ttl=50 time=80.615 ms
ping_2  | 64 bytes from 99.24.18.25: seq=68 ttl=50 time=80.791 ms
ping_9  | 64 bytes from 99.24.18.25: seq=64 ttl=50 time=80.270 ms
ping_6  | 64 bytes from 99.24.18.25: seq=65 ttl=50 time=80.300 ms
ping_3  | 64 bytes from 99.24.18.25: seq=66 ttl=50 time=80.671 ms
ping_7  | 64 bytes from 99.24.18.25: seq=63 ttl=50 time=80.192 ms
ping_5  | 64 bytes from 99.24.18.25: seq=60 ttl=50 time=80.110 ms
ping_10 | 64 bytes from 99.24.18.25: seq=61 ttl=50 time=80.244 ms
ping_4  | 64 bytes from 99.24.18.25: seq=62 ttl=50 time=80.906 ms
ping_8  | 64 bytes from 99.24.18.25: seq=59 ttl=50 time=80.378 ms
ping_1  | 64 bytes from 99.24.18.25: seq=68 ttl=50 time=80.550 ms
ping_2  | 64 bytes from 99.24.18.25: seq=69 ttl=50 time=80.411 ms
ping_9  | 64 bytes from 99.24.18.25: seq=65 ttl=50 time=82.005 ms
ping_6  | 64 bytes from 99.24.18.25: seq=66 ttl=50 time=80.360 ms
ping_3  | 64 bytes from 99.24.18.25: seq=67 ttl=50 time=80.280 ms
ping_7  | 64 bytes from 99.24.18.25: seq=64 ttl=50 time=79.982 ms
ping_5  | 64 bytes from 99.24.18.25: seq=61 ttl=50 time=79.838 ms
ping_10 | 64 bytes from 99.24.18.25: seq=62 ttl=50 time=80.207 ms
ping_4  | 64 bytes from 99.24.18.25: seq=63 ttl=50 time=80.152 ms
ping_8  | 64 bytes from 99.24.18.25: seq=60 ttl=50 time=81.377 ms
ping_1  | 64 bytes from 99.24.18.25: seq=69 ttl=50 time=80.476 ms
ping_2  | 64 bytes from 99.24.18.25: seq=70 ttl=50 time=79.999 ms
ping_9  | 64 bytes from 99.24.18.25: seq=66 ttl=50 time=80.451 ms
ping_6  | 64 bytes from 99.24.18.25: seq=67 ttl=50 time=80.225 ms
ping_3  | 64 bytes from 99.24.18.25: seq=68 ttl=50 time=79.984 ms
ping_7  | 64 bytes from 99.24.18.25: seq=65 ttl=50 time=80.228 ms
ping_5  | 64 bytes from 99.24.18.25: seq=62 ttl=50 time=79.991 ms
ping_10 | 64 bytes from 99.24.18.25: seq=63 ttl=50 time=80.163 ms
ping_4  | 64 bytes from 99.24.18.25: seq=64 ttl=50 time=80.357 ms
ping_8  | 64 bytes from 99.24.18.25: seq=61 ttl=50 time=80.566 ms
ping_1  | 64 bytes from 99.24.18.25: seq=70 ttl=50 time=80.226 ms
ping_2  | 64 bytes from 99.24.18.25: seq=71 ttl=50 time=81.097 ms
ping_9  | 64 bytes from 99.24.18.25: seq=67 ttl=50 time=80.844 ms
ping_6  | 64 bytes from 99.24.18.25: seq=68 ttl=50 time=80.302 ms
ping_3  | 64 bytes from 99.24.18.25: seq=69 ttl=50 time=80.217 ms
ping_7  | 64 bytes from 99.24.18.25: seq=66 ttl=50 time=80.281 ms
ping_5  | 64 bytes from 99.24.18.25: seq=63 ttl=50 time=80.050 ms
ping_10 | 64 bytes from 99.24.18.25: seq=64 ttl=50 time=80.224 ms
ping_4  | 64 bytes from 99.24.18.25: seq=65 ttl=50 time=80.280 ms
ping_8  | 64 bytes from 99.24.18.25: seq=62 ttl=50 time=81.756 ms
ping_1  | 64 bytes from 99.24.18.25: seq=71 ttl=50 time=80.437 ms
ping_2  | 64 bytes from 99.24.18.25: seq=72 ttl=50 time=80.312 ms
ping_9  | 64 bytes from 99.24.18.25: seq=68 ttl=50 time=80.136 ms
ping_6  | 64 bytes from 99.24.18.25: seq=69 ttl=50 time=80.252 ms
ping_3  | 64 bytes from 99.24.18.25: seq=70 ttl=50 time=80.065 ms
ping_7  | 64 bytes from 99.24.18.25: seq=67 ttl=50 time=80.087 ms
ping_5  | 64 bytes from 99.24.18.25: seq=64 ttl=50 time=80.335 ms
ping_10 | 64 bytes from 99.24.18.25: seq=65 ttl=50 time=80.403 ms
ping_4  | 64 bytes from 99.24.18.25: seq=66 ttl=50 time=80.450 ms
ping_8  | 64 bytes from 99.24.18.25: seq=63 ttl=50 time=80.235 ms
ping_1  | 64 bytes from 99.24.18.25: seq=72 ttl=50 time=80.480 ms
ping_2  | 64 bytes from 99.24.18.25: seq=73 ttl=50 time=80.579 ms
ping_9  | 64 bytes from 99.24.18.25: seq=69 ttl=50 time=80.346 ms
ping_6  | 64 bytes from 99.24.18.25: seq=70 ttl=50 time=80.347 ms
ping_3  | 64 bytes from 99.24.18.25: seq=71 ttl=50 time=79.980 ms
ping_7  | 64 bytes from 99.24.18.25: seq=68 ttl=50 time=80.638 ms
ping_5  | 64 bytes from 99.24.18.25: seq=65 ttl=50 time=80.054 ms
ping_10 | 64 bytes from 99.24.18.25: seq=66 ttl=50 time=80.285 ms
ping_4  | 64 bytes from 99.24.18.25: seq=67 ttl=50 time=80.257 ms
ping_8  | 64 bytes from 99.24.18.25: seq=64 ttl=50 time=80.253 ms
ping_1  | 64 bytes from 99.24.18.25: seq=73 ttl=50 time=81.032 ms
ping_2  | 64 bytes from 99.24.18.25: seq=74 ttl=50 time=80.463 ms
ping_9  | 64 bytes from 99.24.18.25: seq=70 ttl=50 time=79.917 ms
ping_6  | 64 bytes from 99.24.18.25: seq=71 ttl=50 time=80.615 ms
ping_3  | 64 bytes from 99.24.18.25: seq=72 ttl=50 time=80.057 ms
ping_7  | 64 bytes from 99.24.18.25: seq=69 ttl=50 time=80.362 ms
ping_5  | 64 bytes from 99.24.18.25: seq=66 ttl=50 time=80.004 ms
ping_10 | 64 bytes from 99.24.18.25: seq=67 ttl=50 time=80.549 ms
ping_4  | 64 bytes from 99.24.18.25: seq=68 ttl=50 time=80.424 ms
ping_8  | 64 bytes from 99.24.18.25: seq=65 ttl=50 time=80.825 ms
ping_1  | 64 bytes from 99.24.18.25: seq=74 ttl=50 time=80.415 ms
ping_2  | 64 bytes from 99.24.18.25: seq=75 ttl=50 time=80.640 ms
ping_9  | 64 bytes from 99.24.18.25: seq=71 ttl=50 time=80.448 ms
ping_6  | 64 bytes from 99.24.18.25: seq=72 ttl=50 time=80.585 ms
ping_3  | 64 bytes from 99.24.18.25: seq=73 ttl=50 time=79.982 ms
ping_7  | 64 bytes from 99.24.18.25: seq=70 ttl=50 time=80.136 ms
ping_5  | 64 bytes from 99.24.18.25: seq=67 ttl=50 time=81.069 ms
ping_10 | 64 bytes from 99.24.18.25: seq=68 ttl=50 time=81.316 ms
ping_4  | 64 bytes from 99.24.18.25: seq=69 ttl=50 time=80.586 ms
ping_8  | 64 bytes from 99.24.18.25: seq=66 ttl=50 time=81.134 ms
ping_1  | 64 bytes from 99.24.18.25: seq=75 ttl=50 time=80.198 ms
ping_2  | 64 bytes from 99.24.18.25: seq=76 ttl=50 time=80.317 ms
ping_9  | 64 bytes from 99.24.18.25: seq=72 ttl=50 time=80.217 ms
ping_6  | 64 bytes from 99.24.18.25: seq=73 ttl=50 time=80.745 ms
ping_3  | 64 bytes from 99.24.18.25: seq=74 ttl=50 time=80.097 ms
ping_7  | 64 bytes from 99.24.18.25: seq=71 ttl=50 time=80.617 ms
ping_5  | 64 bytes from 99.24.18.25: seq=68 ttl=50 time=80.423 ms
ping_10 | 64 bytes from 99.24.18.25: seq=69 ttl=50 time=79.996 ms
ping_4  | 64 bytes from 99.24.18.25: seq=70 ttl=50 time=80.320 ms
ping_8  | 64 bytes from 99.24.18.25: seq=67 ttl=50 time=80.613 ms
ping_1  | 64 bytes from 99.24.18.25: seq=76 ttl=50 time=80.456 ms
ping_2  | 64 bytes from 99.24.18.25: seq=77 ttl=50 time=80.325 ms
ping_9  | 64 bytes from 99.24.18.25: seq=73 ttl=50 time=79.951 ms
ping_6  | 64 bytes from 99.24.18.25: seq=74 ttl=50 time=80.329 ms
ping_3  | 64 bytes from 99.24.18.25: seq=75 ttl=50 time=79.965 ms
ping_7  | 64 bytes from 99.24.18.25: seq=72 ttl=50 time=79.926 ms
ping_5  | 64 bytes from 99.24.18.25: seq=69 ttl=50 time=80.480 ms
ping_10 | 64 bytes from 99.24.18.25: seq=70 ttl=50 time=80.666 ms
ping_4  | 64 bytes from 99.24.18.25: seq=71 ttl=50 time=80.265 ms
ping_8  | 64 bytes from 99.24.18.25: seq=68 ttl=50 time=80.391 ms
ping_1  | 64 bytes from 99.24.18.25: seq=77 ttl=50 time=80.428 ms
ping_2  | 64 bytes from 99.24.18.25: seq=78 ttl=50 time=79.886 ms
ping_9  | 64 bytes from 99.24.18.25: seq=74 ttl=50 time=79.804 ms
ping_6  | 64 bytes from 99.24.18.25: seq=75 ttl=50 time=79.764 ms
ping_3  | 64 bytes from 99.24.18.25: seq=76 ttl=50 time=80.080 ms
ping_7  | 64 bytes from 99.24.18.25: seq=73 ttl=50 time=80.194 ms
ping_5  | 64 bytes from 99.24.18.25: seq=70 ttl=50 time=80.294 ms
ping_10 | 64 bytes from 99.24.18.25: seq=71 ttl=50 time=80.245 ms
ping_4  | 64 bytes from 99.24.18.25: seq=72 ttl=50 time=80.138 ms
ping_8  | 64 bytes from 99.24.18.25: seq=69 ttl=50 time=80.263 ms
ping_1  | 64 bytes from 99.24.18.25: seq=78 ttl=50 time=80.533 ms
ping_2  | 64 bytes from 99.24.18.25: seq=79 ttl=50 time=81.278 ms
ping_9  | 64 bytes from 99.24.18.25: seq=75 ttl=50 time=80.374 ms
ping_6  | 64 bytes from 99.24.18.25: seq=76 ttl=50 time=80.437 ms
ping_3  | 64 bytes from 99.24.18.25: seq=77 ttl=50 time=80.529 ms
ping_7  | 64 bytes from 99.24.18.25: seq=74 ttl=50 time=80.254 ms
ping_5  | 64 bytes from 99.24.18.25: seq=71 ttl=50 time=80.143 ms
ping_10 | 64 bytes from 99.24.18.25: seq=72 ttl=50 time=80.331 ms
ping_4  | 64 bytes from 99.24.18.25: seq=73 ttl=50 time=80.735 ms
ping_8  | 64 bytes from 99.24.18.25: seq=70 ttl=50 time=80.456 ms
ping_1  | 64 bytes from 99.24.18.25: seq=79 ttl=50 time=80.324 ms
ping_2  | 64 bytes from 99.24.18.25: seq=80 ttl=50 time=80.427 ms
ping_9  | 64 bytes from 99.24.18.25: seq=76 ttl=50 time=80.345 ms
ping_6  | 64 bytes from 99.24.18.25: seq=77 ttl=50 time=79.947 ms
ping_3  | 64 bytes from 99.24.18.25: seq=78 ttl=50 time=80.349 ms
ping_7  | 64 bytes from 99.24.18.25: seq=75 ttl=50 time=79.888 ms
ping_5  | 64 bytes from 99.24.18.25: seq=72 ttl=50 time=80.187 ms
ping_10 | 64 bytes from 99.24.18.25: seq=73 ttl=50 time=80.323 ms
ping_4  | 64 bytes from 99.24.18.25: seq=74 ttl=50 time=80.439 ms
ping_8  | 64 bytes from 99.24.18.25: seq=71 ttl=50 time=79.882 ms
ping_1  | 64 bytes from 99.24.18.25: seq=80 ttl=50 time=80.170 ms
ping_2  | 64 bytes from 99.24.18.25: seq=81 ttl=50 time=80.353 ms
ping_9  | 64 bytes from 99.24.18.25: seq=77 ttl=50 time=80.299 ms
ping_6  | 64 bytes from 99.24.18.25: seq=78 ttl=50 time=80.524 ms
ping_3  | 64 bytes from 99.24.18.25: seq=79 ttl=50 time=80.149 ms
ping_7  | 64 bytes from 99.24.18.25: seq=76 ttl=50 time=79.886 ms
ping_5  | 64 bytes from 99.24.18.25: seq=73 ttl=50 time=80.162 ms
ping_10 | 64 bytes from 99.24.18.25: seq=74 ttl=50 time=80.213 ms
ping_4  | 64 bytes from 99.24.18.25: seq=75 ttl=50 time=80.138 ms
ping_8  | 64 bytes from 99.24.18.25: seq=72 ttl=50 time=79.997 ms
ping_1  | 64 bytes from 99.24.18.25: seq=81 ttl=50 time=80.227 ms
ping_2  | 64 bytes from 99.24.18.25: seq=82 ttl=50 time=80.257 ms
ping_9  | 64 bytes from 99.24.18.25: seq=78 ttl=50 time=80.262 ms
ping_6  | 64 bytes from 99.24.18.25: seq=79 ttl=50 time=79.941 ms
ping_3  | 64 bytes from 99.24.18.25: seq=80 ttl=50 time=79.863 ms
ping_7  | 64 bytes from 99.24.18.25: seq=77 ttl=50 time=79.855 ms
ping_5  | 64 bytes from 99.24.18.25: seq=74 ttl=50 time=80.109 ms
ping_10 | 64 bytes from 99.24.18.25: seq=75 ttl=50 time=80.294 ms
ping_4  | 64 bytes from 99.24.18.25: seq=76 ttl=50 time=80.429 ms
ping_8  | 64 bytes from 99.24.18.25: seq=73 ttl=50 time=81.063 ms
ping_1  | 64 bytes from 99.24.18.25: seq=82 ttl=50 time=80.406 ms
ping_2  | 64 bytes from 99.24.18.25: seq=83 ttl=50 time=80.341 ms
ping_9  | 64 bytes from 99.24.18.25: seq=79 ttl=50 time=80.509 ms
ping_6  | 64 bytes from 99.24.18.25: seq=80 ttl=50 time=79.974 ms
ping_3  | 64 bytes from 99.24.18.25: seq=81 ttl=50 time=79.903 ms
ping_7  | 64 bytes from 99.24.18.25: seq=78 ttl=50 time=80.154 ms
ping_5  | 64 bytes from 99.24.18.25: seq=75 ttl=50 time=80.430 ms
ping_10 | 64 bytes from 99.24.18.25: seq=76 ttl=50 time=80.139 ms
ping_4  | 64 bytes from 99.24.18.25: seq=77 ttl=50 time=80.142 ms
ping_8  | 64 bytes from 99.24.18.25: seq=74 ttl=50 time=80.449 ms
ping_1  | 64 bytes from 99.24.18.25: seq=83 ttl=50 time=81.018 ms
ping_2  | 64 bytes from 99.24.18.25: seq=84 ttl=50 time=80.412 ms
ping_9  | 64 bytes from 99.24.18.25: seq=80 ttl=50 time=80.224 ms
ping_6  | 64 bytes from 99.24.18.25: seq=81 ttl=50 time=80.671 ms
ping_3  | 64 bytes from 99.24.18.25: seq=82 ttl=50 time=80.388 ms
ping_7  | 64 bytes from 99.24.18.25: seq=79 ttl=50 time=80.493 ms
ping_5  | 64 bytes from 99.24.18.25: seq=76 ttl=50 time=80.386 ms
ping_10 | 64 bytes from 99.24.18.25: seq=77 ttl=50 time=79.987 ms
ping_4  | 64 bytes from 99.24.18.25: seq=78 ttl=50 time=79.991 ms
ping_8  | 64 bytes from 99.24.18.25: seq=75 ttl=50 time=79.968 ms
ping_1  | 64 bytes from 99.24.18.25: seq=84 ttl=50 time=80.706 ms
ping_2  | 64 bytes from 99.24.18.25: seq=85 ttl=50 time=80.605 ms
ping_9  | 64 bytes from 99.24.18.25: seq=81 ttl=50 time=79.961 ms
ping_6  | 64 bytes from 99.24.18.25: seq=82 ttl=50 time=79.860 ms
ping_3  | 64 bytes from 99.24.18.25: seq=83 ttl=50 time=80.000 ms
ping_7  | 64 bytes from 99.24.18.25: seq=80 ttl=50 time=80.105 ms
ping_5  | 64 bytes from 99.24.18.25: seq=77 ttl=50 time=80.256 ms
ping_10 | 64 bytes from 99.24.18.25: seq=78 ttl=50 time=80.138 ms
ping_4  | 64 bytes from 99.24.18.25: seq=79 ttl=50 time=80.353 ms
ping_8  | 64 bytes from 99.24.18.25: seq=76 ttl=50 time=80.176 ms
ping_1  | 64 bytes from 99.24.18.25: seq=85 ttl=50 time=80.326 ms
ping_2  | 64 bytes from 99.24.18.25: seq=86 ttl=50 time=80.573 ms
ping_9  | 64 bytes from 99.24.18.25: seq=82 ttl=50 time=80.220 ms
ping_6  | 64 bytes from 99.24.18.25: seq=83 ttl=50 time=80.558 ms
ping_3  | 64 bytes from 99.24.18.25: seq=84 ttl=50 time=79.993 ms
ping_7  | 64 bytes from 99.24.18.25: seq=81 ttl=50 time=79.888 ms
ping_5  | 64 bytes from 99.24.18.25: seq=78 ttl=50 time=82.327 ms
ping_10 | 64 bytes from 99.24.18.25: seq=79 ttl=50 time=81.994 ms
ping_4  | 64 bytes from 99.24.18.25: seq=80 ttl=50 time=80.468 ms
ping_8  | 64 bytes from 99.24.18.25: seq=77 ttl=50 time=80.275 ms
ping_1  | 64 bytes from 99.24.18.25: seq=86 ttl=50 time=80.407 ms
ping_2  | 64 bytes from 99.24.18.25: seq=87 ttl=50 time=80.452 ms
ping_9  | 64 bytes from 99.24.18.25: seq=83 ttl=50 time=80.552 ms
ping_6  | 64 bytes from 99.24.18.25: seq=84 ttl=50 time=80.291 ms
ping_3  | 64 bytes from 99.24.18.25: seq=85 ttl=50 time=80.320 ms
ping_7  | 64 bytes from 99.24.18.25: seq=82 ttl=50 time=80.290 ms
ping_5  | 64 bytes from 99.24.18.25: seq=79 ttl=50 time=80.205 ms
ping_10 | 64 bytes from 99.24.18.25: seq=80 ttl=50 time=80.138 ms
ping_4  | 64 bytes from 99.24.18.25: seq=81 ttl=50 time=80.254 ms
ping_8  | 64 bytes from 99.24.18.25: seq=78 ttl=50 time=80.151 ms
ping_1  | 64 bytes from 99.24.18.25: seq=87 ttl=50 time=80.436 ms
ping_2  | 64 bytes from 99.24.18.25: seq=88 ttl=50 time=79.976 ms
ping_9  | 64 bytes from 99.24.18.25: seq=84 ttl=50 time=80.236 ms
ping_6  | 64 bytes from 99.24.18.25: seq=85 ttl=50 time=80.493 ms
ping_3  | 64 bytes from 99.24.18.25: seq=86 ttl=50 time=80.226 ms
ping_7  | 64 bytes from 99.24.18.25: seq=83 ttl=50 time=80.321 ms
ping_5  | 64 bytes from 99.24.18.25: seq=80 ttl=50 time=80.310 ms
ping_10 | 64 bytes from 99.24.18.25: seq=81 ttl=50 time=80.300 ms
ping_4  | 64 bytes from 99.24.18.25: seq=82 ttl=50 time=80.218 ms
ping_8  | 64 bytes from 99.24.18.25: seq=79 ttl=50 time=80.303 ms
ping_1  | 64 bytes from 99.24.18.25: seq=88 ttl=50 time=80.366 ms
ping_2  | 64 bytes from 99.24.18.25: seq=89 ttl=50 time=80.341 ms
ping_9  | 64 bytes from 99.24.18.25: seq=85 ttl=50 time=79.982 ms
ping_6  | 64 bytes from 99.24.18.25: seq=86 ttl=50 time=79.962 ms
ping_3  | 64 bytes from 99.24.18.25: seq=87 ttl=50 time=80.059 ms
ping_7  | 64 bytes from 99.24.18.25: seq=84 ttl=50 time=80.407 ms
ping_5  | 64 bytes from 99.24.18.25: seq=81 ttl=50 time=80.310 ms
ping_10 | 64 bytes from 99.24.18.25: seq=82 ttl=50 time=79.937 ms
ping_4  | 64 bytes from 99.24.18.25: seq=83 ttl=50 time=80.413 ms
ping_8  | 64 bytes from 99.24.18.25: seq=80 ttl=50 time=80.367 ms
ping_1  | 64 bytes from 99.24.18.25: seq=89 ttl=50 time=80.518 ms
ping_2  | 64 bytes from 99.24.18.25: seq=90 ttl=50 time=80.392 ms
ping_9  | 64 bytes from 99.24.18.25: seq=86 ttl=50 time=80.359 ms
ping_6  | 64 bytes from 99.24.18.25: seq=87 ttl=50 time=80.855 ms
ping_3  | 64 bytes from 99.24.18.25: seq=88 ttl=50 time=80.235 ms
ping_7  | 64 bytes from 99.24.18.25: seq=85 ttl=50 time=80.365 ms
ping_5  | 64 bytes from 99.24.18.25: seq=82 ttl=50 time=80.280 ms
ping_10 | 64 bytes from 99.24.18.25: seq=83 ttl=50 time=80.314 ms
ping_4  | 64 bytes from 99.24.18.25: seq=84 ttl=50 time=80.326 ms
ping_8  | 64 bytes from 99.24.18.25: seq=81 ttl=50 time=80.466 ms
ping_1  | 64 bytes from 99.24.18.25: seq=90 ttl=50 time=80.737 ms
ping_2  | 64 bytes from 99.24.18.25: seq=91 ttl=50 time=79.906 ms
ping_9  | 64 bytes from 99.24.18.25: seq=87 ttl=50 time=81.957 ms
ping_6  | 64 bytes from 99.24.18.25: seq=88 ttl=50 time=80.167 ms
ping_3  | 64 bytes from 99.24.18.25: seq=89 ttl=50 time=80.292 ms
ping_7  | 64 bytes from 99.24.18.25: seq=86 ttl=50 time=79.939 ms
ping_5  | 64 bytes from 99.24.18.25: seq=83 ttl=50 time=79.903 ms
ping_10 | 64 bytes from 99.24.18.25: seq=84 ttl=50 time=79.920 ms
ping_4  | 64 bytes from 99.24.18.25: seq=85 ttl=50 time=80.238 ms
ping_8  | 64 bytes from 99.24.18.25: seq=82 ttl=50 time=80.044 ms
ping_1  | 64 bytes from 99.24.18.25: seq=91 ttl=50 time=79.930 ms
ping_2  | 64 bytes from 99.24.18.25: seq=92 ttl=50 time=81.038 ms
ping_9  | 64 bytes from 99.24.18.25: seq=88 ttl=50 time=80.371 ms
ping_6  | 64 bytes from 99.24.18.25: seq=89 ttl=50 time=80.288 ms
ping_3  | 64 bytes from 99.24.18.25: seq=90 ttl=50 time=80.768 ms
ping_7  | 64 bytes from 99.24.18.25: seq=87 ttl=50 time=82.108 ms
ping_5  | 64 bytes from 99.24.18.25: seq=84 ttl=50 time=79.996 ms
ping_10 | 64 bytes from 99.24.18.25: seq=85 ttl=50 time=79.989 ms
ping_4  | 64 bytes from 99.24.18.25: seq=86 ttl=50 time=79.973 ms
ping_8  | 64 bytes from 99.24.18.25: seq=83 ttl=50 time=79.961 ms
ping_1  | 64 bytes from 99.24.18.25: seq=92 ttl=50 time=80.349 ms
ping_2  | 64 bytes from 99.24.18.25: seq=93 ttl=50 time=80.318 ms
ping_9  | 64 bytes from 99.24.18.25: seq=89 ttl=50 time=80.468 ms
ping_6  | 64 bytes from 99.24.18.25: seq=90 ttl=50 time=79.960 ms
ping_3  | 64 bytes from 99.24.18.25: seq=91 ttl=50 time=79.903 ms
ping_7  | 64 bytes from 99.24.18.25: seq=88 ttl=50 time=80.184 ms
ping_5  | 64 bytes from 99.24.18.25: seq=85 ttl=50 time=80.082 ms
ping_10 | 64 bytes from 99.24.18.25: seq=86 ttl=50 time=80.338 ms
ping_4  | 64 bytes from 99.24.18.25: seq=87 ttl=50 time=79.989 ms
ping_8  | 64 bytes from 99.24.18.25: seq=84 ttl=50 time=80.180 ms
ping_1  | 64 bytes from 99.24.18.25: seq=93 ttl=50 time=80.562 ms
ping_2  | 64 bytes from 99.24.18.25: seq=94 ttl=50 time=80.903 ms
ping_9  | 64 bytes from 99.24.18.25: seq=90 ttl=50 time=80.784 ms
ping_6  | 64 bytes from 99.24.18.25: seq=91 ttl=50 time=80.509 ms
ping_3  | 64 bytes from 99.24.18.25: seq=92 ttl=50 time=79.986 ms
ping_7  | 64 bytes from 99.24.18.25: seq=89 ttl=50 time=80.286 ms
ping_5  | 64 bytes from 99.24.18.25: seq=86 ttl=50 time=80.093 ms
ping_10 | 64 bytes from 99.24.18.25: seq=87 ttl=50 time=80.246 ms
ping_4  | 64 bytes from 99.24.18.25: seq=88 ttl=50 time=80.065 ms
ping_8  | 64 bytes from 99.24.18.25: seq=85 ttl=50 time=80.551 ms
ping_1  | 64 bytes from 99.24.18.25: seq=94 ttl=50 time=80.719 ms
ping_2  | 64 bytes from 99.24.18.25: seq=95 ttl=50 time=80.311 ms
ping_9  | 64 bytes from 99.24.18.25: seq=91 ttl=50 time=80.302 ms
ping_6  | 64 bytes from 99.24.18.25: seq=92 ttl=50 time=80.442 ms
ping_3  | 64 bytes from 99.24.18.25: seq=93 ttl=50 time=80.396 ms
ping_7  | 64 bytes from 99.24.18.25: seq=90 ttl=50 time=80.355 ms
ping_5  | 64 bytes from 99.24.18.25: seq=87 ttl=50 time=79.941 ms
ping_10 | 64 bytes from 99.24.18.25: seq=88 ttl=50 time=79.923 ms
ping_4  | 64 bytes from 99.24.18.25: seq=89 ttl=50 time=80.261 ms
ping_8  | 64 bytes from 99.24.18.25: seq=86 ttl=50 time=80.444 ms
ping_1  | 64 bytes from 99.24.18.25: seq=95 ttl=50 time=80.253 ms
ping_2  | 64 bytes from 99.24.18.25: seq=96 ttl=50 time=80.426 ms
ping_9  | 64 bytes from 99.24.18.25: seq=92 ttl=50 time=80.272 ms
ping_6  | 64 bytes from 99.24.18.25: seq=93 ttl=50 time=80.597 ms
ping_3  | 64 bytes from 99.24.18.25: seq=94 ttl=50 time=79.997 ms
ping_7  | 64 bytes from 99.24.18.25: seq=91 ttl=50 time=79.973 ms
ping_5  | 64 bytes from 99.24.18.25: seq=88 ttl=50 time=80.230 ms
ping_10 | 64 bytes from 99.24.18.25: seq=89 ttl=50 time=80.098 ms
ping_4  | 64 bytes from 99.24.18.25: seq=90 ttl=50 time=80.297 ms
ping_8  | 64 bytes from 99.24.18.25: seq=87 ttl=50 time=80.950 ms
ping_1  | 64 bytes from 99.24.18.25: seq=96 ttl=50 time=80.546 ms
ping_2  | 64 bytes from 99.24.18.25: seq=97 ttl=50 time=80.370 ms
ping_9  | 64 bytes from 99.24.18.25: seq=93 ttl=50 time=80.234 ms
ping_6  | 64 bytes from 99.24.18.25: seq=94 ttl=50 time=80.284 ms
ping_3  | 64 bytes from 99.24.18.25: seq=95 ttl=50 time=80.254 ms
ping_7  | 64 bytes from 99.24.18.25: seq=92 ttl=50 time=80.529 ms
ping_5  | 64 bytes from 99.24.18.25: seq=89 ttl=50 time=80.037 ms
ping_10 | 64 bytes from 99.24.18.25: seq=90 ttl=50 time=80.021 ms
ping_4  | 64 bytes from 99.24.18.25: seq=91 ttl=50 time=80.627 ms
ping_8  | 64 bytes from 99.24.18.25: seq=88 ttl=50 time=80.206 ms
ping_1  | 64 bytes from 99.24.18.25: seq=97 ttl=50 time=80.544 ms
ping_2  | 64 bytes from 99.24.18.25: seq=98 ttl=50 time=80.374 ms
ping_9  | 64 bytes from 99.24.18.25: seq=94 ttl=50 time=80.332 ms
ping_6  | 64 bytes from 99.24.18.25: seq=95 ttl=50 time=80.189 ms
ping_3  | 64 bytes from 99.24.18.25: seq=96 ttl=50 time=80.123 ms
ping_7  | 64 bytes from 99.24.18.25: seq=93 ttl=50 time=80.047 ms
ping_5  | 64 bytes from 99.24.18.25: seq=90 ttl=50 time=79.940 ms
ping_10 | 64 bytes from 99.24.18.25: seq=91 ttl=50 time=80.205 ms
ping_4  | 64 bytes from 99.24.18.25: seq=92 ttl=50 time=80.419 ms
ping_8  | 64 bytes from 99.24.18.25: seq=89 ttl=50 time=80.355 ms
ping_1  | 64 bytes from 99.24.18.25: seq=98 ttl=50 time=80.860 ms
ping_2  | 64 bytes from 99.24.18.25: seq=99 ttl=50 time=80.272 ms
ping_2  | 
ping_2  | --- nyc.speedtest.sbcglobal.net ping statistics ---
ping_2  | 100 packets transmitted, 100 packets received, 0% packet loss
ping_2  | round-trip min/avg/max = 79.764/81.293/93.377 ms
ping_9  | 64 bytes from 99.24.18.25: seq=95 ttl=50 time=81.213 ms
ping_6  | 64 bytes from 99.24.18.25: seq=96 ttl=50 time=79.895 ms
ping_3  | 64 bytes from 99.24.18.25: seq=97 ttl=50 time=80.017 ms
softwareoverhead_ping_2 exited with code 0
ping_7  | 64 bytes from 99.24.18.25: seq=94 ttl=50 time=79.755 ms
ping_5  | 64 bytes from 99.24.18.25: seq=91 ttl=50 time=79.988 ms
ping_10 | 64 bytes from 99.24.18.25: seq=92 ttl=50 time=80.273 ms
ping_4  | 64 bytes from 99.24.18.25: seq=93 ttl=50 time=80.383 ms
ping_8  | 64 bytes from 99.24.18.25: seq=90 ttl=50 time=80.278 ms
ping_1  | 64 bytes from 99.24.18.25: seq=99 ttl=50 time=82.648 ms
ping_1  | 
ping_1  | --- nyc.speedtest.sbcglobal.net ping statistics ---
ping_1  | 100 packets transmitted, 100 packets received, 0% packet loss
ping_1  | round-trip min/avg/max = 79.723/81.586/93.204 ms
ping_9  | 64 bytes from 99.24.18.25: seq=96 ttl=50 time=79.811 ms
ping_6  | 64 bytes from 99.24.18.25: seq=97 ttl=50 time=80.247 ms
ping_3  | 64 bytes from 99.24.18.25: seq=98 ttl=50 time=80.185 ms
softwareoverhead_ping_1 exited with code 0
ping_7  | 64 bytes from 99.24.18.25: seq=95 ttl=50 time=80.247 ms
ping_5  | 64 bytes from 99.24.18.25: seq=92 ttl=50 time=79.878 ms
ping_10 | 64 bytes from 99.24.18.25: seq=93 ttl=50 time=81.246 ms
ping_4  | 64 bytes from 99.24.18.25: seq=94 ttl=50 time=80.154 ms
ping_8  | 64 bytes from 99.24.18.25: seq=91 ttl=50 time=80.252 ms
ping_9  | 64 bytes from 99.24.18.25: seq=97 ttl=50 time=80.340 ms
ping_6  | 64 bytes from 99.24.18.25: seq=98 ttl=50 time=80.095 ms
ping_3  | 64 bytes from 99.24.18.25: seq=99 ttl=50 time=80.120 ms
ping_3  | 
ping_3  | --- nyc.speedtest.sbcglobal.net ping statistics ---
ping_3  | 100 packets transmitted, 100 packets received, 0% packet loss
ping_3  | round-trip min/avg/max = 79.738/80.983/92.646 ms
ping_7  | 64 bytes from 99.24.18.25: seq=96 ttl=50 time=79.884 ms
ping_5  | 64 bytes from 99.24.18.25: seq=93 ttl=50 time=79.845 ms
ping_10 | 64 bytes from 99.24.18.25: seq=94 ttl=50 time=80.009 ms
ping_4  | 64 bytes from 99.24.18.25: seq=95 ttl=50 time=80.209 ms
ping_8  | 64 bytes from 99.24.18.25: seq=92 ttl=50 time=80.256 ms
softwareoverhead_ping_3 exited with code 0
ping_9  | 64 bytes from 99.24.18.25: seq=98 ttl=50 time=80.883 ms
ping_6  | 64 bytes from 99.24.18.25: seq=99 ttl=50 time=80.352 ms
ping_6  | 
ping_6  | --- nyc.speedtest.sbcglobal.net ping statistics ---
ping_6  | 100 packets transmitted, 100 packets received, 0% packet loss
ping_6  | round-trip min/avg/max = 79.764/81.212/92.215 ms
ping_7  | 64 bytes from 99.24.18.25: seq=97 ttl=50 time=80.387 ms
ping_5  | 64 bytes from 99.24.18.25: seq=94 ttl=50 time=80.297 ms
ping_10 | 64 bytes from 99.24.18.25: seq=95 ttl=50 time=79.814 ms
ping_4  | 64 bytes from 99.24.18.25: seq=96 ttl=50 time=80.001 ms
ping_8  | 64 bytes from 99.24.18.25: seq=93 ttl=50 time=80.126 ms
softwareoverhead_ping_6 exited with code 0
ping_9  | 64 bytes from 99.24.18.25: seq=99 ttl=50 time=79.981 ms
ping_9  | 
ping_9  | --- nyc.speedtest.sbcglobal.net ping statistics ---
ping_9  | 100 packets transmitted, 100 packets received, 0% packet loss
ping_9  | round-trip min/avg/max = 79.786/81.168/91.086 ms
ping_7  | 64 bytes from 99.24.18.25: seq=98 ttl=50 time=79.840 ms
ping_5  | 64 bytes from 99.24.18.25: seq=95 ttl=50 time=79.749 ms
ping_10 | 64 bytes from 99.24.18.25: seq=96 ttl=50 time=79.734 ms
ping_4  | 64 bytes from 99.24.18.25: seq=97 ttl=50 time=80.181 ms
ping_8  | 64 bytes from 99.24.18.25: seq=94 ttl=50 time=79.870 ms
softwareoverhead_ping_9 exited with code 0
ping_7  | 64 bytes from 99.24.18.25: seq=99 ttl=50 time=80.217 ms
ping_7  | 
ping_7  | --- nyc.speedtest.sbcglobal.net ping statistics ---
ping_7  | 100 packets transmitted, 100 packets received, 0% packet loss
ping_7  | round-trip min/avg/max = 79.755/81.061/91.881 ms
ping_5  | 64 bytes from 99.24.18.25: seq=96 ttl=50 time=79.877 ms
ping_10 | 64 bytes from 99.24.18.25: seq=97 ttl=50 time=79.833 ms
ping_4  | 64 bytes from 99.24.18.25: seq=98 ttl=50 time=79.916 ms
ping_8  | 64 bytes from 99.24.18.25: seq=95 ttl=50 time=79.868 ms
softwareoverhead_ping_7 exited with code 0
ping_5  | 64 bytes from 99.24.18.25: seq=97 ttl=50 time=80.262 ms
ping_10 | 64 bytes from 99.24.18.25: seq=98 ttl=50 time=80.243 ms
ping_4  | 64 bytes from 99.24.18.25: seq=99 ttl=50 time=80.380 ms
ping_4  | 
ping_4  | --- nyc.speedtest.sbcglobal.net ping statistics ---
ping_4  | 100 packets transmitted, 100 packets received, 0% packet loss
ping_4  | round-trip min/avg/max = 79.811/81.111/92.209 ms
ping_8  | 64 bytes from 99.24.18.25: seq=96 ttl=50 time=80.270 ms
softwareoverhead_ping_4 exited with code 0
ping_5  | 64 bytes from 99.24.18.25: seq=98 ttl=50 time=80.557 ms
ping_10 | 64 bytes from 99.24.18.25: seq=99 ttl=50 time=80.755 ms
ping_10 | 
ping_10 | --- nyc.speedtest.sbcglobal.net ping statistics ---
ping_10 | 100 packets transmitted, 100 packets received, 0% packet loss
ping_10 | round-trip min/avg/max = 79.734/81.204/93.397 ms
ping_8  | 64 bytes from 99.24.18.25: seq=97 ttl=50 time=80.122 ms
softwareoverhead_ping_10 exited with code 0
ping_5  | 64 bytes from 99.24.18.25: seq=99 ttl=50 time=79.975 ms
ping_5  | 
ping_5  | --- nyc.speedtest.sbcglobal.net ping statistics ---
ping_5  | 100 packets transmitted, 100 packets received, 0% packet loss
ping_5  | round-trip min/avg/max = 79.749/81.214/96.347 ms
ping_8  | 64 bytes from 99.24.18.25: seq=98 ttl=50 time=80.443 ms
softwareoverhead_ping_5 exited with code 0
ping_8  | 64 bytes from 99.24.18.25: seq=99 ttl=50 time=80.355 ms
ping_8  | 
ping_8  | --- nyc.speedtest.sbcglobal.net ping statistics ---
ping_8  | 100 packets transmitted, 100 packets received, 0% packet loss
ping_8  | round-trip min/avg/max = 79.868/81.071/92.598 ms
softwareoverhead_ping_8 exited with code 0
