     1	1338212 
     2	1338212 
     3	1338212 
     4	1409956 
     5	1409956 
     6	1409956 
     7	3444808 
     8	3444808 
     9	3444808 
    10	5041328 
    11	5041328 
    12	5041328 
    13	5406028 
    14	5406028 
    15	5406028 
    16	5529904 
    17	5529904 
    18	5529904 
    19	5500256 
    20	5500256 
    21	5500256 
    22	5440324 
    23	5440324 
    24	5440324 
    25	5452856 
    26	5452856 
    27	5452856 
    28	5373952 
    29	5373952 
    30	5373952 
    31	5143284 
    32	5143284 
    33	5143284 
    34	4395076 
    35	4395076 
    36	4395076 
    37	3845804 
    38	3845804 
    39	3845804 
    40	3269928 
    41	3269928 
    42	3269928 
    43	2718576 
    44	2718576 
    45	2718576 
    46	2088904 
    47	2088904 
    48	2088904 
    49	1572932 
    50	1572932 
    51	1572932 
    52	1581820 
    53	1581820 
    54	1887668 
    55	1887668 
    56	1887668 
    57	2661424 
    58	2661424 
    59	2661424 
    60	3727032 
    61	3727032 
    62	3727032 
    63	5269372 
    64	5269372 
    65	5269372 
    66	5557944 
    67	5557944 
    68	5547792 
    69	5547792 
    70	5547792 
    71	5633512 
    72	5633512 
    73	5633512 
    74	5525484 
    75	5525484 
    76	5525484 
    77	5507088 
    78	5507088 
    79	5507088 
    80	5530476 
    81	5530476 
    82	5530476 
    83	5043676 
    84	5043676 
    85	5043676 
    86	4556632 
    87	4556632 
    88	4335040 
    89	4335040 
    90	4335040 
    91	3687392 
    92	3687392 
    93	3687392 
    94	3041776 
    95	3041776 
    96	3041776 
    97	2631140 
    98	2631140 
    99	2631140 
   100	2344012 
   101	2344012 
   102	2344012 
   103	1987368 
   104	1987368 
   105	1987368 
   106	1645572 
   107	1645572 
   108	1645572 
   109	1458612 
   110	1458612 
   111	1458612 
   112	1437264 
