top - 22:17:51 up 29 min,  1 user,  load average: 0.26, 0.17, 0.22
Tasks: 295 total,   1 running, 225 sleeping,   0 stopped,   0 zombie
%Cpu(s):  3.6 us,  0.9 sy,  0.2 ni, 95.2 id,  0.1 wa,  0.0 hi,  0.0 si,  0.0 st
KiB Mem : 16278772 total, 12424876 free,  1253424 used,  2600472 buff/cache
KiB Swap: 16630780 total, 16630780 free,        0 used. 14575276 avail Mem 

  PID USER      PR  NI    VIRT    RES    SHR S  %CPU %MEM     TIME+ COMMAND
 3083 kenenth   20   0 3610556 265488  96232 S  12.5  1.6   1:12.11 gnome-shell
 2691 root      20   0  434320  94612  61648 S   6.2  0.6   0:27.11 Xorg
 3102 kenenth   20   0  354512   7888   6440 S   6.2  0.0   0:03.20 ibus-daemon
25188 kenenth   20   0   41908   3804   3204 R   6.2  0.0   0:00.02 top

top - 22:17:52 up 29 min,  1 user,  load average: 0.26, 0.17, 0.22
Tasks: 296 total,   2 running, 225 sleeping,   0 stopped,   0 zombie
%Cpu(s):  2.4 us,  0.6 sy,  0.0 ni, 97.0 id,  0.0 wa,  0.0 hi,  0.0 si,  0.0 st
KiB Mem : 16278772 total, 12424876 free,  1253424 used,  2600472 buff/cache
KiB Swap: 16630780 total, 16630780 free,        0 used. 14575276 avail Mem 

  PID USER      PR  NI    VIRT    RES    SHR S  %CPU %MEM     TIME+ COMMAND
25190 kenenth   20   0   10188   3040   1560 S  10.8  0.0   0:00.11 docker-com+
25191 kenenth   20   0   91640  18764   8540 R   5.9  0.1   0:00.06 docker-com+
 1054 root      20   0 1851044  42384  23900 S   1.0  0.3   0:06.09 containerd
 2692 root     -51   0       0      0      0 S   1.0  0.0   0:03.20 irq/135-nv+
 3083 kenenth   20   0 3610556 265488  96232 S   1.0  1.6   1:12.12 gnome-shell
25188 kenenth   20   0   41908   3804   3204 R   1.0  0.0   0:00.03 top

top - 22:17:53 up 29 min,  1 user,  load average: 0.26, 0.17, 0.22
Tasks: 333 total,   6 running, 252 sleeping,   0 stopped,   6 zombie
%Cpu(s): 30.2 us, 13.0 sy,  0.0 ni, 55.1 id,  1.6 wa,  0.0 hi,  0.0 si,  0.0 st
KiB Mem : 16278772 total, 12424876 free,  1253424 used,  2600472 buff/cache
KiB Swap: 16630780 total, 16630780 free,        0 used. 14575276 avail Mem 

  PID USER      PR  NI    VIRT    RES    SHR S  %CPU %MEM     TIME+ COMMAND
25191 kenenth   20   0  779504  27944   8952 S  39.6  0.2   0:00.46 docker-com+
 3167 kenenth   20   0  299456   8540   7036 R  33.7  0.1   0:02.11 gvfs-udisk+
 1669 root      20   0 2201920  86400  39332 S  29.7  0.5   0:03.86 dockerd
  907 message+  20   0   51676   6188   3884 S  18.8  0.0   0:02.98 dbus-daemon
    1 root      20   0  225872   9520   6604 R  15.8  0.1   0:04.00 systemd
 1155 gdm       20   0   77280   8260   6580 S  12.9  0.1   0:00.71 systemd
 1202 gdm       20   0 3332928 118896  66404 S  10.9  0.7   0:05.48 gnome-shell
 2671 kenenth   20   0   77308   8296   6584 S  10.9  0.1   0:00.88 systemd
 3235 kenenth   20   0  357736   7468   6524 S  10.9  0.0   0:00.66 gsd-housek+
  946 root      20   0  559708  18164  13708 S   6.9  0.1   0:02.61 NetworkMan+
 3083 kenenth   20   0 3610556 265488  96232 S   6.9  1.6   1:12.19 gnome-shell
25471 root      20   0  547468  61172  35656 S   5.9  0.4   0:00.06 exe
 3324 kenenth   20   0  361252   7636   6324 S   5.0  0.0   0:00.28 gvfsd-trash
25263 root      20   0  694932  61552  35876 S   5.0  0.4   0:00.05 exe
25387 root      20   0  925352  62760  37496 S   5.0  0.4   0:00.05 exe
  323 root      20   0   46280   4684   3172 S   4.0  0.0   0:01.14 systemd-ud+
 3196 kenenth   20   0  446264  10396   7936 S   4.0  0.1   0:00.86 gsd-sharing
25355 root      20   0  548524  62248  35768 S   4.0  0.4   0:00.04 exe
25356 root      20   0  851364  62452  37308 S   4.0  0.4   0:00.04 exe
  948 root      20   0   70696   6152   5344 S   3.0  0.0   0:00.38 systemd-lo+
 1054 root      20   0 1851044  42384  23900 S   3.0  0.3   0:06.12 containerd
25502 root      20   0  398568  15396   9760 S   3.0  0.1   0:00.03 runc
  891 root      20   0  503160  10876   8704 S   2.0  0.1   0:00.18 udisksd
  950 root      20   0 1170148  33400  18032 S   2.0  0.2   0:04.17 snapd
 3133 kenenth   20   0  767332  31036  25592 S   2.0  0.2   0:00.15 goa-daemon
 3387 kenenth   20   0 1010164  26844  23452 S   2.0  0.2   0:00.17 evolution-+
25233 root      20   0  397512  15012   9524 S   2.0  0.1   0:00.02 runc
25248 root      20   0  321060  11108   7068 S   2.0  0.1   0:00.02 runc:[2:IN+
25299 root      20   0  397160  15124   9624 S   2.0  0.1   0:00.02 runc
25321 root      20   0  321316  11516   7216 S   2.0  0.1   0:00.02 runc:[2:IN+
25420 root      20   0  396104  14996   9544 S   2.0  0.1   0:00.02 runc
25461 root      20   0  321060  11200   6924 S   2.0  0.1   0:00.02 runc:[2:IN+
25563 root      20   0  397512  14564   9552 S   2.0  0.1   0:00.02 runc
    8 root      20   0       0      0      0 I   1.0  0.0   0:00.82 rcu_sched
  256 root      20   0       0      0      0 S   1.0  0.0   0:00.23 jbd2/nvme0+
  299 root      19  -1  177164  33248  32048 S   1.0  0.2   0:00.70 systemd-jo+
  310 root       0 -20       0      0      0 I   1.0  0.0   0:00.01 kworker/7:+
  884 root      20   0  427264   9188   7828 S   1.0  0.1   0:00.07 ModemManag+
  976 root      20   0  296428   9968   6552 S   1.0  0.1   0:00.53 polkitd
 1401 root      20   0  289760   6780   6040 S   1.0  0.0   0:00.18 boltd
 1409 root      20   0  441028  36616  12808 S   1.0  0.2   0:24.22 packagekitd
 2691 root      20   0  434320  94612  61648 S   1.0  0.6   0:27.12 Xorg
 6922 kenenth   20   0 1391032 173972  38356 S   1.0  1.1   0:09.25 gnome-soft+
20771 kenenth   20   0  780684  31600  26056 S   1.0  0.2   0:00.14 deja-dup-m+
22203 root      20   0  305708  11396   9848 S   1.0  0.1   0:00.10 cups-brows+
23707 root      20   0       0      0      0 I   1.0  0.0   0:00.25 kworker/u1+
25188 kenenth   20   0   41908   3804   3204 R   1.0  0.0   0:00.04 top
25530 root      20   0  321316  11440   7124 S   1.0  0.1   0:00.01 runc:[2:IN+
25571 root      20   0  395392  43752  23080 R   1.0  0.3   0:00.01 exe
25574 root      20   0       0      0      0 Z   1.0  0.0   0:00.01 runc:[0:PA+

top - 22:17:54 up 29 min,  1 user,  load average: 1.20, 0.37, 0.29
Tasks: 344 total,   1 running, 268 sleeping,   0 stopped,   6 zombie
%Cpu(s): 19.0 us,  8.8 sy,  0.0 ni, 72.0 id,  0.1 wa,  0.0 hi,  0.1 si,  0.0 st
KiB Mem : 16278772 total, 11898208 free,  1675460 used,  2705104 buff/cache
KiB Swap: 16630780 total, 16630780 free,        0 used. 14080768 avail Mem 

  PID USER      PR  NI    VIRT    RES    SHR S  %CPU %MEM     TIME+ COMMAND
 3167 kenenth   20   0  299456   8540   7036 S   8.8  0.1   0:02.20 gvfs-udisk+
  907 message+  20   0   51676   6188   3884 S   5.9  0.0   0:03.04 dbus-daemon
25589 root      20   0  851620  63096  37592 S   5.9  0.4   0:00.06 exe
25623 root      20   0  548524  61080  34968 S   5.9  0.4   0:00.06 exe
25775 root      20   0  925096  62720  37212 S   5.9  0.4   0:00.06 exe
 1669 root      20   0 2570580  86412  39332 S   4.9  0.5   0:03.91 dockerd
25248 root      20   0    1588      4      0 S   4.9  0.0   0:00.07 sh
25719 root      20   0  547468  60880  35524 S   4.9  0.4   0:00.05 exe
25782 root      20   0  547468  60520  35324 S   4.9  0.4   0:00.05 exe
25848 root      20   0  925096  62940  37800 S   4.9  0.4   0:00.05 exe
25870 root      20   0  851364  62280  37008 S   4.9  0.4   0:00.05 exe
 3083 kenenth   20   0 3610556 265552  96232 S   3.9  1.6   1:12.23 gnome-shell
25530 root      20   0    1588      4      0 S   3.9  0.0   0:00.05 sh
25778 root      20   0  547468  60892  35548 S   3.9  0.4   0:00.04 exe
25876 root      20   0  925608  62088  37072 S   3.9  0.4   0:00.04 exe
    1 root      20   0  225872   9520   6604 S   2.9  0.1   0:04.03 systemd
  323 root      20   0   46280   4684   3172 S   2.9  0.0   0:01.17 systemd-ud+
 1054 root      20   0 1851044  42384  23900 S   2.9  0.3   0:06.15 containerd
 1155 gdm       20   0   77280   8260   6580 S   2.9  0.1   0:00.74 systemd
 2671 kenenth   20   0   77308   8296   6584 S   2.9  0.1   0:00.91 systemd
25188 kenenth   20   0   41908   3804   3204 R   2.9  0.0   0:00.07 top
25605 root      20   0  471244  14896   9480 S   2.9  0.1   0:00.03 runc
25650 root      20   0  472300  15160   9512 S   2.9  0.1   0:00.03 runc
25693 root      20   0  471244  14756   9324 S   2.9  0.1   0:00.03 runc
  946 root      20   0  559708  18196  13708 S   2.0  0.1   0:02.63 NetworkMan+
 1202 gdm       20   0 3332928 118936  66404 S   2.0  0.7   0:05.50 gnome-shell
 3196 kenenth   20   0  446264  10396   7936 S   2.0  0.1   0:00.88 gsd-sharing
 3235 kenenth   20   0  357736   7468   6524 S   2.0  0.0   0:00.68 gsd-housek+
25721 root      20   0  321316  11296   6996 S   2.0  0.1   0:00.02 runc:[2:IN+
   28 root      20   0       0      0      0 S   1.0  0.0   0:00.06 ksoftirqd/3
  220 root       0 -20       0      0      0 I   1.0  0.0   0:00.06 kworker/u1+
  861 syslog    20   0  271460   5204   3752 S   1.0  0.0   0:00.20 rsyslogd
  891 root      20   0  503160  10876   8704 S   1.0  0.1   0:00.19 udisksd
  950 root      20   0 1170148  33400  18032 S   1.0  0.2   0:04.18 snapd
 1401 root      20   0  289760   6780   6040 S   1.0  0.0   0:00.19 boltd
 1665 whoopsie  20   0  462312  12940  11272 S   1.0  0.1   0:00.21 whoopsie
 2691 root      20   0  434320  94612  61648 S   1.0  0.6   0:27.13 Xorg
 3194 kenenth   20   0  416236   5928   5276 S   1.0  0.0   0:00.10 gsd-rfkill
 3365 kenenth   20   0 1128912  62188  23164 S   1.0  0.4   0:00.58 evolution-+
 3543 kenenth   20   0  426324   8992   7728 S   1.0  0.1   0:00.13 zeitgeist-+
23707 root      20   0       0      0      0 I   1.0  0.0   0:00.26 kworker/u1+
25191 kenenth   20   0  781648  28404   9236 S   1.0  0.2   0:00.47 docker-com+
25224 root      20   0   10604   5172   4060 S   1.0  0.0   0:00.01 containerd+
25387 root      20   0  925352  62760  37496 S   1.0  0.4   0:00.06 exe
25590 root      20   0  322724  11176   6920 S   1.0  0.1   0:00.01 runc:[2:IN+
25669 root      20   0  321316  11160   6856 S   1.0  0.1   0:00.01 runc:[2:IN+
25757 root      20   0  321316  11016   6924 S   1.0  0.1   0:00.01 runc:[2:IN+

top - 22:17:55 up 29 min,  1 user,  load average: 1.20, 0.37, 0.29
Tasks: 338 total,   1 running, 262 sleeping,   0 stopped,   4 zombie
%Cpu(s):  5.5 us,  2.3 sy,  0.0 ni, 91.9 id,  0.1 wa,  0.0 hi,  0.1 si,  0.0 st
KiB Mem : 16278772 total, 11898208 free,  1675460 used,  2705104 buff/cache
KiB Swap: 16630780 total, 16630780 free,        0 used. 14080768 avail Mem 

  PID USER      PR  NI    VIRT    RES    SHR S  %CPU %MEM     TIME+ COMMAND
25321 root      20   0    1588      4      0 S   4.9  0.0   0:00.07 sh
25590 root      20   0    1588      4      0 S   4.9  0.0   0:00.06 sh
  907 message+  20   0   51676   6188   3884 S   3.9  0.0   0:03.08 dbus-daemon
  946 root      20   0  559708  18196  13708 S   3.9  0.1   0:02.67 NetworkMan+
 3083 kenenth   20   0 3610556 265552  96232 S   3.9  1.6   1:12.27 gnome-shell
 1202 gdm       20   0 3332928 118936  66404 S   2.9  0.7   0:05.53 gnome-shell
25188 kenenth   20   0   41908   3804   3204 R   2.9  0.0   0:00.10 top
 1054 root      20   0 1851044  42384  23900 S   1.9  0.3   0:06.17 containerd
 1669 root      20   0 2570580  86424  39332 S   1.9  0.5   0:03.93 dockerd
 3196 kenenth   20   0  446264  10396   7936 S   1.9  0.1   0:00.90 gsd-sharing
   73 root      20   0       0      0      0 I   1.0  0.0   0:00.14 kworker/6:1
  299 root      19  -1  177164  33288  32084 S   1.0  0.2   0:00.71 systemd-jo+
  323 root      20   0   46280   4684   3172 S   1.0  0.0   0:01.18 systemd-ud+
  857 root      20   0  179856   9568   8756 S   1.0  0.1   0:00.36 thermald
  861 syslog    20   0  271460   5204   3752 S   1.0  0.0   0:00.21 rsyslogd
 1401 root      20   0  289760   6780   6040 S   1.0  0.0   0:00.20 boltd
 1409 root      20   0  441028  36616  12808 S   1.0  0.2   0:24.23 packagekitd
 3387 kenenth   20   0 1010164  26844  23452 S   1.0  0.2   0:00.18 evolution-+
 4031 kenenth   20   0  792420  37356  28140 S   1.0  0.2   0:04.12 gnome-term+
 6922 kenenth   20   0 1391032 173972  38356 S   1.0  1.1   0:09.26 gnome-soft+
20771 kenenth   20   0  780684  31600  26056 S   1.0  0.2   0:00.15 deja-dup-m+
22203 root      20   0  305708  11396   9848 S   1.0  0.1   0:00.11 cups-brows+
25191 kenenth   20   0  781648  28560   9236 S   1.0  0.2   0:00.48 docker-com+

top - 22:17:56 up 29 min,  1 user,  load average: 1.20, 0.37, 0.29
Tasks: 334 total,   1 running, 259 sleeping,   0 stopped,   3 zombie
%Cpu(s):  1.9 us,  1.2 sy,  0.0 ni, 96.9 id,  0.0 wa,  0.0 hi,  0.0 si,  0.0 st
KiB Mem : 16278772 total, 11898208 free,  1675460 used,  2705104 buff/cache
KiB Swap: 16630780 total, 16630780 free,        0 used. 14080768 avail Mem 

  PID USER      PR  NI    VIRT    RES    SHR S  %CPU %MEM     TIME+ COMMAND
25461 root      20   0    1588      4      0 S   3.9  0.0   0:00.06 sh
25188 kenenth   20   0   41908   3804   3204 R   1.9  0.0   0:00.12 top
25191 kenenth   20   0  773452  28684   9236 S   1.9  0.2   0:00.50 docker-com+
  323 root      20   0   46280   4684   3172 S   1.0  0.0   0:01.19 systemd-ud+
  881 avahi     20   0   47524   4068   3356 S   1.0  0.0   0:00.85 avahi-daem+
  907 message+  20   0   51676   6188   3884 S   1.0  0.0   0:03.09 dbus-daemon
  941 root      20   0   45148   8164   7188 S   1.0  0.1   0:00.09 wpa_suppli+
  950 root      20   0 1170148  33400  18032 S   1.0  0.2   0:04.19 snapd
 1054 root      20   0 1851044  42384  23900 S   1.0  0.3   0:06.18 containerd
 1202 gdm       20   0 3332928 118936  66404 S   1.0  0.7   0:05.54 gnome-shell
 1665 whoopsie  20   0  462312  12940  11272 S   1.0  0.1   0:00.22 whoopsie
 1669 root      20   0 2570580  86428  39332 S   1.0  0.5   0:03.94 dockerd
 2691 root      20   0  434320  94612  61648 S   1.0  0.6   0:27.14 Xorg
 3083 kenenth   20   0 3610556 265552  96232 S   1.0  1.6   1:12.28 gnome-shell
 3133 kenenth   20   0  767332  31036  25592 S   1.0  0.2   0:00.16 goa-daemon
25224 root      20   0   10604   5172   4060 S   1.0  0.0   0:00.02 containerd+

top - 22:17:57 up 30 min,  1 user,  load average: 1.20, 0.37, 0.29
Tasks: 330 total,   1 running, 256 sleeping,   0 stopped,   2 zombie
%Cpu(s):  2.1 us,  1.1 sy,  0.0 ni, 96.5 id,  0.1 wa,  0.0 hi,  0.1 si,  0.0 st
KiB Mem : 16278772 total, 12193252 free,  1428172 used,  2657348 buff/cache
KiB Swap: 16630780 total, 16630780 free,        0 used. 14376100 avail Mem 

  PID USER      PR  NI    VIRT    RES    SHR S  %CPU %MEM     TIME+ COMMAND
25669 root      20   0    1588      4      0 S   5.0  0.0   0:00.06 sh
  299 root      19  -1  177164  33340  32136 S   2.0  0.2   0:00.73 systemd-jo+
  674 systemd+  20   0   70748   6248   5496 S   2.0  0.0   0:00.31 systemd-re+
  946 root      20   0  559848  18196  13708 S   2.0  0.1   0:02.69 NetworkMan+
 1669 root      20   0 2570580  86440  39332 S   2.0  0.5   0:03.96 dockerd
 3083 kenenth   20   0 3610556 265552  96232 S   2.0  1.6   1:12.30 gnome-shell
25188 kenenth   20   0   41908   3804   3204 R   2.0  0.0   0:00.14 top
    8 root      20   0       0      0      0 I   1.0  0.0   0:00.83 rcu_sched
  424 root     -51   0       0      0      0 S   1.0  0.0   0:01.56 irq/138-iw+
  881 avahi     20   0   47524   4068   3356 S   1.0  0.0   0:00.86 avahi-daem+
  907 message+  20   0   51676   6188   3884 S   1.0  0.0   0:03.10 dbus-daemon
  941 root      20   0   45148   8164   7188 S   1.0  0.1   0:00.10 wpa_suppli+
 1054 root      20   0 1851044  42384  23900 S   1.0  0.3   0:06.19 containerd
 2691 root      20   0  434320  94612  61648 S   1.0  0.6   0:27.15 Xorg
 3365 kenenth   20   0 1128912  62188  23164 S   1.0  0.4   0:00.59 evolution-+
25191 kenenth   20   0  765256  28836   9236 S   1.0  0.2   0:00.51 docker-com+

top - 22:17:58 up 30 min,  1 user,  load average: 1.10, 0.36, 0.28
Tasks: 326 total,   1 running, 253 sleeping,   0 stopped,   1 zombie
%Cpu(s):  2.5 us,  1.4 sy,  0.0 ni, 96.2 id,  0.0 wa,  0.0 hi,  0.0 si,  0.0 st
KiB Mem : 16278772 total, 12193252 free,  1428172 used,  2657348 buff/cache
KiB Swap: 16630780 total, 16630780 free,        0 used. 14376100 avail Mem 

  PID USER      PR  NI    VIRT    RES    SHR S  %CPU %MEM     TIME+ COMMAND
25721 root      20   0    1588      4      0 S   4.9  0.0   0:00.07 sh
25188 kenenth   20   0   41908   3804   3204 R   3.9  0.0   0:00.18 top
  323 root      20   0   46280   4684   3172 S   1.0  0.0   0:01.20 systemd-ud+
  881 avahi     20   0   47524   4068   3356 S   1.0  0.0   0:00.87 avahi-daem+
  907 message+  20   0   51676   6188   3884 S   1.0  0.0   0:03.11 dbus-daemon
  946 root      20   0  559848  18196  13708 S   1.0  0.1   0:02.70 NetworkMan+
 1202 gdm       20   0 3332928 118936  66404 S   1.0  0.7   0:05.55 gnome-shell
 1409 root      20   0  441028  36616  12808 S   1.0  0.2   0:24.24 packagekitd
 1669 root      20   0 2570580  86464  39332 S   1.0  0.5   0:03.97 dockerd
 2691 root      20   0  434320  94612  61648 S   1.0  0.6   0:27.16 Xorg
 3083 kenenth   20   0 3610556 265552  96232 S   1.0  1.6   1:12.31 gnome-shell
 3196 kenenth   20   0  446264  10396   7936 S   1.0  0.1   0:00.91 gsd-sharing
 3543 kenenth   20   0  426324   8992   7728 S   1.0  0.1   0:00.14 zeitgeist-+
 6922 kenenth   20   0 1391032 173972  38356 S   1.0  1.1   0:09.27 gnome-soft+
24148 root      20   0       0      0      0 I   1.0  0.0   0:00.01 kworker/2:2
24892 root      20   0       0      0      0 I   1.0  0.0   0:00.03 kworker/7:2
25191 kenenth   20   0  757060  28940   9236 S   1.0  0.2   0:00.52 docker-com+

top - 22:17:59 up 30 min,  1 user,  load average: 1.10, 0.36, 0.28
Tasks: 322 total,   8 running, 243 sleeping,   0 stopped,   0 zombie
%Cpu(s):  9.1 us,  3.4 sy,  0.0 ni, 87.0 id,  0.2 wa,  0.0 hi,  0.2 si,  0.0 st
KiB Mem : 16278772 total, 12193252 free,  1428172 used,  2657348 buff/cache
KiB Swap: 16630780 total, 16630780 free,        0 used. 14376100 avail Mem 

  PID USER      PR  NI    VIRT    RES    SHR S  %CPU %MEM     TIME+ COMMAND
25191 kenenth   20   0 1076832  29536   9236 S  13.6  0.2   0:00.66 docker-com+
 1669 root      20   0 2572148  87472  39332 S  12.6  0.5   0:04.10 dockerd
 3167 kenenth   20   0  299456   8540   7036 R   8.7  0.1   0:02.29 gvfs-udisk+
 3083 kenenth   20   0 3610556 265348  96232 S   5.8  1.6   1:12.37 gnome-shell
25757 root      20   0    1588      4      0 S   5.8  0.0   0:00.07 sh
  907 message+  20   0   51676   6188   3884 R   4.9  0.0   0:03.16 dbus-daemon
    1 root      20   0  225872   9520   6604 R   3.9  0.1   0:04.07 systemd
 1155 gdm       20   0   77280   8260   6580 R   2.9  0.1   0:00.77 systemd
 1202 gdm       20   0 3332928 118936  66404 S   2.9  0.7   0:05.58 gnome-shell
 2671 kenenth   20   0   77308   8296   6584 S   2.9  0.1   0:00.94 systemd
 3235 kenenth   20   0  357736   7468   6524 S   2.9  0.0   0:00.71 gsd-housek+
 3324 kenenth   20   0  361252   7636   6324 S   1.9  0.0   0:00.30 gvfsd-trash
22203 root      20   0  305708  11396   9848 S   1.9  0.1   0:00.13 cups-brows+
  606 root      20   0       0      0      0 I   1.0  0.0   0:00.07 kworker/5:2
  891 root      20   0  503160  10876   8704 S   1.0  0.1   0:00.20 udisksd
  946 root      20   0  559848  18196  13708 R   1.0  0.1   0:02.71 NetworkMan+
  948 root      20   0   70696   6152   5344 R   1.0  0.0   0:00.39 systemd-lo+
 1054 root      20   0 1851044  42384  23900 S   1.0  0.3   0:06.20 containerd
 1665 whoopsie  20   0  462312  12940  11272 S   1.0  0.1   0:00.23 whoopsie
 2691 root      20   0  434320  94612  61648 S   1.0  0.6   0:27.17 Xorg
 2692 root     -51   0       0      0      0 S   1.0  0.0   0:03.21 irq/135-nv+
 3194 kenenth   20   0  416236   5928   5276 S   1.0  0.0   0:00.11 gsd-rfkill
 3196 kenenth   20   0  446264  10396   7936 S   1.0  0.1   0:00.92 gsd-sharing
 3365 kenenth   20   0 1128912  62188  23164 S   1.0  0.4   0:00.60 evolution-+
 3387 kenenth   20   0 1010164  26844  23452 S   1.0  0.2   0:00.19 evolution-+
 4031 kenenth   20   0  792420  37356  28140 S   1.0  0.2   0:04.13 gnome-term+
20771 kenenth   20   0  780684  31600  26056 S   1.0  0.2   0:00.16 deja-dup-m+
25188 kenenth   20   0   41908   3804   3204 R   1.0  0.0   0:00.19 top
25671 root      20   0   10604   5048   3936 S   1.0  0.0   0:00.01 containerd+

top - 22:18:00 up 30 min,  1 user,  load average: 1.10, 0.36, 0.28
Tasks: 387 total,   6 running, 300 sleeping,   0 stopped,  10 zombie
%Cpu(s): 51.5 us, 26.8 sy,  0.0 ni, 20.6 id,  1.1 wa,  0.0 hi,  0.0 si,  0.0 st
KiB Mem : 16278772 total, 11639516 free,  1880720 used,  2758536 buff/cache
KiB Swap: 16630780 total, 16630780 free,        0 used. 13826308 avail Mem 

  PID USER      PR  NI    VIRT    RES    SHR S  %CPU %MEM     TIME+ COMMAND
 3167 kenenth   20   0  299576   8660   7036 R  67.6  0.1   0:02.98 gvfs-udisk+
  907 message+  20   0   51676   6188   3884 S  28.4  0.0   0:03.45 dbus-daemon
 1669 root      20   0 3608112  90100  39260 S  28.4  0.6   0:04.39 dockerd
    1 root      20   0  226000   9536   6604 S  25.5  0.1   0:04.33 systemd
25191 kenenth   20   0 1077088  29604   9236 S  22.5  0.2   0:00.89 docker-com+
 1155 gdm       20   0   77528   8516   6580 S  19.6  0.1   0:00.97 systemd
 2671 kenenth   20   0   77556   8540   6584 S  19.6  0.1   0:01.14 systemd
 3235 kenenth   20   0  357736   7468   6524 S  19.6  0.0   0:00.91 gsd-housek+
 1202 gdm       20   0 3332928 118936  66404 S  16.7  0.7   0:05.75 gnome-shell
  946 root      20   0  560340  18556  13708 S  10.8  0.1   0:02.82 NetworkMan+
 3083 kenenth   20   0 3610556 265348  96232 S   9.8  1.6   1:12.47 gnome-shell
 3324 kenenth   20   0  361252   7636   6324 S   8.8  0.0   0:00.39 gvfsd-trash
  323 root      20   0   46280   4684   3172 S   7.8  0.0   0:01.28 systemd-ud+
 3196 kenenth   20   0  446396  10396   7936 S   6.9  0.1   0:00.99 gsd-sharing
26432 root      20   0  926152  63700  37732 S   6.9  0.4   0:00.07 exe
26664 root      20   0  547468  59324  34348 S   6.9  0.4   0:00.07 exe
26679 root      20   0  925352  63200  37812 D   6.9  0.4   0:00.07 exe
 1054 root      20   0 2293436  42384  23900 S   5.9  0.3   0:06.26 containerd
26251 root      20   0  547468  62272  36988 S   5.9  0.4   0:00.06 exe
26315 root      20   0  852676  62164  37076 S   5.9  0.4   0:00.06 exe
26545 root      20   0  547468  60060  34808 S   5.9  0.4   0:00.06 exe
26558 root      20   0  548524  61104  35108 S   5.9  0.4   0:00.06 exe
26633 root      20   0  925096  62576  37128 S   5.9  0.4   0:00.06 exe
26668 root      20   0  924840  62420  37052 S   5.9  0.4   0:00.06 exe
26800 root      20   0  547468  61080  35788 S   5.9  0.4   0:00.06 exe
26811 root      20   0  548524  60968  35020 S   5.9  0.4   0:00.06 exe
26529 root      20   0  548524  61864  35608 S   4.9  0.4   0:00.05 exe
26860 root      20   0  851108  62268  37272 S   4.9  0.4   0:00.05 exe
  948 root      20   0   70696   6152   5344 S   3.9  0.0   0:00.43 systemd-lo+
  950 root      20   0 1170148  34320  18032 S   3.9  0.2   0:04.23 snapd
  299 root      19  -1  177164  33640  32432 S   2.9  0.2   0:00.76 systemd-jo+
  891 root      20   0  503160  10876   8704 S   2.9  0.1   0:00.23 udisksd
26215 root      20   0  397512  14924   9472 S   2.9  0.1   0:00.03 runc
26308 root      20   0  398568  15060   9584 S   2.9  0.1   0:00.03 runc
26394 root      20   0  397160  15056   9592 S   2.9  0.1   0:00.03 runc
26453 root      20   0  472300  15116   9600 S   2.9  0.1   0:00.03 runc
26573 root      20   0  472300  14976   9304 S   2.9  0.1   0:00.03 runc
26698 root      20   0  397160  14988   9476 S   2.9  0.1   0:00.03 runc
26716 root      20   0  544624  15244   9544 S   2.9  0.1   0:00.03 runc
26847 root      20   0  398568  14844   9332 S   2.9  0.1   0:00.03 runc
26902 root      20   0  472300  15372   9692 S   2.9  0.1   0:00.03 runc
20771 kenenth   20   0  780684  31600  26056 S   2.0  0.2   0:00.18 deja-dup-m+
26235 root      20   0  321060  11344   7068 S   2.0  0.1   0:00.02 runc:[2:IN+
26323 root      20   0  321316  10868   6712 S   2.0  0.1   0:00.02 runc:[2:IN+
26352 root      20   0  547468  60168  34496 S   2.0  0.4   0:00.02 exe
26413 root      20   0  472300  15052   9396 S   2.0  0.1   0:00.02 runc
26469 root      20   0  321060  11124   6852 S   2.0  0.1   0:00.02 runc:[2:IN+
26602 root      20   0  321316  11372   7056 S   2.0  0.1   0:00.02 runc:[2:IN+
26752 root      20   0  321060  11276   7004 S   2.0  0.1   0:00.02 runc:[2:IN+
26790 root      20   0  322724  11368   7036 S   2.0  0.1   0:00.02 runc:[2:IN+
26884 root      20   0  322724  11468   7124 S   2.0  0.1   0:00.02 runc:[2:IN+
26936 root      20   0  403908  44240  23100 R   2.0  0.3   0:00.02 exe
26964 root      20   0  321316  13420   9320 R   2.0  0.1   0:00.02 runc
26966 root      20   0  322724  10408   6532 R   2.0  0.1   0:00.02 runc:[2:IN+
   40 root      20   0       0      0      0 S   1.0  0.0   0:00.05 ksoftirqd/5
   46 root      20   0       0      0      0 S   1.0  0.0   0:00.06 ksoftirqd/6
   52 root      20   0       0      0      0 S   1.0  0.0   0:00.05 ksoftirqd/7
  254 root       0 -20       0      0      0 I   1.0  0.0   0:00.01 kworker/4:+
  256 root      20   0       0      0      0 S   1.0  0.0   0:00.24 jbd2/nvme0+
  857 root      20   0  179856   9568   8756 S   1.0  0.1   0:00.37 thermald
  861 syslog    20   0  271460   5204   3752 S   1.0  0.0   0:00.22 rsyslogd
  888 root      20   0  287628   7080   6124 S   1.0  0.0   0:00.14 accounts-d+
  941 root      20   0   45148   8164   7188 S   1.0  0.1   0:00.11 wpa_suppli+
 1401 root      20   0  289760   6780   6040 S   1.0  0.0   0:00.21 boltd
 1409 root      20   0  441028  36616  12808 S   1.0  0.2   0:24.25 packagekitd
 1665 whoopsie  20   0  462312  12940  11272 S   1.0  0.1   0:00.24 whoopsie
 3133 kenenth   20   0  767332  31036  25592 S   1.0  0.2   0:00.17 goa-daemon
 3194 kenenth   20   0  416236   5928   5276 S   1.0  0.0   0:00.12 gsd-rfkill
 3387 kenenth   20   0 1010164  26844  23452 S   1.0  0.2   0:00.20 evolution-+
 6922 kenenth   20   0 1391032 173972  38356 S   1.0  1.1   0:09.28 gnome-soft+
22203 root      20   0  305708  11396   9848 S   1.0  0.1   0:00.14 cups-brows+
22878 root      20   0       0      0      0 I   1.0  0.0   0:00.04 kworker/3:1
23707 root      20   0       0      0      0 I   1.0  0.0   0:00.27 kworker/u1+
24765 root      20   0       0      0      0 I   1.0  0.0   0:00.01 kworker/1:0
25188 kenenth   20   0   41908   3804   3204 R   1.0  0.0   0:00.20 top
26494 root      20   0  321316  11372   7000 S   1.0  0.1   0:00.01 runc:[2:IN+
26531 root      20   0  321060  11264   6984 S   1.0  0.1   0:00.01 runc:[2:IN+
26935 root      20   0  543176  44000  22864 D   1.0  0.3   0:00.01 exe
26971 root      20   0  321060  11776   8096 R   1.0  0.1   0:00.01 runc

top - 22:18:01 up 30 min,  1 user,  load average: 1.10, 0.36, 0.28
Tasks: 399 total,   1 running, 316 sleeping,   0 stopped,  11 zombie
%Cpu(s): 14.5 us,  7.9 sy,  0.0 ni, 77.4 id,  0.1 wa,  0.0 hi,  0.0 si,  0.0 st
KiB Mem : 16278772 total, 11639516 free,  1880720 used,  2758536 buff/cache
KiB Swap: 16630780 total, 16630780 free,        0 used. 13826308 avail Mem 

  PID USER      PR  NI    VIRT    RES    SHR S  %CPU %MEM     TIME+ COMMAND
 3167 kenenth   20   0  299576   8660   7036 S   8.8  0.1   0:03.07 gvfs-udisk+
26494 root      20   0    1588      4      0 S   6.9  0.0   0:00.08 sh
26996 root      20   0  925096  62896  37324 S   5.9  0.4   0:00.06 exe
27077 root      20   0  695988  61232  35088 S   5.9  0.4   0:00.06 exe
27079 root      20   0  548524  61868  35708 S   5.9  0.4   0:00.06 exe
  907 message+  20   0   51676   6188   3884 S   4.9  0.0   0:03.50 dbus-daemon
27027 root      20   0  547468  59928  34636 S   4.9  0.4   0:00.05 exe
27123 root      20   0  925896  62728  37408 S   4.9  0.4   0:00.05 exe
27164 root      20   0  925608  62404  37100 S   4.9  0.4   0:00.05 exe
 1669 root      20   0 3903040  90112  39260 S   3.9  0.6   0:04.43 dockerd
 3083 kenenth   20   0 3610556 265348  96232 S   3.9  1.6   1:12.51 gnome-shell
25188 kenenth   20   0   42048   4064   3204 R   3.9  0.0   0:00.24 top
26935 root      20   0  778688  63296  37300 S   3.9  0.4   0:00.05 exe
26936 root      20   0  547468  60784  35336 S   3.9  0.4   0:00.06 exe
27150 root      20   0  851364  63208  37820 S   3.9  0.4   0:00.04 exe
27163 root      20   0  925352  62800  37336 S   3.9  0.4   0:00.04 exe
 1202 gdm       20   0 3332928 118936  66404 S   2.9  0.7   0:05.78 gnome-shell
26971 root      20   0  472300  15036   9344 S   2.9  0.1   0:00.04 runc
    1 root      20   0  226000   9536   6604 S   2.0  0.1   0:04.35 systemd
  323 root      20   0   46280   4684   3172 S   2.0  0.0   0:01.30 systemd-ud+
 1155 gdm       20   0   77528   8516   6580 S   2.0  0.1   0:00.99 systemd
 2671 kenenth   20   0   77556   8540   6584 S   2.0  0.1   0:01.16 systemd
 3196 kenenth   20   0  446396  10396   7936 S   2.0  0.1   0:01.01 gsd-sharing
 3235 kenenth   20   0  357736   7468   6524 S   2.0  0.0   0:00.93 gsd-housek+
26964 root      20   0  470892  14844   9332 S   2.0  0.1   0:00.04 runc
27033 root      20   0  321316  11596   7272 S   2.0  0.1   0:00.02 runc:[2:IN+
27045 root      20   0  321060  11172   6892 S   2.0  0.1   0:00.02 runc:[2:IN+
    8 root      20   0       0      0      0 I   1.0  0.0   0:00.84 rcu_sched
   16 root      20   0       0      0      0 S   1.0  0.0   0:00.06 ksoftirqd/1
   34 root      20   0       0      0      0 S   1.0  0.0   0:00.09 ksoftirqd/4
  299 root      19  -1  177164  33660  32452 S   1.0  0.2   0:00.77 systemd-jo+
  857 root      20   0  179856   9568   8756 S   1.0  0.1   0:00.38 thermald
  861 syslog    20   0  271460   5204   3752 S   1.0  0.0   0:00.23 rsyslogd
  881 avahi     20   0   47524   4068   3356 S   1.0  0.0   0:00.88 avahi-daem+
  946 root      20   0  560340  18556  13708 S   1.0  0.1   0:02.83 NetworkMan+
  948 root      20   0   70696   6152   5344 S   1.0  0.0   0:00.44 systemd-lo+
  950 root      20   0 1170148  34320  18032 S   1.0  0.2   0:04.24 snapd
 1054 root      20   0 2367168  42384  23900 S   1.0  0.3   0:06.27 containerd
 1401 root      20   0  289760   6780   6040 S   1.0  0.0   0:00.22 boltd
 1409 root      20   0  441028  36616  12808 S   1.0  0.2   0:24.26 packagekitd
 1665 whoopsie  20   0  462312  12940  11272 S   1.0  0.1   0:00.25 whoopsie
 3133 kenenth   20   0  767332  31036  25592 S   1.0  0.2   0:00.18 goa-daemon
 3365 kenenth   20   0 1128912  62188  23164 S   1.0  0.4   0:00.61 evolution-+
 3543 kenenth   20   0  426324   8992   7728 S   1.0  0.1   0:00.15 zeitgeist-+
 6922 kenenth   20   0 1391032 173972  38356 S   1.0  1.1   0:09.29 gnome-soft+
25191 kenenth   20   0 1077088  29624   9236 S   1.0  0.2   0:00.90 docker-com+
26397 root      20   0   10604   5228   3864 S   1.0  0.0   0:00.01 containerd+

top - 22:18:02 up 30 min,  1 user,  load average: 1.10, 0.36, 0.28
Tasks: 394 total,   1 running, 313 sleeping,   0 stopped,   9 zombie
%Cpu(s):  3.4 us,  2.0 sy,  0.0 ni, 94.5 id,  0.0 wa,  0.0 hi,  0.1 si,  0.0 st
KiB Mem : 16278772 total, 11639516 free,  1880720 used,  2758536 buff/cache
KiB Swap: 16630780 total, 16630780 free,        0 used. 13826308 avail Mem 

  PID USER      PR  NI    VIRT    RES    SHR S  %CPU %MEM     TIME+ COMMAND
26602 root      20   0    1588      4      0 S   4.9  0.0   0:00.07 sh
26323 root      20   0    1588      4      0 S   3.9  0.0   0:00.06 sh
  907 message+  20   0   51676   6188   3884 S   1.9  0.0   0:03.52 dbus-daemon
 1054 root      20   0 2810616  42640  23900 S   1.9  0.3   0:06.29 containerd
 2691 root      20   0  434320  94612  61648 S   1.9  0.6   0:27.19 Xorg
  881 avahi     20   0   47524   4068   3356 S   1.0  0.0   0:00.89 avahi-daem+
  946 root      20   0  560340  18556  13708 S   1.0  0.1   0:02.84 NetworkMan+
  950 root      20   0 1170148  34320  18032 S   1.0  0.2   0:04.25 snapd
 1401 root      20   0  289760   6780   6040 S   1.0  0.0   0:00.23 boltd
 1669 root      20   0 3903040  90124  39260 S   1.0  0.6   0:04.44 dockerd
 3083 kenenth   20   0 3610556 265348  96232 S   1.0  1.6   1:12.52 gnome-shell
20771 kenenth   20   0  780684  31600  26056 S   1.0  0.2   0:00.19 deja-dup-m+
26559 root      20   0   10604   5068   3936 S   1.0  0.0   0:00.01 containerd+
26633 root      20   0  925096  62576  37128 S   1.0  0.4   0:00.07 exe

top - 22:18:03 up 30 min,  1 user,  load average: 1.17, 0.39, 0.29
Tasks: 379 total,   1 running, 301 sleeping,   0 stopped,   6 zombie
%Cpu(s):  6.1 us,  2.6 sy,  0.0 ni, 90.8 id,  0.1 wa,  0.0 hi,  0.3 si,  0.0 st
KiB Mem : 16278772 total, 11831404 free,  1721460 used,  2725908 buff/cache
KiB Swap: 16630780 total, 16630780 free,        0 used. 14022040 avail Mem 

  PID USER      PR  NI    VIRT    RES    SHR S  %CPU %MEM     TIME+ COMMAND
 1202 gdm       20   0 3332928 118972  66404 S   5.9  0.7   0:05.84 gnome-shell
26469 root      20   0    1588      4      0 S   5.0  0.0   0:00.07 sh
26884 root      20   0    1588      4      0 S   5.0  0.0   0:00.07 sh
  907 message+  20   0   51676   6188   3884 S   4.0  0.0   0:03.56 dbus-daemon
  946 root      20   0  560404  18800  13708 D   4.0  0.1   0:02.88 NetworkMan+
 3083 kenenth   20   0 3610556 265348  96232 S   4.0  1.6   1:12.56 gnome-shell
26235 root      20   0  321720  11864   7068 S   4.0  0.1   0:00.06 runc:[2:IN+
 1054 root      20   0 2810616  42640  23900 S   2.0  0.3   0:06.31 containerd
 1669 root      20   0 3903040  90132  39260 S   2.0  0.6   0:04.46 dockerd
 3196 kenenth   20   0  446396  10396   7936 S   2.0  0.1   0:01.03 gsd-sharing
 4031 kenenth   20   0  792420  37356  28140 S   2.0  0.2   0:04.15 gnome-term+
25188 kenenth   20   0   42048   4064   3204 R   2.0  0.0   0:00.26 top
  299 root      19  -1  177164  33680  32472 S   1.0  0.2   0:00.78 systemd-jo+
  323 root      20   0   46280   4684   3172 S   1.0  0.0   0:01.31 systemd-ud+
  674 systemd+  20   0   70748   6248   5496 S   1.0  0.0   0:00.32 systemd-re+
 1409 root      20   0  441028  36616  12808 S   1.0  0.2   0:24.27 packagekitd
 1665 whoopsie  20   0  462312  12940  11272 S   1.0  0.1   0:00.26 whoopsie
 3365 kenenth   20   0 1128912  62188  23164 S   1.0  0.4   0:00.62 evolution-+
 3387 kenenth   20   0 1010164  26844  23452 S   1.0  0.2   0:00.21 evolution-+
 3543 kenenth   20   0  426324   8992   7728 S   1.0  0.1   0:00.16 zeitgeist-+
 6922 kenenth   20   0 1391032 173972  38356 S   1.0  1.1   0:09.30 gnome-soft+
22203 root      20   0  305708  11396   9848 S   1.0  0.1   0:00.15 cups-brows+
25191 kenenth   20   0 1068892  29776   9236 S   1.0  0.2   0:00.91 docker-com+

top - 22:18:04 up 30 min,  1 user,  load average: 1.17, 0.39, 0.29
Tasks: 374 total,   1 running, 298 sleeping,   0 stopped,   4 zombie
%Cpu(s):  4.8 us,  2.4 sy,  0.0 ni, 92.8 id,  0.0 wa,  0.0 hi,  0.0 si,  0.0 st
KiB Mem : 16278772 total, 11831404 free,  1721460 used,  2725908 buff/cache
KiB Swap: 16630780 total, 16630780 free,        0 used. 14022040 avail Mem 

  PID USER      PR  NI    VIRT    RES    SHR S  %CPU %MEM     TIME+ COMMAND
26752 root      20   0    1588      4      0 S   5.9  0.0   0:00.08 sh
26531 root      20   0    1588      4      0 S   4.9  0.0   0:00.06 sh
 3083 kenenth   20   0 3610556 265348  96232 S   2.9  1.6   1:12.59 gnome-shell
  907 message+  20   0   51676   6188   3884 S   2.0  0.0   0:03.58 dbus-daemon
  946 root      20   0  560404  18800  13708 S   2.0  0.1   0:02.90 NetworkMan+
 1202 gdm       20   0 3332928 118972  66404 S   2.0  0.7   0:05.86 gnome-shell
 1669 root      20   0 3903040  90136  39260 S   2.0  0.6   0:04.48 dockerd
25188 kenenth   20   0   42048   4064   3204 R   2.0  0.0   0:00.28 top
    8 root      20   0       0      0      0 I   1.0  0.0   0:00.85 rcu_sched
  881 avahi     20   0   47648   4196   3356 S   1.0  0.0   0:00.90 avahi-daem+
 1054 root      20   0 2810616  42640  23900 S   1.0  0.3   0:06.32 containerd
 2691 root      20   0  434320  94612  61648 S   1.0  0.6   0:27.20 Xorg
 3194 kenenth   20   0  416236   5928   5276 S   1.0  0.0   0:00.13 gsd-rfkill
 3196 kenenth   20   0  446396  10396   7936 S   1.0  0.1   0:01.04 gsd-sharing
 3387 kenenth   20   0 1010164  26844  23452 S   1.0  0.2   0:00.22 evolution-+
 6922 kenenth   20   0 1391032 173972  38356 S   1.0  1.1   0:09.31 gnome-soft+
20771 kenenth   20   0  780684  31600  26056 S   1.0  0.2   0:00.20 deja-dup-m+
25191 kenenth   20   0 1044304  29764   9236 S   1.0  0.2   0:00.92 docker-com+
26235 root      20   0    1588      4      0 S   1.0  0.0   0:00.07 sh
26433 root      20   0    9196   5412   4060 S   1.0  0.0   0:00.01 containerd+
26671 root      20   0   10604   5228   4124 S   1.0  0.0   0:00.01 containerd+

top - 22:18:05 up 30 min,  1 user,  load average: 1.17, 0.39, 0.29
Tasks: 370 total,   1 running, 295 sleeping,   0 stopped,   3 zombie
%Cpu(s):  2.4 us,  1.0 sy,  0.0 ni, 96.4 id,  0.1 wa,  0.0 hi,  0.1 si,  0.0 st
KiB Mem : 16278772 total, 11831404 free,  1721460 used,  2725908 buff/cache
KiB Swap: 16630780 total, 16630780 free,        0 used. 14022040 avail Mem 

  PID USER      PR  NI    VIRT    RES    SHR S  %CPU %MEM     TIME+ COMMAND
26790 root      20   0    1588      4      0 S   5.0  0.0   0:00.07 sh
  881 avahi     20   0   47648   4196   3356 S   2.0  0.0   0:00.92 avahi-daem+
  299 root      19  -1  177164  33708  32500 S   1.0  0.2   0:00.79 systemd-jo+
  323 root      20   0   46280   4684   3172 S   1.0  0.0   0:01.32 systemd-ud+
  674 systemd+  20   0   70748   6248   5496 S   1.0  0.0   0:00.33 systemd-re+
  907 message+  20   0   51676   6188   3884 S   1.0  0.0   0:03.59 dbus-daemon
  946 root      20   0  560404  18800  13708 S   1.0  0.1   0:02.91 NetworkMan+
 1054 root      20   0 2810616  42640  23900 S   1.0  0.3   0:06.33 containerd
 1665 whoopsie  20   0  462312  12940  11272 S   1.0  0.1   0:00.27 whoopsie
 1669 root      20   0 3903040  90212  39260 S   1.0  0.6   0:04.49 dockerd
 2691 root      20   0  434320  94612  61648 S   1.0  0.6   0:27.21 Xorg
 3083 kenenth   20   0 3610556 265348  96232 S   1.0  1.6   1:12.60 gnome-shell
 3196 kenenth   20   0  446396  10396   7936 S   1.0  0.1   0:01.05 gsd-sharing
 3365 kenenth   20   0 1128912  62188  23164 S   1.0  0.4   0:00.63 evolution-+
25188 kenenth   20   0   42048   4064   3204 R   1.0  0.0   0:00.29 top
25191 kenenth   20   0 1036108  29856   9236 S   1.0  0.2   0:00.93 docker-com+

top - 22:18:06 up 30 min,  1 user,  load average: 1.17, 0.39, 0.29
Tasks: 366 total,   1 running, 292 sleeping,   0 stopped,   2 zombie
%Cpu(s):  2.2 us,  1.6 sy,  0.0 ni, 96.1 id,  0.0 wa,  0.0 hi,  0.0 si,  0.0 st
KiB Mem : 16278772 total, 12121036 free,  1491152 used,  2666584 buff/cache
KiB Swap: 16630780 total, 16630780 free,        0 used. 14312424 avail Mem 

  PID USER      PR  NI    VIRT    RES    SHR S  %CPU %MEM     TIME+ COMMAND
26966 root      20   0    1588      4      0 S   4.9  0.0   0:00.07 sh
  907 message+  20   0   51676   6188   3884 S   2.0  0.0   0:03.61 dbus-daemon
  946 root      20   0  560404  18800  13708 S   2.0  0.1   0:02.93 NetworkMan+
  323 root      20   0   46280   4684   3172 S   1.0  0.0   0:01.33 systemd-ud+
  861 syslog    20   0  271460   5204   3752 S   1.0  0.0   0:00.24 rsyslogd
 1202 gdm       20   0 3332928 118972  66404 S   1.0  0.7   0:05.87 gnome-shell
 1409 root      20   0  441028  36616  12808 S   1.0  0.2   0:24.28 packagekitd
 1669 root      20   0 3903040  90216  39260 S   1.0  0.6   0:04.50 dockerd
 2691 root      20   0  434320  94612  61648 S   1.0  0.6   0:27.22 Xorg
 3083 kenenth   20   0 3610556 265412  96232 S   1.0  1.6   1:12.61 gnome-shell
 3133 kenenth   20   0  767332  31036  25592 S   1.0  0.2   0:00.19 goa-daemon
 3194 kenenth   20   0  416236   5928   5276 S   1.0  0.0   0:00.14 gsd-rfkill
 3196 kenenth   20   0  446396  10396   7936 S   1.0  0.1   0:01.06 gsd-sharing
 3365 kenenth   20   0 1128912  62188  23164 S   1.0  0.4   0:00.64 evolution-+
 6922 kenenth   20   0 1391032 173972  38356 S   1.0  1.1   0:09.32 gnome-soft+
22203 root      20   0  305708  11396   9848 S   1.0  0.1   0:00.16 cups-brows+
25188 kenenth   20   0   42048   4064   3204 R   1.0  0.0   0:00.30 top
25191 kenenth   20   0 1027912  29948   9236 S   1.0  0.2   0:00.94 docker-com+

top - 22:18:07 up 30 min,  1 user,  load average: 1.17, 0.39, 0.29
Tasks: 362 total,   1 running, 289 sleeping,   0 stopped,   1 zombie
%Cpu(s):  2.0 us,  1.1 sy,  0.0 ni, 96.8 id,  0.0 wa,  0.0 hi,  0.1 si,  0.0 st
KiB Mem : 16278772 total, 12121036 free,  1491152 used,  2666584 buff/cache
KiB Swap: 16630780 total, 16630780 free,        0 used. 14312424 avail Mem 

  PID USER      PR  NI    VIRT    RES    SHR S  %CPU %MEM     TIME+ COMMAND
27045 root      20   0    1588      4      0 S   5.0  0.0   0:00.07 sh
 1669 root      20   0 3903040  90312  39260 S   2.0  0.6   0:04.52 dockerd
25188 kenenth   20   0   42048   4064   3204 R   2.0  0.0   0:00.32 top
  881 avahi     20   0   47648   4196   3356 S   1.0  0.0   0:00.93 avahi-daem+
  907 message+  20   0   51676   6188   3884 S   1.0  0.0   0:03.62 dbus-daemon
  946 root      20   0  560404  18800  13708 S   1.0  0.1   0:02.94 NetworkMan+
 1054 root      20   0 2810616  42640  23900 S   1.0  0.3   0:06.34 containerd
 1202 gdm       20   0 3332928 118972  66404 S   1.0  0.7   0:05.88 gnome-shell
 2692 root     -51   0       0      0      0 S   1.0  0.0   0:03.22 irq/135-nv+
 3083 kenenth   20   0 3610556 265412  96232 S   1.0  1.6   1:12.62 gnome-shell
 3387 kenenth   20   0 1010164  26844  23452 S   1.0  0.2   0:00.23 evolution-+
 3543 kenenth   20   0  426324   8992   7728 S   1.0  0.1   0:00.17 zeitgeist-+
25191 kenenth   20   0 1019716  30032   9236 S   1.0  0.2   0:00.95 docker-com+

top - 22:18:08 up 30 min,  1 user,  load average: 1.64, 0.50, 0.33
Tasks: 358 total,   1 running, 286 sleeping,   0 stopped,   0 zombie
%Cpu(s):  2.9 us,  1.7 sy,  0.0 ni, 95.4 id,  0.0 wa,  0.0 hi,  0.0 si,  0.0 st
KiB Mem : 16278772 total, 12121036 free,  1491152 used,  2666584 buff/cache
KiB Swap: 16630780 total, 16630780 free,        0 used. 14312424 avail Mem 

  PID USER      PR  NI    VIRT    RES    SHR S  %CPU %MEM     TIME+ COMMAND
27033 root      20   0    1588      4      0 S   4.9  0.0   0:00.07 sh
25191 kenenth   20   0 1666944  30224   9236 S   2.9  0.2   0:00.98 docker-com+
  907 message+  20   0   51676   6188   3884 S   2.0  0.0   0:03.64 dbus-daemon
  946 root      20   0  560404  18800  13708 S   2.0  0.1   0:02.96 NetworkMan+
 1054 root      20   0 2884348  42640  23900 S   2.0  0.3   0:06.36 containerd
 3083 kenenth   20   0 3610556 265412  96232 S   2.0  1.6   1:12.64 gnome-shell
    8 root      20   0       0      0      0 I   1.0  0.0   0:00.86 rcu_sched
  299 root      19  -1  177164  33708  32500 S   1.0  0.2   0:00.80 systemd-jo+
  424 root     -51   0       0      0      0 S   1.0  0.0   0:01.57 irq/138-iw+
  881 avahi     20   0   47648   4196   3356 S   1.0  0.0   0:00.94 avahi-daem+
  950 root      20   0 1170148  34320  18032 S   1.0  0.2   0:04.26 snapd
 1202 gdm       20   0 3332928 118972  66404 S   1.0  0.7   0:05.89 gnome-shell
 1665 whoopsie  20   0  462312  12940  11272 S   1.0  0.1   0:00.28 whoopsie
 1669 root      20   0 3903040  90324  39260 S   1.0  0.6   0:04.53 dockerd
 3196 kenenth   20   0  446396  10396   7936 S   1.0  0.1   0:01.07 gsd-sharing
 4031 kenenth   20   0  792420  37356  28140 S   1.0  0.2   0:04.16 gnome-term+
20771 kenenth   20   0  780684  31600  26056 S   1.0  0.2   0:00.21 deja-dup-m+
25188 kenenth   20   0   42048   4064   3204 R   1.0  0.0   0:00.33 top

top - 22:18:09 up 30 min,  1 user,  load average: 1.64, 0.50, 0.33
Tasks: 358 total,   1 running, 286 sleeping,   0 stopped,   0 zombie
%Cpu(s):  0.2 us,  0.2 sy,  0.0 ni, 99.5 id,  0.0 wa,  0.0 hi,  0.0 si,  0.0 st
KiB Mem : 16278772 total, 12270324 free,  1365592 used,  2642856 buff/cache
KiB Swap: 16630780 total, 16630780 free,        0 used. 14461984 avail Mem 

  PID USER      PR  NI    VIRT    RES    SHR S  %CPU %MEM     TIME+ COMMAND
 3083 kenenth   20   0 3610556 265192  96232 S   2.0  1.6   1:12.66 gnome-shell
  606 root      20   0       0      0      0 I   1.0  0.0   0:00.08 kworker/5:2
  881 avahi     20   0   47648   4196   3356 S   1.0  0.0   0:00.95 avahi-daem+
 1669 root      20   0 3903040  90324  39260 S   1.0  0.6   0:04.54 dockerd
 2691 root      20   0  434320  94612  61648 S   1.0  0.6   0:27.23 Xorg
25188 kenenth   20   0   42048   4064   3204 R   1.0  0.0   0:00.34 top

top - 22:18:10 up 30 min,  1 user,  load average: 1.64, 0.50, 0.33
Tasks: 358 total,   1 running, 286 sleeping,   0 stopped,   0 zombie
%Cpu(s):  0.1 us,  0.2 sy,  0.0 ni, 99.6 id,  0.0 wa,  0.0 hi,  0.0 si,  0.0 st
KiB Mem : 16278772 total, 12270324 free,  1365592 used,  2642856 buff/cache
KiB Swap: 16630780 total, 16630780 free,        0 used. 14461984 avail Mem 

  PID USER      PR  NI    VIRT    RES    SHR S  %CPU %MEM     TIME+ COMMAND
25188 kenenth   20   0   42048   4064   3204 R   2.0  0.0   0:00.36 top
  881 avahi     20   0   47648   4196   3356 S   1.0  0.0   0:00.96 avahi-daem+
 1054 root      20   0 2884348  42640  23900 S   1.0  0.3   0:06.37 containerd

top - 22:18:11 up 30 min,  1 user,  load average: 1.64, 0.50, 0.33
Tasks: 358 total,   1 running, 286 sleeping,   0 stopped,   0 zombie
%Cpu(s):  0.5 us,  0.1 sy,  0.0 ni, 99.4 id,  0.0 wa,  0.0 hi,  0.0 si,  0.0 st
KiB Mem : 16278772 total, 12270324 free,  1365592 used,  2642856 buff/cache
KiB Swap: 16630780 total, 16630780 free,        0 used. 14461984 avail Mem 

  PID USER      PR  NI    VIRT    RES    SHR S  %CPU %MEM     TIME+ COMMAND
 6922 kenenth   20   0 1391032 173972  38356 S   1.0  1.1   0:09.33 gnome-soft+
25188 kenenth   20   0   42048   4064   3204 R   1.0  0.0   0:00.37 top

top - 22:18:12 up 30 min,  1 user,  load average: 1.64, 0.50, 0.33
Tasks: 358 total,   1 running, 286 sleeping,   0 stopped,   0 zombie
%Cpu(s):  0.1 us,  0.5 sy,  0.0 ni, 99.4 id,  0.0 wa,  0.0 hi,  0.0 si,  0.0 st
KiB Mem : 16278772 total, 12270292 free,  1365620 used,  2642860 buff/cache
KiB Swap: 16630780 total, 16630780 free,        0 used. 14461952 avail Mem 

  PID USER      PR  NI    VIRT    RES    SHR S  %CPU %MEM     TIME+ COMMAND
  674 systemd+  20   0   70748   6248   5496 S   1.0  0.0   0:00.34 systemd-re+
 1202 gdm       20   0 3332928 118972  66404 S   1.0  0.7   0:05.90 gnome-shell
 1669 root      20   0 3903040  90324  39260 S   1.0  0.6   0:04.55 dockerd
 2691 root      20   0  434320  94612  61648 S   1.0  0.6   0:27.24 Xorg
25188 kenenth   20   0   42048   4064   3204 R   1.0  0.0   0:00.38 top
25191 kenenth   20   0 1666944  30224   9236 S   1.0  0.2   0:00.99 docker-com+

top - 22:18:13 up 30 min,  1 user,  load average: 1.51, 0.49, 0.33
Tasks: 358 total,   1 running, 286 sleeping,   0 stopped,   0 zombie
%Cpu(s):  0.5 us,  0.2 sy,  0.0 ni, 99.3 id,  0.0 wa,  0.0 hi,  0.0 si,  0.0 st
KiB Mem : 16278772 total, 12270292 free,  1365620 used,  2642860 buff/cache
KiB Swap: 16630780 total, 16630780 free,        0 used. 14461952 avail Mem 

  PID USER      PR  NI    VIRT    RES    SHR S  %CPU %MEM     TIME+ COMMAND
25188 kenenth   20   0   42048   4064   3204 R   2.0  0.0   0:00.40 top
 1054 root      20   0 2884348  42640  23900 S   1.0  0.3   0:06.38 containerd
 1202 gdm       20   0 3332928 119008  66404 S   1.0  0.7   0:05.91 gnome-shell

top - 22:18:14 up 30 min,  1 user,  load average: 1.51, 0.49, 0.33
Tasks: 358 total,   1 running, 286 sleeping,   0 stopped,   0 zombie
%Cpu(s):  0.2 us,  0.4 sy,  0.0 ni, 99.1 id,  0.1 wa,  0.0 hi,  0.1 si,  0.0 st
KiB Mem : 16278772 total, 12270292 free,  1365620 used,  2642860 buff/cache
KiB Swap: 16630780 total, 16630780 free,        0 used. 14461952 avail Mem 

  PID USER      PR  NI    VIRT    RES    SHR S  %CPU %MEM     TIME+ COMMAND
 1054 root      20   0 2884348  42640  23900 S   1.0  0.3   0:06.39 containerd
 2691 root      20   0  434320  94612  61648 S   1.0  0.6   0:27.25 Xorg
25188 kenenth   20   0   42048   4064   3204 R   1.0  0.0   0:00.41 top

top - 22:18:15 up 30 min,  1 user,  load average: 1.51, 0.49, 0.33
Tasks: 358 total,   1 running, 286 sleeping,   0 stopped,   0 zombie
%Cpu(s):  0.1 us,  0.4 sy,  0.0 ni, 99.5 id,  0.0 wa,  0.0 hi,  0.0 si,  0.0 st
KiB Mem : 16278772 total, 12270316 free,  1365588 used,  2642868 buff/cache
KiB Swap: 16630780 total, 16630780 free,        0 used. 14461988 avail Mem 

  PID USER      PR  NI    VIRT    RES    SHR S  %CPU %MEM     TIME+ COMMAND
25188 kenenth   20   0   42048   4064   3204 R   2.0  0.0   0:00.43 top
  606 root      20   0       0      0      0 I   1.0  0.0   0:00.09 kworker/5:2
25191 kenenth   20   0 1666944  30224   9236 S   1.0  0.2   0:01.00 docker-com+

top - 22:18:16 up 30 min,  1 user,  load average: 1.51, 0.49, 0.33
Tasks: 358 total,   1 running, 286 sleeping,   0 stopped,   0 zombie
%Cpu(s):  0.2 us,  0.1 sy,  0.0 ni, 99.6 id,  0.0 wa,  0.0 hi,  0.0 si,  0.0 st
KiB Mem : 16278772 total, 12270316 free,  1365588 used,  2642868 buff/cache
KiB Swap: 16630780 total, 16630780 free,        0 used. 14461988 avail Mem 

  PID USER      PR  NI    VIRT    RES    SHR S  %CPU %MEM     TIME+ COMMAND
25188 kenenth   20   0   42048   4064   3204 R   2.0  0.0   0:00.45 top
  674 systemd+  20   0   70748   6248   5496 S   1.0  0.0   0:00.35 systemd-re+
  881 avahi     20   0   47648   4196   3356 S   1.0  0.0   0:00.97 avahi-daem+
 1669 root      20   0 3903040  90324  39260 S   1.0  0.6   0:04.56 dockerd
 2691 root      20   0  434320  94612  61648 S   1.0  0.6   0:27.26 Xorg

top - 22:18:17 up 30 min,  1 user,  load average: 1.51, 0.49, 0.33
Tasks: 358 total,   1 running, 286 sleeping,   0 stopped,   0 zombie
%Cpu(s):  0.0 us,  0.2 sy,  0.0 ni, 99.8 id,  0.0 wa,  0.0 hi,  0.0 si,  0.0 st
KiB Mem : 16278772 total, 12270316 free,  1365588 used,  2642868 buff/cache
KiB Swap: 16630780 total, 16630780 free,        0 used. 14461988 avail Mem 

  PID USER      PR  NI    VIRT    RES    SHR S  %CPU %MEM     TIME+ COMMAND
25188 kenenth   20   0   42048   4064   3204 R   1.0  0.0   0:00.46 top

top - 22:18:18 up 30 min,  1 user,  load average: 1.39, 0.48, 0.33
Tasks: 358 total,   1 running, 286 sleeping,   0 stopped,   0 zombie
%Cpu(s):  0.4 us,  0.2 sy,  0.0 ni, 99.4 id,  0.0 wa,  0.0 hi,  0.0 si,  0.0 st
KiB Mem : 16278772 total, 12270300 free,  1365600 used,  2642872 buff/cache
KiB Swap: 16630780 total, 16630780 free,        0 used. 14461976 avail Mem 

  PID USER      PR  NI    VIRT    RES    SHR S  %CPU %MEM     TIME+ COMMAND
  424 root     -51   0       0      0      0 S   1.0  0.0   0:01.58 irq/138-iw+
  946 root      20   0  560404  18800  13708 S   1.0  0.1   0:02.97 NetworkMan+
 1054 root      20   0 2884348  42640  23900 S   1.0  0.3   0:06.40 containerd
 1202 gdm       20   0 3332928 119008  66404 S   1.0  0.7   0:05.92 gnome-shell
 2691 root      20   0  434320  94612  61648 S   1.0  0.6   0:27.27 Xorg
25188 kenenth   20   0   42048   4064   3204 R   1.0  0.0   0:00.47 top
25191 kenenth   20   0 1666944  30224   9236 S   1.0  0.2   0:01.01 docker-com+

top - 22:18:19 up 30 min,  1 user,  load average: 1.39, 0.48, 0.33
Tasks: 358 total,   1 running, 286 sleeping,   0 stopped,   0 zombie
%Cpu(s):  0.1 us,  0.2 sy,  0.0 ni, 99.6 id,  0.0 wa,  0.0 hi,  0.0 si,  0.0 st
KiB Mem : 16278772 total, 12270300 free,  1365600 used,  2642872 buff/cache
KiB Swap: 16630780 total, 16630780 free,        0 used. 14461976 avail Mem 

  PID USER      PR  NI    VIRT    RES    SHR S  %CPU %MEM     TIME+ COMMAND
25188 kenenth   20   0   42048   4064   3204 R   2.0  0.0   0:00.49 top
 2691 root      20   0  434320  94612  61648 S   1.0  0.6   0:27.28 Xorg
23707 root      20   0       0      0      0 I   1.0  0.0   0:00.28 kworker/u1+

top - 22:18:20 up 30 min,  1 user,  load average: 1.39, 0.48, 0.33
Tasks: 358 total,   1 running, 286 sleeping,   0 stopped,   0 zombie
%Cpu(s):  0.0 us,  0.2 sy,  0.0 ni, 99.8 id,  0.0 wa,  0.0 hi,  0.0 si,  0.0 st
KiB Mem : 16278772 total, 12270300 free,  1365600 used,  2642872 buff/cache
KiB Swap: 16630780 total, 16630780 free,        0 used. 14461976 avail Mem 

  PID USER      PR  NI    VIRT    RES    SHR S  %CPU %MEM     TIME+ COMMAND
    8 root      20   0       0      0      0 I   1.0  0.0   0:00.87 rcu_sched
 1054 root      20   0 2884348  42640  23900 S   1.0  0.3   0:06.41 containerd
 1669 root      20   0 3903040  90324  39260 S   1.0  0.6   0:04.57 dockerd
25188 kenenth   20   0   42048   4064   3204 R   1.0  0.0   0:00.50 top

top - 22:18:21 up 30 min,  1 user,  load average: 1.39, 0.48, 0.33
Tasks: 358 total,   1 running, 286 sleeping,   0 stopped,   0 zombie
%Cpu(s):  1.1 us,  0.2 sy,  0.0 ni, 98.6 id,  0.0 wa,  0.0 hi,  0.0 si,  0.0 st
KiB Mem : 16278772 total, 12270316 free,  1365576 used,  2642880 buff/cache
KiB Swap: 16630780 total, 16630780 free,        0 used. 14461992 avail Mem 

  PID USER      PR  NI    VIRT    RES    SHR S  %CPU %MEM     TIME+ COMMAND
  907 message+  20   0   51676   6188   3884 S   2.0  0.0   0:03.66 dbus-daemon
  946 root      20   0  560404  18800  13708 S   2.0  0.1   0:02.99 NetworkMan+
25188 kenenth   20   0   42048   4064   3204 R   2.0  0.0   0:00.52 top
 1669 root      20   0 3903040  90324  39260 S   1.0  0.6   0:04.58 dockerd
 2691 root      20   0  434320  94612  61648 S   1.0  0.6   0:27.29 Xorg
 2692 root     -51   0       0      0      0 S   1.0  0.0   0:03.23 irq/135-nv+
 3083 kenenth   20   0 3610556 265192  96232 S   1.0  1.6   1:12.67 gnome-shell
 3196 kenenth   20   0  446396  10396   7936 S   1.0  0.1   0:01.08 gsd-sharing

top - 22:18:22 up 30 min,  1 user,  load average: 1.39, 0.48, 0.33
Tasks: 358 total,   1 running, 286 sleeping,   0 stopped,   0 zombie
%Cpu(s):  0.2 us,  0.4 sy,  0.0 ni, 99.4 id,  0.0 wa,  0.0 hi,  0.0 si,  0.0 st
KiB Mem : 16278772 total, 12270316 free,  1365576 used,  2642880 buff/cache
KiB Swap: 16630780 total, 16630780 free,        0 used. 14461992 avail Mem 

  PID USER      PR  NI    VIRT    RES    SHR S  %CPU %MEM     TIME+ COMMAND
 1054 root      20   0 2884348  42640  23900 S   1.0  0.3   0:06.42 containerd
25188 kenenth   20   0   42048   4064   3204 R   1.0  0.0   0:00.53 top
25191 kenenth   20   0 1666944  30224   9236 S   1.0  0.2   0:01.02 docker-com+

top - 22:18:23 up 30 min,  1 user,  load average: 1.28, 0.47, 0.32
Tasks: 358 total,   1 running, 286 sleeping,   0 stopped,   0 zombie
%Cpu(s):  0.1 us,  0.2 sy,  0.0 ni, 99.6 id,  0.0 wa,  0.0 hi,  0.0 si,  0.0 st
KiB Mem : 16278772 total, 12270316 free,  1365576 used,  2642880 buff/cache
KiB Swap: 16630780 total, 16630780 free,        0 used. 14461992 avail Mem 

  PID USER      PR  NI    VIRT    RES    SHR S  %CPU %MEM     TIME+ COMMAND
  946 root      20   0  560404  18800  13708 S   1.0  0.1   0:03.00 NetworkMan+
 1202 gdm       20   0 3332928 119008  66404 S   1.0  0.7   0:05.93 gnome-shell
25188 kenenth   20   0   42048   4064   3204 R   1.0  0.0   0:00.54 top
25549 root      20   0   10668   4032   3612 S   1.0  0.0   0:00.01 containerd+
25596 root      20   0   10668   4268   3676 S   1.0  0.0   0:00.01 containerd+
25639 root      20   0   10732   4680   4156 S   1.0  0.0   0:00.01 containerd+

top - 22:18:24 up 30 min,  1 user,  load average: 1.28, 0.47, 0.32
Tasks: 358 total,   1 running, 286 sleeping,   0 stopped,   0 zombie
%Cpu(s):  0.2 us,  0.2 sy,  0.0 ni, 99.5 id,  0.0 wa,  0.0 hi,  0.0 si,  0.0 st
KiB Mem : 16278772 total, 12274608 free,  1361264 used,  2642900 buff/cache
KiB Swap: 16630780 total, 16630780 free,        0 used. 14466312 avail Mem 

  PID USER      PR  NI    VIRT    RES    SHR S  %CPU %MEM     TIME+ COMMAND
25188 kenenth   20   0   42048   4064   3204 R   2.0  0.0   0:00.56 top
 1054 root      20   0 2884348  42640  23900 S   1.0  0.3   0:06.43 containerd
 2691 root      20   0  434320  94612  61648 S   1.0  0.6   0:27.30 Xorg

top - 22:18:25 up 30 min,  1 user,  load average: 1.28, 0.47, 0.32
Tasks: 358 total,   1 running, 286 sleeping,   0 stopped,   0 zombie
%Cpu(s):  0.1 us,  0.2 sy,  0.0 ni, 99.5 id,  0.0 wa,  0.0 hi,  0.1 si,  0.0 st
KiB Mem : 16278772 total, 12274608 free,  1361264 used,  2642900 buff/cache
KiB Swap: 16630780 total, 16630780 free,        0 used. 14466312 avail Mem 

  PID USER      PR  NI    VIRT    RES    SHR S  %CPU %MEM     TIME+ COMMAND
24892 root      20   0       0      0      0 I   1.0  0.0   0:00.04 kworker/7:2
25188 kenenth   20   0   42048   4064   3204 R   1.0  0.0   0:00.57 top
25191 kenenth   20   0 1666944  30224   9236 S   1.0  0.2   0:01.03 docker-com+

top - 22:18:26 up 30 min,  1 user,  load average: 1.28, 0.47, 0.32
Tasks: 358 total,   1 running, 286 sleeping,   0 stopped,   0 zombie
%Cpu(s):  0.1 us,  0.2 sy,  0.0 ni, 99.5 id,  0.0 wa,  0.0 hi,  0.1 si,  0.0 st
KiB Mem : 16278772 total, 12274608 free,  1361264 used,  2642900 buff/cache
KiB Swap: 16630780 total, 16630780 free,        0 used. 14466312 avail Mem 

  PID USER      PR  NI    VIRT    RES    SHR S  %CPU %MEM     TIME+ COMMAND
  881 avahi     20   0   47648   4196   3356 S   1.0  0.0   0:00.98 avahi-daem+
 1054 root      20   0 2884348  42640  23900 S   1.0  0.3   0:06.44 containerd
 2691 root      20   0  434320  94612  61648 S   1.0  0.6   0:27.31 Xorg
25188 kenenth   20   0   42048   4064   3204 R   1.0  0.0   0:00.58 top

top - 22:18:27 up 30 min,  1 user,  load average: 1.28, 0.47, 0.32
Tasks: 358 total,   1 running, 286 sleeping,   0 stopped,   0 zombie
%Cpu(s):  0.1 us,  0.0 sy,  0.0 ni, 99.9 id,  0.0 wa,  0.0 hi,  0.0 si,  0.0 st
KiB Mem : 16278772 total, 12274544 free,  1361320 used,  2642908 buff/cache
KiB Swap: 16630780 total, 16630780 free,        0 used. 14466256 avail Mem 

  PID USER      PR  NI    VIRT    RES    SHR S  %CPU %MEM     TIME+ COMMAND
25188 kenenth   20   0   42048   4064   3204 R   2.0  0.0   0:00.60 top
 1669 root      20   0 3903040  90324  39260 S   1.0  0.6   0:04.59 dockerd

top - 22:18:28 up 30 min,  1 user,  load average: 1.17, 0.46, 0.32
Tasks: 358 total,   1 running, 286 sleeping,   0 stopped,   0 zombie
%Cpu(s):  0.2 us,  0.4 sy,  0.0 ni, 99.4 id,  0.0 wa,  0.0 hi,  0.0 si,  0.0 st
KiB Mem : 16278772 total, 12274544 free,  1361320 used,  2642908 buff/cache
KiB Swap: 16630780 total, 16630780 free,        0 used. 14466256 avail Mem 

  PID USER      PR  NI    VIRT    RES    SHR S  %CPU %MEM     TIME+ COMMAND
25188 kenenth   20   0   42048   4064   3204 R   2.0  0.0   0:00.62 top
 1202 gdm       20   0 3332928 118964  66404 S   1.0  0.7   0:05.94 gnome-shell
 1669 root      20   0 3903040  90324  39260 S   1.0  0.6   0:04.60 dockerd
25191 kenenth   20   0 1666944  30224   9236 S   1.0  0.2   0:01.04 docker-com+

top - 22:18:29 up 30 min,  1 user,  load average: 1.17, 0.46, 0.32
Tasks: 358 total,   1 running, 286 sleeping,   0 stopped,   0 zombie
%Cpu(s):  0.2 us,  0.2 sy,  0.0 ni, 99.5 id,  0.0 wa,  0.0 hi,  0.0 si,  0.0 st
KiB Mem : 16278772 total, 12274544 free,  1361320 used,  2642908 buff/cache
KiB Swap: 16630780 total, 16630780 free,        0 used. 14466256 avail Mem 

  PID USER      PR  NI    VIRT    RES    SHR S  %CPU %MEM     TIME+ COMMAND
  424 root     -51   0       0      0      0 S   1.0  0.0   0:01.59 irq/138-iw+
 1054 root      20   0 2884348  42640  23900 S   1.0  0.3   0:06.45 containerd
 2691 root      20   0  434320  94612  61648 S   1.0  0.6   0:27.32 Xorg
25188 kenenth   20   0   42048   4064   3204 R   1.0  0.0   0:00.63 top

top - 22:18:30 up 30 min,  1 user,  load average: 1.17, 0.46, 0.32
Tasks: 358 total,   1 running, 286 sleeping,   0 stopped,   0 zombie
%Cpu(s):  0.4 us,  0.4 sy,  0.0 ni, 99.3 id,  0.0 wa,  0.0 hi,  0.0 si,  0.0 st
KiB Mem : 16278772 total, 12282448 free,  1353412 used,  2642912 buff/cache
KiB Swap: 16630780 total, 16630780 free,        0 used. 14474164 avail Mem 

  PID USER      PR  NI    VIRT    RES    SHR S  %CPU %MEM     TIME+ COMMAND
25188 kenenth   20   0   42048   4064   3204 R   1.0  0.0   0:00.64 top
26891 root      20   0    9260   4780   4124 S   1.0  0.0   0:00.01 containerd+
26949 root      20   0    9324   5048   4280 S   1.0  0.0   0:00.01 containerd+
26950 root      20   0    9324   4672   4060 S   1.0  0.0   0:00.01 containerd+

top - 22:18:31 up 30 min,  1 user,  load average: 1.17, 0.46, 0.32
Tasks: 358 total,   1 running, 286 sleeping,   0 stopped,   0 zombie
%Cpu(s):  0.0 us,  0.5 sy,  0.0 ni, 99.5 id,  0.0 wa,  0.0 hi,  0.0 si,  0.0 st
KiB Mem : 16278772 total, 12282448 free,  1353412 used,  2642912 buff/cache
KiB Swap: 16630780 total, 16630780 free,        0 used. 14474164 avail Mem 

  PID USER      PR  NI    VIRT    RES    SHR S  %CPU %MEM     TIME+ COMMAND
 1054 root      20   0 2884348  42640  23900 S   1.0  0.3   0:06.46 containerd
 2691 root      20   0  434320  94612  61648 S   1.0  0.6   0:27.33 Xorg
25188 kenenth   20   0   42048   4064   3204 R   1.0  0.0   0:00.65 top

top - 22:18:32 up 30 min,  1 user,  load average: 1.17, 0.46, 0.32
Tasks: 358 total,   1 running, 286 sleeping,   0 stopped,   0 zombie
%Cpu(s):  0.1 us,  0.5 sy,  0.0 ni, 99.3 id,  0.1 wa,  0.0 hi,  0.0 si,  0.0 st
KiB Mem : 16278772 total, 12282448 free,  1353412 used,  2642912 buff/cache
KiB Swap: 16630780 total, 16630780 free,        0 used. 14474164 avail Mem 

  PID USER      PR  NI    VIRT    RES    SHR S  %CPU %MEM     TIME+ COMMAND
25188 kenenth   20   0   42048   4064   3204 R   2.0  0.0   0:00.67 top
 1669 root      20   0 3903040  90324  39260 S   1.0  0.6   0:04.61 dockerd
25191 kenenth   20   0 1666944  30224   9236 S   1.0  0.2   0:01.05 docker-com+

top - 22:18:33 up 30 min,  1 user,  load average: 1.08, 0.46, 0.32
Tasks: 358 total,   1 running, 286 sleeping,   0 stopped,   0 zombie
%Cpu(s):  0.2 us,  0.2 sy,  0.0 ni, 99.5 id,  0.0 wa,  0.0 hi,  0.0 si,  0.0 st
KiB Mem : 16278772 total, 12282976 free,  1352876 used,  2642920 buff/cache
KiB Swap: 16630780 total, 16630780 free,        0 used. 14474700 avail Mem 

  PID USER      PR  NI    VIRT    RES    SHR S  %CPU %MEM     TIME+ COMMAND
 3083 kenenth   20   0 3610556 265192  96232 S   1.0  1.6   1:12.68 gnome-shell
25188 kenenth   20   0   42048   4064   3204 R   1.0  0.0   0:00.68 top
25191 kenenth   20   0 1666944  30224   9236 S   1.0  0.2   0:01.06 docker-com+

top - 22:18:34 up 30 min,  1 user,  load average: 1.08, 0.46, 0.32
Tasks: 358 total,   1 running, 286 sleeping,   0 stopped,   0 zombie
%Cpu(s):  0.1 us,  0.2 sy,  0.0 ni, 99.6 id,  0.0 wa,  0.0 hi,  0.0 si,  0.0 st
KiB Mem : 16278772 total, 12282976 free,  1352876 used,  2642920 buff/cache
KiB Swap: 16630780 total, 16630780 free,        0 used. 14474700 avail Mem 

  PID USER      PR  NI    VIRT    RES    SHR S  %CPU %MEM     TIME+ COMMAND
25188 kenenth   20   0   42048   4064   3204 R   2.0  0.0   0:00.70 top
 2691 root      20   0  434320  94612  61648 S   1.0  0.6   0:27.34 Xorg

top - 22:18:35 up 30 min,  1 user,  load average: 1.08, 0.46, 0.32
Tasks: 358 total,   1 running, 286 sleeping,   0 stopped,   0 zombie
%Cpu(s):  0.2 us,  0.2 sy,  0.0 ni, 99.4 id,  0.0 wa,  0.0 hi,  0.1 si,  0.0 st
KiB Mem : 16278772 total, 12282976 free,  1352876 used,  2642920 buff/cache
KiB Swap: 16630780 total, 16630780 free,        0 used. 14474700 avail Mem 

  PID USER      PR  NI    VIRT    RES    SHR S  %CPU %MEM     TIME+ COMMAND
 1054 root      20   0 2884348  42640  23900 S   2.0  0.3   0:06.48 containerd
 1202 gdm       20   0 3332928 118964  66404 S   1.0  0.7   0:05.95 gnome-shell
 1669 root      20   0 3903040  90324  39260 S   1.0  0.6   0:04.62 dockerd
25188 kenenth   20   0   42048   4064   3204 R   1.0  0.0   0:00.71 top

top - 22:18:36 up 30 min,  1 user,  load average: 1.08, 0.46, 0.32
Tasks: 358 total,   1 running, 286 sleeping,   0 stopped,   0 zombie
%Cpu(s):  0.2 us,  0.1 sy,  0.0 ni, 99.6 id,  0.0 wa,  0.0 hi,  0.0 si,  0.0 st
KiB Mem : 16278772 total, 12283100 free,  1352748 used,  2642924 buff/cache
KiB Swap: 16630780 total, 16630780 free,        0 used. 14474824 avail Mem 

  PID USER      PR  NI    VIRT    RES    SHR S  %CPU %MEM     TIME+ COMMAND
  946 root      20   0  560404  18800  13708 S   1.0  0.1   0:03.01 NetworkMan+
 3196 kenenth   20   0  446396  10396   7936 S   1.0  0.1   0:01.09 gsd-sharing
25188 kenenth   20   0   42048   4064   3204 R   1.0  0.0   0:00.72 top
25191 kenenth   20   0 1666944  30224   9236 S   1.0  0.2   0:01.07 docker-com+

top - 22:18:37 up 30 min,  1 user,  load average: 1.08, 0.46, 0.32
Tasks: 358 total,   1 running, 286 sleeping,   0 stopped,   0 zombie
%Cpu(s):  0.1 us,  0.2 sy,  0.0 ni, 99.6 id,  0.0 wa,  0.0 hi,  0.0 si,  0.0 st
KiB Mem : 16278772 total, 12283100 free,  1352748 used,  2642924 buff/cache
KiB Swap: 16630780 total, 16630780 free,        0 used. 14474824 avail Mem 

  PID USER      PR  NI    VIRT    RES    SHR S  %CPU %MEM     TIME+ COMMAND
 2691 root      20   0  434320  94612  61648 S   2.0  0.6   0:27.36 Xorg
25188 kenenth   20   0   42048   4064   3204 R   2.0  0.0   0:00.74 top

top - 22:18:38 up 30 min,  1 user,  load average: 0.99, 0.45, 0.32
Tasks: 358 total,   1 running, 286 sleeping,   0 stopped,   0 zombie
%Cpu(s):  0.2 us,  0.2 sy,  0.0 ni, 99.5 id,  0.0 wa,  0.0 hi,  0.0 si,  0.0 st
KiB Mem : 16278772 total, 12283100 free,  1352748 used,  2642924 buff/cache
KiB Swap: 16630780 total, 16630780 free,        0 used. 14474824 avail Mem 

  PID USER      PR  NI    VIRT    RES    SHR S  %CPU %MEM     TIME+ COMMAND
25188 kenenth   20   0   42048   4064   3204 R   1.0  0.0   0:00.75 top

top - 22:18:39 up 30 min,  1 user,  load average: 0.99, 0.45, 0.32
Tasks: 358 total,   1 running, 286 sleeping,   0 stopped,   0 zombie
%Cpu(s):  0.2 us,  0.2 sy,  0.0 ni, 99.5 id,  0.0 wa,  0.0 hi,  0.0 si,  0.0 st
KiB Mem : 16278772 total, 12283108 free,  1352732 used,  2642932 buff/cache
KiB Swap: 16630780 total, 16630780 free,        0 used. 14474832 avail Mem 

  PID USER      PR  NI    VIRT    RES    SHR S  %CPU %MEM     TIME+ COMMAND
25188 kenenth   20   0   42048   4064   3204 R   2.0  0.0   0:00.77 top
    8 root      20   0       0      0      0 I   1.0  0.0   0:00.88 rcu_sched
  424 root     -51   0       0      0      0 S   1.0  0.0   0:01.60 irq/138-iw+
  881 avahi     20   0   47648   4196   3356 S   1.0  0.0   0:00.99 avahi-daem+
 1054 root      20   0 2884348  42640  23900 S   1.0  0.3   0:06.49 containerd
 1669 root      20   0 3903040  90324  39260 S   1.0  0.6   0:04.63 dockerd

top - 22:18:40 up 30 min,  1 user,  load average: 0.99, 0.45, 0.32
Tasks: 358 total,   1 running, 286 sleeping,   0 stopped,   0 zombie
%Cpu(s):  0.1 us,  0.2 sy,  0.0 ni, 99.6 id,  0.0 wa,  0.0 hi,  0.0 si,  0.0 st
KiB Mem : 16278772 total, 12283108 free,  1352732 used,  2642932 buff/cache
KiB Swap: 16630780 total, 16630780 free,        0 used. 14474832 avail Mem 

  PID USER      PR  NI    VIRT    RES    SHR S  %CPU %MEM     TIME+ COMMAND
25188 kenenth   20   0   42048   4064   3204 R   2.0  0.0   0:00.79 top
 1054 root      20   0 2884348  42640  23900 S   1.0  0.3   0:06.50 containerd
25191 kenenth   20   0 1666944  30224   9236 S   1.0  0.2   0:01.08 docker-com+

top - 22:18:41 up 30 min,  1 user,  load average: 0.99, 0.45, 0.32
Tasks: 358 total,   1 running, 286 sleeping,   0 stopped,   0 zombie
%Cpu(s):  0.2 us,  0.2 sy,  0.0 ni, 99.5 id,  0.0 wa,  0.0 hi,  0.0 si,  0.0 st
KiB Mem : 16278772 total, 12283108 free,  1352732 used,  2642932 buff/cache
KiB Swap: 16630780 total, 16630780 free,        0 used. 14474832 avail Mem 

  PID USER      PR  NI    VIRT    RES    SHR S  %CPU %MEM     TIME+ COMMAND
  855 root      20   0  110512   3528   3192 S   1.0  0.0   0:00.30 irqbalance
 2691 root      20   0  434320  94612  61648 S   1.0  0.6   0:27.37 Xorg
25188 kenenth   20   0   42048   4064   3204 R   1.0  0.0   0:00.80 top

top - 22:18:42 up 30 min,  1 user,  load average: 0.99, 0.45, 0.32
Tasks: 358 total,   1 running, 286 sleeping,   0 stopped,   0 zombie
%Cpu(s):  0.2 us,  0.1 sy,  0.0 ni, 99.5 id,  0.0 wa,  0.0 hi,  0.1 si,  0.0 st
KiB Mem : 16278772 total, 12283100 free,  1352736 used,  2642936 buff/cache
KiB Swap: 16630780 total, 16630780 free,        0 used. 14474824 avail Mem 

  PID USER      PR  NI    VIRT    RES    SHR S  %CPU %MEM     TIME+ COMMAND
    5 root      20   0       0      0      0 I   1.0  0.0   0:00.19 kworker/u1+
 2691 root      20   0  434320  94612  61648 S   1.0  0.6   0:27.38 Xorg
25188 kenenth   20   0   42048   4064   3204 R   1.0  0.0   0:00.81 top

top - 22:18:43 up 30 min,  1 user,  load average: 0.91, 0.44, 0.32
Tasks: 354 total,   2 running, 283 sleeping,   0 stopped,   0 zombie
%Cpu(s):  1.5 us,  1.4 sy,  0.0 ni, 97.0 id,  0.1 wa,  0.0 hi,  0.0 si,  0.0 st
KiB Mem : 16278772 total, 12283100 free,  1352736 used,  2642936 buff/cache
KiB Swap: 16630780 total, 16630780 free,        0 used. 14474824 avail Mem 

  PID USER      PR  NI    VIRT    RES    SHR S  %CPU %MEM     TIME+ COMMAND
 1669 root      20   0 3903040  90452  39260 S   2.9  0.6   0:04.66 dockerd
25191 kenenth   20   0 1666944  30224   9236 S   2.0  0.2   0:01.10 docker-com+
  323 root      20   0   46280   4684   3172 S   1.0  0.0   0:01.34 systemd-ud+
  907 message+  20   0   51676   6188   3884 S   1.0  0.0   0:03.67 dbus-daemon
 1054 root      20   0 2884348  42640  23900 S   1.0  0.3   0:06.51 containerd
 2691 root      20   0  434320  94612  61648 S   1.0  0.6   0:27.39 Xorg
 3083 kenenth   20   0 3610556 265192  96232 S   1.0  1.6   1:12.69 gnome-shell
25188 kenenth   20   0   42048   4064   3204 R   1.0  0.0   0:00.82 top
27681 root      20   0  438032  34692  20812 R   1.0  0.2   0:00.01 containerd

top - 22:18:44 up 30 min,  1 user,  load average: 0.91, 0.44, 0.32
Tasks: 348 total,   1 running, 276 sleeping,   0 stopped,   0 zombie
%Cpu(s):  8.0 us,  4.6 sy,  0.0 ni, 87.0 id,  0.3 wa,  0.0 hi,  0.1 si,  0.0 st
KiB Mem : 16278772 total, 12283100 free,  1352736 used,  2642936 buff/cache
KiB Swap: 16630780 total, 16630780 free,        0 used. 14474824 avail Mem 

  PID USER      PR  NI    VIRT    RES    SHR S  %CPU %MEM     TIME+ COMMAND
 3167 kenenth   20   0  299576   8660   7036 S  12.9  0.1   0:03.20 gvfs-udisk+
  907 message+  20   0   51676   6188   3884 S   7.9  0.0   0:03.75 dbus-daemon
 1202 gdm       20   0 3332928 119016  66404 S   6.9  0.7   0:06.02 gnome-shell
  946 root      20   0  560404  18800  13708 S   5.0  0.1   0:03.06 NetworkMan+
 3083 kenenth   20   0 3610556 265192  96232 S   5.0  1.6   1:12.74 gnome-shell
    1 root      20   0  226000   9536   6604 S   4.0  0.1   0:04.39 systemd
 1155 gdm       20   0   77528   8516   6580 S   4.0  0.1   0:01.03 systemd
 1669 root      20   0 3903040  90476  39260 S   4.0  0.6   0:04.70 dockerd
 3196 kenenth   20   0  446396  10396   7936 S   4.0  0.1   0:01.13 gsd-sharing
 3235 kenenth   20   0  357736   7468   6524 S   4.0  0.0   0:00.97 gsd-housek+
    5 root      20   0       0      0      0 I   2.0  0.0   0:00.21 kworker/u1+
  299 root      19  -1  177280  33784  32572 S   2.0  0.2   0:00.82 systemd-jo+
  323 root      20   0   46280   4684   3172 S   2.0  0.0   0:01.36 systemd-ud+
 1054 root      20   0 2885404  43032  24092 S   2.0  0.3   0:06.53 containerd
 1665 whoopsie  20   0  462312  12940  11272 S   2.0  0.1   0:00.30 whoopsie
 2671 kenenth   20   0   77556   8540   6584 S   2.0  0.1   0:01.18 systemd
 3133 kenenth   20   0  767332  31036  25592 S   2.0  0.2   0:00.21 goa-daemon
 3324 kenenth   20   0  361252   7636   6324 S   2.0  0.0   0:00.41 gvfsd-trash
25188 kenenth   20   0   42048   4064   3204 R   2.0  0.0   0:00.84 top
  433 root       0 -20       0      0      0 I   1.0  0.0   0:00.01 kworker/0:+
  884 root      20   0  427264   9188   7828 S   1.0  0.1   0:00.08 ModemManag+
  891 root      20   0  503160  10876   8704 S   1.0  0.1   0:00.24 udisksd
  941 root      20   0   45148   8164   7188 S   1.0  0.1   0:00.12 wpa_suppli+
  948 root      20   0   70696   6152   5344 S   1.0  0.0   0:00.45 systemd-lo+
 1409 root      20   0  441028  36616  12808 S   1.0  0.2   0:24.29 packagekitd
 3194 kenenth   20   0  416236   5928   5276 S   1.0  0.0   0:00.15 gsd-rfkill
 3365 kenenth   20   0 1128912  62188  23164 S   1.0  0.4   0:00.65 evolution-+
 3387 kenenth   20   0 1010164  26844  23452 S   1.0  0.2   0:00.24 evolution-+
 6922 kenenth   20   0 1391032 173972  38356 S   1.0  1.1   0:09.34 gnome-soft+
20771 kenenth   20   0  780684  31600  26056 S   1.0  0.2   0:00.22 deja-dup-m+
22203 root      20   0  305708  11396   9848 S   1.0  0.1   0:00.17 cups-brows+
25191 kenenth   20   0 1666944  30224   9236 S   1.0  0.2   0:01.11 docker-com+
26065 root      20   0    1520      4      0 S   1.0  0.0   0:00.01 ping

top - 22:18:45 up 30 min,  1 user,  load average: 0.91, 0.44, 0.32
Tasks: 344 total,   1 running, 271 sleeping,   0 stopped,   0 zombie
%Cpu(s):  6.6 us,  3.4 sy,  0.0 ni, 89.7 id,  0.2 wa,  0.0 hi,  0.0 si,  0.0 st
KiB Mem : 16278772 total, 12293984 free,  1342884 used,  2641904 buff/cache
KiB Swap: 16630780 total, 16630780 free,        0 used. 14484924 avail Mem 

  PID USER      PR  NI    VIRT    RES    SHR S  %CPU %MEM     TIME+ COMMAND
 3167 kenenth   20   0  299576   8660   7036 S  10.8  0.1   0:03.31 gvfs-udisk+
  907 message+  20   0   51676   6188   3884 S   4.9  0.0   0:03.80 dbus-daemon
 1669 root      20   0 3903040  90484  39260 S   3.9  0.6   0:04.74 dockerd
 3083 kenenth   20   0 3610556 265192  96232 S   3.9  1.6   1:12.78 gnome-shell
    1 root      20   0  226000   9536   6604 S   2.9  0.1   0:04.42 systemd
  946 root      20   0  560404  18800  13708 D   2.9  0.1   0:03.09 NetworkMan+
 1202 gdm       20   0 3332928 119016  66404 S   2.9  0.7   0:06.05 gnome-shell
 2671 kenenth   20   0   77556   8540   6584 S   2.9  0.1   0:01.21 systemd
 3235 kenenth   20   0  357736   7468   6524 S   2.9  0.0   0:01.00 gsd-housek+
    5 root      20   0       0      0      0 I   2.0  0.0   0:00.23 kworker/u1+
  891 root      20   0  503160  10876   8704 S   2.0  0.1   0:00.26 udisksd
 1155 gdm       20   0   77528   8516   6580 S   2.0  0.1   0:01.05 systemd
 3196 kenenth   20   0  446396  10396   7936 S   2.0  0.1   0:01.15 gsd-sharing
25188 kenenth   20   0   42048   4064   3204 R   2.0  0.0   0:00.86 top
25191 kenenth   20   0 1666944  30224   9236 S   2.0  0.2   0:01.13 docker-com+
   22 root      20   0       0      0      0 S   1.0  0.0   0:00.05 ksoftirqd/2
  299 root      19  -1  177280  33800  32588 S   1.0  0.2   0:00.83 systemd-jo+
  323 root      20   0   46280   4684   3172 S   1.0  0.0   0:01.37 systemd-ud+
  857 root      20   0  179856   9568   8756 S   1.0  0.1   0:00.39 thermald
  950 root      20   0 1170148  34320  18032 S   1.0  0.2   0:04.27 snapd
 1054 root      20   0 2885404  43032  24092 S   1.0  0.3   0:06.54 containerd
 1409 root      20   0  441028  36616  12808 S   1.0  0.2   0:24.30 packagekitd
 1665 whoopsie  20   0  462312  12940  11272 S   1.0  0.1   0:00.31 whoopsie
 3133 kenenth   20   0  767332  31036  25592 S   1.0  0.2   0:00.22 goa-daemon
 3324 kenenth   20   0  361252   7636   6324 S   1.0  0.0   0:00.42 gvfsd-trash
 3543 kenenth   20   0  426324   8992   7728 S   1.0  0.1   0:00.18 zeitgeist-+
22203 root      20   0  305708  11396   9848 S   1.0  0.1   0:00.18 cups-brows+

top - 22:18:46 up 30 min,  1 user,  load average: 0.91, 0.44, 0.32
Tasks: 344 total,   1 running, 271 sleeping,   0 stopped,   0 zombie
%Cpu(s):  4.1 us,  1.5 sy,  0.0 ni, 94.3 id,  0.1 wa,  0.0 hi,  0.0 si,  0.0 st
KiB Mem : 16278772 total, 12293984 free,  1342884 used,  2641904 buff/cache
KiB Swap: 16630780 total, 16630780 free,        0 used. 14484924 avail Mem 

  PID USER      PR  NI    VIRT    RES    SHR S  %CPU %MEM     TIME+ COMMAND
 1202 gdm       20   0 3332928 119016  66404 S   4.9  0.7   0:06.10 gnome-shell
 3167 kenenth   20   0  299576   8660   7036 S   4.9  0.1   0:03.36 gvfs-udisk+
  907 message+  20   0   51676   6188   3884 S   3.9  0.0   0:03.84 dbus-daemon
  946 root      20   0  560404  18800  13708 S   2.9  0.1   0:03.12 NetworkMan+
    1 root      20   0  226000   9536   6604 S   2.0  0.1   0:04.44 systemd
  323 root      20   0   46280   4684   3172 S   2.0  0.0   0:01.39 systemd-ud+
 1669 root      20   0 3903040  90488  39260 S   2.0  0.6   0:04.76 dockerd
 3083 kenenth   20   0 3610556 265192  96232 S   2.0  1.6   1:12.80 gnome-shell
 3196 kenenth   20   0  446396  10396   7936 S   2.0  0.1   0:01.17 gsd-sharing
25188 kenenth   20   0   42048   4064   3204 R   2.0  0.0   0:00.88 top
    5 root      20   0       0      0      0 I   1.0  0.0   0:00.24 kworker/u1+
    8 root      20   0       0      0      0 I   1.0  0.0   0:00.89 rcu_sched
  674 systemd+  20   0   70748   6248   5496 S   1.0  0.0   0:00.36 systemd-re+
  861 syslog    20   0  271460   5204   3752 S   1.0  0.0   0:00.25 rsyslogd
  948 root      20   0   70696   6152   5344 S   1.0  0.0   0:00.46 systemd-lo+
  950 root      20   0 1170148  34320  18032 S   1.0  0.2   0:04.28 snapd
 1054 root      20   0 2885404  43032  24092 S   1.0  0.3   0:06.55 containerd
 1155 gdm       20   0   77528   8516   6580 S   1.0  0.1   0:01.06 systemd
 1401 root      20   0  289760   6780   6040 S   1.0  0.0   0:00.24 boltd
 2671 kenenth   20   0   77556   8540   6584 S   1.0  0.1   0:01.22 systemd
 2691 root      20   0  434320  94612  61648 S   1.0  0.6   0:27.40 Xorg
 3235 kenenth   20   0  357736   7468   6524 S   1.0  0.0   0:01.01 gsd-housek+
 3365 kenenth   20   0 1128912  62188  23164 S   1.0  0.4   0:00.66 evolution-+
 3387 kenenth   20   0 1010164  26844  23452 S   1.0  0.2   0:00.25 evolution-+
 6922 kenenth   20   0 1391032 173972  38356 S   1.0  1.1   0:09.35 gnome-soft+
20771 kenenth   20   0  780684  31600  26056 S   1.0  0.2   0:00.23 deja-dup-m+

top - 22:18:48 up 30 min,  1 user,  load average: 0.91, 0.44, 0.32
Tasks: 341 total,   1 running, 268 sleeping,   0 stopped,   0 zombie
%Cpu(s):  4.5 us,  2.9 sy,  0.0 ni, 92.4 id,  0.1 wa,  0.0 hi,  0.1 si,  0.0 st
KiB Mem : 16278772 total, 12298656 free,  1338648 used,  2641468 buff/cache
KiB Swap: 16630780 total, 16630780 free,        0 used. 14489260 avail Mem 

  PID USER      PR  NI    VIRT    RES    SHR S  %CPU %MEM     TIME+ COMMAND
 3167 kenenth   20   0  299576   8660   7036 S   4.9  0.1   0:03.41 gvfs-udisk+
  907 message+  20   0   51676   6188   3884 S   3.9  0.0   0:03.88 dbus-daemon
 1669 root      20   0 3903040  90524  39260 S   3.9  0.6   0:04.80 dockerd
  946 root      20   0  560404  18800  13708 S   2.9  0.1   0:03.15 NetworkMan+
 1202 gdm       20   0 3332928 119024  66404 S   2.9  0.7   0:06.13 gnome-shell
 3083 kenenth   20   0 3610556 265256  96232 S   2.9  1.6   1:12.83 gnome-shell
 1155 gdm       20   0   77528   8516   6580 S   2.0  0.1   0:01.08 systemd
 2671 kenenth   20   0   77556   8540   6584 S   2.0  0.1   0:01.24 systemd
 3196 kenenth   20   0  446396  10396   7936 S   2.0  0.1   0:01.19 gsd-sharing
25191 kenenth   20   0 1650552  30208   9236 S   2.0  0.2   0:01.15 docker-com+
    1 root      20   0  226000   9536   6604 S   1.0  0.1   0:04.45 systemd
    5 root      20   0       0      0      0 I   1.0  0.0   0:00.25 kworker/u1+
   73 root      20   0       0      0      0 I   1.0  0.0   0:00.15 kworker/6:1
  299 root      19  -1  177280  33828  32616 S   1.0  0.2   0:00.84 systemd-jo+
  323 root      20   0   46280   4684   3172 S   1.0  0.0   0:01.40 systemd-ud+
  857 root      20   0  179856   9568   8756 S   1.0  0.1   0:00.40 thermald
  881 avahi     20   0   47648   4196   3356 S   1.0  0.0   0:01.00 avahi-daem+
  948 root      20   0   70696   6152   5344 S   1.0  0.0   0:00.47 systemd-lo+
 1409 root      20   0  441028  36616  12808 S   1.0  0.2   0:24.31 packagekitd
 1665 whoopsie  20   0  462312  12940  11272 S   1.0  0.1   0:00.32 whoopsie
 3133 kenenth   20   0  767332  31036  25592 S   1.0  0.2   0:00.23 goa-daemon
 3194 kenenth   20   0  416236   5928   5276 S   1.0  0.0   0:00.16 gsd-rfkill
 3235 kenenth   20   0  357736   7468   6524 S   1.0  0.0   0:01.02 gsd-housek+
 3543 kenenth   20   0  426324   8992   7728 S   1.0  0.1   0:00.19 zeitgeist-+
25188 kenenth   20   0   42048   4064   3204 R   1.0  0.0   0:00.89 top

top - 22:18:49 up 30 min,  1 user,  load average: 1.00, 0.47, 0.32
Tasks: 338 total,   1 running, 265 sleeping,   0 stopped,   0 zombie
%Cpu(s):  4.5 us,  2.9 sy,  0.0 ni, 92.5 id,  0.1 wa,  0.0 hi,  0.0 si,  0.0 st
KiB Mem : 16278772 total, 12298656 free,  1338648 used,  2641468 buff/cache
KiB Swap: 16630780 total, 16630780 free,        0 used. 14489260 avail Mem 

  PID USER      PR  NI    VIRT    RES    SHR S  %CPU %MEM     TIME+ COMMAND
 3083 kenenth   20   0 3610556 265256  96232 S   5.9  1.6   1:12.89 gnome-shell
  907 message+  20   0   51676   6188   3884 S   3.9  0.0   0:03.92 dbus-daemon
 1202 gdm       20   0 3332928 119024  66404 S   3.9  0.7   0:06.17 gnome-shell
 3167 kenenth   20   0  299576   8660   7036 S   3.9  0.1   0:03.45 gvfs-udisk+
  946 root      20   0  560404  18800  13708 S   2.9  0.1   0:03.18 NetworkMan+
 1669 root      20   0 3903040  90544  39260 S   2.9  0.6   0:04.83 dockerd
    1 root      20   0  226000   9536   6604 S   2.0  0.1   0:04.47 systemd
 1054 root      20   0 2885404  43032  24092 S   2.0  0.3   0:06.57 containerd
 3196 kenenth   20   0  446396  10396   7936 S   2.0  0.1   0:01.21 gsd-sharing
25188 kenenth   20   0   42048   4064   3204 R   2.0  0.0   0:00.91 top
    5 root      20   0       0      0      0 I   1.0  0.0   0:00.26 kworker/u1+
  323 root      20   0   46280   4684   3172 S   1.0  0.0   0:01.41 systemd-ud+
  950 root      20   0 1170148  34320  18032 S   1.0  0.2   0:04.29 snapd
 1665 whoopsie  20   0  462312  12940  11272 S   1.0  0.1   0:00.33 whoopsie
 2671 kenenth   20   0   77556   8540   6584 S   1.0  0.1   0:01.25 systemd
 3235 kenenth   20   0  357736   7468   6524 S   1.0  0.0   0:01.03 gsd-housek+
 3324 kenenth   20   0  361252   7636   6324 S   1.0  0.0   0:00.43 gvfsd-trash
 3365 kenenth   20   0 1128912  62188  23164 S   1.0  0.4   0:00.67 evolution-+
 3387 kenenth   20   0 1010164  26844  23452 S   1.0  0.2   0:00.26 evolution-+
 3543 kenenth   20   0  426324   8992   7728 S   1.0  0.1   0:00.20 zeitgeist-+
 6922 kenenth   20   0 1391032 173972  38356 S   1.0  1.1   0:09.36 gnome-soft+
22203 root      20   0  305708  11396   9848 S   1.0  0.1   0:00.19 cups-brows+
25191 kenenth   20   0 1642356  30200   9236 S   1.0  0.2   0:01.16 docker-com+

top - 22:18:50 up 30 min,  1 user,  load average: 1.00, 0.47, 0.32
Tasks: 335 total,   1 running, 262 sleeping,   0 stopped,   0 zombie
%Cpu(s):  4.2 us,  3.3 sy,  0.0 ni, 92.2 id,  0.1 wa,  0.0 hi,  0.1 si,  0.0 st
KiB Mem : 16278772 total, 12298656 free,  1338648 used,  2641468 buff/cache
KiB Swap: 16630780 total, 16630780 free,        0 used. 14489260 avail Mem 

  PID USER      PR  NI    VIRT    RES    SHR S  %CPU %MEM     TIME+ COMMAND
 3167 kenenth   20   0  299576   8660   7036 S   5.9  0.1   0:03.51 gvfs-udisk+
  323 root      20   0   46280   4684   3172 S   3.0  0.0   0:01.44 systemd-ud+
  907 message+  20   0   51676   6188   3884 S   3.0  0.0   0:03.95 dbus-daemon
 1202 gdm       20   0 3332928 119024  66404 S   3.0  0.7   0:06.20 gnome-shell
 1669 root      20   0 3903040  90620  39260 S   3.0  0.6   0:04.86 dockerd
    1 root      20   0  226000   9536   6604 S   2.0  0.1   0:04.49 systemd
  299 root      19  -1  177280  33872  32656 S   2.0  0.2   0:00.86 systemd-jo+
  946 root      20   0  560404  18800  13708 S   2.0  0.1   0:03.20 NetworkMan+
 1155 gdm       20   0   77528   8516   6580 S   2.0  0.1   0:01.10 systemd
 2671 kenenth   20   0   77556   8540   6584 S   2.0  0.1   0:01.27 systemd
 3196 kenenth   20   0  446396  10396   7936 S   2.0  0.1   0:01.23 gsd-sharing
 3235 kenenth   20   0  357736   7468   6524 S   2.0  0.0   0:01.05 gsd-housek+
25188 kenenth   20   0   42048   4064   3204 R   2.0  0.0   0:00.93 top
    5 root      20   0       0      0      0 I   1.0  0.0   0:00.27 kworker/u1+
  861 syslog    20   0  271460   5204   3752 S   1.0  0.0   0:00.26 rsyslogd
  891 root      20   0  503160  10876   8704 S   1.0  0.1   0:00.27 udisksd
  950 root      20   0 1170148  34320  18032 S   1.0  0.2   0:04.30 snapd
 1401 root      20   0  289760   6780   6040 S   1.0  0.0   0:00.25 boltd
 1665 whoopsie  20   0  462312  12940  11272 S   1.0  0.1   0:00.34 whoopsie
 3083 kenenth   20   0 3610556 265256  96232 S   1.0  1.6   1:12.90 gnome-shell
 3324 kenenth   20   0  361252   7636   6324 S   1.0  0.0   0:00.44 gvfsd-trash
 6922 kenenth   20   0 1391032 173972  38356 S   1.0  1.1   0:09.37 gnome-soft+
20771 kenenth   20   0  780684  31600  26056 S   1.0  0.2   0:00.24 deja-dup-m+
23707 root      20   0       0      0      0 I   1.0  0.0   0:00.29 kworker/u1+

top - 22:18:51 up 30 min,  1 user,  load average: 1.00, 0.47, 0.32
Tasks: 334 total,   2 running, 260 sleeping,   0 stopped,   0 zombie
%Cpu(s):  0.6 us,  0.4 sy,  0.0 ni, 99.0 id,  0.0 wa,  0.0 hi,  0.0 si,  0.0 st
KiB Mem : 16278772 total, 12300588 free,  1336944 used,  2641240 buff/cache
KiB Swap: 16630780 total, 16630780 free,        0 used. 14491064 avail Mem 

  PID USER      PR  NI    VIRT    RES    SHR S  %CPU %MEM     TIME+ COMMAND
  424 root     -51   0       0      0      0 S   1.0  0.0   0:01.61 irq/138-iw+
 1409 root      20   0  441028  36616  12808 S   1.0  0.2   0:24.32 packagekitd
 2691 root      20   0  434320  94612  61648 S   1.0  0.6   0:27.41 Xorg
 3365 kenenth   20   0 1128912  62188  23164 S   1.0  0.4   0:00.68 evolution-+
25188 kenenth   20   0   42048   4064   3204 R   1.0  0.0   0:00.94 top
25191 kenenth   20   0 1634160  30192   9236 S   1.0  0.2   0:01.17 docker-com+
26397 root      20   0   10732   5384   3864 S   1.0  0.0   0:00.02 containerd+

top - 22:18:52 up 30 min,  1 user,  load average: 1.00, 0.47, 0.32
Tasks: 333 total,   1 running, 259 sleeping,   0 stopped,   0 zombie
%Cpu(s):  3.6 us,  2.2 sy,  0.0 ni, 94.1 id,  0.1 wa,  0.0 hi,  0.0 si,  0.0 st
KiB Mem : 16278772 total, 12300588 free,  1336944 used,  2641240 buff/cache
KiB Swap: 16630780 total, 16630780 free,        0 used. 14491064 avail Mem 

  PID USER      PR  NI    VIRT    RES    SHR S  %CPU %MEM     TIME+ COMMAND
  907 message+  20   0   51676   6188   3884 S   5.0  0.0   0:04.00 dbus-daemon
 3167 kenenth   20   0  299576   8660   7036 S   5.0  0.1   0:03.56 gvfs-udisk+
 3083 kenenth   20   0 3610556 265256  96232 S   4.0  1.6   1:12.94 gnome-shell
 1054 root      20   0 2885404  43288  24104 S   3.0  0.3   0:06.60 containerd
 1669 root      20   0 3903040  90772  39260 S   3.0  0.6   0:04.89 dockerd
  946 root      20   0  560404  18800  13708 S   2.0  0.1   0:03.22 NetworkMan+
 1155 gdm       20   0   77528   8516   6580 S   2.0  0.1   0:01.12 systemd
 1202 gdm       20   0 3332928 119024  66404 S   2.0  0.7   0:06.22 gnome-shell
 3235 kenenth   20   0  357736   7468   6524 S   2.0  0.0   0:01.07 gsd-housek+
25188 kenenth   20   0   42048   4064   3204 R   2.0  0.0   0:00.96 top
25191 kenenth   20   0 1625964  30184   9236 S   2.0  0.2   0:01.19 docker-com+
    1 root      20   0  226000   9536   6604 S   1.0  0.1   0:04.50 systemd
  861 syslog    20   0  271460   5204   3752 S   1.0  0.0   0:00.27 rsyslogd
  950 root      20   0 1170148  34320  18032 S   1.0  0.2   0:04.31 snapd
 1401 root      20   0  289760   6780   6040 S   1.0  0.0   0:00.26 boltd
 1665 whoopsie  20   0  462312  12940  11272 S   1.0  0.1   0:00.35 whoopsie
 2671 kenenth   20   0   77556   8540   6584 S   1.0  0.1   0:01.28 systemd
 2691 root      20   0  434320  94612  61648 S   1.0  0.6   0:27.42 Xorg
 2692 root     -51   0       0      0      0 S   1.0  0.0   0:03.24 irq/135-nv+
 3194 kenenth   20   0  416236   5928   5276 S   1.0  0.0   0:00.17 gsd-rfkill
 3196 kenenth   20   0  446396  10396   7936 S   1.0  0.1   0:01.24 gsd-sharing
 3324 kenenth   20   0  361252   7636   6324 S   1.0  0.0   0:00.45 gvfsd-trash
 3387 kenenth   20   0 1010164  26844  23452 S   1.0  0.2   0:00.27 evolution-+
 3543 kenenth   20   0  426324   8992   7728 S   1.0  0.1   0:00.21 zeitgeist-+
22203 root      20   0  305708  11396   9848 S   1.0  0.1   0:00.20 cups-brows+
23707 root      20   0       0      0      0 I   1.0  0.0   0:00.30 kworker/u1+

top - 22:18:53 up 30 min,  1 user,  load average: 1.00, 0.47, 0.32
Tasks: 333 total,   1 running, 259 sleeping,   0 stopped,   0 zombie
%Cpu(s):  0.2 us,  0.1 sy,  0.0 ni, 99.6 id,  0.0 wa,  0.0 hi,  0.0 si,  0.0 st
KiB Mem : 16278772 total, 12300588 free,  1336944 used,  2641240 buff/cache
KiB Swap: 16630780 total, 16630780 free,        0 used. 14491064 avail Mem 

  PID USER      PR  NI    VIRT    RES    SHR S  %CPU %MEM     TIME+ COMMAND
25188 kenenth   20   0   42048   4064   3204 R   1.9  0.0   0:00.98 top
  869 root      20   0  269684   5808   5040 S   1.0  0.0   0:00.38 iio-sensor+
 1054 root      20   0 2885404  43288  24104 S   1.0  0.3   0:06.61 containerd
 2691 root      20   0  434320  94612  61648 S   1.0  0.6   0:27.43 Xorg

top - 22:18:54 up 30 min,  1 user,  load average: 0.92, 0.46, 0.32
Tasks: 333 total,   1 running, 259 sleeping,   0 stopped,   0 zombie
%Cpu(s):  0.4 us,  0.1 sy,  0.0 ni, 99.5 id,  0.0 wa,  0.0 hi,  0.0 si,  0.0 st
KiB Mem : 16278772 total, 12306484 free,  1331348 used,  2640940 buff/cache
KiB Swap: 16630780 total, 16630780 free,        0 used. 14496708 avail Mem 

  PID USER      PR  NI    VIRT    RES    SHR S  %CPU %MEM     TIME+ COMMAND
 3196 kenenth   20   0  446396  10396   7936 S   1.0  0.1   0:01.25 gsd-sharing
24892 root      20   0       0      0      0 I   1.0  0.0   0:00.05 kworker/7:2
25188 kenenth   20   0   42048   4064   3204 R   1.0  0.0   0:00.99 top

top - 22:18:55 up 30 min,  1 user,  load average: 0.92, 0.46, 0.32
Tasks: 333 total,   1 running, 259 sleeping,   0 stopped,   0 zombie
%Cpu(s):  0.1 us,  0.2 sy,  0.0 ni, 99.6 id,  0.0 wa,  0.0 hi,  0.0 si,  0.0 st
KiB Mem : 16278772 total, 12306484 free,  1331348 used,  2640940 buff/cache
KiB Swap: 16630780 total, 16630780 free,        0 used. 14496708 avail Mem 

  PID USER      PR  NI    VIRT    RES    SHR S  %CPU %MEM     TIME+ COMMAND
25188 kenenth   20   0   42048   4064   3204 R   1.0  0.0   0:01.00 top

top - 22:18:56 up 30 min,  1 user,  load average: 0.92, 0.46, 0.32
Tasks: 333 total,   1 running, 259 sleeping,   0 stopped,   0 zombie
%Cpu(s):  0.1 us,  0.1 sy,  0.0 ni, 99.8 id,  0.0 wa,  0.0 hi,  0.0 si,  0.0 st
KiB Mem : 16278772 total, 12306484 free,  1331348 used,  2640940 buff/cache
KiB Swap: 16630780 total, 16630780 free,        0 used. 14496708 avail Mem 

  PID USER      PR  NI    VIRT    RES    SHR S  %CPU %MEM     TIME+ COMMAND
25188 kenenth   20   0   42048   4064   3204 R   2.0  0.0   0:01.02 top
 2691 root      20   0  434320  94612  61648 S   1.0  0.6   0:27.44 Xorg

top - 22:18:57 up 31 min,  1 user,  load average: 0.92, 0.46, 0.32
Tasks: 333 total,   1 running, 259 sleeping,   0 stopped,   0 zombie
%Cpu(s):  0.0 us,  0.1 sy,  0.0 ni, 99.9 id,  0.0 wa,  0.0 hi,  0.0 si,  0.0 st
KiB Mem : 16278772 total, 12306220 free,  1331608 used,  2640944 buff/cache
KiB Swap: 16630780 total, 16630780 free,        0 used. 14496444 avail Mem 

  PID USER      PR  NI    VIRT    RES    SHR S  %CPU %MEM     TIME+ COMMAND
 1431 gdm       20   0  803848  30632  23072 S   1.0  0.2   0:00.35 gsd-color
25188 kenenth   20   0   42048   4064   3204 R   1.0  0.0   0:01.03 top

top - 22:18:58 up 31 min,  1 user,  load average: 0.92, 0.46, 0.32
Tasks: 333 total,   1 running, 259 sleeping,   0 stopped,   0 zombie
%Cpu(s):  0.2 us,  0.1 sy,  0.0 ni, 99.6 id,  0.0 wa,  0.0 hi,  0.0 si,  0.0 st
KiB Mem : 16278772 total, 12306220 free,  1331608 used,  2640944 buff/cache
KiB Swap: 16630780 total, 16630780 free,        0 used. 14496444 avail Mem 

  PID USER      PR  NI    VIRT    RES    SHR S  %CPU %MEM     TIME+ COMMAND
 1202 gdm       20   0 3332928 119024  66404 S   2.0  0.7   0:06.24 gnome-shell
 1669 root      20   0 3903040  90772  39260 S   1.0  0.6   0:04.90 dockerd
 2691 root      20   0  434320  94612  61648 S   1.0  0.6   0:27.45 Xorg
25188 kenenth   20   0   42048   4064   3204 R   1.0  0.0   0:01.04 top
25191 kenenth   20   0 1625964  30184   9236 S   1.0  0.2   0:01.20 docker-com+

top - 22:18:59 up 31 min,  1 user,  load average: 0.85, 0.45, 0.32
Tasks: 333 total,   2 running, 258 sleeping,   0 stopped,   0 zombie
%Cpu(s):  0.4 us,  0.2 sy,  0.0 ni, 99.4 id,  0.0 wa,  0.0 hi,  0.0 si,  0.0 st
KiB Mem : 16278772 total, 12306220 free,  1331608 used,  2640944 buff/cache
KiB Swap: 16630780 total, 16630780 free,        0 used. 14496444 avail Mem 

  PID USER      PR  NI    VIRT    RES    SHR S  %CPU %MEM     TIME+ COMMAND
 3083 kenenth   20   0 3610556 265164  96232 S   2.0  1.6   1:12.96 gnome-shell
    8 root      20   0       0      0      0 I   1.0  0.0   0:00.90 rcu_sched
 1054 root      20   0 2885404  43288  24104 S   1.0  0.3   0:06.62 containerd
25188 kenenth   20   0   42048   4064   3204 R   1.0  0.0   0:01.05 top

top - 22:19:00 up 31 min,  1 user,  load average: 0.85, 0.45, 0.32
Tasks: 333 total,   1 running, 259 sleeping,   0 stopped,   0 zombie
%Cpu(s):  0.4 us,  0.4 sy,  0.0 ni, 99.3 id,  0.0 wa,  0.0 hi,  0.0 si,  0.0 st
KiB Mem : 16278772 total, 12306732 free,  1331088 used,  2640952 buff/cache
KiB Swap: 16630780 total, 16630780 free,        0 used. 14496992 avail Mem 

  PID USER      PR  NI    VIRT    RES    SHR S  %CPU %MEM     TIME+ COMMAND
25188 kenenth   20   0   42048   4064   3204 R   2.0  0.0   0:01.07 top
 1054 root      20   0 2885404  43288  24104 S   1.0  0.3   0:06.63 containerd
 2691 root      20   0  434320  94612  61648 S   1.0  0.6   0:27.46 Xorg
 3083 kenenth   20   0 3610556 265164  96232 S   1.0  1.6   1:12.97 gnome-shell
26666 root      20   0    9324   4852   4060 S   1.0  0.0   0:00.01 containerd+
26837 root      20   0   10796   5052   4404 S   1.0  0.0   0:00.01 containerd+

top - 22:19:01 up 31 min,  1 user,  load average: 0.85, 0.45, 0.32
Tasks: 327 total,   1 running, 254 sleeping,   0 stopped,   0 zombie
%Cpu(s):  8.9 us,  4.5 sy,  0.0 ni, 86.2 id,  0.2 wa,  0.0 hi,  0.1 si,  0.0 st
KiB Mem : 16278772 total, 12306732 free,  1331088 used,  2640952 buff/cache
KiB Swap: 16630780 total, 16630780 free,        0 used. 14496992 avail Mem 

  PID USER      PR  NI    VIRT    RES    SHR S  %CPU %MEM     TIME+ COMMAND
 3167 kenenth   20   0  299576   8660   7036 S   9.9  0.1   0:03.66 gvfs-udisk+
  907 message+  20   0   51676   6188   3884 S   7.9  0.0   0:04.08 dbus-daemon
 1202 gdm       20   0 3332928 119076  66404 S   5.9  0.7   0:06.30 gnome-shell
    1 root      20   0  226000   9536   6604 S   5.0  0.1   0:04.55 systemd
  946 root      20   0  560404  18800  13708 S   5.0  0.1   0:03.27 NetworkMan+
 1669 root      20   0 3904096  91280  39260 S   5.0  0.6   0:04.95 dockerd
 3083 kenenth   20   0 3610556 265164  96232 S   5.0  1.6   1:13.02 gnome-shell
  323 root      20   0   46280   4684   3172 S   3.0  0.0   0:01.47 systemd-ud+
 1155 gdm       20   0   77528   8516   6580 S   3.0  0.1   0:01.15 systemd
 2671 kenenth   20   0   77556   8540   6584 S   3.0  0.1   0:01.31 systemd
 3196 kenenth   20   0  446396  10396   7936 S   3.0  0.1   0:01.28 gsd-sharing
 3235 kenenth   20   0  357736   7468   6524 S   3.0  0.0   0:01.10 gsd-housek+
25188 kenenth   20   0   42048   4064   3204 R   3.0  0.0   0:01.10 top
  299 root      19  -1  177280  33912  32696 S   2.0  0.2   0:00.88 systemd-jo+
  948 root      20   0   70696   6152   5344 S   2.0  0.0   0:00.49 systemd-lo+
25191 kenenth   20   0 1609572  30168   9236 S   2.0  0.2   0:01.22 docker-com+
  674 systemd+  20   0   70748   6248   5496 S   1.0  0.0   0:00.37 systemd-re+
  950 root      20   0 1170148  34320  18032 S   1.0  0.2   0:04.32 snapd
 1409 root      20   0  441028  36616  12808 S   1.0  0.2   0:24.33 packagekitd
 1665 whoopsie  20   0  462312  12940  11272 S   1.0  0.1   0:00.36 whoopsie
 3133 kenenth   20   0  767332  31036  25592 S   1.0  0.2   0:00.24 goa-daemon
 3324 kenenth   20   0  361252   7636   6324 S   1.0  0.0   0:00.46 gvfsd-trash
 3365 kenenth   20   0 1128912  62188  23164 S   1.0  0.4   0:00.69 evolution-+
 3387 kenenth   20   0 1010164  26844  23452 S   1.0  0.2   0:00.28 evolution-+
 6922 kenenth   20   0 1391032 173972  38356 S   1.0  1.1   0:09.38 gnome-soft+
20771 kenenth   20   0  780684  31600  26056 S   1.0  0.2   0:00.25 deja-dup-m+
23707 root      20   0       0      0      0 D   1.0  0.0   0:00.31 kworker/u1+
