     1	317 
     2	317 
     3	317 
     4	317 
     5	317 
     6	317 
     7	317 
     8	317 
     9	317 
    10	317 
    11	317 
    12	317 
    13	317 
    14	317 
    15	317 
    16	317 
    17	317 
    18	317 
    19	317 
    20	317 
    21	317 
    22	317 
    23	317 
    24	317 
    25	317 
    26	287 
    27	287 
