ping_30 | round-trip min/avg/max = 0.436/0.543/0.655 ms
ping_39 | round-trip min/avg/max = 0.422/0.547/0.759 ms
ping_27 | round-trip min/avg/max = 0.402/0.593/0.833 ms
ping_15 | round-trip min/avg/max = 0.421/0.675/0.915 ms
ping_12 | round-trip min/avg/max = 0.402/0.553/0.680 ms
ping_16 | round-trip min/avg/max = 0.558/0.653/0.788 ms
ping_33 | round-trip min/avg/max = 0.405/0.584/0.811 ms
ping_32 | round-trip min/avg/max = 0.578/0.675/0.816 ms
ping_38 | round-trip min/avg/max = 0.409/0.629/0.874 ms
ping_34 | round-trip min/avg/max = 0.503/0.654/0.828 ms
ping_26 | round-trip min/avg/max = 0.434/0.681/0.896 ms
ping_36 | round-trip min/avg/max = 0.473/0.473/0.473 ms
ping_6  | round-trip min/avg/max = 0.553/0.589/0.626 ms
ping_31 | round-trip min/avg/max = 0.525/0.645/0.831 ms
ping_2  | round-trip min/avg/max = 0.467/0.615/0.807 ms
ping_8  | round-trip min/avg/max = 0.379/0.510/0.654 ms
ping_7  | round-trip min/avg/max = 0.461/0.578/0.666 ms
ping_28 | round-trip min/avg/max = 0.429/0.608/0.780 ms
ping_14 | round-trip min/avg/max = 0.442/0.623/0.779 ms
ping_18 | round-trip min/avg/max = 0.450/0.538/0.605 ms
ping_19 | round-trip min/avg/max = 0.428/0.601/0.900 ms
ping_25 | round-trip min/avg/max = 0.423/0.591/0.722 ms
ping_37 | round-trip min/avg/max = 0.426/0.566/0.686 ms
ping_40 | round-trip min/avg/max = 0.479/0.640/1.041 ms
ping_20 | round-trip min/avg/max = 0.441/0.597/0.935 ms
ping_3  | round-trip min/avg/max = 0.461/0.547/0.613 ms
ping_13 | round-trip min/avg/max = 0.428/0.614/0.887 ms
ping_5  | round-trip min/avg/max = 0.592/0.643/0.732 ms
ping_23 | round-trip min/avg/max = 0.422/0.584/0.873 ms
ping_35 | round-trip min/avg/max = 0.457/0.520/0.583 ms
ping_24 | round-trip min/avg/max = 0.452/1.406/3.985 ms
ping_29 | round-trip min/avg/max = 0.446/0.495/0.624 ms
ping_17 | round-trip min/avg/max = 0.417/0.443/0.469 ms
ping_9  | round-trip min/avg/max = 0.451/0.583/0.793 ms
ping_10 | round-trip min/avg/max = 0.383/0.684/1.358 ms
ping_1  | round-trip min/avg/max = 0.443/0.472/0.490 ms
ping_84 | round-trip min/avg/max = 0.498/0.545/0.581 ms
ping_87 | round-trip min/avg/max = 0.451/0.703/1.650 ms
ping_82 | round-trip min/avg/max = 0.443/0.558/0.637 ms
ping_86 | round-trip min/avg/max = 0.531/1.696/6.873 ms
ping_4  | round-trip min/avg/max = 0.450/0.937/4.175 ms
ping_21 | round-trip min/avg/max = 0.391/0.488/0.646 ms
ping_92 | round-trip min/avg/max = 0.420/0.627/0.970 ms
ping_94 | round-trip min/avg/max = 0.525/0.620/0.801 ms
ping_73 | round-trip min/avg/max = 0.422/0.555/0.830 ms
ping_11 | round-trip min/avg/max = 0.454/0.547/0.756 ms
ping_48 | round-trip min/avg/max = 0.431/0.522/0.618 ms
ping_68 | round-trip min/avg/max = 0.464/0.656/0.876 ms
ping_85 | round-trip min/avg/max = 0.418/0.562/0.691 ms
ping_43 | round-trip min/avg/max = 0.436/0.622/0.832 ms
ping_83 | round-trip min/avg/max = 0.441/0.928/2.574 ms
ping_75 | round-trip min/avg/max = 0.456/0.652/0.874 ms
ping_47 | round-trip min/avg/max = 0.524/0.591/0.675 ms
ping_72 | round-trip min/avg/max = 0.450/0.489/0.636 ms
ping_67 | round-trip min/avg/max = 0.451/0.606/0.930 ms
ping_95 | round-trip min/avg/max = 0.410/0.533/0.660 ms
ping_65 | round-trip min/avg/max = 0.432/0.571/0.719 ms
ping_60 | round-trip min/avg/max = 0.461/0.619/1.142 ms
ping_66 | round-trip min/avg/max = 0.451/0.613/0.862 ms
ping_89 | round-trip min/avg/max = 0.395/0.508/0.700 ms
ping_63 | round-trip min/avg/max = 0.414/0.590/0.706 ms
ping_69 | round-trip min/avg/max = 0.419/0.532/0.638 ms
ping_46 | round-trip min/avg/max = 0.393/0.572/0.814 ms
ping_45 | round-trip min/avg/max = 0.605/0.613/0.622 ms
ping_61 | round-trip min/avg/max = 0.426/0.632/0.955 ms
ping_77 | round-trip min/avg/max = 0.526/0.630/0.717 ms
ping_55 | round-trip min/avg/max = 0.404/0.539/0.660 ms
ping_62 | round-trip min/avg/max = 0.434/0.543/0.667 ms
ping_88 | round-trip min/avg/max = 0.565/0.640/0.734 ms
ping_50 | round-trip min/avg/max = 0.452/0.616/0.837 ms
ping_93 | round-trip min/avg/max = 0.459/0.612/0.724 ms
ping_64 | round-trip min/avg/max = 0.397/0.605/0.814 ms
ping_53 | round-trip min/avg/max = 0.432/0.628/0.836 ms
ping_99 | round-trip min/avg/max = 0.462/0.576/0.720 ms
ping_70 | round-trip min/avg/max = 0.408/0.607/0.906 ms
ping_76 | round-trip min/avg/max = 0.441/0.538/0.633 ms
ping_100 | round-trip min/avg/max = 0.422/0.630/0.786 ms
ping_42 | round-trip min/avg/max = 0.433/0.589/0.812 ms
ping_97 | round-trip min/avg/max = 0.469/0.595/0.825 ms
ping_78 | round-trip min/avg/max = 0.446/0.700/1.467 ms
ping_98 | round-trip min/avg/max = 0.429/0.686/0.926 ms
ping_56 | round-trip min/avg/max = 0.407/0.573/0.807 ms
ping_80 | round-trip min/avg/max = 0.404/0.587/0.839 ms
ping_58 | round-trip min/avg/max = 0.477/0.612/0.836 ms
ping_51 | round-trip min/avg/max = 0.471/0.585/0.675 ms
ping_81 | round-trip min/avg/max = 0.465/0.704/0.960 ms
ping_74 | round-trip min/avg/max = 0.438/0.589/0.867 ms
ping_52 | round-trip min/avg/max = 0.405/0.470/0.597 ms
ping_71 | round-trip min/avg/max = 0.408/0.522/0.652 ms
ping_41 | round-trip min/avg/max = 0.433/0.548/0.802 ms
ping_96 | round-trip min/avg/max = 0.440/0.576/0.672 ms
ping_90 | round-trip min/avg/max = 0.403/0.719/0.943 ms
ping_44 | round-trip min/avg/max = 0.467/0.669/0.895 ms
ping_79 | round-trip min/avg/max = 0.455/0.625/0.909 ms
ping_91 | round-trip min/avg/max = 0.526/0.739/0.909 ms
ping_59 | round-trip min/avg/max = 0.407/0.701/0.911 ms
ping_57 | round-trip min/avg/max = 0.433/0.775/1.200 ms
ping_49 | round-trip min/avg/max = 0.443/0.579/0.852 ms
ping_54 | round-trip min/avg/max = 0.411/0.625/0.893 ms
