PING speedtest.softether.co.jp (103.41.63.43) 56(84) bytes of data.
64 bytes from speedtest.softether.co.jp (103.41.63.43): icmp_seq=1 ttl=53 time=119 ms
PING speedtest.softether.co.jp (103.41.63.43) 56(84) bytes of data.
64 bytes from speedtest.softether.co.jp (103.41.63.43): icmp_seq=1 ttl=53 time=119 ms
PING speedtest.softether.co.jp (103.41.63.43) 56(84) bytes of data.
64 bytes from speedtest.softether.co.jp (103.41.63.43): icmp_seq=1 ttl=53 time=119 ms
PING speedtest.softether.co.jp (103.41.63.43) 56(84) bytes of data.
64 bytes from speedtest.softether.co.jp (103.41.63.43): icmp_seq=1 ttl=53 time=119 ms
PING speedtest.softether.co.jp (103.41.63.43) 56(84) bytes of data.
64 bytes from speedtest.softether.co.jp (103.41.63.43): icmp_seq=1 ttl=53 time=119 ms
PING speedtest.softether.co.jp (103.41.63.43) 56(84) bytes of data.
64 bytes from speedtest.softether.co.jp (103.41.63.43): icmp_seq=1 ttl=53 time=119 ms
PING speedtest.softether.co.jp (103.41.63.43) 56(84) bytes of data.
64 bytes from speedtest.softether.co.jp (103.41.63.43): icmp_seq=1 ttl=53 time=119 ms
PING speedtest.softether.co.jp (103.41.63.43) 56(84) bytes of data.
64 bytes from speedtest.softether.co.jp (103.41.63.43): icmp_seq=1 ttl=53 time=119 ms
PING speedtest.softether.co.jp (103.41.63.43) 56(84) bytes of data.
64 bytes from speedtest.softether.co.jp (103.41.63.43): icmp_seq=1 ttl=53 time=119 ms
PING speedtest.softether.co.jp (103.41.63.43) 56(84) bytes of data.
64 bytes from speedtest.softether.co.jp (103.41.63.43): icmp_seq=1 ttl=53 time=119 ms
PING speedtest.softether.co.jp (103.41.63.43) 56(84) bytes of data.
64 bytes from speedtest.softether.co.jp (103.41.63.43): icmp_seq=1 ttl=53 time=119 ms
PING speedtest.softether.co.jp (103.41.63.43) 56(84) bytes of data.
64 bytes from speedtest.softether.co.jp (103.41.63.43): icmp_seq=1 ttl=53 time=119 ms
PING speedtest.softether.co.jp (103.41.63.43) 56(84) bytes of data.
64 bytes from speedtest.softether.co.jp (103.41.63.43): icmp_seq=1 ttl=53 time=119 ms
PING speedtest.softether.co.jp (103.41.63.43) 56(84) bytes of data.
64 bytes from speedtest.softether.co.jp (103.41.63.43): icmp_seq=1 ttl=53 time=119 ms
PING speedtest.softether.co.jp (103.41.63.43) 56(84) bytes of data.
64 bytes from speedtest.softether.co.jp (103.41.63.43): icmp_seq=1 ttl=53 time=119 ms
PING speedtest.softether.co.jp (103.41.63.43) 56(84) bytes of data.
64 bytes from speedtest.softether.co.jp (103.41.63.43): icmp_seq=1 ttl=53 time=119 ms
PING speedtest.softether.co.jp (103.41.63.43) 56(84) bytes of data.
64 bytes from speedtest.softether.co.jp (103.41.63.43): icmp_seq=1 ttl=53 time=119 ms
PING speedtest.softether.co.jp (103.41.63.43) 56(84) bytes of data.
64 bytes from speedtest.softether.co.jp (103.41.63.43): icmp_seq=1 ttl=53 time=119 ms
PING speedtest.softether.co.jp (103.41.63.43) 56(84) bytes of data.
64 bytes from speedtest.softether.co.jp (103.41.63.43): icmp_seq=1 ttl=53 time=119 ms
PING speedtest.softether.co.jp (103.41.63.43) 56(84) bytes of data.
64 bytes from speedtest.softether.co.jp (103.41.63.43): icmp_seq=1 ttl=53 time=119 ms
64 bytes from speedtest.softether.co.jp (103.41.63.43): icmp_seq=2 ttl=53 time=119 ms
64 bytes from speedtest.softether.co.jp (103.41.63.43): icmp_seq=2 ttl=53 time=119 ms
64 bytes from speedtest.softether.co.jp (103.41.63.43): icmp_seq=2 ttl=53 time=119 ms
64 bytes from speedtest.softether.co.jp (103.41.63.43): icmp_seq=2 ttl=53 time=119 ms
64 bytes from speedtest.softether.co.jp (103.41.63.43): icmp_seq=2 ttl=53 time=119 ms
64 bytes from speedtest.softether.co.jp (103.41.63.43): icmp_seq=2 ttl=53 time=119 ms
64 bytes from speedtest.softether.co.jp (103.41.63.43): icmp_seq=2 ttl=53 time=119 ms
64 bytes from speedtest.softether.co.jp (103.41.63.43): icmp_seq=2 ttl=53 time=119 ms
64 bytes from speedtest.softether.co.jp (103.41.63.43): icmp_seq=2 ttl=53 time=119 ms
64 bytes from speedtest.softether.co.jp (103.41.63.43): icmp_seq=2 ttl=53 time=119 ms
64 bytes from speedtest.softether.co.jp (103.41.63.43): icmp_seq=2 ttl=53 time=119 ms
64 bytes from speedtest.softether.co.jp (103.41.63.43): icmp_seq=2 ttl=53 time=119 ms
64 bytes from speedtest.softether.co.jp (103.41.63.43): icmp_seq=2 ttl=53 time=119 ms
64 bytes from speedtest.softether.co.jp (103.41.63.43): icmp_seq=2 ttl=53 time=119 ms
64 bytes from speedtest.softether.co.jp (103.41.63.43): icmp_seq=2 ttl=53 time=119 ms
64 bytes from speedtest.softether.co.jp (103.41.63.43): icmp_seq=2 ttl=53 time=119 ms
64 bytes from speedtest.softether.co.jp (103.41.63.43): icmp_seq=2 ttl=53 time=119 ms
64 bytes from speedtest.softether.co.jp (103.41.63.43): icmp_seq=2 ttl=53 time=119 ms
64 bytes from speedtest.softether.co.jp (103.41.63.43): icmp_seq=2 ttl=53 time=119 ms
64 bytes from speedtest.softether.co.jp (103.41.63.43): icmp_seq=2 ttl=53 time=119 ms
64 bytes from speedtest.softether.co.jp (103.41.63.43): icmp_seq=3 ttl=53 time=119 ms
64 bytes from speedtest.softether.co.jp (103.41.63.43): icmp_seq=3 ttl=53 time=119 ms
64 bytes from speedtest.softether.co.jp (103.41.63.43): icmp_seq=3 ttl=53 time=119 ms
64 bytes from speedtest.softether.co.jp (103.41.63.43): icmp_seq=3 ttl=53 time=119 ms
64 bytes from speedtest.softether.co.jp (103.41.63.43): icmp_seq=3 ttl=53 time=119 ms
64 bytes from speedtest.softether.co.jp (103.41.63.43): icmp_seq=3 ttl=53 time=119 ms
64 bytes from speedtest.softether.co.jp (103.41.63.43): icmp_seq=3 ttl=53 time=119 ms
64 bytes from speedtest.softether.co.jp (103.41.63.43): icmp_seq=3 ttl=53 time=119 ms
64 bytes from speedtest.softether.co.jp (103.41.63.43): icmp_seq=3 ttl=53 time=119 ms
64 bytes from speedtest.softether.co.jp (103.41.63.43): icmp_seq=3 ttl=53 time=119 ms
64 bytes from speedtest.softether.co.jp (103.41.63.43): icmp_seq=3 ttl=53 time=119 ms
64 bytes from speedtest.softether.co.jp (103.41.63.43): icmp_seq=3 ttl=53 time=119 ms
64 bytes from speedtest.softether.co.jp (103.41.63.43): icmp_seq=3 ttl=53 time=119 ms
64 bytes from speedtest.softether.co.jp (103.41.63.43): icmp_seq=3 ttl=53 time=119 ms
64 bytes from speedtest.softether.co.jp (103.41.63.43): icmp_seq=3 ttl=53 time=119 ms
64 bytes from speedtest.softether.co.jp (103.41.63.43): icmp_seq=3 ttl=53 time=119 ms
64 bytes from speedtest.softether.co.jp (103.41.63.43): icmp_seq=3 ttl=53 time=119 ms
64 bytes from speedtest.softether.co.jp (103.41.63.43): icmp_seq=3 ttl=53 time=119 ms
64 bytes from speedtest.softether.co.jp (103.41.63.43): icmp_seq=3 ttl=53 time=119 ms
64 bytes from speedtest.softether.co.jp (103.41.63.43): icmp_seq=3 ttl=53 time=119 ms
64 bytes from speedtest.softether.co.jp (103.41.63.43): icmp_seq=4 ttl=53 time=119 ms
64 bytes from speedtest.softether.co.jp (103.41.63.43): icmp_seq=4 ttl=53 time=119 ms
64 bytes from speedtest.softether.co.jp (103.41.63.43): icmp_seq=4 ttl=53 time=119 ms
64 bytes from speedtest.softether.co.jp (103.41.63.43): icmp_seq=4 ttl=53 time=119 ms
64 bytes from speedtest.softether.co.jp (103.41.63.43): icmp_seq=4 ttl=53 time=119 ms
64 bytes from speedtest.softether.co.jp (103.41.63.43): icmp_seq=4 ttl=53 time=119 ms
64 bytes from speedtest.softether.co.jp (103.41.63.43): icmp_seq=4 ttl=53 time=119 ms
64 bytes from speedtest.softether.co.jp (103.41.63.43): icmp_seq=4 ttl=53 time=119 ms
64 bytes from speedtest.softether.co.jp (103.41.63.43): icmp_seq=4 ttl=53 time=119 ms
64 bytes from speedtest.softether.co.jp (103.41.63.43): icmp_seq=4 ttl=53 time=119 ms
64 bytes from speedtest.softether.co.jp (103.41.63.43): icmp_seq=4 ttl=53 time=119 ms
64 bytes from speedtest.softether.co.jp (103.41.63.43): icmp_seq=4 ttl=53 time=119 ms
64 bytes from speedtest.softether.co.jp (103.41.63.43): icmp_seq=4 ttl=53 time=119 ms
64 bytes from speedtest.softether.co.jp (103.41.63.43): icmp_seq=4 ttl=53 time=119 ms
64 bytes from speedtest.softether.co.jp (103.41.63.43): icmp_seq=4 ttl=53 time=119 ms
64 bytes from speedtest.softether.co.jp (103.41.63.43): icmp_seq=4 ttl=53 time=119 ms
64 bytes from speedtest.softether.co.jp (103.41.63.43): icmp_seq=4 ttl=53 time=119 ms
64 bytes from speedtest.softether.co.jp (103.41.63.43): icmp_seq=4 ttl=53 time=119 ms
64 bytes from speedtest.softether.co.jp (103.41.63.43): icmp_seq=4 ttl=53 time=119 ms
64 bytes from speedtest.softether.co.jp (103.41.63.43): icmp_seq=4 ttl=53 time=119 ms
64 bytes from speedtest.softether.co.jp (103.41.63.43): icmp_seq=5 ttl=53 time=119 ms
64 bytes from speedtest.softether.co.jp (103.41.63.43): icmp_seq=5 ttl=53 time=119 ms
64 bytes from speedtest.softether.co.jp (103.41.63.43): icmp_seq=5 ttl=53 time=119 ms
64 bytes from speedtest.softether.co.jp (103.41.63.43): icmp_seq=5 ttl=53 time=119 ms
64 bytes from speedtest.softether.co.jp (103.41.63.43): icmp_seq=5 ttl=53 time=119 ms
64 bytes from speedtest.softether.co.jp (103.41.63.43): icmp_seq=5 ttl=53 time=119 ms
64 bytes from speedtest.softether.co.jp (103.41.63.43): icmp_seq=5 ttl=53 time=120 ms
64 bytes from speedtest.softether.co.jp (103.41.63.43): icmp_seq=5 ttl=53 time=119 ms
64 bytes from speedtest.softether.co.jp (103.41.63.43): icmp_seq=5 ttl=53 time=119 ms
64 bytes from speedtest.softether.co.jp (103.41.63.43): icmp_seq=5 ttl=53 time=119 ms
64 bytes from speedtest.softether.co.jp (103.41.63.43): icmp_seq=5 ttl=53 time=119 ms
64 bytes from speedtest.softether.co.jp (103.41.63.43): icmp_seq=5 ttl=53 time=119 ms
64 bytes from speedtest.softether.co.jp (103.41.63.43): icmp_seq=5 ttl=53 time=119 ms
64 bytes from speedtest.softether.co.jp (103.41.63.43): icmp_seq=5 ttl=53 time=119 ms
64 bytes from speedtest.softether.co.jp (103.41.63.43): icmp_seq=5 ttl=53 time=119 ms
64 bytes from speedtest.softether.co.jp (103.41.63.43): icmp_seq=5 ttl=53 time=119 ms
64 bytes from speedtest.softether.co.jp (103.41.63.43): icmp_seq=5 ttl=53 time=119 ms
64 bytes from speedtest.softether.co.jp (103.41.63.43): icmp_seq=5 ttl=53 time=119 ms
64 bytes from speedtest.softether.co.jp (103.41.63.43): icmp_seq=5 ttl=53 time=119 ms
64 bytes from speedtest.softether.co.jp (103.41.63.43): icmp_seq=5 ttl=53 time=119 ms
64 bytes from speedtest.softether.co.jp (103.41.63.43): icmp_seq=6 ttl=53 time=119 ms
64 bytes from speedtest.softether.co.jp (103.41.63.43): icmp_seq=6 ttl=53 time=119 ms
64 bytes from speedtest.softether.co.jp (103.41.63.43): icmp_seq=6 ttl=53 time=119 ms
64 bytes from speedtest.softether.co.jp (103.41.63.43): icmp_seq=6 ttl=53 time=119 ms
64 bytes from speedtest.softether.co.jp (103.41.63.43): icmp_seq=6 ttl=53 time=119 ms
64 bytes from speedtest.softether.co.jp (103.41.63.43): icmp_seq=6 ttl=53 time=119 ms
64 bytes from speedtest.softether.co.jp (103.41.63.43): icmp_seq=6 ttl=53 time=119 ms
64 bytes from speedtest.softether.co.jp (103.41.63.43): icmp_seq=6 ttl=53 time=119 ms
64 bytes from speedtest.softether.co.jp (103.41.63.43): icmp_seq=6 ttl=53 time=119 ms
64 bytes from speedtest.softether.co.jp (103.41.63.43): icmp_seq=6 ttl=53 time=119 ms
64 bytes from speedtest.softether.co.jp (103.41.63.43): icmp_seq=6 ttl=53 time=119 ms
64 bytes from speedtest.softether.co.jp (103.41.63.43): icmp_seq=6 ttl=53 time=119 ms
64 bytes from speedtest.softether.co.jp (103.41.63.43): icmp_seq=6 ttl=53 time=119 ms
64 bytes from speedtest.softether.co.jp (103.41.63.43): icmp_seq=6 ttl=53 time=119 ms
64 bytes from speedtest.softether.co.jp (103.41.63.43): icmp_seq=6 ttl=53 time=119 ms
64 bytes from speedtest.softether.co.jp (103.41.63.43): icmp_seq=6 ttl=53 time=119 ms
64 bytes from speedtest.softether.co.jp (103.41.63.43): icmp_seq=6 ttl=53 time=119 ms
64 bytes from speedtest.softether.co.jp (103.41.63.43): icmp_seq=6 ttl=53 time=119 ms
64 bytes from speedtest.softether.co.jp (103.41.63.43): icmp_seq=6 ttl=53 time=119 ms
64 bytes from speedtest.softether.co.jp (103.41.63.43): icmp_seq=6 ttl=53 time=119 ms
64 bytes from speedtest.softether.co.jp (103.41.63.43): icmp_seq=7 ttl=53 time=119 ms
64 bytes from speedtest.softether.co.jp (103.41.63.43): icmp_seq=7 ttl=53 time=119 ms
64 bytes from speedtest.softether.co.jp (103.41.63.43): icmp_seq=7 ttl=53 time=119 ms
64 bytes from speedtest.softether.co.jp (103.41.63.43): icmp_seq=7 ttl=53 time=119 ms
64 bytes from speedtest.softether.co.jp (103.41.63.43): icmp_seq=7 ttl=53 time=119 ms
64 bytes from speedtest.softether.co.jp (103.41.63.43): icmp_seq=7 ttl=53 time=119 ms
64 bytes from speedtest.softether.co.jp (103.41.63.43): icmp_seq=7 ttl=53 time=119 ms
64 bytes from speedtest.softether.co.jp (103.41.63.43): icmp_seq=7 ttl=53 time=119 ms
64 bytes from speedtest.softether.co.jp (103.41.63.43): icmp_seq=7 ttl=53 time=119 ms
64 bytes from speedtest.softether.co.jp (103.41.63.43): icmp_seq=7 ttl=53 time=119 ms
64 bytes from speedtest.softether.co.jp (103.41.63.43): icmp_seq=7 ttl=53 time=119 ms
64 bytes from speedtest.softether.co.jp (103.41.63.43): icmp_seq=7 ttl=53 time=119 ms
64 bytes from speedtest.softether.co.jp (103.41.63.43): icmp_seq=7 ttl=53 time=119 ms
64 bytes from speedtest.softether.co.jp (103.41.63.43): icmp_seq=7 ttl=53 time=119 ms
64 bytes from speedtest.softether.co.jp (103.41.63.43): icmp_seq=7 ttl=53 time=119 ms
64 bytes from speedtest.softether.co.jp (103.41.63.43): icmp_seq=7 ttl=53 time=119 ms
64 bytes from speedtest.softether.co.jp (103.41.63.43): icmp_seq=7 ttl=53 time=119 ms
64 bytes from speedtest.softether.co.jp (103.41.63.43): icmp_seq=7 ttl=53 time=119 ms
64 bytes from speedtest.softether.co.jp (103.41.63.43): icmp_seq=7 ttl=53 time=119 ms
64 bytes from speedtest.softether.co.jp (103.41.63.43): icmp_seq=7 ttl=53 time=119 ms
64 bytes from speedtest.softether.co.jp (103.41.63.43): icmp_seq=8 ttl=53 time=119 ms
64 bytes from speedtest.softether.co.jp (103.41.63.43): icmp_seq=8 ttl=53 time=119 ms
64 bytes from speedtest.softether.co.jp (103.41.63.43): icmp_seq=8 ttl=53 time=119 ms
64 bytes from speedtest.softether.co.jp (103.41.63.43): icmp_seq=8 ttl=53 time=119 ms
64 bytes from speedtest.softether.co.jp (103.41.63.43): icmp_seq=8 ttl=53 time=119 ms
64 bytes from speedtest.softether.co.jp (103.41.63.43): icmp_seq=8 ttl=53 time=119 ms
64 bytes from speedtest.softether.co.jp (103.41.63.43): icmp_seq=8 ttl=53 time=119 ms
64 bytes from speedtest.softether.co.jp (103.41.63.43): icmp_seq=8 ttl=53 time=119 ms
64 bytes from speedtest.softether.co.jp (103.41.63.43): icmp_seq=8 ttl=53 time=119 ms
64 bytes from speedtest.softether.co.jp (103.41.63.43): icmp_seq=8 ttl=53 time=119 ms
64 bytes from speedtest.softether.co.jp (103.41.63.43): icmp_seq=8 ttl=53 time=119 ms
64 bytes from speedtest.softether.co.jp (103.41.63.43): icmp_seq=8 ttl=53 time=119 ms
64 bytes from speedtest.softether.co.jp (103.41.63.43): icmp_seq=8 ttl=53 time=119 ms
64 bytes from speedtest.softether.co.jp (103.41.63.43): icmp_seq=8 ttl=53 time=119 ms
64 bytes from speedtest.softether.co.jp (103.41.63.43): icmp_seq=8 ttl=53 time=119 ms
64 bytes from speedtest.softether.co.jp (103.41.63.43): icmp_seq=8 ttl=53 time=119 ms
64 bytes from speedtest.softether.co.jp (103.41.63.43): icmp_seq=8 ttl=53 time=119 ms
64 bytes from speedtest.softether.co.jp (103.41.63.43): icmp_seq=8 ttl=53 time=119 ms
64 bytes from speedtest.softether.co.jp (103.41.63.43): icmp_seq=8 ttl=53 time=119 ms
64 bytes from speedtest.softether.co.jp (103.41.63.43): icmp_seq=8 ttl=53 time=119 ms
64 bytes from speedtest.softether.co.jp (103.41.63.43): icmp_seq=9 ttl=53 time=119 ms
64 bytes from speedtest.softether.co.jp (103.41.63.43): icmp_seq=9 ttl=53 time=119 ms
64 bytes from speedtest.softether.co.jp (103.41.63.43): icmp_seq=9 ttl=53 time=119 ms
64 bytes from speedtest.softether.co.jp (103.41.63.43): icmp_seq=9 ttl=53 time=119 ms
64 bytes from speedtest.softether.co.jp (103.41.63.43): icmp_seq=9 ttl=53 time=119 ms
64 bytes from speedtest.softether.co.jp (103.41.63.43): icmp_seq=9 ttl=53 time=119 ms
64 bytes from speedtest.softether.co.jp (103.41.63.43): icmp_seq=9 ttl=53 time=119 ms
64 bytes from speedtest.softether.co.jp (103.41.63.43): icmp_seq=9 ttl=53 time=119 ms
64 bytes from speedtest.softether.co.jp (103.41.63.43): icmp_seq=9 ttl=53 time=119 ms
64 bytes from speedtest.softether.co.jp (103.41.63.43): icmp_seq=9 ttl=53 time=119 ms
64 bytes from speedtest.softether.co.jp (103.41.63.43): icmp_seq=9 ttl=53 time=119 ms
64 bytes from speedtest.softether.co.jp (103.41.63.43): icmp_seq=9 ttl=53 time=119 ms
64 bytes from speedtest.softether.co.jp (103.41.63.43): icmp_seq=9 ttl=53 time=119 ms
64 bytes from speedtest.softether.co.jp (103.41.63.43): icmp_seq=9 ttl=53 time=119 ms
64 bytes from speedtest.softether.co.jp (103.41.63.43): icmp_seq=9 ttl=53 time=119 ms
64 bytes from speedtest.softether.co.jp (103.41.63.43): icmp_seq=9 ttl=53 time=119 ms
64 bytes from speedtest.softether.co.jp (103.41.63.43): icmp_seq=9 ttl=53 time=119 ms
64 bytes from speedtest.softether.co.jp (103.41.63.43): icmp_seq=9 ttl=53 time=119 ms
64 bytes from speedtest.softether.co.jp (103.41.63.43): icmp_seq=9 ttl=53 time=119 ms
64 bytes from speedtest.softether.co.jp (103.41.63.43): icmp_seq=9 ttl=53 time=119 ms
64 bytes from speedtest.softether.co.jp (103.41.63.43): icmp_seq=10 ttl=53 time=119 ms
64 bytes from speedtest.softether.co.jp (103.41.63.43): icmp_seq=10 ttl=53 time=119 ms
64 bytes from speedtest.softether.co.jp (103.41.63.43): icmp_seq=10 ttl=53 time=119 ms
64 bytes from speedtest.softether.co.jp (103.41.63.43): icmp_seq=10 ttl=53 time=119 ms
64 bytes from speedtest.softether.co.jp (103.41.63.43): icmp_seq=10 ttl=53 time=119 ms
64 bytes from speedtest.softether.co.jp (103.41.63.43): icmp_seq=10 ttl=53 time=119 ms
64 bytes from speedtest.softether.co.jp (103.41.63.43): icmp_seq=10 ttl=53 time=119 ms
64 bytes from speedtest.softether.co.jp (103.41.63.43): icmp_seq=10 ttl=53 time=119 ms
64 bytes from speedtest.softether.co.jp (103.41.63.43): icmp_seq=10 ttl=53 time=119 ms
64 bytes from speedtest.softether.co.jp (103.41.63.43): icmp_seq=10 ttl=53 time=119 ms
64 bytes from speedtest.softether.co.jp (103.41.63.43): icmp_seq=10 ttl=53 time=119 ms
64 bytes from speedtest.softether.co.jp (103.41.63.43): icmp_seq=10 ttl=53 time=119 ms
64 bytes from speedtest.softether.co.jp (103.41.63.43): icmp_seq=10 ttl=53 time=119 ms
64 bytes from speedtest.softether.co.jp (103.41.63.43): icmp_seq=10 ttl=53 time=119 ms
64 bytes from speedtest.softether.co.jp (103.41.63.43): icmp_seq=10 ttl=53 time=119 ms
64 bytes from speedtest.softether.co.jp (103.41.63.43): icmp_seq=10 ttl=53 time=119 ms
64 bytes from speedtest.softether.co.jp (103.41.63.43): icmp_seq=10 ttl=53 time=119 ms
64 bytes from speedtest.softether.co.jp (103.41.63.43): icmp_seq=10 ttl=53 time=119 ms
64 bytes from speedtest.softether.co.jp (103.41.63.43): icmp_seq=10 ttl=53 time=119 ms
64 bytes from speedtest.softether.co.jp (103.41.63.43): icmp_seq=10 ttl=53 time=119 ms
64 bytes from speedtest.softether.co.jp (103.41.63.43): icmp_seq=11 ttl=53 time=119 ms
64 bytes from speedtest.softether.co.jp (103.41.63.43): icmp_seq=11 ttl=53 time=119 ms
64 bytes from speedtest.softether.co.jp (103.41.63.43): icmp_seq=11 ttl=53 time=119 ms
64 bytes from speedtest.softether.co.jp (103.41.63.43): icmp_seq=11 ttl=53 time=119 ms
64 bytes from speedtest.softether.co.jp (103.41.63.43): icmp_seq=11 ttl=53 time=119 ms
64 bytes from speedtest.softether.co.jp (103.41.63.43): icmp_seq=11 ttl=53 time=119 ms
64 bytes from speedtest.softether.co.jp (103.41.63.43): icmp_seq=11 ttl=53 time=119 ms
64 bytes from speedtest.softether.co.jp (103.41.63.43): icmp_seq=11 ttl=53 time=119 ms
64 bytes from speedtest.softether.co.jp (103.41.63.43): icmp_seq=11 ttl=53 time=119 ms
64 bytes from speedtest.softether.co.jp (103.41.63.43): icmp_seq=11 ttl=53 time=119 ms
64 bytes from speedtest.softether.co.jp (103.41.63.43): icmp_seq=11 ttl=53 time=119 ms
64 bytes from speedtest.softether.co.jp (103.41.63.43): icmp_seq=11 ttl=53 time=119 ms
64 bytes from speedtest.softether.co.jp (103.41.63.43): icmp_seq=11 ttl=53 time=119 ms
64 bytes from speedtest.softether.co.jp (103.41.63.43): icmp_seq=11 ttl=53 time=119 ms
64 bytes from speedtest.softether.co.jp (103.41.63.43): icmp_seq=11 ttl=53 time=119 ms
64 bytes from speedtest.softether.co.jp (103.41.63.43): icmp_seq=11 ttl=53 time=119 ms
64 bytes from speedtest.softether.co.jp (103.41.63.43): icmp_seq=11 ttl=53 time=119 ms
64 bytes from speedtest.softether.co.jp (103.41.63.43): icmp_seq=11 ttl=53 time=120 ms
64 bytes from speedtest.softether.co.jp (103.41.63.43): icmp_seq=11 ttl=53 time=119 ms
64 bytes from speedtest.softether.co.jp (103.41.63.43): icmp_seq=11 ttl=53 time=119 ms
64 bytes from speedtest.softether.co.jp (103.41.63.43): icmp_seq=12 ttl=53 time=119 ms
64 bytes from speedtest.softether.co.jp (103.41.63.43): icmp_seq=12 ttl=53 time=119 ms
64 bytes from speedtest.softether.co.jp (103.41.63.43): icmp_seq=12 ttl=53 time=119 ms
64 bytes from speedtest.softether.co.jp (103.41.63.43): icmp_seq=12 ttl=53 time=119 ms
64 bytes from speedtest.softether.co.jp (103.41.63.43): icmp_seq=12 ttl=53 time=119 ms
64 bytes from speedtest.softether.co.jp (103.41.63.43): icmp_seq=12 ttl=53 time=119 ms
64 bytes from speedtest.softether.co.jp (103.41.63.43): icmp_seq=12 ttl=53 time=119 ms
64 bytes from speedtest.softether.co.jp (103.41.63.43): icmp_seq=12 ttl=53 time=119 ms
64 bytes from speedtest.softether.co.jp (103.41.63.43): icmp_seq=12 ttl=53 time=119 ms
64 bytes from speedtest.softether.co.jp (103.41.63.43): icmp_seq=12 ttl=53 time=119 ms
64 bytes from speedtest.softether.co.jp (103.41.63.43): icmp_seq=12 ttl=53 time=119 ms
64 bytes from speedtest.softether.co.jp (103.41.63.43): icmp_seq=12 ttl=53 time=119 ms
64 bytes from speedtest.softether.co.jp (103.41.63.43): icmp_seq=12 ttl=53 time=119 ms
64 bytes from speedtest.softether.co.jp (103.41.63.43): icmp_seq=12 ttl=53 time=119 ms
64 bytes from speedtest.softether.co.jp (103.41.63.43): icmp_seq=12 ttl=53 time=119 ms
64 bytes from speedtest.softether.co.jp (103.41.63.43): icmp_seq=12 ttl=53 time=119 ms
64 bytes from speedtest.softether.co.jp (103.41.63.43): icmp_seq=12 ttl=53 time=119 ms
64 bytes from speedtest.softether.co.jp (103.41.63.43): icmp_seq=12 ttl=53 time=119 ms
64 bytes from speedtest.softether.co.jp (103.41.63.43): icmp_seq=12 ttl=53 time=119 ms
64 bytes from speedtest.softether.co.jp (103.41.63.43): icmp_seq=12 ttl=53 time=119 ms
64 bytes from speedtest.softether.co.jp (103.41.63.43): icmp_seq=13 ttl=53 time=119 ms
64 bytes from speedtest.softether.co.jp (103.41.63.43): icmp_seq=13 ttl=53 time=119 ms
64 bytes from speedtest.softether.co.jp (103.41.63.43): icmp_seq=13 ttl=53 time=119 ms
64 bytes from speedtest.softether.co.jp (103.41.63.43): icmp_seq=13 ttl=53 time=119 ms
64 bytes from speedtest.softether.co.jp (103.41.63.43): icmp_seq=13 ttl=53 time=119 ms
64 bytes from speedtest.softether.co.jp (103.41.63.43): icmp_seq=13 ttl=53 time=119 ms
64 bytes from speedtest.softether.co.jp (103.41.63.43): icmp_seq=13 ttl=53 time=119 ms
64 bytes from speedtest.softether.co.jp (103.41.63.43): icmp_seq=13 ttl=53 time=119 ms
64 bytes from speedtest.softether.co.jp (103.41.63.43): icmp_seq=13 ttl=53 time=119 ms
64 bytes from speedtest.softether.co.jp (103.41.63.43): icmp_seq=13 ttl=53 time=119 ms
64 bytes from speedtest.softether.co.jp (103.41.63.43): icmp_seq=13 ttl=53 time=119 ms
64 bytes from speedtest.softether.co.jp (103.41.63.43): icmp_seq=13 ttl=53 time=119 ms
64 bytes from speedtest.softether.co.jp (103.41.63.43): icmp_seq=13 ttl=53 time=119 ms
64 bytes from speedtest.softether.co.jp (103.41.63.43): icmp_seq=13 ttl=53 time=119 ms
64 bytes from speedtest.softether.co.jp (103.41.63.43): icmp_seq=13 ttl=53 time=119 ms
64 bytes from speedtest.softether.co.jp (103.41.63.43): icmp_seq=13 ttl=53 time=119 ms
64 bytes from speedtest.softether.co.jp (103.41.63.43): icmp_seq=13 ttl=53 time=119 ms
64 bytes from speedtest.softether.co.jp (103.41.63.43): icmp_seq=13 ttl=53 time=119 ms
64 bytes from speedtest.softether.co.jp (103.41.63.43): icmp_seq=13 ttl=53 time=119 ms
64 bytes from speedtest.softether.co.jp (103.41.63.43): icmp_seq=13 ttl=53 time=119 ms
64 bytes from speedtest.softether.co.jp (103.41.63.43): icmp_seq=14 ttl=53 time=119 ms
64 bytes from speedtest.softether.co.jp (103.41.63.43): icmp_seq=14 ttl=53 time=119 ms
64 bytes from speedtest.softether.co.jp (103.41.63.43): icmp_seq=14 ttl=53 time=119 ms
64 bytes from speedtest.softether.co.jp (103.41.63.43): icmp_seq=14 ttl=53 time=119 ms
64 bytes from speedtest.softether.co.jp (103.41.63.43): icmp_seq=14 ttl=53 time=119 ms
64 bytes from speedtest.softether.co.jp (103.41.63.43): icmp_seq=14 ttl=53 time=119 ms
64 bytes from speedtest.softether.co.jp (103.41.63.43): icmp_seq=14 ttl=53 time=119 ms
64 bytes from speedtest.softether.co.jp (103.41.63.43): icmp_seq=14 ttl=53 time=119 ms
64 bytes from speedtest.softether.co.jp (103.41.63.43): icmp_seq=14 ttl=53 time=119 ms
64 bytes from speedtest.softether.co.jp (103.41.63.43): icmp_seq=14 ttl=53 time=119 ms
64 bytes from speedtest.softether.co.jp (103.41.63.43): icmp_seq=14 ttl=53 time=119 ms
64 bytes from speedtest.softether.co.jp (103.41.63.43): icmp_seq=14 ttl=53 time=119 ms
64 bytes from speedtest.softether.co.jp (103.41.63.43): icmp_seq=14 ttl=53 time=119 ms
64 bytes from speedtest.softether.co.jp (103.41.63.43): icmp_seq=14 ttl=53 time=119 ms
64 bytes from speedtest.softether.co.jp (103.41.63.43): icmp_seq=14 ttl=53 time=119 ms
64 bytes from speedtest.softether.co.jp (103.41.63.43): icmp_seq=14 ttl=53 time=119 ms
64 bytes from speedtest.softether.co.jp (103.41.63.43): icmp_seq=14 ttl=53 time=119 ms
64 bytes from speedtest.softether.co.jp (103.41.63.43): icmp_seq=14 ttl=53 time=119 ms
64 bytes from speedtest.softether.co.jp (103.41.63.43): icmp_seq=14 ttl=53 time=119 ms
64 bytes from speedtest.softether.co.jp (103.41.63.43): icmp_seq=14 ttl=53 time=119 ms
64 bytes from speedtest.softether.co.jp (103.41.63.43): icmp_seq=15 ttl=53 time=119 ms
64 bytes from speedtest.softether.co.jp (103.41.63.43): icmp_seq=15 ttl=53 time=119 ms
64 bytes from speedtest.softether.co.jp (103.41.63.43): icmp_seq=15 ttl=53 time=119 ms
64 bytes from speedtest.softether.co.jp (103.41.63.43): icmp_seq=15 ttl=53 time=119 ms
64 bytes from speedtest.softether.co.jp (103.41.63.43): icmp_seq=15 ttl=53 time=119 ms
64 bytes from speedtest.softether.co.jp (103.41.63.43): icmp_seq=15 ttl=53 time=119 ms
64 bytes from speedtest.softether.co.jp (103.41.63.43): icmp_seq=15 ttl=53 time=119 ms
64 bytes from speedtest.softether.co.jp (103.41.63.43): icmp_seq=15 ttl=53 time=119 ms
64 bytes from speedtest.softether.co.jp (103.41.63.43): icmp_seq=15 ttl=53 time=119 ms
64 bytes from speedtest.softether.co.jp (103.41.63.43): icmp_seq=15 ttl=53 time=119 ms
64 bytes from speedtest.softether.co.jp (103.41.63.43): icmp_seq=15 ttl=53 time=119 ms
64 bytes from speedtest.softether.co.jp (103.41.63.43): icmp_seq=15 ttl=53 time=119 ms
64 bytes from speedtest.softether.co.jp (103.41.63.43): icmp_seq=15 ttl=53 time=119 ms
64 bytes from speedtest.softether.co.jp (103.41.63.43): icmp_seq=15 ttl=53 time=119 ms
64 bytes from speedtest.softether.co.jp (103.41.63.43): icmp_seq=15 ttl=53 time=119 ms
64 bytes from speedtest.softether.co.jp (103.41.63.43): icmp_seq=15 ttl=53 time=119 ms
64 bytes from speedtest.softether.co.jp (103.41.63.43): icmp_seq=15 ttl=53 time=119 ms
64 bytes from speedtest.softether.co.jp (103.41.63.43): icmp_seq=15 ttl=53 time=119 ms
64 bytes from speedtest.softether.co.jp (103.41.63.43): icmp_seq=15 ttl=53 time=119 ms
64 bytes from speedtest.softether.co.jp (103.41.63.43): icmp_seq=15 ttl=53 time=119 ms
64 bytes from speedtest.softether.co.jp (103.41.63.43): icmp_seq=16 ttl=53 time=119 ms
64 bytes from speedtest.softether.co.jp (103.41.63.43): icmp_seq=16 ttl=53 time=119 ms
64 bytes from speedtest.softether.co.jp (103.41.63.43): icmp_seq=16 ttl=53 time=119 ms
64 bytes from speedtest.softether.co.jp (103.41.63.43): icmp_seq=16 ttl=53 time=119 ms
64 bytes from speedtest.softether.co.jp (103.41.63.43): icmp_seq=16 ttl=53 time=119 ms
64 bytes from speedtest.softether.co.jp (103.41.63.43): icmp_seq=16 ttl=53 time=119 ms
64 bytes from speedtest.softether.co.jp (103.41.63.43): icmp_seq=16 ttl=53 time=119 ms
64 bytes from speedtest.softether.co.jp (103.41.63.43): icmp_seq=16 ttl=53 time=119 ms
64 bytes from speedtest.softether.co.jp (103.41.63.43): icmp_seq=16 ttl=53 time=119 ms
64 bytes from speedtest.softether.co.jp (103.41.63.43): icmp_seq=16 ttl=53 time=119 ms
64 bytes from speedtest.softether.co.jp (103.41.63.43): icmp_seq=16 ttl=53 time=119 ms
64 bytes from speedtest.softether.co.jp (103.41.63.43): icmp_seq=16 ttl=53 time=119 ms
64 bytes from speedtest.softether.co.jp (103.41.63.43): icmp_seq=16 ttl=53 time=119 ms
64 bytes from speedtest.softether.co.jp (103.41.63.43): icmp_seq=16 ttl=53 time=119 ms
64 bytes from speedtest.softether.co.jp (103.41.63.43): icmp_seq=16 ttl=53 time=119 ms
64 bytes from speedtest.softether.co.jp (103.41.63.43): icmp_seq=16 ttl=53 time=119 ms
64 bytes from speedtest.softether.co.jp (103.41.63.43): icmp_seq=16 ttl=53 time=119 ms
64 bytes from speedtest.softether.co.jp (103.41.63.43): icmp_seq=16 ttl=53 time=119 ms
64 bytes from speedtest.softether.co.jp (103.41.63.43): icmp_seq=16 ttl=53 time=119 ms
64 bytes from speedtest.softether.co.jp (103.41.63.43): icmp_seq=16 ttl=53 time=119 ms
64 bytes from speedtest.softether.co.jp (103.41.63.43): icmp_seq=17 ttl=53 time=119 ms
64 bytes from speedtest.softether.co.jp (103.41.63.43): icmp_seq=17 ttl=53 time=119 ms
64 bytes from speedtest.softether.co.jp (103.41.63.43): icmp_seq=17 ttl=53 time=119 ms
64 bytes from speedtest.softether.co.jp (103.41.63.43): icmp_seq=17 ttl=53 time=119 ms
64 bytes from speedtest.softether.co.jp (103.41.63.43): icmp_seq=17 ttl=53 time=119 ms
64 bytes from speedtest.softether.co.jp (103.41.63.43): icmp_seq=17 ttl=53 time=119 ms
64 bytes from speedtest.softether.co.jp (103.41.63.43): icmp_seq=17 ttl=53 time=119 ms
64 bytes from speedtest.softether.co.jp (103.41.63.43): icmp_seq=17 ttl=53 time=119 ms
64 bytes from speedtest.softether.co.jp (103.41.63.43): icmp_seq=17 ttl=53 time=119 ms
64 bytes from speedtest.softether.co.jp (103.41.63.43): icmp_seq=17 ttl=53 time=119 ms
64 bytes from speedtest.softether.co.jp (103.41.63.43): icmp_seq=17 ttl=53 time=119 ms
64 bytes from speedtest.softether.co.jp (103.41.63.43): icmp_seq=17 ttl=53 time=119 ms
64 bytes from speedtest.softether.co.jp (103.41.63.43): icmp_seq=17 ttl=53 time=120 ms
64 bytes from speedtest.softether.co.jp (103.41.63.43): icmp_seq=17 ttl=53 time=120 ms
64 bytes from speedtest.softether.co.jp (103.41.63.43): icmp_seq=17 ttl=53 time=120 ms
64 bytes from speedtest.softether.co.jp (103.41.63.43): icmp_seq=17 ttl=53 time=120 ms
64 bytes from speedtest.softether.co.jp (103.41.63.43): icmp_seq=17 ttl=53 time=119 ms
64 bytes from speedtest.softether.co.jp (103.41.63.43): icmp_seq=17 ttl=53 time=119 ms
64 bytes from speedtest.softether.co.jp (103.41.63.43): icmp_seq=17 ttl=53 time=120 ms
64 bytes from speedtest.softether.co.jp (103.41.63.43): icmp_seq=17 ttl=53 time=119 ms
64 bytes from speedtest.softether.co.jp (103.41.63.43): icmp_seq=18 ttl=53 time=119 ms
64 bytes from speedtest.softether.co.jp (103.41.63.43): icmp_seq=18 ttl=53 time=119 ms
64 bytes from speedtest.softether.co.jp (103.41.63.43): icmp_seq=18 ttl=53 time=119 ms
64 bytes from speedtest.softether.co.jp (103.41.63.43): icmp_seq=18 ttl=53 time=119 ms
64 bytes from speedtest.softether.co.jp (103.41.63.43): icmp_seq=18 ttl=53 time=119 ms
64 bytes from speedtest.softether.co.jp (103.41.63.43): icmp_seq=18 ttl=53 time=119 ms
64 bytes from speedtest.softether.co.jp (103.41.63.43): icmp_seq=18 ttl=53 time=119 ms
64 bytes from speedtest.softether.co.jp (103.41.63.43): icmp_seq=18 ttl=53 time=119 ms
64 bytes from speedtest.softether.co.jp (103.41.63.43): icmp_seq=18 ttl=53 time=119 ms
64 bytes from speedtest.softether.co.jp (103.41.63.43): icmp_seq=18 ttl=53 time=119 ms
64 bytes from speedtest.softether.co.jp (103.41.63.43): icmp_seq=18 ttl=53 time=119 ms
64 bytes from speedtest.softether.co.jp (103.41.63.43): icmp_seq=18 ttl=53 time=119 ms
64 bytes from speedtest.softether.co.jp (103.41.63.43): icmp_seq=18 ttl=53 time=119 ms
64 bytes from speedtest.softether.co.jp (103.41.63.43): icmp_seq=18 ttl=53 time=119 ms
64 bytes from speedtest.softether.co.jp (103.41.63.43): icmp_seq=18 ttl=53 time=119 ms
64 bytes from speedtest.softether.co.jp (103.41.63.43): icmp_seq=18 ttl=53 time=119 ms
64 bytes from speedtest.softether.co.jp (103.41.63.43): icmp_seq=18 ttl=53 time=119 ms
64 bytes from speedtest.softether.co.jp (103.41.63.43): icmp_seq=18 ttl=53 time=119 ms
64 bytes from speedtest.softether.co.jp (103.41.63.43): icmp_seq=18 ttl=53 time=119 ms
64 bytes from speedtest.softether.co.jp (103.41.63.43): icmp_seq=18 ttl=53 time=119 ms
64 bytes from speedtest.softether.co.jp (103.41.63.43): icmp_seq=19 ttl=53 time=119 ms
64 bytes from speedtest.softether.co.jp (103.41.63.43): icmp_seq=19 ttl=53 time=119 ms
64 bytes from speedtest.softether.co.jp (103.41.63.43): icmp_seq=19 ttl=53 time=119 ms
64 bytes from speedtest.softether.co.jp (103.41.63.43): icmp_seq=19 ttl=53 time=119 ms
64 bytes from speedtest.softether.co.jp (103.41.63.43): icmp_seq=19 ttl=53 time=119 ms
64 bytes from speedtest.softether.co.jp (103.41.63.43): icmp_seq=19 ttl=53 time=119 ms
64 bytes from speedtest.softether.co.jp (103.41.63.43): icmp_seq=19 ttl=53 time=119 ms
64 bytes from speedtest.softether.co.jp (103.41.63.43): icmp_seq=19 ttl=53 time=119 ms
64 bytes from speedtest.softether.co.jp (103.41.63.43): icmp_seq=19 ttl=53 time=119 ms
64 bytes from speedtest.softether.co.jp (103.41.63.43): icmp_seq=19 ttl=53 time=119 ms
64 bytes from speedtest.softether.co.jp (103.41.63.43): icmp_seq=19 ttl=53 time=119 ms
64 bytes from speedtest.softether.co.jp (103.41.63.43): icmp_seq=19 ttl=53 time=119 ms
64 bytes from speedtest.softether.co.jp (103.41.63.43): icmp_seq=19 ttl=53 time=119 ms
64 bytes from speedtest.softether.co.jp (103.41.63.43): icmp_seq=19 ttl=53 time=119 ms
64 bytes from speedtest.softether.co.jp (103.41.63.43): icmp_seq=19 ttl=53 time=119 ms
64 bytes from speedtest.softether.co.jp (103.41.63.43): icmp_seq=19 ttl=53 time=119 ms
64 bytes from speedtest.softether.co.jp (103.41.63.43): icmp_seq=19 ttl=53 time=119 ms
64 bytes from speedtest.softether.co.jp (103.41.63.43): icmp_seq=19 ttl=53 time=119 ms
64 bytes from speedtest.softether.co.jp (103.41.63.43): icmp_seq=19 ttl=53 time=119 ms
64 bytes from speedtest.softether.co.jp (103.41.63.43): icmp_seq=19 ttl=53 time=119 ms
64 bytes from speedtest.softether.co.jp (103.41.63.43): icmp_seq=20 ttl=53 time=119 ms
64 bytes from speedtest.softether.co.jp (103.41.63.43): icmp_seq=20 ttl=53 time=119 ms
64 bytes from speedtest.softether.co.jp (103.41.63.43): icmp_seq=20 ttl=53 time=119 ms
64 bytes from speedtest.softether.co.jp (103.41.63.43): icmp_seq=20 ttl=53 time=119 ms
64 bytes from speedtest.softether.co.jp (103.41.63.43): icmp_seq=20 ttl=53 time=119 ms
64 bytes from speedtest.softether.co.jp (103.41.63.43): icmp_seq=20 ttl=53 time=119 ms
64 bytes from speedtest.softether.co.jp (103.41.63.43): icmp_seq=20 ttl=53 time=119 ms
64 bytes from speedtest.softether.co.jp (103.41.63.43): icmp_seq=20 ttl=53 time=119 ms
64 bytes from speedtest.softether.co.jp (103.41.63.43): icmp_seq=20 ttl=53 time=119 ms
64 bytes from speedtest.softether.co.jp (103.41.63.43): icmp_seq=20 ttl=53 time=119 ms
64 bytes from speedtest.softether.co.jp (103.41.63.43): icmp_seq=20 ttl=53 time=119 ms
64 bytes from speedtest.softether.co.jp (103.41.63.43): icmp_seq=20 ttl=53 time=119 ms
64 bytes from speedtest.softether.co.jp (103.41.63.43): icmp_seq=20 ttl=53 time=119 ms
64 bytes from speedtest.softether.co.jp (103.41.63.43): icmp_seq=20 ttl=53 time=119 ms
64 bytes from speedtest.softether.co.jp (103.41.63.43): icmp_seq=20 ttl=53 time=119 ms
64 bytes from speedtest.softether.co.jp (103.41.63.43): icmp_seq=20 ttl=53 time=119 ms
64 bytes from speedtest.softether.co.jp (103.41.63.43): icmp_seq=20 ttl=53 time=119 ms
64 bytes from speedtest.softether.co.jp (103.41.63.43): icmp_seq=20 ttl=53 time=119 ms
64 bytes from speedtest.softether.co.jp (103.41.63.43): icmp_seq=20 ttl=53 time=119 ms
64 bytes from speedtest.softether.co.jp (103.41.63.43): icmp_seq=20 ttl=53 time=119 ms
64 bytes from speedtest.softether.co.jp (103.41.63.43): icmp_seq=21 ttl=53 time=119 ms
64 bytes from speedtest.softether.co.jp (103.41.63.43): icmp_seq=21 ttl=53 time=119 ms
64 bytes from speedtest.softether.co.jp (103.41.63.43): icmp_seq=21 ttl=53 time=119 ms
64 bytes from speedtest.softether.co.jp (103.41.63.43): icmp_seq=21 ttl=53 time=119 ms
64 bytes from speedtest.softether.co.jp (103.41.63.43): icmp_seq=21 ttl=53 time=119 ms
64 bytes from speedtest.softether.co.jp (103.41.63.43): icmp_seq=21 ttl=53 time=119 ms
64 bytes from speedtest.softether.co.jp (103.41.63.43): icmp_seq=21 ttl=53 time=119 ms
64 bytes from speedtest.softether.co.jp (103.41.63.43): icmp_seq=21 ttl=53 time=119 ms
64 bytes from speedtest.softether.co.jp (103.41.63.43): icmp_seq=21 ttl=53 time=119 ms
64 bytes from speedtest.softether.co.jp (103.41.63.43): icmp_seq=21 ttl=53 time=119 ms
64 bytes from speedtest.softether.co.jp (103.41.63.43): icmp_seq=21 ttl=53 time=119 ms
64 bytes from speedtest.softether.co.jp (103.41.63.43): icmp_seq=21 ttl=53 time=119 ms
64 bytes from speedtest.softether.co.jp (103.41.63.43): icmp_seq=21 ttl=53 time=119 ms
64 bytes from speedtest.softether.co.jp (103.41.63.43): icmp_seq=21 ttl=53 time=119 ms
64 bytes from speedtest.softether.co.jp (103.41.63.43): icmp_seq=21 ttl=53 time=119 ms
64 bytes from speedtest.softether.co.jp (103.41.63.43): icmp_seq=21 ttl=53 time=119 ms
64 bytes from speedtest.softether.co.jp (103.41.63.43): icmp_seq=21 ttl=53 time=119 ms
64 bytes from speedtest.softether.co.jp (103.41.63.43): icmp_seq=21 ttl=53 time=119 ms
64 bytes from speedtest.softether.co.jp (103.41.63.43): icmp_seq=21 ttl=53 time=119 ms
64 bytes from speedtest.softether.co.jp (103.41.63.43): icmp_seq=21 ttl=53 time=119 ms
64 bytes from speedtest.softether.co.jp (103.41.63.43): icmp_seq=22 ttl=53 time=119 ms
64 bytes from speedtest.softether.co.jp (103.41.63.43): icmp_seq=22 ttl=53 time=119 ms
64 bytes from speedtest.softether.co.jp (103.41.63.43): icmp_seq=22 ttl=53 time=119 ms
64 bytes from speedtest.softether.co.jp (103.41.63.43): icmp_seq=22 ttl=53 time=119 ms
64 bytes from speedtest.softether.co.jp (103.41.63.43): icmp_seq=22 ttl=53 time=119 ms
64 bytes from speedtest.softether.co.jp (103.41.63.43): icmp_seq=22 ttl=53 time=119 ms
64 bytes from speedtest.softether.co.jp (103.41.63.43): icmp_seq=22 ttl=53 time=119 ms
64 bytes from speedtest.softether.co.jp (103.41.63.43): icmp_seq=22 ttl=53 time=119 ms
64 bytes from speedtest.softether.co.jp (103.41.63.43): icmp_seq=22 ttl=53 time=119 ms
64 bytes from speedtest.softether.co.jp (103.41.63.43): icmp_seq=22 ttl=53 time=119 ms
64 bytes from speedtest.softether.co.jp (103.41.63.43): icmp_seq=22 ttl=53 time=119 ms
64 bytes from speedtest.softether.co.jp (103.41.63.43): icmp_seq=22 ttl=53 time=119 ms
64 bytes from speedtest.softether.co.jp (103.41.63.43): icmp_seq=22 ttl=53 time=119 ms
64 bytes from speedtest.softether.co.jp (103.41.63.43): icmp_seq=22 ttl=53 time=119 ms
64 bytes from speedtest.softether.co.jp (103.41.63.43): icmp_seq=22 ttl=53 time=119 ms
64 bytes from speedtest.softether.co.jp (103.41.63.43): icmp_seq=22 ttl=53 time=119 ms
64 bytes from speedtest.softether.co.jp (103.41.63.43): icmp_seq=22 ttl=53 time=119 ms
64 bytes from speedtest.softether.co.jp (103.41.63.43): icmp_seq=22 ttl=53 time=119 ms
64 bytes from speedtest.softether.co.jp (103.41.63.43): icmp_seq=22 ttl=53 time=119 ms
64 bytes from speedtest.softether.co.jp (103.41.63.43): icmp_seq=22 ttl=53 time=119 ms
64 bytes from speedtest.softether.co.jp (103.41.63.43): icmp_seq=23 ttl=53 time=119 ms
64 bytes from speedtest.softether.co.jp (103.41.63.43): icmp_seq=23 ttl=53 time=119 ms
64 bytes from speedtest.softether.co.jp (103.41.63.43): icmp_seq=23 ttl=53 time=119 ms
64 bytes from speedtest.softether.co.jp (103.41.63.43): icmp_seq=23 ttl=53 time=119 ms
64 bytes from speedtest.softether.co.jp (103.41.63.43): icmp_seq=23 ttl=53 time=119 ms
64 bytes from speedtest.softether.co.jp (103.41.63.43): icmp_seq=23 ttl=53 time=119 ms
64 bytes from speedtest.softether.co.jp (103.41.63.43): icmp_seq=23 ttl=53 time=119 ms
64 bytes from speedtest.softether.co.jp (103.41.63.43): icmp_seq=23 ttl=53 time=119 ms
64 bytes from speedtest.softether.co.jp (103.41.63.43): icmp_seq=23 ttl=53 time=119 ms
64 bytes from speedtest.softether.co.jp (103.41.63.43): icmp_seq=23 ttl=53 time=119 ms
64 bytes from speedtest.softether.co.jp (103.41.63.43): icmp_seq=23 ttl=53 time=119 ms
64 bytes from speedtest.softether.co.jp (103.41.63.43): icmp_seq=23 ttl=53 time=119 ms
64 bytes from speedtest.softether.co.jp (103.41.63.43): icmp_seq=23 ttl=53 time=119 ms
64 bytes from speedtest.softether.co.jp (103.41.63.43): icmp_seq=23 ttl=53 time=119 ms
64 bytes from speedtest.softether.co.jp (103.41.63.43): icmp_seq=23 ttl=53 time=119 ms
64 bytes from speedtest.softether.co.jp (103.41.63.43): icmp_seq=23 ttl=53 time=119 ms
64 bytes from speedtest.softether.co.jp (103.41.63.43): icmp_seq=23 ttl=53 time=119 ms
64 bytes from speedtest.softether.co.jp (103.41.63.43): icmp_seq=23 ttl=53 time=119 ms
64 bytes from speedtest.softether.co.jp (103.41.63.43): icmp_seq=23 ttl=53 time=119 ms
64 bytes from speedtest.softether.co.jp (103.41.63.43): icmp_seq=23 ttl=53 time=119 ms
64 bytes from speedtest.softether.co.jp (103.41.63.43): icmp_seq=24 ttl=53 time=120 ms
64 bytes from speedtest.softether.co.jp (103.41.63.43): icmp_seq=24 ttl=53 time=120 ms
64 bytes from speedtest.softether.co.jp (103.41.63.43): icmp_seq=24 ttl=53 time=120 ms
64 bytes from speedtest.softether.co.jp (103.41.63.43): icmp_seq=24 ttl=53 time=120 ms
64 bytes from speedtest.softether.co.jp (103.41.63.43): icmp_seq=24 ttl=53 time=120 ms
64 bytes from speedtest.softether.co.jp (103.41.63.43): icmp_seq=24 ttl=53 time=120 ms
64 bytes from speedtest.softether.co.jp (103.41.63.43): icmp_seq=24 ttl=53 time=120 ms
64 bytes from speedtest.softether.co.jp (103.41.63.43): icmp_seq=24 ttl=53 time=120 ms
64 bytes from speedtest.softether.co.jp (103.41.63.43): icmp_seq=24 ttl=53 time=120 ms
64 bytes from speedtest.softether.co.jp (103.41.63.43): icmp_seq=24 ttl=53 time=120 ms
64 bytes from speedtest.softether.co.jp (103.41.63.43): icmp_seq=24 ttl=53 time=120 ms
64 bytes from speedtest.softether.co.jp (103.41.63.43): icmp_seq=24 ttl=53 time=120 ms
64 bytes from speedtest.softether.co.jp (103.41.63.43): icmp_seq=24 ttl=53 time=120 ms
64 bytes from speedtest.softether.co.jp (103.41.63.43): icmp_seq=24 ttl=53 time=120 ms
64 bytes from speedtest.softether.co.jp (103.41.63.43): icmp_seq=24 ttl=53 time=120 ms
64 bytes from speedtest.softether.co.jp (103.41.63.43): icmp_seq=24 ttl=53 time=120 ms
64 bytes from speedtest.softether.co.jp (103.41.63.43): icmp_seq=24 ttl=53 time=119 ms
64 bytes from speedtest.softether.co.jp (103.41.63.43): icmp_seq=24 ttl=53 time=119 ms
64 bytes from speedtest.softether.co.jp (103.41.63.43): icmp_seq=24 ttl=53 time=119 ms
64 bytes from speedtest.softether.co.jp (103.41.63.43): icmp_seq=24 ttl=53 time=119 ms
64 bytes from speedtest.softether.co.jp (103.41.63.43): icmp_seq=25 ttl=53 time=120 ms
64 bytes from speedtest.softether.co.jp (103.41.63.43): icmp_seq=25 ttl=53 time=120 ms
64 bytes from speedtest.softether.co.jp (103.41.63.43): icmp_seq=25 ttl=53 time=120 ms
64 bytes from speedtest.softether.co.jp (103.41.63.43): icmp_seq=25 ttl=53 time=120 ms
64 bytes from speedtest.softether.co.jp (103.41.63.43): icmp_seq=25 ttl=53 time=120 ms
64 bytes from speedtest.softether.co.jp (103.41.63.43): icmp_seq=25 ttl=53 time=120 ms
64 bytes from speedtest.softether.co.jp (103.41.63.43): icmp_seq=25 ttl=53 time=119 ms
64 bytes from speedtest.softether.co.jp (103.41.63.43): icmp_seq=25 ttl=53 time=120 ms
64 bytes from speedtest.softether.co.jp (103.41.63.43): icmp_seq=25 ttl=53 time=120 ms
64 bytes from speedtest.softether.co.jp (103.41.63.43): icmp_seq=25 ttl=53 time=120 ms
64 bytes from speedtest.softether.co.jp (103.41.63.43): icmp_seq=25 ttl=53 time=120 ms
64 bytes from speedtest.softether.co.jp (103.41.63.43): icmp_seq=25 ttl=53 time=120 ms
64 bytes from speedtest.softether.co.jp (103.41.63.43): icmp_seq=25 ttl=53 time=120 ms
64 bytes from speedtest.softether.co.jp (103.41.63.43): icmp_seq=25 ttl=53 time=120 ms
64 bytes from speedtest.softether.co.jp (103.41.63.43): icmp_seq=25 ttl=53 time=119 ms
64 bytes from speedtest.softether.co.jp (103.41.63.43): icmp_seq=25 ttl=53 time=120 ms
64 bytes from speedtest.softether.co.jp (103.41.63.43): icmp_seq=25 ttl=53 time=119 ms
64 bytes from speedtest.softether.co.jp (103.41.63.43): icmp_seq=25 ttl=53 time=119 ms
64 bytes from speedtest.softether.co.jp (103.41.63.43): icmp_seq=25 ttl=53 time=119 ms
64 bytes from speedtest.softether.co.jp (103.41.63.43): icmp_seq=25 ttl=53 time=119 ms
64 bytes from speedtest.softether.co.jp (103.41.63.43): icmp_seq=26 ttl=53 time=119 ms
64 bytes from speedtest.softether.co.jp (103.41.63.43): icmp_seq=26 ttl=53 time=119 ms
64 bytes from speedtest.softether.co.jp (103.41.63.43): icmp_seq=26 ttl=53 time=119 ms
64 bytes from speedtest.softether.co.jp (103.41.63.43): icmp_seq=26 ttl=53 time=119 ms
64 bytes from speedtest.softether.co.jp (103.41.63.43): icmp_seq=26 ttl=53 time=119 ms
64 bytes from speedtest.softether.co.jp (103.41.63.43): icmp_seq=26 ttl=53 time=119 ms
64 bytes from speedtest.softether.co.jp (103.41.63.43): icmp_seq=26 ttl=53 time=119 ms
64 bytes from speedtest.softether.co.jp (103.41.63.43): icmp_seq=26 ttl=53 time=119 ms
64 bytes from speedtest.softether.co.jp (103.41.63.43): icmp_seq=26 ttl=53 time=119 ms
64 bytes from speedtest.softether.co.jp (103.41.63.43): icmp_seq=26 ttl=53 time=119 ms
64 bytes from speedtest.softether.co.jp (103.41.63.43): icmp_seq=26 ttl=53 time=119 ms
64 bytes from speedtest.softether.co.jp (103.41.63.43): icmp_seq=26 ttl=53 time=119 ms
64 bytes from speedtest.softether.co.jp (103.41.63.43): icmp_seq=26 ttl=53 time=119 ms
64 bytes from speedtest.softether.co.jp (103.41.63.43): icmp_seq=26 ttl=53 time=119 ms
64 bytes from speedtest.softether.co.jp (103.41.63.43): icmp_seq=26 ttl=53 time=119 ms
64 bytes from speedtest.softether.co.jp (103.41.63.43): icmp_seq=26 ttl=53 time=119 ms
64 bytes from speedtest.softether.co.jp (103.41.63.43): icmp_seq=26 ttl=53 time=119 ms
64 bytes from speedtest.softether.co.jp (103.41.63.43): icmp_seq=26 ttl=53 time=119 ms
64 bytes from speedtest.softether.co.jp (103.41.63.43): icmp_seq=26 ttl=53 time=119 ms
64 bytes from speedtest.softether.co.jp (103.41.63.43): icmp_seq=26 ttl=53 time=119 ms
64 bytes from speedtest.softether.co.jp (103.41.63.43): icmp_seq=27 ttl=53 time=119 ms
64 bytes from speedtest.softether.co.jp (103.41.63.43): icmp_seq=27 ttl=53 time=119 ms
64 bytes from speedtest.softether.co.jp (103.41.63.43): icmp_seq=27 ttl=53 time=119 ms
64 bytes from speedtest.softether.co.jp (103.41.63.43): icmp_seq=27 ttl=53 time=119 ms
64 bytes from speedtest.softether.co.jp (103.41.63.43): icmp_seq=27 ttl=53 time=119 ms
64 bytes from speedtest.softether.co.jp (103.41.63.43): icmp_seq=27 ttl=53 time=119 ms
64 bytes from speedtest.softether.co.jp (103.41.63.43): icmp_seq=27 ttl=53 time=119 ms
64 bytes from speedtest.softether.co.jp (103.41.63.43): icmp_seq=27 ttl=53 time=119 ms
64 bytes from speedtest.softether.co.jp (103.41.63.43): icmp_seq=27 ttl=53 time=119 ms
64 bytes from speedtest.softether.co.jp (103.41.63.43): icmp_seq=27 ttl=53 time=119 ms
64 bytes from speedtest.softether.co.jp (103.41.63.43): icmp_seq=27 ttl=53 time=119 ms
64 bytes from speedtest.softether.co.jp (103.41.63.43): icmp_seq=27 ttl=53 time=119 ms
64 bytes from speedtest.softether.co.jp (103.41.63.43): icmp_seq=27 ttl=53 time=119 ms
64 bytes from speedtest.softether.co.jp (103.41.63.43): icmp_seq=27 ttl=53 time=119 ms
64 bytes from speedtest.softether.co.jp (103.41.63.43): icmp_seq=27 ttl=53 time=119 ms
64 bytes from speedtest.softether.co.jp (103.41.63.43): icmp_seq=27 ttl=53 time=119 ms
64 bytes from speedtest.softether.co.jp (103.41.63.43): icmp_seq=27 ttl=53 time=119 ms
64 bytes from speedtest.softether.co.jp (103.41.63.43): icmp_seq=27 ttl=53 time=119 ms
64 bytes from speedtest.softether.co.jp (103.41.63.43): icmp_seq=27 ttl=53 time=119 ms
64 bytes from speedtest.softether.co.jp (103.41.63.43): icmp_seq=27 ttl=53 time=119 ms
64 bytes from speedtest.softether.co.jp (103.41.63.43): icmp_seq=28 ttl=53 time=119 ms
64 bytes from speedtest.softether.co.jp (103.41.63.43): icmp_seq=28 ttl=53 time=119 ms
64 bytes from speedtest.softether.co.jp (103.41.63.43): icmp_seq=28 ttl=53 time=120 ms
64 bytes from speedtest.softether.co.jp (103.41.63.43): icmp_seq=28 ttl=53 time=120 ms
64 bytes from speedtest.softether.co.jp (103.41.63.43): icmp_seq=28 ttl=53 time=120 ms
64 bytes from speedtest.softether.co.jp (103.41.63.43): icmp_seq=28 ttl=53 time=120 ms
64 bytes from speedtest.softether.co.jp (103.41.63.43): icmp_seq=28 ttl=53 time=120 ms
64 bytes from speedtest.softether.co.jp (103.41.63.43): icmp_seq=28 ttl=53 time=119 ms
64 bytes from speedtest.softether.co.jp (103.41.63.43): icmp_seq=28 ttl=53 time=120 ms
64 bytes from speedtest.softether.co.jp (103.41.63.43): icmp_seq=28 ttl=53 time=120 ms
64 bytes from speedtest.softether.co.jp (103.41.63.43): icmp_seq=28 ttl=53 time=119 ms
64 bytes from speedtest.softether.co.jp (103.41.63.43): icmp_seq=28 ttl=53 time=119 ms
64 bytes from speedtest.softether.co.jp (103.41.63.43): icmp_seq=28 ttl=53 time=119 ms
64 bytes from speedtest.softether.co.jp (103.41.63.43): icmp_seq=28 ttl=53 time=119 ms
64 bytes from speedtest.softether.co.jp (103.41.63.43): icmp_seq=28 ttl=53 time=119 ms
64 bytes from speedtest.softether.co.jp (103.41.63.43): icmp_seq=28 ttl=53 time=119 ms
64 bytes from speedtest.softether.co.jp (103.41.63.43): icmp_seq=28 ttl=53 time=119 ms
64 bytes from speedtest.softether.co.jp (103.41.63.43): icmp_seq=28 ttl=53 time=119 ms
64 bytes from speedtest.softether.co.jp (103.41.63.43): icmp_seq=28 ttl=53 time=119 ms
64 bytes from speedtest.softether.co.jp (103.41.63.43): icmp_seq=28 ttl=53 time=119 ms
64 bytes from speedtest.softether.co.jp (103.41.63.43): icmp_seq=29 ttl=53 time=119 ms
64 bytes from speedtest.softether.co.jp (103.41.63.43): icmp_seq=29 ttl=53 time=119 ms
64 bytes from speedtest.softether.co.jp (103.41.63.43): icmp_seq=29 ttl=53 time=119 ms
64 bytes from speedtest.softether.co.jp (103.41.63.43): icmp_seq=29 ttl=53 time=119 ms
64 bytes from speedtest.softether.co.jp (103.41.63.43): icmp_seq=29 ttl=53 time=119 ms
64 bytes from speedtest.softether.co.jp (103.41.63.43): icmp_seq=29 ttl=53 time=119 ms
64 bytes from speedtest.softether.co.jp (103.41.63.43): icmp_seq=29 ttl=53 time=119 ms
64 bytes from speedtest.softether.co.jp (103.41.63.43): icmp_seq=29 ttl=53 time=119 ms
64 bytes from speedtest.softether.co.jp (103.41.63.43): icmp_seq=29 ttl=53 time=119 ms
64 bytes from speedtest.softether.co.jp (103.41.63.43): icmp_seq=29 ttl=53 time=119 ms
64 bytes from speedtest.softether.co.jp (103.41.63.43): icmp_seq=29 ttl=53 time=119 ms
64 bytes from speedtest.softether.co.jp (103.41.63.43): icmp_seq=29 ttl=53 time=119 ms
64 bytes from speedtest.softether.co.jp (103.41.63.43): icmp_seq=29 ttl=53 time=119 ms
64 bytes from speedtest.softether.co.jp (103.41.63.43): icmp_seq=29 ttl=53 time=119 ms
64 bytes from speedtest.softether.co.jp (103.41.63.43): icmp_seq=29 ttl=53 time=119 ms
64 bytes from speedtest.softether.co.jp (103.41.63.43): icmp_seq=29 ttl=53 time=119 ms
64 bytes from speedtest.softether.co.jp (103.41.63.43): icmp_seq=29 ttl=53 time=119 ms
64 bytes from speedtest.softether.co.jp (103.41.63.43): icmp_seq=29 ttl=53 time=119 ms
64 bytes from speedtest.softether.co.jp (103.41.63.43): icmp_seq=29 ttl=53 time=119 ms
64 bytes from speedtest.softether.co.jp (103.41.63.43): icmp_seq=29 ttl=53 time=119 ms
64 bytes from speedtest.softether.co.jp (103.41.63.43): icmp_seq=30 ttl=53 time=119 ms
64 bytes from speedtest.softether.co.jp (103.41.63.43): icmp_seq=30 ttl=53 time=119 ms
64 bytes from speedtest.softether.co.jp (103.41.63.43): icmp_seq=30 ttl=53 time=119 ms
64 bytes from speedtest.softether.co.jp (103.41.63.43): icmp_seq=30 ttl=53 time=119 ms
64 bytes from speedtest.softether.co.jp (103.41.63.43): icmp_seq=30 ttl=53 time=119 ms
64 bytes from speedtest.softether.co.jp (103.41.63.43): icmp_seq=30 ttl=53 time=119 ms
64 bytes from speedtest.softether.co.jp (103.41.63.43): icmp_seq=30 ttl=53 time=119 ms
64 bytes from speedtest.softether.co.jp (103.41.63.43): icmp_seq=30 ttl=53 time=119 ms
64 bytes from speedtest.softether.co.jp (103.41.63.43): icmp_seq=30 ttl=53 time=119 ms
64 bytes from speedtest.softether.co.jp (103.41.63.43): icmp_seq=30 ttl=53 time=119 ms
64 bytes from speedtest.softether.co.jp (103.41.63.43): icmp_seq=30 ttl=53 time=119 ms
64 bytes from speedtest.softether.co.jp (103.41.63.43): icmp_seq=30 ttl=53 time=119 ms
64 bytes from speedtest.softether.co.jp (103.41.63.43): icmp_seq=30 ttl=53 time=119 ms
64 bytes from speedtest.softether.co.jp (103.41.63.43): icmp_seq=30 ttl=53 time=119 ms
64 bytes from speedtest.softether.co.jp (103.41.63.43): icmp_seq=30 ttl=53 time=119 ms
64 bytes from speedtest.softether.co.jp (103.41.63.43): icmp_seq=30 ttl=53 time=119 ms
64 bytes from speedtest.softether.co.jp (103.41.63.43): icmp_seq=30 ttl=53 time=119 ms
64 bytes from speedtest.softether.co.jp (103.41.63.43): icmp_seq=30 ttl=53 time=119 ms
64 bytes from speedtest.softether.co.jp (103.41.63.43): icmp_seq=30 ttl=53 time=119 ms
64 bytes from speedtest.softether.co.jp (103.41.63.43): icmp_seq=30 ttl=53 time=119 ms
64 bytes from speedtest.softether.co.jp (103.41.63.43): icmp_seq=31 ttl=53 time=119 ms
64 bytes from speedtest.softether.co.jp (103.41.63.43): icmp_seq=31 ttl=53 time=119 ms
64 bytes from speedtest.softether.co.jp (103.41.63.43): icmp_seq=31 ttl=53 time=119 ms
64 bytes from speedtest.softether.co.jp (103.41.63.43): icmp_seq=31 ttl=53 time=120 ms
64 bytes from speedtest.softether.co.jp (103.41.63.43): icmp_seq=31 ttl=53 time=120 ms
64 bytes from speedtest.softether.co.jp (103.41.63.43): icmp_seq=31 ttl=53 time=120 ms
64 bytes from speedtest.softether.co.jp (103.41.63.43): icmp_seq=31 ttl=53 time=120 ms
64 bytes from speedtest.softether.co.jp (103.41.63.43): icmp_seq=31 ttl=53 time=119 ms
64 bytes from speedtest.softether.co.jp (103.41.63.43): icmp_seq=31 ttl=53 time=119 ms
64 bytes from speedtest.softether.co.jp (103.41.63.43): icmp_seq=31 ttl=53 time=119 ms
64 bytes from speedtest.softether.co.jp (103.41.63.43): icmp_seq=31 ttl=53 time=119 ms
64 bytes from speedtest.softether.co.jp (103.41.63.43): icmp_seq=31 ttl=53 time=119 ms
64 bytes from speedtest.softether.co.jp (103.41.63.43): icmp_seq=31 ttl=53 time=119 ms
64 bytes from speedtest.softether.co.jp (103.41.63.43): icmp_seq=31 ttl=53 time=119 ms
64 bytes from speedtest.softether.co.jp (103.41.63.43): icmp_seq=31 ttl=53 time=119 ms
64 bytes from speedtest.softether.co.jp (103.41.63.43): icmp_seq=31 ttl=53 time=119 ms
64 bytes from speedtest.softether.co.jp (103.41.63.43): icmp_seq=31 ttl=53 time=119 ms
64 bytes from speedtest.softether.co.jp (103.41.63.43): icmp_seq=31 ttl=53 time=119 ms
64 bytes from speedtest.softether.co.jp (103.41.63.43): icmp_seq=31 ttl=53 time=120 ms
64 bytes from speedtest.softether.co.jp (103.41.63.43): icmp_seq=31 ttl=53 time=120 ms
64 bytes from speedtest.softether.co.jp (103.41.63.43): icmp_seq=32 ttl=53 time=119 ms
64 bytes from speedtest.softether.co.jp (103.41.63.43): icmp_seq=32 ttl=53 time=119 ms
64 bytes from speedtest.softether.co.jp (103.41.63.43): icmp_seq=32 ttl=53 time=119 ms
64 bytes from speedtest.softether.co.jp (103.41.63.43): icmp_seq=32 ttl=53 time=119 ms
64 bytes from speedtest.softether.co.jp (103.41.63.43): icmp_seq=32 ttl=53 time=119 ms
64 bytes from speedtest.softether.co.jp (103.41.63.43): icmp_seq=32 ttl=53 time=119 ms
64 bytes from speedtest.softether.co.jp (103.41.63.43): icmp_seq=32 ttl=53 time=119 ms
64 bytes from speedtest.softether.co.jp (103.41.63.43): icmp_seq=32 ttl=53 time=119 ms
64 bytes from speedtest.softether.co.jp (103.41.63.43): icmp_seq=32 ttl=53 time=119 ms
64 bytes from speedtest.softether.co.jp (103.41.63.43): icmp_seq=32 ttl=53 time=119 ms
64 bytes from speedtest.softether.co.jp (103.41.63.43): icmp_seq=32 ttl=53 time=119 ms
64 bytes from speedtest.softether.co.jp (103.41.63.43): icmp_seq=32 ttl=53 time=119 ms
64 bytes from speedtest.softether.co.jp (103.41.63.43): icmp_seq=32 ttl=53 time=119 ms
64 bytes from speedtest.softether.co.jp (103.41.63.43): icmp_seq=32 ttl=53 time=119 ms
64 bytes from speedtest.softether.co.jp (103.41.63.43): icmp_seq=32 ttl=53 time=119 ms
64 bytes from speedtest.softether.co.jp (103.41.63.43): icmp_seq=32 ttl=53 time=119 ms
64 bytes from speedtest.softether.co.jp (103.41.63.43): icmp_seq=32 ttl=53 time=119 ms
64 bytes from speedtest.softether.co.jp (103.41.63.43): icmp_seq=32 ttl=53 time=119 ms
64 bytes from speedtest.softether.co.jp (103.41.63.43): icmp_seq=32 ttl=53 time=119 ms
64 bytes from speedtest.softether.co.jp (103.41.63.43): icmp_seq=32 ttl=53 time=119 ms
64 bytes from speedtest.softether.co.jp (103.41.63.43): icmp_seq=33 ttl=53 time=119 ms
64 bytes from speedtest.softether.co.jp (103.41.63.43): icmp_seq=33 ttl=53 time=119 ms
64 bytes from speedtest.softether.co.jp (103.41.63.43): icmp_seq=33 ttl=53 time=120 ms
64 bytes from speedtest.softether.co.jp (103.41.63.43): icmp_seq=33 ttl=53 time=119 ms
64 bytes from speedtest.softether.co.jp (103.41.63.43): icmp_seq=33 ttl=53 time=119 ms
64 bytes from speedtest.softether.co.jp (103.41.63.43): icmp_seq=33 ttl=53 time=119 ms
64 bytes from speedtest.softether.co.jp (103.41.63.43): icmp_seq=33 ttl=53 time=119 ms
64 bytes from speedtest.softether.co.jp (103.41.63.43): icmp_seq=33 ttl=53 time=119 ms
64 bytes from speedtest.softether.co.jp (103.41.63.43): icmp_seq=33 ttl=53 time=119 ms
64 bytes from speedtest.softether.co.jp (103.41.63.43): icmp_seq=33 ttl=53 time=119 ms
64 bytes from speedtest.softether.co.jp (103.41.63.43): icmp_seq=33 ttl=53 time=119 ms
64 bytes from speedtest.softether.co.jp (103.41.63.43): icmp_seq=33 ttl=53 time=119 ms
64 bytes from speedtest.softether.co.jp (103.41.63.43): icmp_seq=33 ttl=53 time=119 ms
64 bytes from speedtest.softether.co.jp (103.41.63.43): icmp_seq=33 ttl=53 time=119 ms
64 bytes from speedtest.softether.co.jp (103.41.63.43): icmp_seq=33 ttl=53 time=119 ms
64 bytes from speedtest.softether.co.jp (103.41.63.43): icmp_seq=33 ttl=53 time=119 ms
64 bytes from speedtest.softether.co.jp (103.41.63.43): icmp_seq=33 ttl=53 time=119 ms
64 bytes from speedtest.softether.co.jp (103.41.63.43): icmp_seq=33 ttl=53 time=119 ms
64 bytes from speedtest.softether.co.jp (103.41.63.43): icmp_seq=33 ttl=53 time=119 ms
64 bytes from speedtest.softether.co.jp (103.41.63.43): icmp_seq=33 ttl=53 time=119 ms
64 bytes from speedtest.softether.co.jp (103.41.63.43): icmp_seq=34 ttl=53 time=119 ms
64 bytes from speedtest.softether.co.jp (103.41.63.43): icmp_seq=34 ttl=53 time=119 ms
64 bytes from speedtest.softether.co.jp (103.41.63.43): icmp_seq=34 ttl=53 time=119 ms
64 bytes from speedtest.softether.co.jp (103.41.63.43): icmp_seq=34 ttl=53 time=119 ms
64 bytes from speedtest.softether.co.jp (103.41.63.43): icmp_seq=34 ttl=53 time=119 ms
64 bytes from speedtest.softether.co.jp (103.41.63.43): icmp_seq=34 ttl=53 time=119 ms
64 bytes from speedtest.softether.co.jp (103.41.63.43): icmp_seq=34 ttl=53 time=119 ms
64 bytes from speedtest.softether.co.jp (103.41.63.43): icmp_seq=34 ttl=53 time=119 ms
64 bytes from speedtest.softether.co.jp (103.41.63.43): icmp_seq=34 ttl=53 time=119 ms
64 bytes from speedtest.softether.co.jp (103.41.63.43): icmp_seq=34 ttl=53 time=119 ms
64 bytes from speedtest.softether.co.jp (103.41.63.43): icmp_seq=34 ttl=53 time=119 ms
64 bytes from speedtest.softether.co.jp (103.41.63.43): icmp_seq=34 ttl=53 time=119 ms
64 bytes from speedtest.softether.co.jp (103.41.63.43): icmp_seq=34 ttl=53 time=119 ms
64 bytes from speedtest.softether.co.jp (103.41.63.43): icmp_seq=34 ttl=53 time=119 ms
64 bytes from speedtest.softether.co.jp (103.41.63.43): icmp_seq=34 ttl=53 time=119 ms
64 bytes from speedtest.softether.co.jp (103.41.63.43): icmp_seq=34 ttl=53 time=119 ms
64 bytes from speedtest.softether.co.jp (103.41.63.43): icmp_seq=34 ttl=53 time=119 ms
64 bytes from speedtest.softether.co.jp (103.41.63.43): icmp_seq=34 ttl=53 time=119 ms
64 bytes from speedtest.softether.co.jp (103.41.63.43): icmp_seq=34 ttl=53 time=119 ms
64 bytes from speedtest.softether.co.jp (103.41.63.43): icmp_seq=34 ttl=53 time=119 ms
64 bytes from speedtest.softether.co.jp (103.41.63.43): icmp_seq=35 ttl=53 time=119 ms
64 bytes from speedtest.softether.co.jp (103.41.63.43): icmp_seq=35 ttl=53 time=119 ms
64 bytes from speedtest.softether.co.jp (103.41.63.43): icmp_seq=35 ttl=53 time=119 ms
64 bytes from speedtest.softether.co.jp (103.41.63.43): icmp_seq=35 ttl=53 time=119 ms
64 bytes from speedtest.softether.co.jp (103.41.63.43): icmp_seq=35 ttl=53 time=119 ms
64 bytes from speedtest.softether.co.jp (103.41.63.43): icmp_seq=35 ttl=53 time=119 ms
64 bytes from speedtest.softether.co.jp (103.41.63.43): icmp_seq=35 ttl=53 time=119 ms
64 bytes from speedtest.softether.co.jp (103.41.63.43): icmp_seq=35 ttl=53 time=119 ms
64 bytes from speedtest.softether.co.jp (103.41.63.43): icmp_seq=35 ttl=53 time=119 ms
64 bytes from speedtest.softether.co.jp (103.41.63.43): icmp_seq=35 ttl=53 time=119 ms
64 bytes from speedtest.softether.co.jp (103.41.63.43): icmp_seq=35 ttl=53 time=119 ms
64 bytes from speedtest.softether.co.jp (103.41.63.43): icmp_seq=35 ttl=53 time=119 ms
64 bytes from speedtest.softether.co.jp (103.41.63.43): icmp_seq=35 ttl=53 time=119 ms
64 bytes from speedtest.softether.co.jp (103.41.63.43): icmp_seq=35 ttl=53 time=119 ms
64 bytes from speedtest.softether.co.jp (103.41.63.43): icmp_seq=35 ttl=53 time=119 ms
64 bytes from speedtest.softether.co.jp (103.41.63.43): icmp_seq=35 ttl=53 time=119 ms
64 bytes from speedtest.softether.co.jp (103.41.63.43): icmp_seq=35 ttl=53 time=119 ms
64 bytes from speedtest.softether.co.jp (103.41.63.43): icmp_seq=35 ttl=53 time=119 ms
64 bytes from speedtest.softether.co.jp (103.41.63.43): icmp_seq=35 ttl=53 time=119 ms
64 bytes from speedtest.softether.co.jp (103.41.63.43): icmp_seq=35 ttl=53 time=119 ms
64 bytes from speedtest.softether.co.jp (103.41.63.43): icmp_seq=36 ttl=53 time=119 ms
64 bytes from speedtest.softether.co.jp (103.41.63.43): icmp_seq=36 ttl=53 time=119 ms
64 bytes from speedtest.softether.co.jp (103.41.63.43): icmp_seq=36 ttl=53 time=119 ms
64 bytes from speedtest.softether.co.jp (103.41.63.43): icmp_seq=36 ttl=53 time=119 ms
64 bytes from speedtest.softether.co.jp (103.41.63.43): icmp_seq=36 ttl=53 time=119 ms
64 bytes from speedtest.softether.co.jp (103.41.63.43): icmp_seq=36 ttl=53 time=119 ms
64 bytes from speedtest.softether.co.jp (103.41.63.43): icmp_seq=36 ttl=53 time=119 ms
64 bytes from speedtest.softether.co.jp (103.41.63.43): icmp_seq=36 ttl=53 time=119 ms
64 bytes from speedtest.softether.co.jp (103.41.63.43): icmp_seq=36 ttl=53 time=119 ms
64 bytes from speedtest.softether.co.jp (103.41.63.43): icmp_seq=36 ttl=53 time=119 ms
64 bytes from speedtest.softether.co.jp (103.41.63.43): icmp_seq=36 ttl=53 time=119 ms
64 bytes from speedtest.softether.co.jp (103.41.63.43): icmp_seq=36 ttl=53 time=119 ms
64 bytes from speedtest.softether.co.jp (103.41.63.43): icmp_seq=36 ttl=53 time=119 ms
64 bytes from speedtest.softether.co.jp (103.41.63.43): icmp_seq=36 ttl=53 time=119 ms
64 bytes from speedtest.softether.co.jp (103.41.63.43): icmp_seq=36 ttl=53 time=119 ms
64 bytes from speedtest.softether.co.jp (103.41.63.43): icmp_seq=36 ttl=53 time=119 ms
64 bytes from speedtest.softether.co.jp (103.41.63.43): icmp_seq=36 ttl=53 time=119 ms
64 bytes from speedtest.softether.co.jp (103.41.63.43): icmp_seq=36 ttl=53 time=119 ms
64 bytes from speedtest.softether.co.jp (103.41.63.43): icmp_seq=36 ttl=53 time=119 ms
64 bytes from speedtest.softether.co.jp (103.41.63.43): icmp_seq=36 ttl=53 time=119 ms
64 bytes from speedtest.softether.co.jp (103.41.63.43): icmp_seq=37 ttl=53 time=119 ms
64 bytes from speedtest.softether.co.jp (103.41.63.43): icmp_seq=37 ttl=53 time=119 ms
64 bytes from speedtest.softether.co.jp (103.41.63.43): icmp_seq=37 ttl=53 time=119 ms
64 bytes from speedtest.softether.co.jp (103.41.63.43): icmp_seq=37 ttl=53 time=119 ms
64 bytes from speedtest.softether.co.jp (103.41.63.43): icmp_seq=37 ttl=53 time=119 ms
64 bytes from speedtest.softether.co.jp (103.41.63.43): icmp_seq=37 ttl=53 time=119 ms
64 bytes from speedtest.softether.co.jp (103.41.63.43): icmp_seq=37 ttl=53 time=119 ms
64 bytes from speedtest.softether.co.jp (103.41.63.43): icmp_seq=37 ttl=53 time=119 ms
64 bytes from speedtest.softether.co.jp (103.41.63.43): icmp_seq=37 ttl=53 time=119 ms
64 bytes from speedtest.softether.co.jp (103.41.63.43): icmp_seq=37 ttl=53 time=119 ms
64 bytes from speedtest.softether.co.jp (103.41.63.43): icmp_seq=37 ttl=53 time=119 ms
64 bytes from speedtest.softether.co.jp (103.41.63.43): icmp_seq=37 ttl=53 time=119 ms
64 bytes from speedtest.softether.co.jp (103.41.63.43): icmp_seq=37 ttl=53 time=119 ms
64 bytes from speedtest.softether.co.jp (103.41.63.43): icmp_seq=37 ttl=53 time=119 ms
64 bytes from speedtest.softether.co.jp (103.41.63.43): icmp_seq=37 ttl=53 time=119 ms
64 bytes from speedtest.softether.co.jp (103.41.63.43): icmp_seq=37 ttl=53 time=119 ms
64 bytes from speedtest.softether.co.jp (103.41.63.43): icmp_seq=37 ttl=53 time=119 ms
64 bytes from speedtest.softether.co.jp (103.41.63.43): icmp_seq=37 ttl=53 time=119 ms
64 bytes from speedtest.softether.co.jp (103.41.63.43): icmp_seq=37 ttl=53 time=119 ms
64 bytes from speedtest.softether.co.jp (103.41.63.43): icmp_seq=37 ttl=53 time=119 ms
64 bytes from speedtest.softether.co.jp (103.41.63.43): icmp_seq=38 ttl=53 time=119 ms
64 bytes from speedtest.softether.co.jp (103.41.63.43): icmp_seq=38 ttl=53 time=119 ms
64 bytes from speedtest.softether.co.jp (103.41.63.43): icmp_seq=38 ttl=53 time=119 ms
64 bytes from speedtest.softether.co.jp (103.41.63.43): icmp_seq=38 ttl=53 time=119 ms
64 bytes from speedtest.softether.co.jp (103.41.63.43): icmp_seq=38 ttl=53 time=119 ms
64 bytes from speedtest.softether.co.jp (103.41.63.43): icmp_seq=38 ttl=53 time=120 ms
64 bytes from speedtest.softether.co.jp (103.41.63.43): icmp_seq=38 ttl=53 time=120 ms
64 bytes from speedtest.softether.co.jp (103.41.63.43): icmp_seq=38 ttl=53 time=119 ms
64 bytes from speedtest.softether.co.jp (103.41.63.43): icmp_seq=38 ttl=53 time=119 ms
64 bytes from speedtest.softether.co.jp (103.41.63.43): icmp_seq=38 ttl=53 time=119 ms
64 bytes from speedtest.softether.co.jp (103.41.63.43): icmp_seq=38 ttl=53 time=120 ms
64 bytes from speedtest.softether.co.jp (103.41.63.43): icmp_seq=38 ttl=53 time=119 ms
64 bytes from speedtest.softether.co.jp (103.41.63.43): icmp_seq=38 ttl=53 time=119 ms
64 bytes from speedtest.softether.co.jp (103.41.63.43): icmp_seq=38 ttl=53 time=119 ms
64 bytes from speedtest.softether.co.jp (103.41.63.43): icmp_seq=38 ttl=53 time=119 ms
64 bytes from speedtest.softether.co.jp (103.41.63.43): icmp_seq=38 ttl=53 time=119 ms
64 bytes from speedtest.softether.co.jp (103.41.63.43): icmp_seq=38 ttl=53 time=119 ms
64 bytes from speedtest.softether.co.jp (103.41.63.43): icmp_seq=38 ttl=53 time=120 ms
64 bytes from speedtest.softether.co.jp (103.41.63.43): icmp_seq=38 ttl=53 time=120 ms
64 bytes from speedtest.softether.co.jp (103.41.63.43): icmp_seq=38 ttl=53 time=120 ms
64 bytes from speedtest.softether.co.jp (103.41.63.43): icmp_seq=39 ttl=53 time=119 ms
64 bytes from speedtest.softether.co.jp (103.41.63.43): icmp_seq=39 ttl=53 time=119 ms
64 bytes from speedtest.softether.co.jp (103.41.63.43): icmp_seq=39 ttl=53 time=119 ms
64 bytes from speedtest.softether.co.jp (103.41.63.43): icmp_seq=39 ttl=53 time=119 ms
64 bytes from speedtest.softether.co.jp (103.41.63.43): icmp_seq=39 ttl=53 time=119 ms
64 bytes from speedtest.softether.co.jp (103.41.63.43): icmp_seq=39 ttl=53 time=119 ms
64 bytes from speedtest.softether.co.jp (103.41.63.43): icmp_seq=39 ttl=53 time=119 ms
64 bytes from speedtest.softether.co.jp (103.41.63.43): icmp_seq=39 ttl=53 time=119 ms
64 bytes from speedtest.softether.co.jp (103.41.63.43): icmp_seq=39 ttl=53 time=119 ms
64 bytes from speedtest.softether.co.jp (103.41.63.43): icmp_seq=39 ttl=53 time=119 ms
64 bytes from speedtest.softether.co.jp (103.41.63.43): icmp_seq=39 ttl=53 time=119 ms
64 bytes from speedtest.softether.co.jp (103.41.63.43): icmp_seq=39 ttl=53 time=119 ms
64 bytes from speedtest.softether.co.jp (103.41.63.43): icmp_seq=39 ttl=53 time=119 ms
64 bytes from speedtest.softether.co.jp (103.41.63.43): icmp_seq=39 ttl=53 time=119 ms
64 bytes from speedtest.softether.co.jp (103.41.63.43): icmp_seq=39 ttl=53 time=119 ms
64 bytes from speedtest.softether.co.jp (103.41.63.43): icmp_seq=39 ttl=53 time=119 ms
64 bytes from speedtest.softether.co.jp (103.41.63.43): icmp_seq=39 ttl=53 time=119 ms
64 bytes from speedtest.softether.co.jp (103.41.63.43): icmp_seq=39 ttl=53 time=119 ms
64 bytes from speedtest.softether.co.jp (103.41.63.43): icmp_seq=39 ttl=53 time=119 ms
64 bytes from speedtest.softether.co.jp (103.41.63.43): icmp_seq=39 ttl=53 time=119 ms
64 bytes from speedtest.softether.co.jp (103.41.63.43): icmp_seq=40 ttl=53 time=119 ms
64 bytes from speedtest.softether.co.jp (103.41.63.43): icmp_seq=40 ttl=53 time=119 ms
64 bytes from speedtest.softether.co.jp (103.41.63.43): icmp_seq=40 ttl=53 time=119 ms
64 bytes from speedtest.softether.co.jp (103.41.63.43): icmp_seq=40 ttl=53 time=119 ms
64 bytes from speedtest.softether.co.jp (103.41.63.43): icmp_seq=40 ttl=53 time=119 ms
64 bytes from speedtest.softether.co.jp (103.41.63.43): icmp_seq=40 ttl=53 time=119 ms
64 bytes from speedtest.softether.co.jp (103.41.63.43): icmp_seq=40 ttl=53 time=119 ms
64 bytes from speedtest.softether.co.jp (103.41.63.43): icmp_seq=40 ttl=53 time=119 ms
64 bytes from speedtest.softether.co.jp (103.41.63.43): icmp_seq=40 ttl=53 time=119 ms
64 bytes from speedtest.softether.co.jp (103.41.63.43): icmp_seq=40 ttl=53 time=119 ms
64 bytes from speedtest.softether.co.jp (103.41.63.43): icmp_seq=40 ttl=53 time=119 ms
64 bytes from speedtest.softether.co.jp (103.41.63.43): icmp_seq=40 ttl=53 time=119 ms
64 bytes from speedtest.softether.co.jp (103.41.63.43): icmp_seq=40 ttl=53 time=119 ms
64 bytes from speedtest.softether.co.jp (103.41.63.43): icmp_seq=40 ttl=53 time=119 ms
64 bytes from speedtest.softether.co.jp (103.41.63.43): icmp_seq=40 ttl=53 time=119 ms
64 bytes from speedtest.softether.co.jp (103.41.63.43): icmp_seq=40 ttl=53 time=119 ms
64 bytes from speedtest.softether.co.jp (103.41.63.43): icmp_seq=40 ttl=53 time=119 ms
64 bytes from speedtest.softether.co.jp (103.41.63.43): icmp_seq=40 ttl=53 time=119 ms
64 bytes from speedtest.softether.co.jp (103.41.63.43): icmp_seq=40 ttl=53 time=119 ms
64 bytes from speedtest.softether.co.jp (103.41.63.43): icmp_seq=40 ttl=53 time=119 ms
64 bytes from speedtest.softether.co.jp (103.41.63.43): icmp_seq=41 ttl=53 time=119 ms
64 bytes from speedtest.softether.co.jp (103.41.63.43): icmp_seq=41 ttl=53 time=119 ms
64 bytes from speedtest.softether.co.jp (103.41.63.43): icmp_seq=41 ttl=53 time=119 ms
64 bytes from speedtest.softether.co.jp (103.41.63.43): icmp_seq=41 ttl=53 time=119 ms
64 bytes from speedtest.softether.co.jp (103.41.63.43): icmp_seq=41 ttl=53 time=119 ms
64 bytes from speedtest.softether.co.jp (103.41.63.43): icmp_seq=41 ttl=53 time=119 ms
64 bytes from speedtest.softether.co.jp (103.41.63.43): icmp_seq=41 ttl=53 time=119 ms
64 bytes from speedtest.softether.co.jp (103.41.63.43): icmp_seq=41 ttl=53 time=119 ms
64 bytes from speedtest.softether.co.jp (103.41.63.43): icmp_seq=41 ttl=53 time=119 ms
64 bytes from speedtest.softether.co.jp (103.41.63.43): icmp_seq=41 ttl=53 time=119 ms
64 bytes from speedtest.softether.co.jp (103.41.63.43): icmp_seq=41 ttl=53 time=119 ms
64 bytes from speedtest.softether.co.jp (103.41.63.43): icmp_seq=41 ttl=53 time=121 ms
64 bytes from speedtest.softether.co.jp (103.41.63.43): icmp_seq=41 ttl=53 time=121 ms
64 bytes from speedtest.softether.co.jp (103.41.63.43): icmp_seq=41 ttl=53 time=122 ms
64 bytes from speedtest.softether.co.jp (103.41.63.43): icmp_seq=41 ttl=53 time=122 ms
64 bytes from speedtest.softether.co.jp (103.41.63.43): icmp_seq=41 ttl=53 time=122 ms
64 bytes from speedtest.softether.co.jp (103.41.63.43): icmp_seq=41 ttl=53 time=122 ms
64 bytes from speedtest.softether.co.jp (103.41.63.43): icmp_seq=41 ttl=53 time=119 ms
64 bytes from speedtest.softether.co.jp (103.41.63.43): icmp_seq=41 ttl=53 time=119 ms
64 bytes from speedtest.softether.co.jp (103.41.63.43): icmp_seq=41 ttl=53 time=119 ms
64 bytes from speedtest.softether.co.jp (103.41.63.43): icmp_seq=42 ttl=53 time=119 ms
64 bytes from speedtest.softether.co.jp (103.41.63.43): icmp_seq=42 ttl=53 time=119 ms
64 bytes from speedtest.softether.co.jp (103.41.63.43): icmp_seq=42 ttl=53 time=119 ms
64 bytes from speedtest.softether.co.jp (103.41.63.43): icmp_seq=42 ttl=53 time=119 ms
64 bytes from speedtest.softether.co.jp (103.41.63.43): icmp_seq=42 ttl=53 time=119 ms
64 bytes from speedtest.softether.co.jp (103.41.63.43): icmp_seq=42 ttl=53 time=119 ms
64 bytes from speedtest.softether.co.jp (103.41.63.43): icmp_seq=42 ttl=53 time=119 ms
64 bytes from speedtest.softether.co.jp (103.41.63.43): icmp_seq=42 ttl=53 time=119 ms
64 bytes from speedtest.softether.co.jp (103.41.63.43): icmp_seq=42 ttl=53 time=119 ms
64 bytes from speedtest.softether.co.jp (103.41.63.43): icmp_seq=42 ttl=53 time=119 ms
64 bytes from speedtest.softether.co.jp (103.41.63.43): icmp_seq=42 ttl=53 time=119 ms
64 bytes from speedtest.softether.co.jp (103.41.63.43): icmp_seq=42 ttl=53 time=119 ms
64 bytes from speedtest.softether.co.jp (103.41.63.43): icmp_seq=42 ttl=53 time=119 ms
64 bytes from speedtest.softether.co.jp (103.41.63.43): icmp_seq=42 ttl=53 time=119 ms
64 bytes from speedtest.softether.co.jp (103.41.63.43): icmp_seq=42 ttl=53 time=119 ms
64 bytes from speedtest.softether.co.jp (103.41.63.43): icmp_seq=42 ttl=53 time=119 ms
64 bytes from speedtest.softether.co.jp (103.41.63.43): icmp_seq=42 ttl=53 time=119 ms
64 bytes from speedtest.softether.co.jp (103.41.63.43): icmp_seq=42 ttl=53 time=119 ms
64 bytes from speedtest.softether.co.jp (103.41.63.43): icmp_seq=42 ttl=53 time=119 ms
64 bytes from speedtest.softether.co.jp (103.41.63.43): icmp_seq=42 ttl=53 time=119 ms
64 bytes from speedtest.softether.co.jp (103.41.63.43): icmp_seq=43 ttl=53 time=119 ms
64 bytes from speedtest.softether.co.jp (103.41.63.43): icmp_seq=43 ttl=53 time=119 ms
64 bytes from speedtest.softether.co.jp (103.41.63.43): icmp_seq=43 ttl=53 time=119 ms
64 bytes from speedtest.softether.co.jp (103.41.63.43): icmp_seq=43 ttl=53 time=119 ms
64 bytes from speedtest.softether.co.jp (103.41.63.43): icmp_seq=43 ttl=53 time=119 ms
64 bytes from speedtest.softether.co.jp (103.41.63.43): icmp_seq=43 ttl=53 time=119 ms
64 bytes from speedtest.softether.co.jp (103.41.63.43): icmp_seq=43 ttl=53 time=119 ms
64 bytes from speedtest.softether.co.jp (103.41.63.43): icmp_seq=43 ttl=53 time=119 ms
64 bytes from speedtest.softether.co.jp (103.41.63.43): icmp_seq=43 ttl=53 time=119 ms
64 bytes from speedtest.softether.co.jp (103.41.63.43): icmp_seq=43 ttl=53 time=119 ms
64 bytes from speedtest.softether.co.jp (103.41.63.43): icmp_seq=43 ttl=53 time=119 ms
64 bytes from speedtest.softether.co.jp (103.41.63.43): icmp_seq=43 ttl=53 time=119 ms
64 bytes from speedtest.softether.co.jp (103.41.63.43): icmp_seq=43 ttl=53 time=119 ms
64 bytes from speedtest.softether.co.jp (103.41.63.43): icmp_seq=43 ttl=53 time=119 ms
64 bytes from speedtest.softether.co.jp (103.41.63.43): icmp_seq=43 ttl=53 time=119 ms
64 bytes from speedtest.softether.co.jp (103.41.63.43): icmp_seq=43 ttl=53 time=119 ms
64 bytes from speedtest.softether.co.jp (103.41.63.43): icmp_seq=43 ttl=53 time=119 ms
64 bytes from speedtest.softether.co.jp (103.41.63.43): icmp_seq=43 ttl=53 time=119 ms
64 bytes from speedtest.softether.co.jp (103.41.63.43): icmp_seq=43 ttl=53 time=119 ms
64 bytes from speedtest.softether.co.jp (103.41.63.43): icmp_seq=43 ttl=53 time=119 ms
64 bytes from speedtest.softether.co.jp (103.41.63.43): icmp_seq=44 ttl=53 time=119 ms
64 bytes from speedtest.softether.co.jp (103.41.63.43): icmp_seq=44 ttl=53 time=119 ms
64 bytes from speedtest.softether.co.jp (103.41.63.43): icmp_seq=44 ttl=53 time=119 ms
64 bytes from speedtest.softether.co.jp (103.41.63.43): icmp_seq=44 ttl=53 time=119 ms
64 bytes from speedtest.softether.co.jp (103.41.63.43): icmp_seq=44 ttl=53 time=119 ms
64 bytes from speedtest.softether.co.jp (103.41.63.43): icmp_seq=44 ttl=53 time=119 ms
64 bytes from speedtest.softether.co.jp (103.41.63.43): icmp_seq=44 ttl=53 time=119 ms
64 bytes from speedtest.softether.co.jp (103.41.63.43): icmp_seq=44 ttl=53 time=119 ms
64 bytes from speedtest.softether.co.jp (103.41.63.43): icmp_seq=44 ttl=53 time=119 ms
64 bytes from speedtest.softether.co.jp (103.41.63.43): icmp_seq=44 ttl=53 time=119 ms
64 bytes from speedtest.softether.co.jp (103.41.63.43): icmp_seq=44 ttl=53 time=119 ms
64 bytes from speedtest.softether.co.jp (103.41.63.43): icmp_seq=44 ttl=53 time=119 ms
64 bytes from speedtest.softether.co.jp (103.41.63.43): icmp_seq=44 ttl=53 time=119 ms
64 bytes from speedtest.softether.co.jp (103.41.63.43): icmp_seq=44 ttl=53 time=119 ms
64 bytes from speedtest.softether.co.jp (103.41.63.43): icmp_seq=44 ttl=53 time=119 ms
64 bytes from speedtest.softether.co.jp (103.41.63.43): icmp_seq=44 ttl=53 time=119 ms
64 bytes from speedtest.softether.co.jp (103.41.63.43): icmp_seq=44 ttl=53 time=119 ms
64 bytes from speedtest.softether.co.jp (103.41.63.43): icmp_seq=44 ttl=53 time=119 ms
64 bytes from speedtest.softether.co.jp (103.41.63.43): icmp_seq=44 ttl=53 time=119 ms
64 bytes from speedtest.softether.co.jp (103.41.63.43): icmp_seq=44 ttl=53 time=119 ms
64 bytes from speedtest.softether.co.jp (103.41.63.43): icmp_seq=45 ttl=53 time=119 ms
64 bytes from speedtest.softether.co.jp (103.41.63.43): icmp_seq=45 ttl=53 time=119 ms
64 bytes from speedtest.softether.co.jp (103.41.63.43): icmp_seq=45 ttl=53 time=119 ms
64 bytes from speedtest.softether.co.jp (103.41.63.43): icmp_seq=45 ttl=53 time=119 ms
64 bytes from speedtest.softether.co.jp (103.41.63.43): icmp_seq=45 ttl=53 time=119 ms
64 bytes from speedtest.softether.co.jp (103.41.63.43): icmp_seq=45 ttl=53 time=119 ms
64 bytes from speedtest.softether.co.jp (103.41.63.43): icmp_seq=45 ttl=53 time=119 ms
64 bytes from speedtest.softether.co.jp (103.41.63.43): icmp_seq=45 ttl=53 time=119 ms
64 bytes from speedtest.softether.co.jp (103.41.63.43): icmp_seq=45 ttl=53 time=119 ms
64 bytes from speedtest.softether.co.jp (103.41.63.43): icmp_seq=45 ttl=53 time=119 ms
64 bytes from speedtest.softether.co.jp (103.41.63.43): icmp_seq=45 ttl=53 time=119 ms
64 bytes from speedtest.softether.co.jp (103.41.63.43): icmp_seq=45 ttl=53 time=119 ms
64 bytes from speedtest.softether.co.jp (103.41.63.43): icmp_seq=45 ttl=53 time=119 ms
64 bytes from speedtest.softether.co.jp (103.41.63.43): icmp_seq=45 ttl=53 time=119 ms
64 bytes from speedtest.softether.co.jp (103.41.63.43): icmp_seq=45 ttl=53 time=119 ms
64 bytes from speedtest.softether.co.jp (103.41.63.43): icmp_seq=45 ttl=53 time=119 ms
64 bytes from speedtest.softether.co.jp (103.41.63.43): icmp_seq=45 ttl=53 time=119 ms
64 bytes from speedtest.softether.co.jp (103.41.63.43): icmp_seq=45 ttl=53 time=119 ms
64 bytes from speedtest.softether.co.jp (103.41.63.43): icmp_seq=45 ttl=53 time=119 ms
64 bytes from speedtest.softether.co.jp (103.41.63.43): icmp_seq=45 ttl=53 time=119 ms
64 bytes from speedtest.softether.co.jp (103.41.63.43): icmp_seq=46 ttl=53 time=119 ms
64 bytes from speedtest.softether.co.jp (103.41.63.43): icmp_seq=46 ttl=53 time=119 ms
64 bytes from speedtest.softether.co.jp (103.41.63.43): icmp_seq=46 ttl=53 time=119 ms
64 bytes from speedtest.softether.co.jp (103.41.63.43): icmp_seq=46 ttl=53 time=119 ms
64 bytes from speedtest.softether.co.jp (103.41.63.43): icmp_seq=46 ttl=53 time=119 ms
64 bytes from speedtest.softether.co.jp (103.41.63.43): icmp_seq=46 ttl=53 time=119 ms
64 bytes from speedtest.softether.co.jp (103.41.63.43): icmp_seq=46 ttl=53 time=119 ms
64 bytes from speedtest.softether.co.jp (103.41.63.43): icmp_seq=46 ttl=53 time=119 ms
64 bytes from speedtest.softether.co.jp (103.41.63.43): icmp_seq=46 ttl=53 time=119 ms
64 bytes from speedtest.softether.co.jp (103.41.63.43): icmp_seq=46 ttl=53 time=119 ms
64 bytes from speedtest.softether.co.jp (103.41.63.43): icmp_seq=46 ttl=53 time=119 ms
64 bytes from speedtest.softether.co.jp (103.41.63.43): icmp_seq=46 ttl=53 time=119 ms
64 bytes from speedtest.softether.co.jp (103.41.63.43): icmp_seq=46 ttl=53 time=119 ms
64 bytes from speedtest.softether.co.jp (103.41.63.43): icmp_seq=46 ttl=53 time=119 ms
64 bytes from speedtest.softether.co.jp (103.41.63.43): icmp_seq=46 ttl=53 time=119 ms
64 bytes from speedtest.softether.co.jp (103.41.63.43): icmp_seq=46 ttl=53 time=119 ms
64 bytes from speedtest.softether.co.jp (103.41.63.43): icmp_seq=46 ttl=53 time=119 ms
64 bytes from speedtest.softether.co.jp (103.41.63.43): icmp_seq=46 ttl=53 time=119 ms
64 bytes from speedtest.softether.co.jp (103.41.63.43): icmp_seq=46 ttl=53 time=119 ms
64 bytes from speedtest.softether.co.jp (103.41.63.43): icmp_seq=46 ttl=53 time=119 ms
64 bytes from speedtest.softether.co.jp (103.41.63.43): icmp_seq=47 ttl=53 time=119 ms
64 bytes from speedtest.softether.co.jp (103.41.63.43): icmp_seq=47 ttl=53 time=119 ms
64 bytes from speedtest.softether.co.jp (103.41.63.43): icmp_seq=47 ttl=53 time=119 ms
64 bytes from speedtest.softether.co.jp (103.41.63.43): icmp_seq=47 ttl=53 time=119 ms
64 bytes from speedtest.softether.co.jp (103.41.63.43): icmp_seq=47 ttl=53 time=119 ms
64 bytes from speedtest.softether.co.jp (103.41.63.43): icmp_seq=47 ttl=53 time=119 ms
64 bytes from speedtest.softether.co.jp (103.41.63.43): icmp_seq=47 ttl=53 time=119 ms
64 bytes from speedtest.softether.co.jp (103.41.63.43): icmp_seq=47 ttl=53 time=119 ms
64 bytes from speedtest.softether.co.jp (103.41.63.43): icmp_seq=47 ttl=53 time=119 ms
64 bytes from speedtest.softether.co.jp (103.41.63.43): icmp_seq=47 ttl=53 time=120 ms
64 bytes from speedtest.softether.co.jp (103.41.63.43): icmp_seq=47 ttl=53 time=120 ms
64 bytes from speedtest.softether.co.jp (103.41.63.43): icmp_seq=47 ttl=53 time=120 ms
64 bytes from speedtest.softether.co.jp (103.41.63.43): icmp_seq=47 ttl=53 time=119 ms
64 bytes from speedtest.softether.co.jp (103.41.63.43): icmp_seq=47 ttl=53 time=119 ms
64 bytes from speedtest.softether.co.jp (103.41.63.43): icmp_seq=47 ttl=53 time=119 ms
64 bytes from speedtest.softether.co.jp (103.41.63.43): icmp_seq=47 ttl=53 time=119 ms
64 bytes from speedtest.softether.co.jp (103.41.63.43): icmp_seq=47 ttl=53 time=119 ms
64 bytes from speedtest.softether.co.jp (103.41.63.43): icmp_seq=47 ttl=53 time=119 ms
64 bytes from speedtest.softether.co.jp (103.41.63.43): icmp_seq=47 ttl=53 time=120 ms
64 bytes from speedtest.softether.co.jp (103.41.63.43): icmp_seq=47 ttl=53 time=120 ms
64 bytes from speedtest.softether.co.jp (103.41.63.43): icmp_seq=48 ttl=53 time=119 ms
64 bytes from speedtest.softether.co.jp (103.41.63.43): icmp_seq=48 ttl=53 time=119 ms
64 bytes from speedtest.softether.co.jp (103.41.63.43): icmp_seq=48 ttl=53 time=119 ms
64 bytes from speedtest.softether.co.jp (103.41.63.43): icmp_seq=48 ttl=53 time=119 ms
64 bytes from speedtest.softether.co.jp (103.41.63.43): icmp_seq=48 ttl=53 time=119 ms
64 bytes from speedtest.softether.co.jp (103.41.63.43): icmp_seq=48 ttl=53 time=120 ms
64 bytes from speedtest.softether.co.jp (103.41.63.43): icmp_seq=48 ttl=53 time=120 ms
64 bytes from speedtest.softether.co.jp (103.41.63.43): icmp_seq=48 ttl=53 time=120 ms
64 bytes from speedtest.softether.co.jp (103.41.63.43): icmp_seq=48 ttl=53 time=120 ms
64 bytes from speedtest.softether.co.jp (103.41.63.43): icmp_seq=48 ttl=53 time=120 ms
64 bytes from speedtest.softether.co.jp (103.41.63.43): icmp_seq=48 ttl=53 time=120 ms
64 bytes from speedtest.softether.co.jp (103.41.63.43): icmp_seq=48 ttl=53 time=119 ms
64 bytes from speedtest.softether.co.jp (103.41.63.43): icmp_seq=48 ttl=53 time=120 ms
64 bytes from speedtest.softether.co.jp (103.41.63.43): icmp_seq=48 ttl=53 time=119 ms
64 bytes from speedtest.softether.co.jp (103.41.63.43): icmp_seq=48 ttl=53 time=119 ms
64 bytes from speedtest.softether.co.jp (103.41.63.43): icmp_seq=48 ttl=53 time=119 ms
64 bytes from speedtest.softether.co.jp (103.41.63.43): icmp_seq=48 ttl=53 time=119 ms
64 bytes from speedtest.softether.co.jp (103.41.63.43): icmp_seq=48 ttl=53 time=119 ms
64 bytes from speedtest.softether.co.jp (103.41.63.43): icmp_seq=48 ttl=53 time=119 ms
64 bytes from speedtest.softether.co.jp (103.41.63.43): icmp_seq=48 ttl=53 time=119 ms
64 bytes from speedtest.softether.co.jp (103.41.63.43): icmp_seq=49 ttl=53 time=119 ms
64 bytes from speedtest.softether.co.jp (103.41.63.43): icmp_seq=49 ttl=53 time=119 ms
64 bytes from speedtest.softether.co.jp (103.41.63.43): icmp_seq=49 ttl=53 time=119 ms
64 bytes from speedtest.softether.co.jp (103.41.63.43): icmp_seq=49 ttl=53 time=119 ms
64 bytes from speedtest.softether.co.jp (103.41.63.43): icmp_seq=49 ttl=53 time=119 ms
64 bytes from speedtest.softether.co.jp (103.41.63.43): icmp_seq=49 ttl=53 time=119 ms
64 bytes from speedtest.softether.co.jp (103.41.63.43): icmp_seq=49 ttl=53 time=119 ms
64 bytes from speedtest.softether.co.jp (103.41.63.43): icmp_seq=49 ttl=53 time=119 ms
64 bytes from speedtest.softether.co.jp (103.41.63.43): icmp_seq=49 ttl=53 time=119 ms
64 bytes from speedtest.softether.co.jp (103.41.63.43): icmp_seq=49 ttl=53 time=119 ms
64 bytes from speedtest.softether.co.jp (103.41.63.43): icmp_seq=49 ttl=53 time=119 ms
64 bytes from speedtest.softether.co.jp (103.41.63.43): icmp_seq=49 ttl=53 time=119 ms
64 bytes from speedtest.softether.co.jp (103.41.63.43): icmp_seq=49 ttl=53 time=119 ms
64 bytes from speedtest.softether.co.jp (103.41.63.43): icmp_seq=49 ttl=53 time=119 ms
64 bytes from speedtest.softether.co.jp (103.41.63.43): icmp_seq=49 ttl=53 time=119 ms
64 bytes from speedtest.softether.co.jp (103.41.63.43): icmp_seq=49 ttl=53 time=119 ms
64 bytes from speedtest.softether.co.jp (103.41.63.43): icmp_seq=49 ttl=53 time=119 ms
64 bytes from speedtest.softether.co.jp (103.41.63.43): icmp_seq=49 ttl=53 time=119 ms
64 bytes from speedtest.softether.co.jp (103.41.63.43): icmp_seq=49 ttl=53 time=119 ms
64 bytes from speedtest.softether.co.jp (103.41.63.43): icmp_seq=49 ttl=53 time=119 ms
64 bytes from speedtest.softether.co.jp (103.41.63.43): icmp_seq=50 ttl=53 time=119 ms
64 bytes from speedtest.softether.co.jp (103.41.63.43): icmp_seq=50 ttl=53 time=119 ms
64 bytes from speedtest.softether.co.jp (103.41.63.43): icmp_seq=50 ttl=53 time=119 ms
64 bytes from speedtest.softether.co.jp (103.41.63.43): icmp_seq=50 ttl=53 time=119 ms

64 bytes from speedtest.softether.co.jp (103.41.63.43): icmp_seq=50 ttl=53 time=119 ms


64 bytes from speedtest.softether.co.jp (103.41.63.43): icmp_seq=50 ttl=53 time=119 ms



--- speedtest.softether.co.jp ping statistics ---
50 packets transmitted, 50 received, 0% packet loss, time 49074ms
rtt min/avg/max/mdev = 119.332/119.692/120.026/0.346 ms
--- speedtest.softether.co.jp ping statistics ---
50 packets transmitted, 50 received, 0% packet loss, time 49075ms
rtt min/avg/max/mdev = 119.300/119.694/120.198/0.495 ms
--- speedtest.softether.co.jp ping statistics ---
50 packets transmitted, 50 received, 0% packet loss, time 49074ms
rtt min/avg/max/mdev = 119.208/119.688/120.146/0.421 ms
--- speedtest.softether.co.jp ping statistics ---
50 packets transmitted, 50 received, 0% packet loss, time 49073ms
rtt min/avg/max/mdev = 119.297/119.714/120.134/0.495 ms
--- speedtest.softether.co.jp ping statistics ---
50 packets transmitted, 50 received, 0% packet loss, time 49072ms
rtt min/avg/max/mdev = 119.099/119.672/120.070/0.459 ms
--- speedtest.softether.co.jp ping statistics ---
50 packets transmitted, 50 received, 0% packet loss, time 49073ms
rtt min/avg/max/mdev = 119.248/119.673/122.149/0.604 ms
64 bytes from speedtest.softether.co.jp (103.41.63.43): icmp_seq=50 ttl=53 time=119 ms
64 bytes from speedtest.softether.co.jp (103.41.63.43): icmp_seq=50 ttl=53 time=119 ms


--- speedtest.softether.co.jp ping statistics ---
50 packets transmitted, 50 received, 0% packet loss, time 49072ms
rtt min/avg/max/mdev = 119.290/119.675/120.234/0.499 ms
--- speedtest.softether.co.jp ping statistics ---
50 packets transmitted, 50 received, 0% packet loss, time 49074ms
rtt min/avg/max/mdev = 119.265/119.612/120.188/0.389 ms
64 bytes from speedtest.softether.co.jp (103.41.63.43): icmp_seq=50 ttl=53 time=119 ms
64 bytes from speedtest.softether.co.jp (103.41.63.43): icmp_seq=50 ttl=53 time=119 ms


--- speedtest.softether.co.jp ping statistics ---
50 packets transmitted, 50 received, 0% packet loss, time 49072ms
rtt min/avg/max/mdev = 119.200/119.725/120.653/0.349 ms
--- speedtest.softether.co.jp ping statistics ---
50 packets transmitted, 50 received, 0% packet loss, time 49072ms
rtt min/avg/max/mdev = 119.142/119.667/120.153/0.317 ms
64 bytes from speedtest.softether.co.jp (103.41.63.43): icmp_seq=50 ttl=53 time=119 ms

64 bytes from speedtest.softether.co.jp (103.41.63.43): icmp_seq=50 ttl=53 time=119 ms

--- speedtest.softether.co.jp ping statistics ---
50 packets transmitted, 50 received, 0% packet loss, time 49073ms
rtt min/avg/max/mdev = 119.225/119.722/120.659/0.444 ms
--- speedtest.softether.co.jp ping statistics ---
50 packets transmitted, 50 received, 0% packet loss, time 49073ms
rtt min/avg/max/mdev = 119.172/119.660/120.290/0.461 ms
64 bytes from speedtest.softether.co.jp (103.41.63.43): icmp_seq=50 ttl=53 time=119 ms

64 bytes from speedtest.softether.co.jp (103.41.63.43): icmp_seq=50 ttl=53 time=119 ms

--- speedtest.softether.co.jp ping statistics ---
50 packets transmitted, 50 received, 0% packet loss, time 49073ms
rtt min/avg/max/mdev = 119.191/119.649/121.104/0.561 ms
--- speedtest.softether.co.jp ping statistics ---
50 packets transmitted, 50 received, 0% packet loss, time 49076ms
rtt min/avg/max/mdev = 119.260/119.621/121.159/0.572 ms
64 bytes from speedtest.softether.co.jp (103.41.63.43): icmp_seq=50 ttl=53 time=119 ms
64 bytes from speedtest.softether.co.jp (103.41.63.43): icmp_seq=50 ttl=53 time=119 ms
64 bytes from speedtest.softether.co.jp (103.41.63.43): icmp_seq=50 ttl=53 time=119 ms



--- speedtest.softether.co.jp ping statistics ---
50 packets transmitted, 50 received, 0% packet loss, time 49077ms
rtt min/avg/max/mdev = 119.214/119.624/122.106/0.565 ms
--- speedtest.softether.co.jp ping statistics ---
50 packets transmitted, 50 received, 0% packet loss, time 49078ms
rtt min/avg/max/mdev = 119.284/119.682/122.173/0.510 ms
--- speedtest.softether.co.jp ping statistics ---
50 packets transmitted, 50 received, 0% packet loss, time 49076ms
rtt min/avg/max/mdev = 119.211/119.648/122.187/0.485 ms
64 bytes from speedtest.softether.co.jp (103.41.63.43): icmp_seq=50 ttl=53 time=119 ms

--- speedtest.softether.co.jp ping statistics ---
50 packets transmitted, 50 received, 0% packet loss, time 49087ms
rtt min/avg/max/mdev = 119.234/119.688/120.103/0.357 ms
64 bytes from speedtest.softether.co.jp (103.41.63.43): icmp_seq=50 ttl=53 time=119 ms

64 bytes from speedtest.softether.co.jp (103.41.63.43): icmp_seq=50 ttl=53 time=119 ms

--- speedtest.softether.co.jp ping statistics ---
50 packets transmitted, 50 received, 0% packet loss, time 49087ms
rtt min/avg/max/mdev = 119.249/119.691/120.111/0.360 ms
--- speedtest.softether.co.jp ping statistics ---
50 packets transmitted, 50 received, 0% packet loss, time 49086ms
rtt min/avg/max/mdev = 119.196/119.677/120.137/0.293 ms
