     1	312 
     2	313 
     3	313 
     4	313 
     5	374 
     6	429 
     7	522 
     8	632 
     9	713 
    10	755 
    11	757 
    12	756 
    13	768 
    14	777 
    15	780 
    16	776 
    17	777 
    18	775 
    19	767 
    20	763 
    21	751 
    22	764 
    23	756 
    24	774 
    25	767 
    26	769 
    27	770 
    28	766 
    29	769 
    30	757 
    31	766 
    32	751 
    33	765 
    34	772 
    35	773 
    36	765 
    37	765 
    38	763 
    39	758 
    40	749 
    41	765 
    42	771 
    43	752 
    44	753 
    45	743 
    46	755 
    47	752 
    48	765 
    49	766 
    50	761 
    51	753 
    52	760 
    53	762 
    54	773 
    55	764 
    56	746 
    57	758 
    58	768 
    59	760 
    60	756 
    61	742 
    62	760 
    63	769 
    64	775 
    65	790 
    66	804 
    67	796 
    68	795 
    69	813 
    70	808 
    71	795 
    72	797 
    73	801 
    74	782 
    75	758 
    76	747 
    77	720 
    78	698 
    79	674 
    80	658 
    81	623 
    82	597 
    83	579 
    84	559 
    85	534 
    86	509 
    87	478 
    88	457 
    89	440 
    90	415 
    91	398 
    92	377 
    93	371 
    94	352 
    95	342 
    96	334 
    97	326 
    98	323 
    99	320 
   100	317 
   101	314 
   102	314 
   103	314 
   104	314 
   105	314 
   106	314 
   107	314 
   108	314 
   109	314 
   110	314 
   111	314 
   112	314 
   113	314 
   114	314 
   115	314 
   116	314 
   117	314 
   118	314 
   119	314 
   120	314 
   121	314 
   122	314 
   123	314 
   124	314 
   125	314 
   126	314 
   127	314 
   128	314 
   129	314 
   130	314 
   131	314 
   132	314 
   133	314 
   134	314 
   135	314 
   136	314 
   137	314 
   138	314 
   139	314 
   140	314 
   141	314 
   142	314 
   143	314 
   144	314 
   145	314 
   146	314 
   147	314 
   148	314 
   149	314 
   150	314 
   151	307 
   152	308 
   153	308 
   154	308 
   155	350 
   156	425 
   157	502 
   158	588 
   159	684 
   160	750 
   161	759 
   162	753 
   163	760 
   164	758 
   165	756 
   166	758 
   167	763 
   168	767 
   169	769 
   170	761 
   171	774 
   172	772 
   173	764 
   174	767 
   175	762 
   176	768 
   177	765 
   178	762 
   179	765 
   180	758 
   181	781 
   182	762 
   183	770 
   184	768 
   185	755 
   186	752 
   187	772 
   188	766 
   189	765 
   190	753 
   191	765 
   192	765 
   193	755 
   194	760 
   195	763 
   196	771 
   197	756 
   198	771 
   199	762 
   200	758 
   201	747 
   202	744 
   203	765 
   204	765 
   205	774 
   206	764 
   207	761 
   208	739 
   209	750 
   210	770 
   211	771 
   212	771 
   213	797 
   214	801 
   215	797 
   216	799 
   217	809 
   218	799 
   219	789 
   220	798 
   221	787 
   222	799 
   223	801 
   224	792 
   225	783 
   226	764 
   227	748 
   228	721 
   229	704 
   230	689 
   231	659 
   232	642 
   233	620 
   234	601 
   235	579 
   236	556 
   237	537 
   238	520 
   239	506 
   240	496 
   241	467 
   242	440 
   243	428 
   244	413 
   245	403 
   246	390 
   247	380 
   248	368 
   249	359 
   250	349 
   251	341 
   252	334 
   253	327 
   254	318 
   255	315 
   256	312 
   257	309 
   258	306 
   259	306 
   260	306 
   261	306 
   262	306 
   263	306 
   264	306 
   265	306 
   266	306 
   267	306 
   268	306 
   269	306 
   270	306 
   271	306 
   272	306 
   273	306 
   274	318 
   275	323 
   276	325 
   277	325 
   278	325 
   279	325 
   280	324 
   281	324 
   282	324 
   283	324 
   284	324 
   285	324 
   286	326 
   287	326 
   288	326 
   289	327 
   290	327 
   291	326 
   292	325 
   293	324 
   294	324 
   295	324 
   296	324 
   297	324 
   298	324 
   299	324 
   300	323 
   301	322 
   302	322 
   303	327 
   304	328 
   305	328 
   306	328 
   307	373 
   308	428 
   309	512 
   310	600 
   311	702 
   312	754 
   313	781 
   314	775 
   315	783 
   316	786 
   317	792 
   318	791 
   319	788 
   320	783 
   321	776 
   322	781 
   323	780 
   324	781 
   325	783 
   326	775 
   327	780 
   328	786 
   329	778 
   330	768 
   331	777 
   332	777 
   333	767 
   334	753 
   335	770 
   336	783 
   337	774 
   338	764 
   339	755 
   340	769 
   341	778 
   342	786 
   343	788 
   344	773 
   345	773 
   346	762 
   347	776 
   348	797 
   349	787 
   350	791 
   351	780 
   352	759 
   353	763 
   354	790 
   355	783 
   356	796 
   357	774 
   358	772 
   359	780 
   360	783 
   361	784 
   362	767 
   363	784 
   364	785 
   365	791 
   366	777 
   367	778 
   368	785 
   369	773 
   370	776 
   371	781 
   372	771 
   373	760 
   374	765 
   375	777 
   376	765 
   377	740 
   378	705 
   379	691 
   380	677 
   381	658 
   382	615 
   383	589 
   384	571 
   385	552 
   386	532 
   387	504 
   388	483 
   389	464 
   390	440 
   391	427 
   392	415 
   393	399 
   394	380 
   395	368 
   396	356 
   397	351 
   398	340 
   399	337 
   400	334 
   401	329 
   402	329 
   403	329 
   404	329 
   405	331 
   406	331 
   407	331 
   408	331 
   409	331 
   410	331 
   411	331 
   412	331 
