     1	1215268 
     2	1215268 
     3	1215268 
     4	1768964 
     5	1768964 
     6	1768964 
     7	1408228 
     8	1408228 
     9	1408228 
    10	1882544 
    11	1882544 
    12	1882544 
    13	1574764 
    14	1574764 
    15	1574764 
    16	1415140 
    17	1415140 
    18	1415140 
    19	1318164 
    20	1318164 
    21	1318164 
    22	1318156 
    23	1318156 
    24	1318156 
    25	1318048 
    26	1318048 
    27	1318048 
    28	1318036 
    29	1318036 
    30	1318036 
    31	1318020 
    32	1318020 
    33	1318020 
    34	1312796 
    35	1312796 
    36	1312796 
    37	1312524 
    38	1312524 
    39	1312524 
    40	1305792 
    41	1305792 
    42	1305792 
    43	1305760 
    44	1305760 
    45	1305760 
    46	1305740 
    47	1305740 
    48	1305740 
    49	1305716 
    50	1305716 
    51	1305716 
    52	1305704 
    53	1305704 
    54	1305704 
    55	1295116 
    56	1295116 
    57	1295116 
    58	1284012 
    59	1284012 
    60	1284012 
    61	1271140 
    62	1271140 
    63	1271140 
    64	1265356 
    65	1265356 
    66	1265356 
