Attaching to softwareoverhead_ping_5, softwareoverhead_ping_10, softwareoverhead_ping_6, softwareoverhead_ping_7, softwareoverhead_ping_9, softwareoverhead_ping_2, softwareoverhead_ping_1, softwareoverhead_ping_4, softwareoverhead_ping_8, softwareoverhead_ping_3, softwareoverhead_ping_18, softwareoverhead_ping_13, softwareoverhead_ping_12, softwareoverhead_ping_19, softwareoverhead_ping_20, softwareoverhead_ping_17, softwareoverhead_ping_11, softwareoverhead_ping_15, softwareoverhead_ping_16, softwareoverhead_ping_14
ping_5  | PING csl2.hkspeedtest.com (203.210.4.91): 56 data bytes
ping_5  | 64 bytes from 203.210.4.91: seq=0 ttl=51 time=184.970 ms
ping_5  | 64 bytes from 203.210.4.91: seq=1 ttl=51 time=184.611 ms
ping_5  | 64 bytes from 203.210.4.91: seq=2 ttl=51 time=185.136 ms
ping_5  | 64 bytes from 203.210.4.91: seq=3 ttl=51 time=179.751 ms
ping_5  | 64 bytes from 203.210.4.91: seq=4 ttl=51 time=184.725 ms
ping_10 | PING csl2.hkspeedtest.com (203.210.4.91): 56 data bytes
ping_10 | 64 bytes from 203.210.4.91: seq=0 ttl=51 time=186.596 ms
ping_10 | 64 bytes from 203.210.4.91: seq=1 ttl=51 time=184.381 ms
ping_10 | 64 bytes from 203.210.4.91: seq=2 ttl=51 time=184.836 ms
ping_5  | 64 bytes from 203.210.4.91: seq=5 ttl=51 time=183.762 ms
ping_6  | PING csl2.hkspeedtest.com (203.210.4.91): 56 data bytes
ping_7  | PING csl2.hkspeedtest.com (203.210.4.91): 56 data bytes
ping_5  | 64 bytes from 203.210.4.91: seq=6 ttl=51 time=185.307 ms
ping_7  | 64 bytes from 203.210.4.91: seq=0 ttl=51 time=184.469 ms
ping_5  | 64 bytes from 203.210.4.91: seq=7 ttl=51 time=182.743 ms
ping_10 | 64 bytes from 203.210.4.91: seq=3 ttl=51 time=185.054 ms
ping_5  | 64 bytes from 203.210.4.91: seq=8 ttl=51 time=183.201 ms
ping_7  | 64 bytes from 203.210.4.91: seq=1 ttl=51 time=186.171 ms
ping_6  | 64 bytes from 203.210.4.91: seq=0 ttl=51 time=180.413 ms
ping_6  | 64 bytes from 203.210.4.91: seq=1 ttl=51 time=182.094 ms
ping_10 | 64 bytes from 203.210.4.91: seq=4 ttl=51 time=186.839 ms
ping_5  | 64 bytes from 203.210.4.91: seq=9 ttl=51 time=169.213 ms
ping_5  | 64 bytes from 203.210.4.91: seq=10 ttl=51 time=185.077 ms
ping_7  | 64 bytes from 203.210.4.91: seq=2 ttl=51 time=184.855 ms
ping_5  | 64 bytes from 203.210.4.91: seq=11 ttl=51 time=183.229 ms
ping_9  | PING csl2.hkspeedtest.com (203.210.4.91): 56 data bytes
ping_6  | 64 bytes from 203.210.4.91: seq=2 ttl=51 time=179.401 ms
ping_10 | 64 bytes from 203.210.4.91: seq=5 ttl=51 time=184.844 ms
ping_4  | PING csl2.hkspeedtest.com (203.210.4.91): 56 data bytes
ping_1  | PING csl2.hkspeedtest.com (203.210.4.91): 56 data bytes
ping_2  | PING csl2.hkspeedtest.com (203.210.4.91): 56 data bytes
ping_1  | 64 bytes from 203.210.4.91: seq=0 ttl=51 time=181.131 ms
ping_10 | 64 bytes from 203.210.4.91: seq=6 ttl=51 time=184.942 ms
ping_4  | 64 bytes from 203.210.4.91: seq=0 ttl=51 time=185.392 ms
ping_9  | 64 bytes from 203.210.4.91: seq=0 ttl=51 time=181.239 ms
ping_5  | 64 bytes from 203.210.4.91: seq=12 ttl=51 time=183.704 ms
ping_6  | 64 bytes from 203.210.4.91: seq=3 ttl=51 time=185.989 ms
ping_10 | 64 bytes from 203.210.4.91: seq=7 ttl=51 time=184.908 ms
ping_1  | 64 bytes from 203.210.4.91: seq=1 ttl=51 time=184.750 ms
ping_8  | PING csl2.hkspeedtest.com (203.210.4.91): 56 data bytes
ping_6  | 64 bytes from 203.210.4.91: seq=4 ttl=51 time=182.960 ms
ping_5  | 64 bytes from 203.210.4.91: seq=13 ttl=51 time=167.294 ms
ping_7  | 64 bytes from 203.210.4.91: seq=3 ttl=51 time=184.517 ms
ping_2  | 64 bytes from 203.210.4.91: seq=0 ttl=51 time=183.444 ms
ping_10 | 64 bytes from 203.210.4.91: seq=8 ttl=51 time=180.312 ms
ping_8  | 64 bytes from 203.210.4.91: seq=0 ttl=51 time=186.638 ms
ping_4  | 64 bytes from 203.210.4.91: seq=1 ttl=51 time=184.428 ms
ping_7  | 64 bytes from 203.210.4.91: seq=4 ttl=51 time=186.186 ms
ping_6  | 64 bytes from 203.210.4.91: seq=5 ttl=51 time=191.076 ms
ping_8  | 64 bytes from 203.210.4.91: seq=1 ttl=51 time=184.827 ms
ping_10 | 64 bytes from 203.210.4.91: seq=9 ttl=51 time=173.949 ms
ping_1  | 64 bytes from 203.210.4.91: seq=2 ttl=51 time=186.247 ms
ping_8  | 64 bytes from 203.210.4.91: seq=2 ttl=51 time=185.154 ms
ping_9  | 64 bytes from 203.210.4.91: seq=1 ttl=51 time=179.170 ms
ping_4  | 64 bytes from 203.210.4.91: seq=2 ttl=51 time=185.016 ms
ping_1  | 64 bytes from 203.210.4.91: seq=3 ttl=51 time=186.153 ms
ping_7  | 64 bytes from 203.210.4.91: seq=5 ttl=51 time=184.802 ms
ping_9  | 64 bytes from 203.210.4.91: seq=2 ttl=51 time=185.128 ms
ping_2  | 64 bytes from 203.210.4.91: seq=1 ttl=51 time=184.551 ms
ping_10 | 64 bytes from 203.210.4.91: seq=10 ttl=51 time=178.859 ms
ping_3  | PING csl2.hkspeedtest.com (203.210.4.91): 56 data bytes
ping_1  | 64 bytes from 203.210.4.91: seq=4 ttl=51 time=183.240 ms
ping_6  | 64 bytes from 203.210.4.91: seq=6 ttl=51 time=186.915 ms
ping_7  | 64 bytes from 203.210.4.91: seq=6 ttl=51 time=184.977 ms
ping_4  | 64 bytes from 203.210.4.91: seq=3 ttl=51 time=185.109 ms
ping_7  | 64 bytes from 203.210.4.91: seq=7 ttl=51 time=179.694 ms
ping_9  | 64 bytes from 203.210.4.91: seq=3 ttl=51 time=182.211 ms
ping_18 | PING csl2.hkspeedtest.com (203.210.4.91): 56 data bytes
ping_13 | PING csl2.hkspeedtest.com (203.210.4.91): 56 data bytes
ping_6  | 64 bytes from 203.210.4.91: seq=7 ttl=51 time=184.365 ms
ping_3  | 64 bytes from 203.210.4.91: seq=0 ttl=51 time=183.775 ms
ping_8  | 64 bytes from 203.210.4.91: seq=3 ttl=51 time=184.985 ms
ping_1  | 64 bytes from 203.210.4.91: seq=5 ttl=51 time=184.846 ms
ping_9  | 64 bytes from 203.210.4.91: seq=4 ttl=51 time=186.774 ms
ping_3  | 64 bytes from 203.210.4.91: seq=1 ttl=51 time=186.562 ms
ping_2  | 64 bytes from 203.210.4.91: seq=2 ttl=51 time=184.107 ms
ping_12 | PING csl2.hkspeedtest.com (203.210.4.91): 56 data bytes
ping_6  | 64 bytes from 203.210.4.91: seq=8 ttl=51 time=168.381 ms
ping_8  | 64 bytes from 203.210.4.91: seq=4 ttl=51 time=180.325 ms
ping_19 | PING csl2.hkspeedtest.com (203.210.4.91): 56 data bytes
ping_12 | 64 bytes from 203.210.4.91: seq=0 ttl=51 time=184.699 ms
ping_9  | 64 bytes from 203.210.4.91: seq=5 ttl=51 time=184.821 ms
ping_4  | 64 bytes from 203.210.4.91: seq=4 ttl=51 time=184.409 ms
ping_10 | 64 bytes from 203.210.4.91: seq=11 ttl=51 time=184.237 ms
ping_1  | 64 bytes from 203.210.4.91: seq=6 ttl=51 time=171.511 ms
ping_7  | 64 bytes from 203.210.4.91: seq=8 ttl=51 time=174.490 ms
ping_2  | 64 bytes from 203.210.4.91: seq=3 ttl=51 time=184.150 ms
ping_3  | 64 bytes from 203.210.4.91: seq=2 ttl=51 time=183.980 ms
ping_18 | 64 bytes from 203.210.4.91: seq=0 ttl=51 time=184.932 ms
ping_18 | 64 bytes from 203.210.4.91: seq=1 ttl=51 time=184.366 ms
ping_13 | 64 bytes from 203.210.4.91: seq=0 ttl=51 time=185.677 ms
ping_10 | 64 bytes from 203.210.4.91: seq=12 ttl=51 time=184.130 ms
ping_8  | 64 bytes from 203.210.4.91: seq=5 ttl=51 time=173.959 ms
ping_9  | 64 bytes from 203.210.4.91: seq=6 ttl=51 time=182.761 ms
ping_7  | 64 bytes from 203.210.4.91: seq=9 ttl=51 time=180.604 ms
ping_6  | 64 bytes from 203.210.4.91: seq=9 ttl=51 time=183.577 ms
ping_12 | 64 bytes from 203.210.4.91: seq=1 ttl=51 time=175.798 ms
ping_18 | 64 bytes from 203.210.4.91: seq=2 ttl=51 time=172.650 ms
ping_10 | 64 bytes from 203.210.4.91: seq=13 ttl=51 time=167.413 ms
ping_1  | 64 bytes from 203.210.4.91: seq=7 ttl=51 time=183.484 ms
ping_6  | 64 bytes from 203.210.4.91: seq=10 ttl=51 time=182.032 ms
ping_18 | 64 bytes from 203.210.4.91: seq=3 ttl=51 time=182.441 ms
ping_19 | 64 bytes from 203.210.4.91: seq=0 ttl=51 time=183.662 ms
ping_12 | 64 bytes from 203.210.4.91: seq=2 ttl=51 time=176.763 ms
ping_8  | 64 bytes from 203.210.4.91: seq=6 ttl=51 time=178.836 ms
ping_7  | 64 bytes from 203.210.4.91: seq=10 ttl=51 time=185.015 ms
ping_13 | 64 bytes from 203.210.4.91: seq=1 ttl=51 time=181.563 ms
ping_4  | 64 bytes from 203.210.4.91: seq=5 ttl=51 time=172.115 ms
ping_2  | 64 bytes from 203.210.4.91: seq=4 ttl=51 time=182.567 ms
ping_19 | 64 bytes from 203.210.4.91: seq=1 ttl=51 time=170.467 ms
ping_9  | 64 bytes from 203.210.4.91: seq=7 ttl=51 time=168.163 ms
ping_18 | 64 bytes from 203.210.4.91: seq=4 ttl=51 time=182.377 ms
ping_8  | 64 bytes from 203.210.4.91: seq=7 ttl=51 time=184.208 ms
ping_7  | 64 bytes from 203.210.4.91: seq=11 ttl=51 time=184.721 ms
ping_2  | 64 bytes from 203.210.4.91: seq=5 ttl=51 time=184.638 ms
ping_20 | PING csl2.hkspeedtest.com (203.210.4.91): 56 data bytes
ping_12 | 64 bytes from 203.210.4.91: seq=3 ttl=51 time=179.119 ms
ping_1  | 64 bytes from 203.210.4.91: seq=8 ttl=51 time=182.545 ms
ping_6  | 64 bytes from 203.210.4.91: seq=11 ttl=51 time=182.066 ms
ping_19 | 64 bytes from 203.210.4.91: seq=2 ttl=51 time=183.359 ms
ping_4  | 64 bytes from 203.210.4.91: seq=6 ttl=51 time=181.967 ms
ping_8  | 64 bytes from 203.210.4.91: seq=8 ttl=51 time=184.125 ms
ping_9  | 64 bytes from 203.210.4.91: seq=8 ttl=51 time=183.714 ms
ping_20 | 64 bytes from 203.210.4.91: seq=0 ttl=51 time=171.117 ms
ping_1  | 64 bytes from 203.210.4.91: seq=9 ttl=51 time=182.794 ms
ping_8  | 64 bytes from 203.210.4.91: seq=9 ttl=51 time=167.423 ms
ping_13 | 64 bytes from 203.210.4.91: seq=2 ttl=51 time=170.565 ms
ping_4  | 64 bytes from 203.210.4.91: seq=7 ttl=51 time=182.637 ms
ping_19 | 64 bytes from 203.210.4.91: seq=3 ttl=51 time=181.763 ms
ping_12 | 64 bytes from 203.210.4.91: seq=4 ttl=51 time=184.792 ms
ping_2  | 64 bytes from 203.210.4.91: seq=6 ttl=51 time=174.685 ms
ping_9  | 64 bytes from 203.210.4.91: seq=9 ttl=51 time=181.661 ms
ping_1  | 64 bytes from 203.210.4.91: seq=10 ttl=51 time=167.442 ms
ping_7  | 64 bytes from 203.210.4.91: seq=12 ttl=51 time=167.233 ms
ping_3  | 64 bytes from 203.210.4.91: seq=3 ttl=51 time=183.191 ms
ping_9  | 64 bytes from 203.210.4.91: seq=10 ttl=51 time=183.489 ms
ping_20 | 64 bytes from 203.210.4.91: seq=1 ttl=51 time=181.529 ms
ping_11 | PING csl2.hkspeedtest.com (203.210.4.91): 56 data bytes
ping_18 | 64 bytes from 203.210.4.91: seq=5 ttl=51 time=184.275 ms
ping_20 | 64 bytes from 203.210.4.91: seq=2 ttl=51 time=181.809 ms
ping_11 | 64 bytes from 203.210.4.91: seq=0 ttl=51 time=181.547 ms
ping_13 | 64 bytes from 203.210.4.91: seq=3 ttl=51 time=185.047 ms
ping_2  | 64 bytes from 203.210.4.91: seq=7 ttl=51 time=178.062 ms
ping_17 | PING csl2.hkspeedtest.com (203.210.4.91): 56 data bytes
ping_4  | 64 bytes from 203.210.4.91: seq=8 ttl=51 time=183.898 ms
ping_11 | 64 bytes from 203.210.4.91: seq=1 ttl=51 time=185.727 ms
ping_18 | 64 bytes from 203.210.4.91: seq=6 ttl=51 time=182.699 ms
ping_2  | 64 bytes from 203.210.4.91: seq=8 ttl=51 time=179.880 ms
ping_3  | 64 bytes from 203.210.4.91: seq=4 ttl=51 time=168.855 ms
ping_6  | 64 bytes from 203.210.4.91: seq=12 ttl=51 time=167.372 ms
ping_12 | 64 bytes from 203.210.4.91: seq=5 ttl=51 time=185.422 ms
ping_19 | 64 bytes from 203.210.4.91: seq=4 ttl=51 time=183.175 ms
ping_17 | 64 bytes from 203.210.4.91: seq=0 ttl=51 time=181.389 ms
ping_13 | 64 bytes from 203.210.4.91: seq=4 ttl=51 time=182.390 ms
ping_9  | 64 bytes from 203.210.4.91: seq=11 ttl=51 time=167.469 ms
ping_20 | 64 bytes from 203.210.4.91: seq=3 ttl=51 time=184.849 ms
ping_16 | PING csl2.hkspeedtest.com (203.210.4.91): 56 data bytes
ping_11 | 64 bytes from 203.210.4.91: seq=2 ttl=51 time=184.268 ms
ping_15 | PING csl2.hkspeedtest.com (203.210.4.91): 56 data bytes
ping_13 | 64 bytes from 203.210.4.91: seq=5 ttl=51 time=181.872 ms
ping_12 | 64 bytes from 203.210.4.91: seq=6 ttl=51 time=167.448 ms
ping_19 | 64 bytes from 203.210.4.91: seq=5 ttl=51 time=167.714 ms
ping_20 | 64 bytes from 203.210.4.91: seq=4 ttl=51 time=183.237 ms
ping_16 | 64 bytes from 203.210.4.91: seq=0 ttl=51 time=167.474 ms
ping_18 | 64 bytes from 203.210.4.91: seq=7 ttl=51 time=167.117 ms
ping_17 | 64 bytes from 203.210.4.91: seq=1 ttl=51 time=180.442 ms
ping_2  | 64 bytes from 203.210.4.91: seq=9 ttl=51 time=184.952 ms
ping_14 | PING csl2.hkspeedtest.com (203.210.4.91): 56 data bytes
ping_11 | 64 bytes from 203.210.4.91: seq=3 ttl=51 time=167.081 ms
ping_4  | 64 bytes from 203.210.4.91: seq=9 ttl=51 time=182.694 ms
ping_13 | 64 bytes from 203.210.4.91: seq=6 ttl=51 time=175.412 ms
ping_3  | 64 bytes from 203.210.4.91: seq=5 ttl=51 time=183.920 ms
ping_3  | 64 bytes from 203.210.4.91: seq=6 ttl=51 time=183.045 ms
ping_17 | 64 bytes from 203.210.4.91: seq=2 ttl=51 time=184.424 ms
ping_2  | 64 bytes from 203.210.4.91: seq=10 ttl=51 time=184.998 ms
ping_4  | 64 bytes from 203.210.4.91: seq=10 ttl=51 time=167.251 ms
ping_15 | 64 bytes from 203.210.4.91: seq=0 ttl=51 time=182.843 ms
ping_17 | 64 bytes from 203.210.4.91: seq=3 ttl=51 time=184.491 ms
ping_15 | 64 bytes from 203.210.4.91: seq=1 ttl=51 time=172.616 ms
ping_2  | 64 bytes from 203.210.4.91: seq=11 ttl=51 time=167.080 ms
ping_3  | 64 bytes from 203.210.4.91: seq=7 ttl=51 time=183.221 ms
ping_20 | 64 bytes from 203.210.4.91: seq=5 ttl=51 time=167.460 ms
ping_17 | 64 bytes from 203.210.4.91: seq=4 ttl=51 time=167.126 ms
ping_3  | 64 bytes from 203.210.4.91: seq=8 ttl=51 time=167.434 ms
ping_13 | 64 bytes from 203.210.4.91: seq=7 ttl=51 time=168.267 ms
ping_15 | 64 bytes from 203.210.4.91: seq=2 ttl=51 time=167.462 ms
ping_14 | 64 bytes from 203.210.4.91: seq=0 ttl=51 time=167.376 ms
ping_16 | 64 bytes from 203.210.4.91: seq=1 ttl=51 time=167.540 ms
ping_19 | 64 bytes from 203.210.4.91: seq=6 ttl=51 time=167.651 ms
ping_6  | 64 bytes from 203.210.4.91: seq=13 ttl=51 time=167.146 ms
ping_9  | 64 bytes from 203.210.4.91: seq=12 ttl=51 time=167.180 ms
ping_5  | 64 bytes from 203.210.4.91: seq=14 ttl=51 time=167.939 ms
ping_3  | 64 bytes from 203.210.4.91: seq=9 ttl=51 time=167.540 ms
ping_1  | 64 bytes from 203.210.4.91: seq=11 ttl=51 time=167.771 ms
ping_10 | 64 bytes from 203.210.4.91: seq=14 ttl=51 time=167.801 ms
ping_8  | 64 bytes from 203.210.4.91: seq=10 ttl=51 time=167.763 ms
ping_7  | 64 bytes from 203.210.4.91: seq=13 ttl=51 time=167.632 ms
ping_12 | 64 bytes from 203.210.4.91: seq=7 ttl=51 time=167.432 ms
ping_2  | 64 bytes from 203.210.4.91: seq=12 ttl=51 time=167.580 ms
ping_4  | 64 bytes from 203.210.4.91: seq=11 ttl=51 time=168.853 ms
ping_18 | 64 bytes from 203.210.4.91: seq=8 ttl=51 time=168.867 ms
ping_17 | 64 bytes from 203.210.4.91: seq=5 ttl=51 time=169.059 ms
ping_11 | 64 bytes from 203.210.4.91: seq=4 ttl=51 time=168.583 ms
ping_20 | 64 bytes from 203.210.4.91: seq=6 ttl=51 time=168.518 ms
ping_13 | 64 bytes from 203.210.4.91: seq=8 ttl=51 time=168.795 ms
ping_15 | 64 bytes from 203.210.4.91: seq=3 ttl=51 time=167.804 ms
ping_14 | 64 bytes from 203.210.4.91: seq=1 ttl=51 time=167.532 ms
ping_16 | 64 bytes from 203.210.4.91: seq=2 ttl=51 time=167.819 ms
ping_19 | 64 bytes from 203.210.4.91: seq=7 ttl=51 time=168.377 ms
ping_6  | 64 bytes from 203.210.4.91: seq=14 ttl=51 time=169.452 ms
ping_9  | 64 bytes from 203.210.4.91: seq=13 ttl=51 time=169.608 ms
ping_5  | 64 bytes from 203.210.4.91: seq=15 ttl=51 time=170.388 ms
ping_3  | 64 bytes from 203.210.4.91: seq=10 ttl=51 time=169.258 ms
ping_1  | 64 bytes from 203.210.4.91: seq=12 ttl=51 time=169.318 ms
ping_8  | 64 bytes from 203.210.4.91: seq=11 ttl=51 time=170.955 ms
ping_10 | 64 bytes from 203.210.4.91: seq=15 ttl=51 time=170.926 ms
ping_7  | 64 bytes from 203.210.4.91: seq=14 ttl=51 time=170.933 ms
ping_12 | 64 bytes from 203.210.4.91: seq=8 ttl=51 time=170.668 ms
ping_2  | 64 bytes from 203.210.4.91: seq=13 ttl=51 time=169.007 ms
ping_4  | 64 bytes from 203.210.4.91: seq=12 ttl=51 time=170.279 ms
ping_18 | 64 bytes from 203.210.4.91: seq=9 ttl=51 time=169.702 ms
ping_17 | 64 bytes from 203.210.4.91: seq=6 ttl=51 time=171.514 ms
ping_11 | 64 bytes from 203.210.4.91: seq=5 ttl=51 time=171.370 ms
ping_20 | 64 bytes from 203.210.4.91: seq=7 ttl=51 time=170.318 ms
ping_13 | 64 bytes from 203.210.4.91: seq=9 ttl=51 time=169.354 ms
ping_15 | 64 bytes from 203.210.4.91: seq=4 ttl=51 time=168.579 ms
ping_14 | 64 bytes from 203.210.4.91: seq=2 ttl=51 time=167.259 ms
ping_16 | 64 bytes from 203.210.4.91: seq=3 ttl=51 time=169.482 ms
ping_19 | 64 bytes from 203.210.4.91: seq=8 ttl=51 time=169.034 ms
ping_6  | 64 bytes from 203.210.4.91: seq=15 ttl=51 time=173.811 ms
ping_9  | 64 bytes from 203.210.4.91: seq=14 ttl=51 time=169.720 ms
ping_5  | 64 bytes from 203.210.4.91: seq=16 ttl=51 time=175.004 ms
ping_3  | 64 bytes from 203.210.4.91: seq=11 ttl=51 time=175.747 ms
ping_1  | 64 bytes from 203.210.4.91: seq=13 ttl=51 time=173.833 ms
ping_8  | 64 bytes from 203.210.4.91: seq=12 ttl=51 time=176.033 ms
ping_10 | 64 bytes from 203.210.4.91: seq=16 ttl=51 time=176.002 ms
ping_7  | 64 bytes from 203.210.4.91: seq=15 ttl=51 time=178.710 ms
ping_12 | 64 bytes from 203.210.4.91: seq=9 ttl=51 time=180.998 ms
ping_2  | 64 bytes from 203.210.4.91: seq=14 ttl=51 time=182.786 ms
ping_4  | 64 bytes from 203.210.4.91: seq=13 ttl=51 time=186.552 ms
ping_18 | 64 bytes from 203.210.4.91: seq=10 ttl=51 time=186.112 ms
ping_17 | 64 bytes from 203.210.4.91: seq=7 ttl=51 time=184.297 ms
ping_11 | 64 bytes from 203.210.4.91: seq=6 ttl=51 time=183.866 ms
ping_20 | 64 bytes from 203.210.4.91: seq=8 ttl=51 time=182.465 ms
ping_13 | 64 bytes from 203.210.4.91: seq=10 ttl=51 time=185.499 ms
ping_15 | 64 bytes from 203.210.4.91: seq=5 ttl=51 time=185.401 ms
ping_14 | 64 bytes from 203.210.4.91: seq=3 ttl=51 time=182.649 ms
ping_16 | 64 bytes from 203.210.4.91: seq=4 ttl=51 time=179.654 ms
ping_19 | 64 bytes from 203.210.4.91: seq=9 ttl=51 time=178.004 ms
ping_6  | 64 bytes from 203.210.4.91: seq=16 ttl=51 time=176.067 ms
ping_9  | 64 bytes from 203.210.4.91: seq=15 ttl=51 time=175.194 ms
ping_5  | 64 bytes from 203.210.4.91: seq=17 ttl=51 time=167.181 ms
ping_3  | 64 bytes from 203.210.4.91: seq=12 ttl=51 time=167.324 ms
ping_1  | 64 bytes from 203.210.4.91: seq=14 ttl=51 time=167.374 ms
ping_8  | 64 bytes from 203.210.4.91: seq=13 ttl=51 time=172.845 ms
ping_10 | 64 bytes from 203.210.4.91: seq=17 ttl=51 time=172.788 ms
ping_7  | 64 bytes from 203.210.4.91: seq=16 ttl=51 time=172.819 ms
ping_12 | 64 bytes from 203.210.4.91: seq=10 ttl=51 time=176.730 ms
ping_2  | 64 bytes from 203.210.4.91: seq=15 ttl=51 time=177.601 ms
ping_4  | 64 bytes from 203.210.4.91: seq=14 ttl=51 time=178.407 ms
ping_18 | 64 bytes from 203.210.4.91: seq=11 ttl=51 time=178.414 ms
ping_17 | 64 bytes from 203.210.4.91: seq=8 ttl=51 time=178.527 ms
ping_11 | 64 bytes from 203.210.4.91: seq=7 ttl=51 time=178.921 ms
ping_20 | 64 bytes from 203.210.4.91: seq=9 ttl=51 time=179.656 ms
ping_13 | 64 bytes from 203.210.4.91: seq=11 ttl=51 time=182.406 ms
ping_15 | 64 bytes from 203.210.4.91: seq=6 ttl=51 time=182.141 ms
ping_14 | 64 bytes from 203.210.4.91: seq=4 ttl=51 time=183.428 ms
ping_16 | 64 bytes from 203.210.4.91: seq=5 ttl=51 time=184.522 ms
ping_19 | 64 bytes from 203.210.4.91: seq=10 ttl=51 time=183.804 ms
ping_6  | 64 bytes from 203.210.4.91: seq=17 ttl=51 time=183.716 ms
ping_9  | 64 bytes from 203.210.4.91: seq=16 ttl=51 time=185.674 ms
ping_5  | 64 bytes from 203.210.4.91: seq=18 ttl=51 time=184.824 ms
ping_3  | 64 bytes from 203.210.4.91: seq=13 ttl=51 time=184.352 ms
ping_1  | 64 bytes from 203.210.4.91: seq=15 ttl=51 time=185.202 ms
ping_8  | 64 bytes from 203.210.4.91: seq=14 ttl=51 time=184.649 ms
ping_10 | 64 bytes from 203.210.4.91: seq=18 ttl=51 time=184.620 ms
ping_7  | 64 bytes from 203.210.4.91: seq=17 ttl=51 time=185.414 ms
ping_12 | 64 bytes from 203.210.4.91: seq=11 ttl=51 time=182.161 ms
ping_2  | 64 bytes from 203.210.4.91: seq=16 ttl=51 time=181.424 ms
ping_4  | 64 bytes from 203.210.4.91: seq=15 ttl=51 time=177.766 ms
ping_18 | 64 bytes from 203.210.4.91: seq=12 ttl=51 time=180.208 ms
ping_17 | 64 bytes from 203.210.4.91: seq=9 ttl=51 time=176.883 ms
ping_11 | 64 bytes from 203.210.4.91: seq=8 ttl=51 time=176.169 ms
ping_20 | 64 bytes from 203.210.4.91: seq=10 ttl=51 time=176.677 ms
ping_13 | 64 bytes from 203.210.4.91: seq=12 ttl=51 time=176.590 ms
ping_15 | 64 bytes from 203.210.4.91: seq=7 ttl=51 time=178.591 ms
ping_14 | 64 bytes from 203.210.4.91: seq=5 ttl=51 time=178.679 ms
ping_16 | 64 bytes from 203.210.4.91: seq=6 ttl=51 time=178.621 ms
ping_19 | 64 bytes from 203.210.4.91: seq=11 ttl=51 time=179.442 ms
ping_6  | 64 bytes from 203.210.4.91: seq=18 ttl=51 time=179.817 ms
ping_9  | 64 bytes from 203.210.4.91: seq=17 ttl=51 time=180.203 ms
ping_5  | 64 bytes from 203.210.4.91: seq=19 ttl=51 time=185.408 ms
ping_3  | 64 bytes from 203.210.4.91: seq=14 ttl=51 time=184.635 ms
ping_1  | 64 bytes from 203.210.4.91: seq=16 ttl=51 time=185.247 ms
ping_8  | 64 bytes from 203.210.4.91: seq=15 ttl=51 time=185.031 ms
ping_10 | 64 bytes from 203.210.4.91: seq=19 ttl=51 time=185.057 ms
ping_7  | 64 bytes from 203.210.4.91: seq=18 ttl=51 time=184.110 ms
ping_12 | 64 bytes from 203.210.4.91: seq=12 ttl=51 time=182.628 ms
ping_2  | 64 bytes from 203.210.4.91: seq=17 ttl=51 time=182.128 ms
ping_4  | 64 bytes from 203.210.4.91: seq=16 ttl=51 time=177.392 ms
ping_18 | 64 bytes from 203.210.4.91: seq=13 ttl=51 time=178.089 ms
ping_17 | 64 bytes from 203.210.4.91: seq=10 ttl=51 time=178.198 ms
ping_11 | 64 bytes from 203.210.4.91: seq=9 ttl=51 time=177.984 ms
ping_20 | 64 bytes from 203.210.4.91: seq=11 ttl=51 time=178.573 ms
ping_13 | 64 bytes from 203.210.4.91: seq=13 ttl=51 time=179.328 ms
ping_15 | 64 bytes from 203.210.4.91: seq=8 ttl=51 time=179.604 ms
ping_14 | 64 bytes from 203.210.4.91: seq=6 ttl=51 time=179.102 ms
ping_16 | 64 bytes from 203.210.4.91: seq=7 ttl=51 time=178.936 ms
ping_19 | 64 bytes from 203.210.4.91: seq=12 ttl=51 time=179.419 ms
ping_6  | 64 bytes from 203.210.4.91: seq=19 ttl=51 time=181.113 ms
ping_9  | 64 bytes from 203.210.4.91: seq=18 ttl=51 time=181.725 ms
ping_5  | 64 bytes from 203.210.4.91: seq=20 ttl=51 time=184.624 ms
ping_3  | 64 bytes from 203.210.4.91: seq=15 ttl=51 time=184.831 ms
ping_1  | 64 bytes from 203.210.4.91: seq=17 ttl=51 time=184.229 ms
ping_10 | 64 bytes from 203.210.4.91: seq=20 ttl=51 time=185.503 ms
ping_8  | 64 bytes from 203.210.4.91: seq=16 ttl=51 time=185.522 ms
ping_7  | 64 bytes from 203.210.4.91: seq=19 ttl=51 time=184.673 ms
ping_12 | 64 bytes from 203.210.4.91: seq=13 ttl=51 time=184.080 ms
ping_2  | 64 bytes from 203.210.4.91: seq=18 ttl=51 time=183.953 ms
ping_4  | 64 bytes from 203.210.4.91: seq=17 ttl=51 time=180.101 ms
ping_18 | 64 bytes from 203.210.4.91: seq=14 ttl=51 time=179.935 ms
ping_17 | 64 bytes from 203.210.4.91: seq=11 ttl=51 time=178.047 ms
ping_11 | 64 bytes from 203.210.4.91: seq=10 ttl=51 time=177.808 ms
ping_20 | 64 bytes from 203.210.4.91: seq=12 ttl=51 time=176.811 ms
ping_13 | 64 bytes from 203.210.4.91: seq=14 ttl=51 time=170.363 ms
ping_15 | 64 bytes from 203.210.4.91: seq=9 ttl=51 time=171.139 ms
ping_14 | 64 bytes from 203.210.4.91: seq=7 ttl=51 time=169.924 ms
ping_16 | 64 bytes from 203.210.4.91: seq=8 ttl=51 time=169.857 ms
ping_19 | 64 bytes from 203.210.4.91: seq=13 ttl=51 time=170.672 ms
ping_6  | 64 bytes from 203.210.4.91: seq=20 ttl=51 time=172.029 ms
ping_9  | 64 bytes from 203.210.4.91: seq=19 ttl=51 time=172.349 ms
ping_5  | 64 bytes from 203.210.4.91: seq=21 ttl=51 time=176.846 ms
ping_3  | 64 bytes from 203.210.4.91: seq=16 ttl=51 time=176.878 ms
ping_1  | 64 bytes from 203.210.4.91: seq=18 ttl=51 time=177.878 ms
ping_8  | 64 bytes from 203.210.4.91: seq=17 ttl=51 time=184.439 ms
ping_10 | 64 bytes from 203.210.4.91: seq=21 ttl=51 time=184.459 ms
ping_7  | 64 bytes from 203.210.4.91: seq=20 ttl=51 time=185.019 ms
ping_12 | 64 bytes from 203.210.4.91: seq=14 ttl=51 time=183.423 ms
ping_2  | 64 bytes from 203.210.4.91: seq=19 ttl=51 time=184.629 ms
ping_4  | 64 bytes from 203.210.4.91: seq=18 ttl=51 time=183.450 ms
ping_18 | 64 bytes from 203.210.4.91: seq=15 ttl=51 time=183.452 ms
ping_17 | 64 bytes from 203.210.4.91: seq=12 ttl=51 time=181.396 ms
ping_11 | 64 bytes from 203.210.4.91: seq=11 ttl=51 time=182.094 ms
ping_20 | 64 bytes from 203.210.4.91: seq=13 ttl=51 time=182.338 ms
ping_13 | 64 bytes from 203.210.4.91: seq=15 ttl=51 time=177.348 ms
ping_15 | 64 bytes from 203.210.4.91: seq=10 ttl=51 time=177.185 ms
ping_14 | 64 bytes from 203.210.4.91: seq=8 ttl=51 time=176.424 ms
ping_16 | 64 bytes from 203.210.4.91: seq=9 ttl=51 time=176.421 ms
ping_19 | 64 bytes from 203.210.4.91: seq=14 ttl=51 time=177.589 ms
ping_6  | 64 bytes from 203.210.4.91: seq=21 ttl=51 time=179.376 ms
ping_9  | 64 bytes from 203.210.4.91: seq=20 ttl=51 time=179.463 ms
ping_5  | 64 bytes from 203.210.4.91: seq=22 ttl=51 time=175.766 ms
ping_3  | 64 bytes from 203.210.4.91: seq=17 ttl=51 time=176.240 ms
ping_1  | 64 bytes from 203.210.4.91: seq=19 ttl=51 time=178.174 ms
ping_10 | 64 bytes from 203.210.4.91: seq=22 ttl=51 time=179.056 ms
ping_8  | 64 bytes from 203.210.4.91: seq=18 ttl=51 time=179.094 ms
ping_7  | 64 bytes from 203.210.4.91: seq=21 ttl=51 time=179.579 ms
ping_12 | 64 bytes from 203.210.4.91: seq=15 ttl=51 time=181.496 ms
ping_2  | 64 bytes from 203.210.4.91: seq=20 ttl=51 time=181.729 ms
ping_4  | 64 bytes from 203.210.4.91: seq=19 ttl=51 time=182.073 ms
ping_18 | 64 bytes from 203.210.4.91: seq=16 ttl=51 time=181.636 ms
ping_17 | 64 bytes from 203.210.4.91: seq=13 ttl=51 time=185.263 ms
ping_11 | 64 bytes from 203.210.4.91: seq=12 ttl=51 time=185.187 ms
ping_20 | 64 bytes from 203.210.4.91: seq=14 ttl=51 time=185.148 ms
ping_13 | 64 bytes from 203.210.4.91: seq=16 ttl=51 time=184.336 ms
ping_15 | 64 bytes from 203.210.4.91: seq=11 ttl=51 time=183.439 ms
ping_14 | 64 bytes from 203.210.4.91: seq=9 ttl=51 time=183.298 ms
ping_16 | 64 bytes from 203.210.4.91: seq=10 ttl=51 time=184.846 ms
ping_19 | 64 bytes from 203.210.4.91: seq=15 ttl=51 time=184.998 ms
ping_6  | 64 bytes from 203.210.4.91: seq=22 ttl=51 time=183.822 ms
ping_9  | 64 bytes from 203.210.4.91: seq=21 ttl=51 time=184.716 ms
ping_5  | 64 bytes from 203.210.4.91: seq=23 ttl=51 time=183.452 ms
ping_3  | 64 bytes from 203.210.4.91: seq=18 ttl=51 time=183.451 ms
ping_1  | 64 bytes from 203.210.4.91: seq=20 ttl=51 time=180.673 ms
ping_8  | 64 bytes from 203.210.4.91: seq=19 ttl=51 time=173.891 ms
ping_10 | 64 bytes from 203.210.4.91: seq=23 ttl=51 time=173.946 ms
ping_7  | 64 bytes from 203.210.4.91: seq=22 ttl=51 time=175.672 ms
ping_12 | 64 bytes from 203.210.4.91: seq=16 ttl=51 time=177.104 ms
ping_2  | 64 bytes from 203.210.4.91: seq=21 ttl=51 time=177.280 ms
ping_4  | 64 bytes from 203.210.4.91: seq=20 ttl=51 time=181.433 ms
ping_18 | 64 bytes from 203.210.4.91: seq=17 ttl=51 time=181.251 ms
ping_17 | 64 bytes from 203.210.4.91: seq=14 ttl=51 time=180.181 ms
ping_11 | 64 bytes from 203.210.4.91: seq=13 ttl=51 time=180.028 ms
ping_20 | 64 bytes from 203.210.4.91: seq=15 ttl=51 time=181.192 ms
ping_13 | 64 bytes from 203.210.4.91: seq=17 ttl=51 time=183.906 ms
ping_15 | 64 bytes from 203.210.4.91: seq=12 ttl=51 time=183.967 ms
ping_14 | 64 bytes from 203.210.4.91: seq=10 ttl=51 time=184.043 ms
ping_16 | 64 bytes from 203.210.4.91: seq=11 ttl=51 time=183.647 ms
ping_19 | 64 bytes from 203.210.4.91: seq=16 ttl=51 time=184.116 ms
ping_6  | 64 bytes from 203.210.4.91: seq=23 ttl=51 time=183.844 ms
ping_9  | 64 bytes from 203.210.4.91: seq=22 ttl=51 time=183.167 ms
ping_5  | 64 bytes from 203.210.4.91: seq=24 ttl=51 time=184.788 ms
ping_3  | 64 bytes from 203.210.4.91: seq=19 ttl=51 time=184.730 ms
ping_1  | 64 bytes from 203.210.4.91: seq=21 ttl=51 time=186.183 ms
ping_10 | 64 bytes from 203.210.4.91: seq=24 ttl=51 time=184.568 ms
ping_8  | 64 bytes from 203.210.4.91: seq=20 ttl=51 time=184.542 ms
ping_7  | 64 bytes from 203.210.4.91: seq=23 ttl=51 time=183.204 ms
ping_12 | 64 bytes from 203.210.4.91: seq=17 ttl=51 time=183.375 ms
ping_2  | 64 bytes from 203.210.4.91: seq=22 ttl=51 time=183.397 ms
ping_4  | 64 bytes from 203.210.4.91: seq=21 ttl=51 time=181.757 ms
ping_18 | 64 bytes from 203.210.4.91: seq=18 ttl=51 time=182.346 ms
ping_17 | 64 bytes from 203.210.4.91: seq=15 ttl=51 time=180.611 ms
ping_11 | 64 bytes from 203.210.4.91: seq=14 ttl=51 time=181.417 ms
ping_20 | 64 bytes from 203.210.4.91: seq=16 ttl=51 time=181.642 ms
ping_13 | 64 bytes from 203.210.4.91: seq=18 ttl=51 time=180.172 ms
ping_15 | 64 bytes from 203.210.4.91: seq=13 ttl=51 time=180.548 ms
ping_14 | 64 bytes from 203.210.4.91: seq=11 ttl=51 time=180.983 ms
ping_16 | 64 bytes from 203.210.4.91: seq=12 ttl=51 time=183.056 ms
ping_19 | 64 bytes from 203.210.4.91: seq=17 ttl=51 time=183.411 ms
ping_6  | 64 bytes from 203.210.4.91: seq=24 ttl=51 time=184.419 ms
ping_9  | 64 bytes from 203.210.4.91: seq=23 ttl=51 time=183.929 ms
ping_5  | 64 bytes from 203.210.4.91: seq=25 ttl=51 time=184.056 ms
ping_3  | 64 bytes from 203.210.4.91: seq=20 ttl=51 time=183.573 ms
ping_1  | 64 bytes from 203.210.4.91: seq=22 ttl=51 time=183.649 ms
ping_10 | 64 bytes from 203.210.4.91: seq=25 ttl=51 time=185.470 ms
ping_8  | 64 bytes from 203.210.4.91: seq=21 ttl=51 time=185.463 ms
ping_7  | 64 bytes from 203.210.4.91: seq=24 ttl=51 time=185.337 ms
ping_12 | 64 bytes from 203.210.4.91: seq=18 ttl=51 time=181.090 ms
ping_2  | 64 bytes from 203.210.4.91: seq=23 ttl=51 time=182.820 ms
ping_4  | 64 bytes from 203.210.4.91: seq=22 ttl=51 time=182.460 ms
ping_18 | 64 bytes from 203.210.4.91: seq=19 ttl=51 time=182.715 ms
ping_17 | 64 bytes from 203.210.4.91: seq=16 ttl=51 time=183.049 ms
ping_11 | 64 bytes from 203.210.4.91: seq=15 ttl=51 time=183.339 ms
ping_20 | 64 bytes from 203.210.4.91: seq=17 ttl=51 time=183.517 ms
ping_13 | 64 bytes from 203.210.4.91: seq=19 ttl=51 time=184.571 ms
ping_15 | 64 bytes from 203.210.4.91: seq=14 ttl=51 time=184.625 ms
ping_14 | 64 bytes from 203.210.4.91: seq=12 ttl=51 time=184.970 ms
ping_16 | 64 bytes from 203.210.4.91: seq=13 ttl=51 time=184.885 ms
ping_19 | 64 bytes from 203.210.4.91: seq=18 ttl=51 time=185.173 ms
ping_6  | 64 bytes from 203.210.4.91: seq=25 ttl=51 time=185.201 ms
ping_9  | 64 bytes from 203.210.4.91: seq=24 ttl=51 time=184.711 ms
ping_5  | 64 bytes from 203.210.4.91: seq=26 ttl=51 time=185.931 ms
ping_3  | 64 bytes from 203.210.4.91: seq=21 ttl=51 time=185.453 ms
ping_1  | 64 bytes from 203.210.4.91: seq=23 ttl=51 time=184.750 ms
ping_10 | 64 bytes from 203.210.4.91: seq=26 ttl=51 time=184.527 ms
ping_8  | 64 bytes from 203.210.4.91: seq=22 ttl=51 time=184.500 ms
ping_7  | 64 bytes from 203.210.4.91: seq=25 ttl=51 time=183.123 ms
ping_12 | 64 bytes from 203.210.4.91: seq=19 ttl=51 time=178.699 ms
ping_2  | 64 bytes from 203.210.4.91: seq=24 ttl=51 time=178.591 ms
ping_4  | 64 bytes from 203.210.4.91: seq=23 ttl=51 time=177.246 ms
ping_18 | 64 bytes from 203.210.4.91: seq=20 ttl=51 time=177.047 ms
ping_17 | 64 bytes from 203.210.4.91: seq=17 ttl=51 time=174.206 ms
ping_11 | 64 bytes from 203.210.4.91: seq=16 ttl=51 time=174.181 ms
ping_20 | 64 bytes from 203.210.4.91: seq=18 ttl=51 time=174.351 ms
ping_13 | 64 bytes from 203.210.4.91: seq=20 ttl=51 time=171.751 ms
ping_15 | 64 bytes from 203.210.4.91: seq=15 ttl=51 time=172.663 ms
ping_14 | 64 bytes from 203.210.4.91: seq=13 ttl=51 time=172.969 ms
ping_16 | 64 bytes from 203.210.4.91: seq=14 ttl=51 time=174.561 ms
ping_19 | 64 bytes from 203.210.4.91: seq=19 ttl=51 time=176.564 ms
ping_6  | 64 bytes from 203.210.4.91: seq=26 ttl=51 time=177.674 ms
ping_9  | 64 bytes from 203.210.4.91: seq=25 ttl=51 time=178.188 ms
ping_5  | 64 bytes from 203.210.4.91: seq=27 ttl=51 time=181.281 ms
ping_3  | 64 bytes from 203.210.4.91: seq=22 ttl=51 time=181.057 ms
ping_1  | 64 bytes from 203.210.4.91: seq=24 ttl=51 time=180.692 ms
ping_8  | 64 bytes from 203.210.4.91: seq=23 ttl=51 time=183.074 ms
ping_10 | 64 bytes from 203.210.4.91: seq=27 ttl=51 time=183.101 ms
ping_7  | 64 bytes from 203.210.4.91: seq=26 ttl=51 time=183.764 ms
ping_12 | 64 bytes from 203.210.4.91: seq=20 ttl=51 time=183.262 ms
ping_2  | 64 bytes from 203.210.4.91: seq=25 ttl=51 time=184.713 ms
ping_4  | 64 bytes from 203.210.4.91: seq=24 ttl=51 time=185.339 ms
ping_18 | 64 bytes from 203.210.4.91: seq=21 ttl=51 time=185.073 ms
ping_17 | 64 bytes from 203.210.4.91: seq=18 ttl=51 time=184.040 ms
ping_11 | 64 bytes from 203.210.4.91: seq=17 ttl=51 time=184.469 ms
ping_20 | 64 bytes from 203.210.4.91: seq=19 ttl=51 time=182.457 ms
ping_13 | 64 bytes from 203.210.4.91: seq=21 ttl=51 time=178.793 ms
ping_15 | 64 bytes from 203.210.4.91: seq=16 ttl=51 time=177.305 ms
ping_14 | 64 bytes from 203.210.4.91: seq=14 ttl=51 time=176.399 ms
ping_16 | 64 bytes from 203.210.4.91: seq=15 ttl=51 time=172.091 ms
ping_19 | 64 bytes from 203.210.4.91: seq=20 ttl=51 time=169.159 ms
ping_6  | 64 bytes from 203.210.4.91: seq=27 ttl=51 time=167.425 ms
ping_9  | 64 bytes from 203.210.4.91: seq=26 ttl=51 time=167.404 ms
ping_5  | 64 bytes from 203.210.4.91: seq=28 ttl=51 time=167.646 ms
ping_3  | 64 bytes from 203.210.4.91: seq=23 ttl=51 time=167.183 ms
ping_1  | 64 bytes from 203.210.4.91: seq=25 ttl=51 time=167.857 ms
ping_8  | 64 bytes from 203.210.4.91: seq=24 ttl=51 time=167.672 ms
ping_10 | 64 bytes from 203.210.4.91: seq=28 ttl=51 time=167.704 ms
ping_7  | 64 bytes from 203.210.4.91: seq=27 ttl=51 time=167.794 ms
ping_12 | 64 bytes from 203.210.4.91: seq=21 ttl=51 time=169.612 ms
ping_2  | 64 bytes from 203.210.4.91: seq=26 ttl=51 time=171.870 ms
ping_4  | 64 bytes from 203.210.4.91: seq=25 ttl=51 time=174.166 ms
ping_18 | 64 bytes from 203.210.4.91: seq=22 ttl=51 time=174.528 ms
ping_17 | 64 bytes from 203.210.4.91: seq=19 ttl=51 time=177.259 ms
ping_11 | 64 bytes from 203.210.4.91: seq=18 ttl=51 time=178.306 ms
ping_20 | 64 bytes from 203.210.4.91: seq=20 ttl=51 time=179.543 ms
ping_13 | 64 bytes from 203.210.4.91: seq=22 ttl=51 time=180.406 ms
ping_15 | 64 bytes from 203.210.4.91: seq=17 ttl=51 time=180.920 ms
ping_14 | 64 bytes from 203.210.4.91: seq=15 ttl=51 time=178.734 ms
ping_16 | 64 bytes from 203.210.4.91: seq=16 ttl=51 time=179.905 ms
ping_19 | 64 bytes from 203.210.4.91: seq=21 ttl=51 time=180.934 ms
ping_6  | 64 bytes from 203.210.4.91: seq=28 ttl=51 time=180.562 ms
ping_9  | 64 bytes from 203.210.4.91: seq=27 ttl=51 time=181.899 ms
ping_5  | 64 bytes from 203.210.4.91: seq=29 ttl=51 time=183.461 ms
ping_3  | 64 bytes from 203.210.4.91: seq=24 ttl=51 time=184.138 ms
ping_1  | 64 bytes from 203.210.4.91: seq=26 ttl=51 time=184.709 ms
ping_10 | 64 bytes from 203.210.4.91: seq=29 ttl=51 time=182.806 ms
ping_8  | 64 bytes from 203.210.4.91: seq=25 ttl=51 time=182.781 ms
ping_7  | 64 bytes from 203.210.4.91: seq=28 ttl=51 time=184.029 ms
ping_12 | 64 bytes from 203.210.4.91: seq=22 ttl=51 time=184.876 ms
ping_2  | 64 bytes from 203.210.4.91: seq=27 ttl=51 time=184.126 ms
ping_4  | 64 bytes from 203.210.4.91: seq=26 ttl=51 time=186.038 ms
ping_18 | 64 bytes from 203.210.4.91: seq=23 ttl=51 time=185.623 ms
ping_17 | 64 bytes from 203.210.4.91: seq=20 ttl=51 time=185.191 ms
ping_11 | 64 bytes from 203.210.4.91: seq=19 ttl=51 time=185.225 ms
ping_20 | 64 bytes from 203.210.4.91: seq=21 ttl=51 time=184.534 ms
ping_13 | 64 bytes from 203.210.4.91: seq=23 ttl=51 time=185.430 ms
ping_15 | 64 bytes from 203.210.4.91: seq=18 ttl=51 time=191.766 ms
ping_14 | 64 bytes from 203.210.4.91: seq=16 ttl=51 time=183.439 ms
ping_16 | 64 bytes from 203.210.4.91: seq=17 ttl=51 time=183.008 ms
ping_19 | 64 bytes from 203.210.4.91: seq=22 ttl=51 time=181.678 ms
ping_6  | 64 bytes from 203.210.4.91: seq=29 ttl=51 time=180.816 ms
ping_9  | 64 bytes from 203.210.4.91: seq=28 ttl=51 time=179.194 ms
ping_5  | 64 bytes from 203.210.4.91: seq=30 ttl=51 time=176.269 ms
ping_3  | 64 bytes from 203.210.4.91: seq=25 ttl=51 time=175.462 ms
ping_1  | 64 bytes from 203.210.4.91: seq=27 ttl=51 time=177.731 ms
ping_10 | 64 bytes from 203.210.4.91: seq=30 ttl=51 time=171.241 ms
ping_8  | 64 bytes from 203.210.4.91: seq=26 ttl=51 time=171.214 ms
ping_7  | 64 bytes from 203.210.4.91: seq=29 ttl=51 time=170.571 ms
ping_12 | 64 bytes from 203.210.4.91: seq=23 ttl=51 time=171.642 ms
ping_2  | 64 bytes from 203.210.4.91: seq=28 ttl=51 time=171.099 ms
ping_4  | 64 bytes from 203.210.4.91: seq=27 ttl=51 time=172.242 ms
ping_18 | 64 bytes from 203.210.4.91: seq=24 ttl=51 time=171.726 ms
ping_17 | 64 bytes from 203.210.4.91: seq=21 ttl=51 time=169.758 ms
ping_11 | 64 bytes from 203.210.4.91: seq=20 ttl=51 time=170.449 ms
ping_20 | 64 bytes from 203.210.4.91: seq=22 ttl=51 time=170.048 ms
ping_13 | 64 bytes from 203.210.4.91: seq=24 ttl=51 time=175.900 ms
ping_15 | 64 bytes from 203.210.4.91: seq=19 ttl=51 time=177.601 ms
ping_14 | 64 bytes from 203.210.4.91: seq=17 ttl=51 time=176.134 ms
ping_16 | 64 bytes from 203.210.4.91: seq=18 ttl=51 time=177.250 ms
ping_19 | 64 bytes from 203.210.4.91: seq=23 ttl=51 time=178.653 ms
ping_6  | 64 bytes from 203.210.4.91: seq=30 ttl=51 time=178.846 ms
ping_9  | 64 bytes from 203.210.4.91: seq=29 ttl=51 time=180.453 ms
ping_5  | 64 bytes from 203.210.4.91: seq=31 ttl=51 time=183.801 ms
ping_3  | 64 bytes from 203.210.4.91: seq=26 ttl=51 time=184.071 ms
ping_1  | 64 bytes from 203.210.4.91: seq=28 ttl=51 time=184.255 ms
ping_8  | 64 bytes from 203.210.4.91: seq=27 ttl=51 time=185.117 ms
ping_10 | 64 bytes from 203.210.4.91: seq=31 ttl=51 time=185.127 ms
ping_7  | 64 bytes from 203.210.4.91: seq=30 ttl=51 time=184.441 ms
ping_12 | 64 bytes from 203.210.4.91: seq=24 ttl=51 time=184.559 ms
ping_2  | 64 bytes from 203.210.4.91: seq=29 ttl=51 time=183.433 ms
ping_4  | 64 bytes from 203.210.4.91: seq=28 ttl=51 time=183.092 ms
ping_18 | 64 bytes from 203.210.4.91: seq=25 ttl=51 time=182.121 ms
ping_17 | 64 bytes from 203.210.4.91: seq=22 ttl=51 time=180.935 ms
ping_11 | 64 bytes from 203.210.4.91: seq=21 ttl=51 time=179.369 ms
ping_20 | 64 bytes from 203.210.4.91: seq=23 ttl=51 time=179.215 ms
ping_13 | 64 bytes from 203.210.4.91: seq=25 ttl=51 time=176.518 ms
ping_15 | 64 bytes from 203.210.4.91: seq=20 ttl=51 time=175.997 ms
ping_14 | 64 bytes from 203.210.4.91: seq=18 ttl=51 time=176.038 ms
ping_16 | 64 bytes from 203.210.4.91: seq=19 ttl=51 time=175.684 ms
ping_19 | 64 bytes from 203.210.4.91: seq=24 ttl=51 time=174.241 ms
ping_6  | 64 bytes from 203.210.4.91: seq=31 ttl=51 time=173.457 ms
ping_9  | 64 bytes from 203.210.4.91: seq=30 ttl=51 time=174.939 ms
ping_5  | 64 bytes from 203.210.4.91: seq=32 ttl=51 time=172.322 ms
ping_3  | 64 bytes from 203.210.4.91: seq=27 ttl=51 time=172.979 ms
ping_1  | 64 bytes from 203.210.4.91: seq=29 ttl=51 time=172.733 ms
ping_8  | 64 bytes from 203.210.4.91: seq=28 ttl=51 time=170.672 ms
ping_10 | 64 bytes from 203.210.4.91: seq=32 ttl=51 time=170.718 ms
ping_7  | 64 bytes from 203.210.4.91: seq=31 ttl=51 time=170.629 ms
ping_12 | 64 bytes from 203.210.4.91: seq=25 ttl=51 time=171.839 ms
ping_2  | 64 bytes from 203.210.4.91: seq=30 ttl=51 time=171.090 ms
ping_4  | 64 bytes from 203.210.4.91: seq=29 ttl=51 time=177.694 ms
ping_18 | 64 bytes from 203.210.4.91: seq=26 ttl=51 time=178.374 ms
ping_17 | 64 bytes from 203.210.4.91: seq=23 ttl=51 time=180.146 ms
ping_11 | 64 bytes from 203.210.4.91: seq=22 ttl=51 time=180.219 ms
ping_20 | 64 bytes from 203.210.4.91: seq=24 ttl=51 time=179.122 ms
ping_13 | 64 bytes from 203.210.4.91: seq=26 ttl=51 time=180.689 ms
ping_15 | 64 bytes from 203.210.4.91: seq=21 ttl=51 time=181.049 ms
ping_14 | 64 bytes from 203.210.4.91: seq=19 ttl=51 time=180.627 ms
ping_16 | 64 bytes from 203.210.4.91: seq=20 ttl=51 time=183.215 ms
ping_19 | 64 bytes from 203.210.4.91: seq=25 ttl=51 time=182.262 ms
ping_6  | 64 bytes from 203.210.4.91: seq=32 ttl=51 time=182.153 ms
ping_9  | 64 bytes from 203.210.4.91: seq=31 ttl=51 time=182.261 ms
ping_5  | 64 bytes from 203.210.4.91: seq=33 ttl=51 time=185.230 ms
ping_3  | 64 bytes from 203.210.4.91: seq=28 ttl=51 time=185.012 ms
ping_1  | 64 bytes from 203.210.4.91: seq=30 ttl=51 time=182.908 ms
ping_8  | 64 bytes from 203.210.4.91: seq=29 ttl=51 time=181.005 ms
ping_10 | 64 bytes from 203.210.4.91: seq=33 ttl=51 time=181.007 ms
ping_7  | 64 bytes from 203.210.4.91: seq=32 ttl=51 time=179.332 ms
ping_12 | 64 bytes from 203.210.4.91: seq=26 ttl=51 time=182.320 ms
ping_2  | 64 bytes from 203.210.4.91: seq=31 ttl=51 time=182.087 ms
ping_4  | 64 bytes from 203.210.4.91: seq=30 ttl=51 time=181.821 ms
ping_18 | 64 bytes from 203.210.4.91: seq=27 ttl=51 time=181.134 ms
ping_17 | 64 bytes from 203.210.4.91: seq=24 ttl=51 time=179.425 ms
ping_11 | 64 bytes from 203.210.4.91: seq=23 ttl=51 time=178.530 ms
ping_20 | 64 bytes from 203.210.4.91: seq=25 ttl=51 time=178.421 ms
ping_13 | 64 bytes from 203.210.4.91: seq=27 ttl=51 time=179.655 ms
ping_15 | 64 bytes from 203.210.4.91: seq=22 ttl=51 time=180.057 ms
ping_14 | 64 bytes from 203.210.4.91: seq=20 ttl=51 time=179.607 ms
ping_16 | 64 bytes from 203.210.4.91: seq=21 ttl=51 time=175.609 ms
ping_19 | 64 bytes from 203.210.4.91: seq=26 ttl=51 time=174.725 ms
ping_6  | 64 bytes from 203.210.4.91: seq=33 ttl=51 time=175.678 ms
ping_9  | 64 bytes from 203.210.4.91: seq=32 ttl=51 time=176.162 ms
ping_5  | 64 bytes from 203.210.4.91: seq=34 ttl=51 time=171.899 ms
ping_3  | 64 bytes from 203.210.4.91: seq=29 ttl=51 time=171.773 ms
ping_1  | 64 bytes from 203.210.4.91: seq=31 ttl=51 time=171.553 ms
ping_10 | 64 bytes from 203.210.4.91: seq=34 ttl=51 time=170.238 ms
ping_8  | 64 bytes from 203.210.4.91: seq=30 ttl=51 time=170.199 ms
ping_7  | 64 bytes from 203.210.4.91: seq=33 ttl=51 time=170.098 ms
ping_12 | 64 bytes from 203.210.4.91: seq=27 ttl=51 time=174.680 ms
ping_2  | 64 bytes from 203.210.4.91: seq=32 ttl=51 time=174.832 ms
ping_4  | 64 bytes from 203.210.4.91: seq=31 ttl=51 time=176.861 ms
ping_18 | 64 bytes from 203.210.4.91: seq=28 ttl=51 time=177.500 ms
ping_17 | 64 bytes from 203.210.4.91: seq=25 ttl=51 time=179.873 ms
ping_11 | 64 bytes from 203.210.4.91: seq=24 ttl=51 time=180.172 ms
ping_20 | 64 bytes from 203.210.4.91: seq=26 ttl=51 time=181.941 ms
ping_13 | 64 bytes from 203.210.4.91: seq=28 ttl=51 time=180.317 ms
ping_15 | 64 bytes from 203.210.4.91: seq=23 ttl=51 time=180.051 ms
ping_14 | 64 bytes from 203.210.4.91: seq=21 ttl=51 time=180.571 ms
ping_16 | 64 bytes from 203.210.4.91: seq=22 ttl=51 time=180.522 ms
ping_19 | 64 bytes from 203.210.4.91: seq=27 ttl=51 time=179.291 ms
ping_6  | 64 bytes from 203.210.4.91: seq=34 ttl=51 time=178.945 ms
ping_9  | 64 bytes from 203.210.4.91: seq=33 ttl=51 time=179.021 ms
ping_5  | 64 bytes from 203.210.4.91: seq=35 ttl=51 time=177.701 ms
ping_3  | 64 bytes from 203.210.4.91: seq=30 ttl=51 time=177.910 ms
ping_1  | 64 bytes from 203.210.4.91: seq=32 ttl=51 time=177.940 ms
ping_10 | 64 bytes from 203.210.4.91: seq=35 ttl=51 time=180.828 ms
ping_8  | 64 bytes from 203.210.4.91: seq=31 ttl=51 time=180.819 ms
ping_7  | 64 bytes from 203.210.4.91: seq=34 ttl=51 time=182.360 ms
ping_12 | 64 bytes from 203.210.4.91: seq=28 ttl=51 time=181.541 ms
ping_2  | 64 bytes from 203.210.4.91: seq=33 ttl=51 time=181.029 ms
ping_4  | 64 bytes from 203.210.4.91: seq=32 ttl=51 time=180.265 ms
ping_18 | 64 bytes from 203.210.4.91: seq=29 ttl=51 time=180.513 ms
ping_17 | 64 bytes from 203.210.4.91: seq=26 ttl=51 time=183.695 ms
ping_11 | 64 bytes from 203.210.4.91: seq=25 ttl=51 time=184.417 ms
ping_20 | 64 bytes from 203.210.4.91: seq=27 ttl=51 time=185.189 ms
ping_13 | 64 bytes from 203.210.4.91: seq=29 ttl=51 time=184.897 ms
ping_15 | 64 bytes from 203.210.4.91: seq=24 ttl=51 time=185.015 ms
ping_14 | 64 bytes from 203.210.4.91: seq=22 ttl=51 time=184.973 ms
ping_16 | 64 bytes from 203.210.4.91: seq=23 ttl=51 time=185.158 ms
ping_19 | 64 bytes from 203.210.4.91: seq=28 ttl=51 time=185.183 ms
ping_6  | 64 bytes from 203.210.4.91: seq=35 ttl=51 time=184.215 ms
ping_9  | 64 bytes from 203.210.4.91: seq=34 ttl=51 time=183.273 ms
ping_5  | 64 bytes from 203.210.4.91: seq=36 ttl=51 time=177.360 ms
ping_3  | 64 bytes from 203.210.4.91: seq=31 ttl=51 time=177.435 ms
ping_1  | 64 bytes from 203.210.4.91: seq=33 ttl=51 time=177.024 ms
ping_10 | 64 bytes from 203.210.4.91: seq=36 ttl=51 time=173.683 ms
ping_8  | 64 bytes from 203.210.4.91: seq=32 ttl=51 time=173.711 ms
ping_7  | 64 bytes from 203.210.4.91: seq=35 ttl=51 time=174.043 ms
ping_12 | 64 bytes from 203.210.4.91: seq=29 ttl=51 time=171.094 ms
ping_2  | 64 bytes from 203.210.4.91: seq=34 ttl=51 time=170.282 ms
ping_4  | 64 bytes from 203.210.4.91: seq=33 ttl=51 time=171.415 ms
ping_18 | 64 bytes from 203.210.4.91: seq=30 ttl=51 time=171.648 ms
ping_17 | 64 bytes from 203.210.4.91: seq=27 ttl=51 time=170.680 ms
ping_11 | 64 bytes from 203.210.4.91: seq=26 ttl=51 time=171.464 ms
ping_20 | 64 bytes from 203.210.4.91: seq=28 ttl=51 time=172.608 ms
ping_13 | 64 bytes from 203.210.4.91: seq=30 ttl=51 time=172.241 ms
ping_15 | 64 bytes from 203.210.4.91: seq=25 ttl=51 time=170.685 ms
ping_14 | 64 bytes from 203.210.4.91: seq=23 ttl=51 time=170.376 ms
ping_16 | 64 bytes from 203.210.4.91: seq=24 ttl=51 time=170.492 ms
ping_19 | 64 bytes from 203.210.4.91: seq=29 ttl=51 time=172.430 ms
ping_6  | 64 bytes from 203.210.4.91: seq=36 ttl=51 time=172.955 ms
ping_9  | 64 bytes from 203.210.4.91: seq=35 ttl=51 time=174.012 ms
ping_5  | 64 bytes from 203.210.4.91: seq=37 ttl=51 time=175.611 ms
ping_3  | 64 bytes from 203.210.4.91: seq=32 ttl=51 time=175.813 ms
ping_1  | 64 bytes from 203.210.4.91: seq=34 ttl=51 time=176.399 ms
ping_10 | 64 bytes from 203.210.4.91: seq=37 ttl=51 time=178.534 ms
ping_8  | 64 bytes from 203.210.4.91: seq=33 ttl=51 time=178.563 ms
ping_7  | 64 bytes from 203.210.4.91: seq=36 ttl=51 time=182.148 ms
ping_12 | 64 bytes from 203.210.4.91: seq=30 ttl=51 time=180.864 ms
ping_2  | 64 bytes from 203.210.4.91: seq=35 ttl=51 time=181.497 ms
ping_4  | 64 bytes from 203.210.4.91: seq=34 ttl=51 time=184.884 ms
ping_18 | 64 bytes from 203.210.4.91: seq=31 ttl=51 time=184.829 ms
ping_17 | 64 bytes from 203.210.4.91: seq=28 ttl=51 time=184.720 ms
ping_11 | 64 bytes from 203.210.4.91: seq=27 ttl=51 time=184.602 ms
ping_20 | 64 bytes from 203.210.4.91: seq=29 ttl=51 time=183.419 ms
ping_13 | 64 bytes from 203.210.4.91: seq=31 ttl=51 time=183.655 ms
ping_15 | 64 bytes from 203.210.4.91: seq=26 ttl=51 time=182.405 ms
ping_14 | 64 bytes from 203.210.4.91: seq=24 ttl=51 time=181.887 ms
ping_16 | 64 bytes from 203.210.4.91: seq=25 ttl=51 time=183.166 ms
ping_19 | 64 bytes from 203.210.4.91: seq=30 ttl=51 time=182.915 ms
ping_6  | 64 bytes from 203.210.4.91: seq=37 ttl=51 time=182.566 ms
ping_9  | 64 bytes from 203.210.4.91: seq=36 ttl=51 time=183.570 ms
ping_5  | 64 bytes from 203.210.4.91: seq=38 ttl=51 time=182.418 ms
ping_3  | 64 bytes from 203.210.4.91: seq=33 ttl=51 time=182.331 ms
ping_1  | 64 bytes from 203.210.4.91: seq=35 ttl=51 time=184.417 ms
ping_10 | 64 bytes from 203.210.4.91: seq=38 ttl=51 time=185.207 ms
ping_8  | 64 bytes from 203.210.4.91: seq=34 ttl=51 time=185.235 ms
ping_7  | 64 bytes from 203.210.4.91: seq=37 ttl=51 time=185.130 ms
ping_12 | 64 bytes from 203.210.4.91: seq=31 ttl=51 time=184.869 ms
ping_2  | 64 bytes from 203.210.4.91: seq=36 ttl=51 time=185.424 ms
ping_4  | 64 bytes from 203.210.4.91: seq=35 ttl=51 time=191.028 ms
ping_18 | 64 bytes from 203.210.4.91: seq=32 ttl=51 time=190.456 ms
ping_17 | 64 bytes from 203.210.4.91: seq=29 ttl=51 time=181.066 ms
ping_11 | 64 bytes from 203.210.4.91: seq=28 ttl=51 time=179.980 ms
ping_20 | 64 bytes from 203.210.4.91: seq=30 ttl=51 time=179.733 ms
ping_13 | 64 bytes from 203.210.4.91: seq=32 ttl=51 time=172.938 ms
ping_15 | 64 bytes from 203.210.4.91: seq=27 ttl=51 time=176.461 ms
ping_14 | 64 bytes from 203.210.4.91: seq=25 ttl=51 time=175.601 ms
ping_16 | 64 bytes from 203.210.4.91: seq=26 ttl=51 time=175.211 ms
ping_19 | 64 bytes from 203.210.4.91: seq=31 ttl=51 time=176.282 ms
ping_6  | 64 bytes from 203.210.4.91: seq=38 ttl=51 time=176.699 ms
ping_9  | 64 bytes from 203.210.4.91: seq=37 ttl=51 time=177.935 ms
ping_5  | 64 bytes from 203.210.4.91: seq=39 ttl=51 time=182.582 ms
ping_3  | 64 bytes from 203.210.4.91: seq=34 ttl=51 time=183.570 ms
ping_1  | 64 bytes from 203.210.4.91: seq=36 ttl=51 time=187.715 ms
ping_10 | 64 bytes from 203.210.4.91: seq=39 ttl=51 time=185.606 ms
ping_8  | 64 bytes from 203.210.4.91: seq=35 ttl=51 time=185.646 ms
ping_7  | 64 bytes from 203.210.4.91: seq=38 ttl=51 time=185.193 ms
ping_12 | 64 bytes from 203.210.4.91: seq=32 ttl=51 time=184.195 ms
ping_2  | 64 bytes from 203.210.4.91: seq=37 ttl=51 time=184.611 ms
ping_4  | 64 bytes from 203.210.4.91: seq=36 ttl=51 time=184.620 ms
ping_18 | 64 bytes from 203.210.4.91: seq=33 ttl=51 time=185.489 ms
ping_17 | 64 bytes from 203.210.4.91: seq=30 ttl=51 time=183.629 ms
ping_11 | 64 bytes from 203.210.4.91: seq=29 ttl=51 time=183.683 ms
ping_20 | 64 bytes from 203.210.4.91: seq=31 ttl=51 time=182.460 ms
ping_13 | 64 bytes from 203.210.4.91: seq=33 ttl=51 time=181.949 ms
ping_15 | 64 bytes from 203.210.4.91: seq=28 ttl=51 time=182.286 ms
ping_14 | 64 bytes from 203.210.4.91: seq=26 ttl=51 time=182.175 ms
ping_16 | 64 bytes from 203.210.4.91: seq=27 ttl=51 time=179.995 ms
ping_19 | 64 bytes from 203.210.4.91: seq=32 ttl=51 time=181.058 ms
ping_6  | 64 bytes from 203.210.4.91: seq=39 ttl=51 time=181.086 ms
ping_9  | 64 bytes from 203.210.4.91: seq=38 ttl=51 time=180.459 ms
ping_5  | 64 bytes from 203.210.4.91: seq=40 ttl=51 time=177.699 ms
ping_3  | 64 bytes from 203.210.4.91: seq=35 ttl=51 time=178.691 ms
ping_1  | 64 bytes from 203.210.4.91: seq=37 ttl=51 time=178.074 ms
ping_10 | 64 bytes from 203.210.4.91: seq=40 ttl=51 time=178.357 ms
ping_8  | 64 bytes from 203.210.4.91: seq=36 ttl=51 time=178.386 ms
ping_7  | 64 bytes from 203.210.4.91: seq=39 ttl=51 time=176.083 ms
ping_12 | 64 bytes from 203.210.4.91: seq=33 ttl=51 time=178.248 ms
ping_2  | 64 bytes from 203.210.4.91: seq=38 ttl=51 time=177.918 ms
ping_4  | 64 bytes from 203.210.4.91: seq=37 ttl=51 time=176.976 ms
ping_18 | 64 bytes from 203.210.4.91: seq=34 ttl=51 time=176.711 ms
ping_17 | 64 bytes from 203.210.4.91: seq=31 ttl=51 time=178.729 ms
ping_11 | 64 bytes from 203.210.4.91: seq=30 ttl=51 time=178.149 ms
ping_20 | 64 bytes from 203.210.4.91: seq=32 ttl=51 time=178.348 ms
ping_13 | 64 bytes from 203.210.4.91: seq=34 ttl=51 time=181.330 ms
ping_15 | 64 bytes from 203.210.4.91: seq=29 ttl=51 time=181.364 ms
ping_14 | 64 bytes from 203.210.4.91: seq=27 ttl=51 time=182.465 ms
ping_16 | 64 bytes from 203.210.4.91: seq=28 ttl=51 time=180.922 ms
ping_19 | 64 bytes from 203.210.4.91: seq=33 ttl=51 time=181.769 ms
ping_6  | 64 bytes from 203.210.4.91: seq=40 ttl=51 time=182.657 ms
ping_9  | 64 bytes from 203.210.4.91: seq=39 ttl=51 time=183.091 ms
ping_5  | 64 bytes from 203.210.4.91: seq=41 ttl=51 time=184.469 ms
ping_3  | 64 bytes from 203.210.4.91: seq=36 ttl=51 time=184.968 ms
ping_1  | 64 bytes from 203.210.4.91: seq=38 ttl=51 time=185.812 ms
ping_8  | 64 bytes from 203.210.4.91: seq=37 ttl=51 time=184.227 ms
ping_10 | 64 bytes from 203.210.4.91: seq=41 ttl=51 time=184.196 ms
ping_7  | 64 bytes from 203.210.4.91: seq=40 ttl=51 time=183.419 ms
ping_12 | 64 bytes from 203.210.4.91: seq=34 ttl=51 time=181.744 ms
ping_2  | 64 bytes from 203.210.4.91: seq=39 ttl=51 time=181.682 ms
ping_4  | 64 bytes from 203.210.4.91: seq=38 ttl=51 time=183.130 ms
ping_18 | 64 bytes from 203.210.4.91: seq=35 ttl=51 time=183.294 ms
ping_17 | 64 bytes from 203.210.4.91: seq=32 ttl=51 time=179.941 ms
ping_11 | 64 bytes from 203.210.4.91: seq=31 ttl=51 time=178.719 ms
ping_20 | 64 bytes from 203.210.4.91: seq=33 ttl=51 time=177.157 ms
ping_13 | 64 bytes from 203.210.4.91: seq=35 ttl=51 time=176.887 ms
ping_15 | 64 bytes from 203.210.4.91: seq=30 ttl=51 time=177.003 ms
ping_14 | 64 bytes from 203.210.4.91: seq=28 ttl=51 time=176.604 ms
ping_16 | 64 bytes from 203.210.4.91: seq=29 ttl=51 time=178.381 ms
ping_19 | 64 bytes from 203.210.4.91: seq=34 ttl=51 time=176.114 ms
ping_6  | 64 bytes from 203.210.4.91: seq=41 ttl=51 time=176.046 ms
ping_9  | 64 bytes from 203.210.4.91: seq=40 ttl=51 time=177.109 ms
ping_5  | 64 bytes from 203.210.4.91: seq=42 ttl=51 time=182.982 ms
ping_3  | 64 bytes from 203.210.4.91: seq=37 ttl=51 time=182.609 ms
ping_1  | 64 bytes from 203.210.4.91: seq=39 ttl=51 time=183.210 ms
ping_10 | 64 bytes from 203.210.4.91: seq=42 ttl=51 time=183.958 ms
ping_8  | 64 bytes from 203.210.4.91: seq=38 ttl=51 time=183.984 ms
ping_7  | 64 bytes from 203.210.4.91: seq=41 ttl=51 time=184.945 ms
ping_12 | 64 bytes from 203.210.4.91: seq=35 ttl=51 time=184.753 ms
ping_2  | 64 bytes from 203.210.4.91: seq=40 ttl=51 time=184.172 ms
ping_4  | 64 bytes from 203.210.4.91: seq=39 ttl=51 time=183.445 ms
ping_18 | 64 bytes from 203.210.4.91: seq=36 ttl=51 time=182.422 ms
ping_17 | 64 bytes from 203.210.4.91: seq=33 ttl=51 time=181.638 ms
ping_11 | 64 bytes from 203.210.4.91: seq=32 ttl=51 time=181.852 ms
ping_20 | 64 bytes from 203.210.4.91: seq=34 ttl=51 time=180.881 ms
ping_13 | 64 bytes from 203.210.4.91: seq=36 ttl=51 time=179.137 ms
ping_15 | 64 bytes from 203.210.4.91: seq=31 ttl=51 time=179.720 ms
ping_14 | 64 bytes from 203.210.4.91: seq=29 ttl=51 time=180.746 ms
ping_16 | 64 bytes from 203.210.4.91: seq=30 ttl=51 time=181.987 ms
ping_19 | 64 bytes from 203.210.4.91: seq=35 ttl=51 time=180.890 ms
ping_6  | 64 bytes from 203.210.4.91: seq=42 ttl=51 time=180.313 ms
ping_9  | 64 bytes from 203.210.4.91: seq=41 ttl=51 time=181.678 ms
ping_5  | 64 bytes from 203.210.4.91: seq=43 ttl=51 time=181.876 ms
ping_3  | 64 bytes from 203.210.4.91: seq=38 ttl=51 time=181.963 ms
ping_1  | 64 bytes from 203.210.4.91: seq=40 ttl=51 time=182.048 ms
ping_10 | 64 bytes from 203.210.4.91: seq=43 ttl=51 time=180.143 ms
ping_8  | 64 bytes from 203.210.4.91: seq=39 ttl=51 time=180.110 ms
ping_7  | 64 bytes from 203.210.4.91: seq=42 ttl=51 time=176.688 ms
ping_12 | 64 bytes from 203.210.4.91: seq=36 ttl=51 time=173.974 ms
ping_2  | 64 bytes from 203.210.4.91: seq=41 ttl=51 time=172.913 ms
ping_4  | 64 bytes from 203.210.4.91: seq=40 ttl=51 time=169.106 ms
ping_18 | 64 bytes from 203.210.4.91: seq=37 ttl=51 time=169.178 ms
ping_17 | 64 bytes from 203.210.4.91: seq=34 ttl=51 time=170.176 ms
ping_11 | 64 bytes from 203.210.4.91: seq=33 ttl=51 time=168.410 ms
ping_20 | 64 bytes from 203.210.4.91: seq=35 ttl=51 time=168.226 ms
ping_13 | 64 bytes from 203.210.4.91: seq=37 ttl=51 time=169.469 ms
ping_15 | 64 bytes from 203.210.4.91: seq=32 ttl=51 time=168.598 ms
ping_14 | 64 bytes from 203.210.4.91: seq=30 ttl=51 time=170.249 ms
ping_16 | 64 bytes from 203.210.4.91: seq=31 ttl=51 time=173.394 ms
ping_19 | 64 bytes from 203.210.4.91: seq=36 ttl=51 time=172.810 ms
ping_6  | 64 bytes from 203.210.4.91: seq=43 ttl=51 time=173.643 ms
ping_9  | 64 bytes from 203.210.4.91: seq=42 ttl=51 time=173.733 ms
ping_5  | 64 bytes from 203.210.4.91: seq=44 ttl=51 time=169.264 ms
ping_3  | 64 bytes from 203.210.4.91: seq=39 ttl=51 time=169.443 ms
ping_1  | 64 bytes from 203.210.4.91: seq=41 ttl=51 time=168.819 ms
ping_10 | 64 bytes from 203.210.4.91: seq=44 ttl=51 time=168.262 ms
ping_8  | 64 bytes from 203.210.4.91: seq=40 ttl=51 time=168.318 ms
ping_7  | 64 bytes from 203.210.4.91: seq=43 ttl=51 time=169.095 ms
ping_12 | 64 bytes from 203.210.4.91: seq=37 ttl=51 time=168.499 ms
ping_2  | 64 bytes from 203.210.4.91: seq=42 ttl=51 time=168.203 ms
ping_4  | 64 bytes from 203.210.4.91: seq=41 ttl=51 time=167.104 ms
ping_18 | 64 bytes from 203.210.4.91: seq=38 ttl=51 time=167.559 ms
ping_17 | 64 bytes from 203.210.4.91: seq=35 ttl=51 time=170.013 ms
ping_11 | 64 bytes from 203.210.4.91: seq=34 ttl=51 time=171.177 ms
ping_20 | 64 bytes from 203.210.4.91: seq=36 ttl=51 time=171.113 ms
ping_13 | 64 bytes from 203.210.4.91: seq=38 ttl=51 time=171.256 ms
ping_15 | 64 bytes from 203.210.4.91: seq=33 ttl=51 time=171.830 ms
ping_14 | 64 bytes from 203.210.4.91: seq=31 ttl=51 time=171.438 ms
ping_16 | 64 bytes from 203.210.4.91: seq=32 ttl=51 time=172.242 ms
ping_19 | 64 bytes from 203.210.4.91: seq=37 ttl=51 time=173.008 ms
ping_6  | 64 bytes from 203.210.4.91: seq=44 ttl=51 time=174.265 ms
ping_9  | 64 bytes from 203.210.4.91: seq=43 ttl=51 time=173.584 ms
ping_5  | 64 bytes from 203.210.4.91: seq=45 ttl=51 time=181.464 ms
ping_3  | 64 bytes from 203.210.4.91: seq=40 ttl=51 time=182.048 ms
ping_1  | 64 bytes from 203.210.4.91: seq=42 ttl=51 time=181.515 ms
ping_10 | 64 bytes from 203.210.4.91: seq=45 ttl=51 time=186.838 ms
ping_8  | 64 bytes from 203.210.4.91: seq=41 ttl=51 time=186.862 ms
ping_7  | 64 bytes from 203.210.4.91: seq=44 ttl=51 time=184.561 ms
ping_12 | 64 bytes from 203.210.4.91: seq=38 ttl=51 time=184.056 ms
ping_2  | 64 bytes from 203.210.4.91: seq=43 ttl=51 time=184.148 ms
ping_4  | 64 bytes from 203.210.4.91: seq=42 ttl=51 time=178.513 ms
ping_18 | 64 bytes from 203.210.4.91: seq=39 ttl=51 time=177.965 ms
ping_17 | 64 bytes from 203.210.4.91: seq=36 ttl=51 time=173.571 ms
ping_11 | 64 bytes from 203.210.4.91: seq=35 ttl=51 time=172.269 ms
ping_20 | 64 bytes from 203.210.4.91: seq=37 ttl=51 time=171.207 ms
ping_13 | 64 bytes from 203.210.4.91: seq=39 ttl=51 time=168.792 ms
ping_15 | 64 bytes from 203.210.4.91: seq=34 ttl=51 time=167.226 ms
ping_14 | 64 bytes from 203.210.4.91: seq=32 ttl=51 time=168.179 ms
ping_16 | 64 bytes from 203.210.4.91: seq=33 ttl=51 time=168.397 ms
ping_19 | 64 bytes from 203.210.4.91: seq=38 ttl=51 time=168.329 ms
ping_6  | 64 bytes from 203.210.4.91: seq=45 ttl=51 time=167.133 ms
ping_9  | 64 bytes from 203.210.4.91: seq=44 ttl=51 time=167.309 ms
ping_5  | 64 bytes from 203.210.4.91: seq=46 ttl=51 time=169.078 ms
ping_3  | 64 bytes from 203.210.4.91: seq=41 ttl=51 time=167.806 ms
ping_1  | 64 bytes from 203.210.4.91: seq=43 ttl=51 time=167.394 ms
ping_8  | 64 bytes from 203.210.4.91: seq=42 ttl=51 time=168.002 ms
ping_10 | 64 bytes from 203.210.4.91: seq=46 ttl=51 time=168.022 ms
ping_7  | 64 bytes from 203.210.4.91: seq=45 ttl=51 time=168.157 ms
ping_12 | 64 bytes from 203.210.4.91: seq=39 ttl=51 time=169.386 ms
ping_2  | 64 bytes from 203.210.4.91: seq=44 ttl=51 time=169.392 ms
ping_4  | 64 bytes from 203.210.4.91: seq=43 ttl=51 time=167.523 ms
ping_18 | 64 bytes from 203.210.4.91: seq=40 ttl=51 time=167.386 ms
ping_17 | 64 bytes from 203.210.4.91: seq=37 ttl=51 time=167.769 ms
ping_11 | 64 bytes from 203.210.4.91: seq=36 ttl=51 time=167.616 ms
ping_20 | 64 bytes from 203.210.4.91: seq=38 ttl=51 time=167.735 ms
ping_13 | 64 bytes from 203.210.4.91: seq=40 ttl=51 time=170.693 ms
ping_15 | 64 bytes from 203.210.4.91: seq=35 ttl=51 time=172.516 ms
ping_14 | 64 bytes from 203.210.4.91: seq=33 ttl=51 time=172.992 ms
ping_16 | 64 bytes from 203.210.4.91: seq=34 ttl=51 time=170.880 ms
ping_19 | 64 bytes from 203.210.4.91: seq=39 ttl=51 time=171.372 ms
ping_6  | 64 bytes from 203.210.4.91: seq=46 ttl=51 time=169.781 ms
ping_9  | 64 bytes from 203.210.4.91: seq=45 ttl=51 time=168.895 ms
ping_5  | 64 bytes from 203.210.4.91: seq=47 ttl=51 time=172.227 ms
ping_3  | 64 bytes from 203.210.4.91: seq=42 ttl=51 time=172.890 ms
ping_1  | 64 bytes from 203.210.4.91: seq=44 ttl=51 time=172.935 ms
ping_10 | 64 bytes from 203.210.4.91: seq=47 ttl=51 time=175.842 ms
ping_8  | 64 bytes from 203.210.4.91: seq=43 ttl=51 time=175.880 ms
ping_7  | 64 bytes from 203.210.4.91: seq=46 ttl=51 time=174.836 ms
ping_12 | 64 bytes from 203.210.4.91: seq=40 ttl=51 time=177.379 ms
ping_2  | 64 bytes from 203.210.4.91: seq=45 ttl=51 time=177.139 ms
ping_4  | 64 bytes from 203.210.4.91: seq=44 ttl=51 time=178.126 ms
ping_18 | 64 bytes from 203.210.4.91: seq=41 ttl=51 time=178.717 ms
ping_17 | 64 bytes from 203.210.4.91: seq=38 ttl=51 time=176.067 ms
ping_11 | 64 bytes from 203.210.4.91: seq=37 ttl=51 time=175.612 ms
ping_20 | 64 bytes from 203.210.4.91: seq=39 ttl=51 time=176.630 ms
ping_13 | 64 bytes from 203.210.4.91: seq=41 ttl=51 time=184.326 ms
ping_15 | 64 bytes from 203.210.4.91: seq=36 ttl=51 time=185.550 ms
ping_14 | 64 bytes from 203.210.4.91: seq=34 ttl=51 time=185.694 ms
ping_16 | 64 bytes from 203.210.4.91: seq=35 ttl=51 time=183.319 ms
ping_19 | 64 bytes from 203.210.4.91: seq=40 ttl=51 time=183.141 ms
ping_6  | 64 bytes from 203.210.4.91: seq=47 ttl=51 time=182.678 ms
ping_9  | 64 bytes from 203.210.4.91: seq=46 ttl=51 time=183.950 ms
ping_5  | 64 bytes from 203.210.4.91: seq=48 ttl=51 time=183.268 ms
ping_3  | 64 bytes from 203.210.4.91: seq=43 ttl=51 time=182.898 ms
ping_1  | 64 bytes from 203.210.4.91: seq=45 ttl=51 time=181.527 ms
ping_8  | 64 bytes from 203.210.4.91: seq=44 ttl=51 time=180.677 ms
ping_10 | 64 bytes from 203.210.4.91: seq=48 ttl=51 time=180.684 ms
ping_7  | 64 bytes from 203.210.4.91: seq=47 ttl=51 time=181.054 ms
ping_12 | 64 bytes from 203.210.4.91: seq=41 ttl=51 time=179.360 ms
ping_2  | 64 bytes from 203.210.4.91: seq=46 ttl=51 time=180.108 ms
ping_4  | 64 bytes from 203.210.4.91: seq=45 ttl=51 time=174.472 ms
ping_18 | 64 bytes from 203.210.4.91: seq=42 ttl=51 time=174.620 ms
ping_17 | 64 bytes from 203.210.4.91: seq=39 ttl=51 time=177.757 ms
ping_11 | 64 bytes from 203.210.4.91: seq=38 ttl=51 time=177.393 ms
ping_20 | 64 bytes from 203.210.4.91: seq=40 ttl=51 time=177.236 ms
ping_13 | 64 bytes from 203.210.4.91: seq=42 ttl=51 time=178.725 ms
ping_15 | 64 bytes from 203.210.4.91: seq=37 ttl=51 time=176.085 ms
ping_14 | 64 bytes from 203.210.4.91: seq=35 ttl=51 time=177.206 ms
ping_16 | 64 bytes from 203.210.4.91: seq=36 ttl=51 time=175.309 ms
ping_19 | 64 bytes from 203.210.4.91: seq=41 ttl=51 time=173.847 ms
ping_6  | 64 bytes from 203.210.4.91: seq=48 ttl=51 time=174.977 ms
ping_9  | 64 bytes from 203.210.4.91: seq=47 ttl=51 time=177.300 ms
ping_5  | 64 bytes from 203.210.4.91: seq=49 ttl=51 time=176.631 ms
ping_5  | 
ping_5  | --- csl2.hkspeedtest.com ping statistics ---
ping_5  | 50 packets transmitted, 50 packets received, 0% packet loss
ping_5  | round-trip min/avg/max = 167.181/179.309/185.931 ms
ping_3  | 64 bytes from 203.210.4.91: seq=44 ttl=51 time=177.130 ms
ping_1  | 64 bytes from 203.210.4.91: seq=46 ttl=51 time=177.886 ms
ping_10 | 64 bytes from 203.210.4.91: seq=49 ttl=51 time=176.740 ms
ping_10 | 
ping_10 | --- csl2.hkspeedtest.com ping statistics ---
ping_10 | 50 packets transmitted, 50 packets received, 0% packet loss
ping_10 | round-trip min/avg/max = 167.413/179.697/186.839 ms
ping_8  | 64 bytes from 203.210.4.91: seq=45 ttl=51 time=176.733 ms
ping_7  | 64 bytes from 203.210.4.91: seq=48 ttl=51 time=178.514 ms
ping_12 | 64 bytes from 203.210.4.91: seq=42 ttl=51 time=175.042 ms
ping_2  | 64 bytes from 203.210.4.91: seq=47 ttl=51 time=175.373 ms
softwareoverhead_ping_5 exited with code 0
ping_4  | 64 bytes from 203.210.4.91: seq=46 ttl=51 time=173.594 ms
ping_18 | 64 bytes from 203.210.4.91: seq=43 ttl=51 time=174.316 ms
ping_17 | 64 bytes from 203.210.4.91: seq=40 ttl=51 time=175.993 ms
ping_11 | 64 bytes from 203.210.4.91: seq=39 ttl=51 time=175.731 ms
ping_20 | 64 bytes from 203.210.4.91: seq=41 ttl=51 time=174.682 ms
softwareoverhead_ping_10 exited with code 0
ping_13 | 64 bytes from 203.210.4.91: seq=43 ttl=51 time=178.800 ms
ping_15 | 64 bytes from 203.210.4.91: seq=38 ttl=51 time=179.268 ms
ping_14 | 64 bytes from 203.210.4.91: seq=36 ttl=51 time=178.390 ms
ping_16 | 64 bytes from 203.210.4.91: seq=37 ttl=51 time=181.470 ms
ping_19 | 64 bytes from 203.210.4.91: seq=42 ttl=51 time=181.642 ms
ping_6  | 64 bytes from 203.210.4.91: seq=49 ttl=51 time=181.055 ms
ping_6  | 
ping_6  | --- csl2.hkspeedtest.com ping statistics ---
ping_6  | 50 packets transmitted, 50 packets received, 0% packet loss
ping_6  | round-trip min/avg/max = 167.133/178.641/191.076 ms
ping_9  | 64 bytes from 203.210.4.91: seq=48 ttl=51 time=181.330 ms
ping_3  | 64 bytes from 203.210.4.91: seq=45 ttl=51 time=184.483 ms
ping_1  | 64 bytes from 203.210.4.91: seq=47 ttl=51 time=183.596 ms
softwareoverhead_ping_6 exited with code 0
ping_7  | 64 bytes from 203.210.4.91: seq=49 ttl=51 time=185.491 ms
ping_7  | 
ping_7  | --- csl2.hkspeedtest.com ping statistics ---
ping_7  | 50 packets transmitted, 50 packets received, 0% packet loss
ping_7  | round-trip min/avg/max = 167.233/179.726/186.186 ms
ping_12 | 64 bytes from 203.210.4.91: seq=43 ttl=51 time=182.865 ms
ping_2  | 64 bytes from 203.210.4.91: seq=48 ttl=51 time=181.871 ms
ping_4  | 64 bytes from 203.210.4.91: seq=47 ttl=51 time=181.980 ms
ping_18 | 64 bytes from 203.210.4.91: seq=44 ttl=51 time=181.769 ms
ping_17 | 64 bytes from 203.210.4.91: seq=41 ttl=51 time=179.245 ms
ping_11 | 64 bytes from 203.210.4.91: seq=40 ttl=51 time=178.694 ms
ping_20 | 64 bytes from 203.210.4.91: seq=42 ttl=51 time=178.057 ms
softwareoverhead_ping_7 exited with code 0
ping_13 | 64 bytes from 203.210.4.91: seq=44 ttl=51 time=170.583 ms
ping_15 | 64 bytes from 203.210.4.91: seq=39 ttl=51 time=169.534 ms
ping_14 | 64 bytes from 203.210.4.91: seq=37 ttl=51 time=170.113 ms
ping_16 | 64 bytes from 203.210.4.91: seq=38 ttl=51 time=170.262 ms
ping_19 | 64 bytes from 203.210.4.91: seq=43 ttl=51 time=169.978 ms
ping_9  | 64 bytes from 203.210.4.91: seq=49 ttl=51 time=172.144 ms
ping_9  | 
ping_9  | --- csl2.hkspeedtest.com ping statistics ---
ping_9  | 50 packets transmitted, 50 packets received, 0% packet loss
ping_9  | round-trip min/avg/max = 167.180/178.462/186.774 ms
ping_3  | 64 bytes from 203.210.4.91: seq=46 ttl=51 time=172.429 ms
ping_1  | 64 bytes from 203.210.4.91: seq=48 ttl=51 time=169.308 ms
ping_8  | 64 bytes from 203.210.4.91: seq=47 ttl=51 time=176.150 ms
softwareoverhead_ping_9 exited with code 0
ping_12 | 64 bytes from 203.210.4.91: seq=44 ttl=51 time=180.429 ms
ping_2  | 64 bytes from 203.210.4.91: seq=49 ttl=51 time=181.542 ms
ping_2  | 
ping_2  | --- csl2.hkspeedtest.com ping statistics ---
ping_2  | 50 packets transmitted, 50 packets received, 0% packet loss
ping_2  | round-trip min/avg/max = 167.080/179.331/185.424 ms
ping_4  | 64 bytes from 203.210.4.91: seq=48 ttl=51 time=182.342 ms
ping_18 | 64 bytes from 203.210.4.91: seq=45 ttl=51 time=182.117 ms
ping_17 | 64 bytes from 203.210.4.91: seq=42 ttl=51 time=183.802 ms
ping_11 | 64 bytes from 203.210.4.91: seq=41 ttl=51 time=183.846 ms
ping_20 | 64 bytes from 203.210.4.91: seq=43 ttl=51 time=184.600 ms
ping_13 | 64 bytes from 203.210.4.91: seq=45 ttl=51 time=183.433 ms
ping_15 | 64 bytes from 203.210.4.91: seq=40 ttl=51 time=183.355 ms
softwareoverhead_ping_2 exited with code 0
ping_14 | 64 bytes from 203.210.4.91: seq=38 ttl=51 time=185.737 ms
ping_16 | 64 bytes from 203.210.4.91: seq=39 ttl=51 time=183.959 ms
ping_19 | 64 bytes from 203.210.4.91: seq=44 ttl=51 time=183.230 ms
ping_3  | 64 bytes from 203.210.4.91: seq=47 ttl=51 time=179.522 ms
ping_1  | 64 bytes from 203.210.4.91: seq=49 ttl=51 time=179.252 ms
ping_1  | 
ping_1  | --- csl2.hkspeedtest.com ping statistics ---
ping_1  | 50 packets transmitted, 50 packets received, 0% packet loss
ping_1  | round-trip min/avg/max = 167.374/179.114/187.715 ms
ping_8  | 64 bytes from 203.210.4.91: seq=48 ttl=51 time=182.703 ms
ping_12 | 64 bytes from 203.210.4.91: seq=45 ttl=51 time=182.915 ms
softwareoverhead_ping_1 exited with code 0
ping_4  | 64 bytes from 203.210.4.91: seq=49 ttl=51 time=181.887 ms
ping_4  | 
ping_4  | --- csl2.hkspeedtest.com ping statistics ---
ping_4  | 50 packets transmitted, 50 packets received, 0% packet loss
ping_4  | round-trip min/avg/max = 167.104/179.406/191.028 ms
ping_18 | 64 bytes from 203.210.4.91: seq=46 ttl=51 time=181.839 ms
ping_17 | 64 bytes from 203.210.4.91: seq=43 ttl=51 time=182.867 ms
ping_11 | 64 bytes from 203.210.4.91: seq=42 ttl=51 time=183.048 ms
ping_20 | 64 bytes from 203.210.4.91: seq=44 ttl=51 time=184.274 ms
ping_13 | 64 bytes from 203.210.4.91: seq=46 ttl=51 time=183.489 ms
ping_15 | 64 bytes from 203.210.4.91: seq=41 ttl=51 time=184.225 ms
ping_14 | 64 bytes from 203.210.4.91: seq=39 ttl=51 time=184.690 ms
ping_16 | 64 bytes from 203.210.4.91: seq=40 ttl=51 time=184.756 ms
ping_19 | 64 bytes from 203.210.4.91: seq=45 ttl=51 time=184.797 ms
softwareoverhead_ping_4 exited with code 0
ping_3  | 64 bytes from 203.210.4.91: seq=48 ttl=51 time=178.194 ms
ping_8  | 64 bytes from 203.210.4.91: seq=49 ttl=51 time=175.972 ms
ping_12 | 64 bytes from 203.210.4.91: seq=46 ttl=51 time=175.349 ms
ping_18 | 64 bytes from 203.210.4.91: seq=47 ttl=51 time=176.611 ms
ping_17 | 64 bytes from 203.210.4.91: seq=44 ttl=51 time=179.468 ms
ping_11 | 64 bytes from 203.210.4.91: seq=43 ttl=51 time=180.617 ms
ping_20 | 64 bytes from 203.210.4.91: seq=45 ttl=51 time=181.491 ms
ping_13 | 64 bytes from 203.210.4.91: seq=47 ttl=51 time=183.730 ms
ping_15 | 64 bytes from 203.210.4.91: seq=42 ttl=51 time=183.271 ms
ping_14 | 64 bytes from 203.210.4.91: seq=40 ttl=51 time=184.672 ms
ping_16 | 64 bytes from 203.210.4.91: seq=41 ttl=51 time=184.805 ms
ping_3  | 64 bytes from 203.210.4.91: seq=49 ttl=51 time=183.735 ms
ping_3  | 
ping_3  | --- csl2.hkspeedtest.com ping statistics ---
ping_3  | 50 packets transmitted, 50 packets received, 0% packet loss
ping_3  | round-trip min/avg/max = 167.183/178.910/186.562 ms
ping_8  | 
ping_8  | --- csl2.hkspeedtest.com ping statistics ---
ping_8  | 50 packets transmitted, 49 packets received, 2% packet loss
ping_8  | round-trip min/avg/max = 167.423/179.161/186.862 ms
ping_12 | 64 bytes from 203.210.4.91: seq=47 ttl=51 time=180.699 ms
ping_18 | 64 bytes from 203.210.4.91: seq=48 ttl=51 time=181.666 ms
softwareoverhead_ping_8 exited with code 0
ping_17 | 64 bytes from 203.210.4.91: seq=45 ttl=51 time=184.881 ms
softwareoverhead_ping_3 exited with code 0
ping_11 | 64 bytes from 203.210.4.91: seq=44 ttl=51 time=184.898 ms
ping_20 | 64 bytes from 203.210.4.91: seq=46 ttl=51 time=184.229 ms
ping_13 | 64 bytes from 203.210.4.91: seq=48 ttl=51 time=185.052 ms
ping_15 | 64 bytes from 203.210.4.91: seq=43 ttl=51 time=184.933 ms
ping_14 | 64 bytes from 203.210.4.91: seq=41 ttl=51 time=185.938 ms
ping_16 | 64 bytes from 203.210.4.91: seq=42 ttl=51 time=185.579 ms
ping_19 | 64 bytes from 203.210.4.91: seq=47 ttl=51 time=184.360 ms
ping_12 | 64 bytes from 203.210.4.91: seq=48 ttl=51 time=185.742 ms
ping_18 | 64 bytes from 203.210.4.91: seq=49 ttl=51 time=185.592 ms
ping_18 | 
ping_18 | --- csl2.hkspeedtest.com ping statistics ---
ping_18 | 50 packets transmitted, 50 packets received, 0% packet loss
ping_18 | round-trip min/avg/max = 167.117/179.228/190.456 ms
ping_17 | 64 bytes from 203.210.4.91: seq=46 ttl=51 time=184.841 ms
ping_11 | 64 bytes from 203.210.4.91: seq=45 ttl=51 time=183.830 ms
ping_20 | 64 bytes from 203.210.4.91: seq=47 ttl=51 time=181.230 ms
ping_13 | 64 bytes from 203.210.4.91: seq=49 ttl=51 time=181.409 ms
ping_13 | 
ping_13 | --- csl2.hkspeedtest.com ping statistics ---
ping_13 | 50 packets transmitted, 50 packets received, 0% packet loss
ping_13 | round-trip min/avg/max = 168.267/178.514/185.677 ms
ping_15 | 64 bytes from 203.210.4.91: seq=44 ttl=51 time=181.235 ms
ping_14 | 64 bytes from 203.210.4.91: seq=42 ttl=51 time=180.267 ms
ping_16 | 64 bytes from 203.210.4.91: seq=43 ttl=51 time=177.225 ms
ping_19 | 64 bytes from 203.210.4.91: seq=48 ttl=51 time=175.048 ms
softwareoverhead_ping_18 exited with code 0
softwareoverhead_ping_13 exited with code 0
ping_12 | 64 bytes from 203.210.4.91: seq=49 ttl=51 time=179.602 ms
ping_12 | 
ping_12 | --- csl2.hkspeedtest.com ping statistics ---
ping_12 | 50 packets transmitted, 50 packets received, 0% packet loss
ping_12 | round-trip min/avg/max = 167.432/178.986/185.742 ms
ping_17 | 64 bytes from 203.210.4.91: seq=47 ttl=51 time=182.134 ms
ping_11 | 64 bytes from 203.210.4.91: seq=46 ttl=51 time=183.333 ms
ping_20 | 64 bytes from 203.210.4.91: seq=48 ttl=51 time=183.478 ms
softwareoverhead_ping_12 exited with code 0
ping_14 | 64 bytes from 203.210.4.91: seq=43 ttl=51 time=184.412 ms
ping_16 | 64 bytes from 203.210.4.91: seq=44 ttl=51 time=185.170 ms
ping_19 | 64 bytes from 203.210.4.91: seq=49 ttl=51 time=185.507 ms
ping_17 | 64 bytes from 203.210.4.91: seq=48 ttl=51 time=177.530 ms
ping_11 | 64 bytes from 203.210.4.91: seq=47 ttl=51 time=177.023 ms
ping_20 | 64 bytes from 203.210.4.91: seq=49 ttl=51 time=177.146 ms
ping_20 | 
ping_20 | --- csl2.hkspeedtest.com ping statistics ---
ping_20 | 50 packets transmitted, 50 packets received, 0% packet loss
ping_20 | round-trip min/avg/max = 167.460/178.552/185.189 ms
ping_19 | 
ping_19 | --- csl2.hkspeedtest.com ping statistics ---
ping_19 | 50 packets transmitted, 49 packets received, 2% packet loss
ping_19 | round-trip min/avg/max = 167.651/178.021/185.507 ms
ping_15 | 64 bytes from 203.210.4.91: seq=46 ttl=51 time=178.503 ms
ping_14 | 64 bytes from 203.210.4.91: seq=44 ttl=51 time=176.605 ms
ping_16 | 64 bytes from 203.210.4.91: seq=45 ttl=51 time=176.341 ms
softwareoverhead_ping_20 exited with code 0
softwareoverhead_ping_19 exited with code 0
ping_17 | 64 bytes from 203.210.4.91: seq=49 ttl=51 time=183.598 ms
ping_17 | 
ping_17 | --- csl2.hkspeedtest.com ping statistics ---
ping_17 | 50 packets transmitted, 50 packets received, 0% packet loss
ping_17 | round-trip min/avg/max = 167.126/178.990/185.263 ms
ping_11 | 64 bytes from 203.210.4.91: seq=48 ttl=51 time=183.368 ms
ping_15 | 64 bytes from 203.210.4.91: seq=47 ttl=51 time=182.101 ms
ping_14 | 64 bytes from 203.210.4.91: seq=45 ttl=51 time=182.738 ms
ping_16 | 64 bytes from 203.210.4.91: seq=46 ttl=51 time=181.026 ms
softwareoverhead_ping_17 exited with code 0
ping_11 | 64 bytes from 203.210.4.91: seq=49 ttl=51 time=177.456 ms
ping_11 | 
ping_11 | --- csl2.hkspeedtest.com ping statistics ---
ping_11 | 50 packets transmitted, 50 packets received, 0% packet loss
ping_11 | round-trip min/avg/max = 167.081/178.869/185.727 ms
ping_15 | 64 bytes from 203.210.4.91: seq=48 ttl=51 time=172.899 ms
ping_14 | 64 bytes from 203.210.4.91: seq=46 ttl=51 time=172.227 ms
ping_16 | 64 bytes from 203.210.4.91: seq=47 ttl=51 time=172.734 ms
softwareoverhead_ping_11 exited with code 0
ping_15 | 64 bytes from 203.210.4.91: seq=49 ttl=51 time=180.148 ms
ping_14 | 64 bytes from 203.210.4.91: seq=47 ttl=51 time=180.552 ms
ping_16 | 64 bytes from 203.210.4.91: seq=48 ttl=51 time=180.313 ms
ping_15 | 
ping_15 | --- csl2.hkspeedtest.com ping statistics ---
ping_15 | 50 packets transmitted, 49 packets received, 2% packet loss
ping_15 | round-trip min/avg/max = 167.226/178.358/191.766 ms
ping_14 | 64 bytes from 203.210.4.91: seq=48 ttl=51 time=185.748 ms
ping_16 | 64 bytes from 203.210.4.91: seq=49 ttl=51 time=183.206 ms
ping_16 | 
ping_16 | --- csl2.hkspeedtest.com ping statistics ---
ping_16 | 50 packets transmitted, 50 packets received, 0% packet loss
ping_16 | round-trip min/avg/max = 167.474/178.086/185.579 ms
softwareoverhead_ping_15 exited with code 0
softwareoverhead_ping_16 exited with code 0
ping_14 | 64 bytes from 203.210.4.91: seq=49 ttl=51 time=183.778 ms
ping_14 | 
ping_14 | --- csl2.hkspeedtest.com ping statistics ---
ping_14 | 50 packets transmitted, 50 packets received, 0% packet loss
ping_14 | round-trip min/avg/max = 167.259/178.532/185.938 ms
softwareoverhead_ping_14 exited with code 0
