top - 18:12:49 up 29 min,  1 user,  load average: 0.16, 0.71, 1.33
Tasks: 288 total,   1 running, 227 sleeping,   0 stopped,   0 zombie
%Cpu(s):  3.8 us,  2.1 sy,  0.0 ni, 93.9 id,  0.1 wa,  0.0 hi,  0.0 si,  0.0 st
KiB Mem : 16278772 total, 13317436 free,  1333012 used,  1628324 buff/cache
KiB Swap: 16630780 total, 16630780 free,        0 used. 14503948 avail Mem 

  PID USER      PR  NI    VIRT    RES    SHR S  %CPU %MEM     TIME+ COMMAND
30598 kenenth   20   0   41936   3736   3132 R  18.8  0.0   0:00.03 top
 2192 root      20   0  433352  93656  61704 S   6.2  0.6   0:11.26 Xorg
 2398 kenenth   20   0 3531420 237016  90416 S   6.2  1.5   0:31.97 gnome-shell

top - 18:12:50 up 29 min,  1 user,  load average: 0.15, 0.69, 1.32
Tasks: 288 total,   1 running, 227 sleeping,   0 stopped,   0 zombie
%Cpu(s):  0.5 us,  0.4 sy,  0.0 ni, 99.1 id,  0.0 wa,  0.0 hi,  0.0 si,  0.0 st
KiB Mem : 16278772 total, 13317436 free,  1333012 used,  1628324 buff/cache
KiB Swap: 16630780 total, 16630780 free,        0 used. 14503948 avail Mem 

  PID USER      PR  NI    VIRT    RES    SHR S  %CPU %MEM     TIME+ COMMAND
 2192 root      20   0  433352  93656  61704 S   1.0  0.6   0:11.27 Xorg
 2398 kenenth   20   0 3531420 237016  90416 S   1.0  1.5   0:31.98 gnome-shell
30598 kenenth   20   0   41904   3860   3132 R   1.0  0.0   0:00.04 top

top - 18:12:51 up 29 min,  1 user,  load average: 0.15, 0.69, 1.32
Tasks: 288 total,   1 running, 227 sleeping,   0 stopped,   0 zombie
%Cpu(s):  0.1 us,  0.1 sy,  0.0 ni, 99.8 id,  0.0 wa,  0.0 hi,  0.0 si,  0.0 st
KiB Mem : 16278772 total, 13317436 free,  1333012 used,  1628324 buff/cache
KiB Swap: 16630780 total, 16630780 free,        0 used. 14503948 avail Mem 

  PID USER      PR  NI    VIRT    RES    SHR S  %CPU %MEM     TIME+ COMMAND
 1124 root      20   0 4980128  39668  24916 S   1.0  0.2   0:10.14 containerd
 2192 root      20   0  433352  93656  61704 S   1.0  0.6   0:11.28 Xorg
30598 kenenth   20   0   41904   3860   3132 R   1.0  0.0   0:00.05 top

top - 18:12:52 up 29 min,  1 user,  load average: 0.15, 0.69, 1.32
Tasks: 288 total,   1 running, 227 sleeping,   0 stopped,   0 zombie
%Cpu(s):  0.4 us,  0.1 sy,  0.0 ni, 99.5 id,  0.0 wa,  0.0 hi,  0.0 si,  0.0 st
KiB Mem : 16278772 total, 13317460 free,  1332980 used,  1628332 buff/cache
KiB Swap: 16630780 total, 16630780 free,        0 used. 14503972 avail Mem 

  PID USER      PR  NI    VIRT    RES    SHR S  %CPU %MEM     TIME+ COMMAND
30598 kenenth   20   0   41904   3860   3132 R   1.0  0.0   0:00.06 top

top - 18:12:53 up 29 min,  1 user,  load average: 0.15, 0.69, 1.32
Tasks: 288 total,   1 running, 227 sleeping,   0 stopped,   0 zombie
%Cpu(s):  0.4 us,  0.1 sy,  0.0 ni, 99.5 id,  0.0 wa,  0.0 hi,  0.0 si,  0.0 st
KiB Mem : 16278772 total, 13317460 free,  1332980 used,  1628332 buff/cache
KiB Swap: 16630780 total, 16630780 free,        0 used. 14503972 avail Mem 

  PID USER      PR  NI    VIRT    RES    SHR S  %CPU %MEM     TIME+ COMMAND
30598 kenenth   20   0   41904   3860   3132 R   2.0  0.0   0:00.08 top
 2192 root      20   0  433352  93656  61704 S   1.0  0.6   0:11.29 Xorg
 2193 root     -51   0       0      0      0 S   1.0  0.0   0:01.53 irq/135-nvidia
 2398 kenenth   20   0 3531420 237016  90416 S   1.0  1.5   0:31.99 gnome-shell

top - 18:12:54 up 29 min,  1 user,  load average: 0.15, 0.69, 1.32
Tasks: 288 total,   1 running, 227 sleeping,   0 stopped,   0 zombie
%Cpu(s):  0.1 us,  0.4 sy,  0.0 ni, 99.5 id,  0.0 wa,  0.0 hi,  0.0 si,  0.0 st
KiB Mem : 16278772 total, 13317460 free,  1332980 used,  1628332 buff/cache
KiB Swap: 16630780 total, 16630780 free,        0 used. 14503972 avail Mem 

  PID USER      PR  NI    VIRT    RES    SHR S  %CPU %MEM     TIME+ COMMAND
 2192 root      20   0  433352  93656  61704 S   1.0  0.6   0:11.30 Xorg
30598 kenenth   20   0   41904   3860   3132 R   1.0  0.0   0:00.09 top

top - 18:12:55 up 29 min,  1 user,  load average: 0.14, 0.68, 1.31
Tasks: 288 total,   1 running, 227 sleeping,   0 stopped,   0 zombie
%Cpu(s):  0.1 us,  0.4 sy,  0.0 ni, 99.5 id,  0.0 wa,  0.0 hi,  0.0 si,  0.0 st
KiB Mem : 16278772 total, 13317452 free,  1332980 used,  1628340 buff/cache
KiB Swap: 16630780 total, 16630780 free,        0 used. 14503964 avail Mem 

  PID USER      PR  NI    VIRT    RES    SHR S  %CPU %MEM     TIME+ COMMAND
  962 root      20   0  179856   9624   8808 S   1.0  0.1   0:01.57 thermald
  967 root      20   0  493476  23572  13940 S   1.0  0.1   0:17.68 NetworkManager
 2398 kenenth   20   0 3531420 237016  90416 S   1.0  1.5   0:32.00 gnome-shell
30598 kenenth   20   0   41904   3860   3132 R   1.0  0.0   0:00.10 top

top - 18:12:56 up 29 min,  1 user,  load average: 0.14, 0.68, 1.31
Tasks: 288 total,   1 running, 227 sleeping,   0 stopped,   0 zombie
%Cpu(s):  0.1 us,  0.1 sy,  0.0 ni, 99.8 id,  0.0 wa,  0.0 hi,  0.0 si,  0.0 st
KiB Mem : 16278772 total, 13317452 free,  1332980 used,  1628340 buff/cache
KiB Swap: 16630780 total, 16630780 free,        0 used. 14503964 avail Mem 

  PID USER      PR  NI    VIRT    RES    SHR S  %CPU %MEM     TIME+ COMMAND
30598 kenenth   20   0   41904   3860   3132 R   2.0  0.0   0:00.12 top
 1124 root      20   0 4980128  39668  24916 S   1.0  0.2   0:10.15 containerd
 2192 root      20   0  433352  93656  61704 S   1.0  0.6   0:11.31 Xorg
 2398 kenenth   20   0 3531420 237016  90416 S   1.0  1.5   0:32.01 gnome-shell
 3367 kenenth   20   0  792980  37580  27984 S   1.0  0.2   0:01.67 gnome-terminal-

top - 18:12:57 up 29 min,  1 user,  load average: 0.14, 0.68, 1.31
Tasks: 288 total,   1 running, 227 sleeping,   0 stopped,   0 zombie
%Cpu(s):  0.6 us,  0.2 sy,  0.0 ni, 99.1 id,  0.0 wa,  0.0 hi,  0.0 si,  0.0 st
KiB Mem : 16278772 total, 13317452 free,  1332980 used,  1628340 buff/cache
KiB Swap: 16630780 total, 16630780 free,        0 used. 14503964 avail Mem 

  PID USER      PR  NI    VIRT    RES    SHR S  %CPU %MEM     TIME+ COMMAND
 1771 root      20   0 6041544 101436  38060 S   4.9  0.6   0:39.68 dockerd
  639 root      20   0       0      0      0 I   1.0  0.0   0:00.23 kworker/2:3
30598 kenenth   20   0   41904   3860   3132 R   1.0  0.0   0:00.13 top

top - 18:12:58 up 29 min,  1 user,  load average: 0.14, 0.68, 1.31
Tasks: 288 total,   1 running, 227 sleeping,   0 stopped,   0 zombie
%Cpu(s):  0.2 us,  0.5 sy,  0.0 ni, 99.3 id,  0.0 wa,  0.0 hi,  0.0 si,  0.0 st
KiB Mem : 16278772 total, 13317420 free,  1333004 used,  1628348 buff/cache
KiB Swap: 16630780 total, 16630780 free,        0 used. 14503932 avail Mem 

  PID USER      PR  NI    VIRT    RES    SHR S  %CPU %MEM     TIME+ COMMAND
   81 root      20   0       0      0      0 I   1.0  0.0   0:01.19 kworker/u16:1
 2192 root      20   0  433352  93656  61704 S   1.0  0.6   0:11.32 Xorg
 2193 root     -51   0       0      0      0 S   1.0  0.0   0:01.54 irq/135-nvidia
 2398 kenenth   20   0 3531420 237016  90416 S   1.0  1.5   0:32.02 gnome-shell
30598 kenenth   20   0   41904   3860   3132 R   1.0  0.0   0:00.14 top

top - 18:12:59 up 29 min,  1 user,  load average: 0.14, 0.68, 1.31
Tasks: 288 total,   1 running, 227 sleeping,   0 stopped,   0 zombie
%Cpu(s):  0.1 us,  0.1 sy,  0.0 ni, 99.8 id,  0.0 wa,  0.0 hi,  0.0 si,  0.0 st
KiB Mem : 16278772 total, 13317420 free,  1333004 used,  1628348 buff/cache
KiB Swap: 16630780 total, 16630780 free,        0 used. 14503932 avail Mem 

  PID USER      PR  NI    VIRT    RES    SHR S  %CPU %MEM     TIME+ COMMAND
30598 kenenth   20   0   41904   3860   3132 R   2.0  0.0   0:00.16 top
 2192 root      20   0  433352  93656  61704 S   1.0  0.6   0:11.33 Xorg

top - 18:13:00 up 29 min,  1 user,  load average: 0.13, 0.67, 1.31
Tasks: 288 total,   1 running, 227 sleeping,   0 stopped,   0 zombie
%Cpu(s):  0.4 us,  0.2 sy,  0.0 ni, 99.4 id,  0.0 wa,  0.0 hi,  0.0 si,  0.0 st
KiB Mem : 16278772 total, 13317420 free,  1333004 used,  1628348 buff/cache
KiB Swap: 16630780 total, 16630780 free,        0 used. 14503932 avail Mem 

  PID USER      PR  NI    VIRT    RES    SHR S  %CPU %MEM     TIME+ COMMAND
 2398 kenenth   20   0 3531420 237016  90416 S   2.0  1.5   0:32.04 gnome-shell
    8 root      20   0       0      0      0 I   1.0  0.0   0:01.20 rcu_sched

top - 18:13:01 up 29 min,  1 user,  load average: 0.13, 0.67, 1.31
Tasks: 288 total,   1 running, 227 sleeping,   0 stopped,   0 zombie
%Cpu(s):  0.1 us,  0.0 sy,  0.0 ni, 99.9 id,  0.0 wa,  0.0 hi,  0.0 si,  0.0 st
KiB Mem : 16278772 total, 13317420 free,  1332996 used,  1628356 buff/cache
KiB Swap: 16630780 total, 16630780 free,        0 used. 14503932 avail Mem 

  PID USER      PR  NI    VIRT    RES    SHR S  %CPU %MEM     TIME+ COMMAND
30598 kenenth   20   0   41904   3860   3132 R   2.0  0.0   0:00.18 top
 2192 root      20   0  433352  93656  61704 S   1.0  0.6   0:11.34 Xorg

top - 18:13:02 up 29 min,  1 user,  load average: 0.13, 0.67, 1.31
Tasks: 288 total,   1 running, 227 sleeping,   0 stopped,   0 zombie
%Cpu(s):  0.2 us,  0.1 sy,  0.0 ni, 99.6 id,  0.0 wa,  0.0 hi,  0.0 si,  0.0 st
KiB Mem : 16278772 total, 13317420 free,  1332996 used,  1628356 buff/cache
KiB Swap: 16630780 total, 16630780 free,        0 used. 14503932 avail Mem 

  PID USER      PR  NI    VIRT    RES    SHR S  %CPU %MEM     TIME+ COMMAND
 2192 root      20   0  433352  93656  61704 S   1.0  0.6   0:11.35 Xorg
30598 kenenth   20   0   41904   3860   3132 R   1.0  0.0   0:00.19 top

top - 18:13:03 up 29 min,  1 user,  load average: 0.13, 0.67, 1.31
Tasks: 288 total,   1 running, 227 sleeping,   0 stopped,   0 zombie
%Cpu(s):  0.0 us,  0.2 sy,  0.0 ni, 99.8 id,  0.0 wa,  0.0 hi,  0.0 si,  0.0 st
KiB Mem : 16278772 total, 13317420 free,  1332996 used,  1628356 buff/cache
KiB Swap: 16630780 total, 16630780 free,        0 used. 14503932 avail Mem 

  PID USER      PR  NI    VIRT    RES    SHR S  %CPU %MEM     TIME+ COMMAND
30598 kenenth   20   0   41904   3860   3132 R   1.0  0.0   0:00.20 top

top - 18:13:04 up 29 min,  1 user,  load average: 0.13, 0.67, 1.31
Tasks: 288 total,   1 running, 227 sleeping,   0 stopped,   0 zombie
%Cpu(s):  0.1 us,  0.0 sy,  0.0 ni, 99.8 id,  0.1 wa,  0.0 hi,  0.0 si,  0.0 st
KiB Mem : 16278772 total, 13317388 free,  1333016 used,  1628368 buff/cache
KiB Swap: 16630780 total, 16630780 free,        0 used. 14503932 avail Mem 

  PID USER      PR  NI    VIRT    RES    SHR S  %CPU %MEM     TIME+ COMMAND
 1124 root      20   0 4980128  39668  24916 S   1.0  0.2   0:10.16 containerd
 2192 root      20   0  433352  93656  61704 S   1.0  0.6   0:11.36 Xorg
30598 kenenth   20   0   41904   3860   3132 R   1.0  0.0   0:00.21 top

top - 18:13:05 up 29 min,  1 user,  load average: 0.12, 0.66, 1.30
Tasks: 288 total,   2 running, 226 sleeping,   0 stopped,   0 zombie
%Cpu(s):  0.2 us,  0.1 sy,  0.0 ni, 99.6 id,  0.0 wa,  0.0 hi,  0.0 si,  0.0 st
KiB Mem : 16278772 total, 13317388 free,  1333016 used,  1628368 buff/cache
KiB Swap: 16630780 total, 16630780 free,        0 used. 14503932 avail Mem 

  PID USER      PR  NI    VIRT    RES    SHR S  %CPU %MEM     TIME+ COMMAND
 2398 kenenth   20   0 3531420 237016  90416 R   2.0  1.5   0:32.06 gnome-shell
30598 kenenth   20   0   41904   3860   3132 R   1.0  0.0   0:00.22 top

top - 18:13:06 up 29 min,  1 user,  load average: 0.12, 0.66, 1.30
Tasks: 288 total,   1 running, 227 sleeping,   0 stopped,   0 zombie
%Cpu(s):  0.0 us,  0.2 sy,  0.0 ni, 99.8 id,  0.0 wa,  0.0 hi,  0.0 si,  0.0 st
KiB Mem : 16278772 total, 13317388 free,  1333016 used,  1628368 buff/cache
KiB Swap: 16630780 total, 16630780 free,        0 used. 14503932 avail Mem 

  PID USER      PR  NI    VIRT    RES    SHR S  %CPU %MEM     TIME+ COMMAND
30598 kenenth   20   0   41904   3860   3132 R   2.0  0.0   0:00.24 top
 1124 root      20   0 4980128  39668  24916 S   1.0  0.2   0:10.17 containerd

top - 18:13:07 up 29 min,  1 user,  load average: 0.12, 0.66, 1.30
Tasks: 288 total,   1 running, 227 sleeping,   0 stopped,   0 zombie
%Cpu(s):  0.1 us,  0.2 sy,  0.0 ni, 99.6 id,  0.0 wa,  0.0 hi,  0.0 si,  0.0 st
KiB Mem : 16278772 total, 13317340 free,  1333060 used,  1628372 buff/cache
KiB Swap: 16630780 total, 16630780 free,        0 used. 14503884 avail Mem 

  PID USER      PR  NI    VIRT    RES    SHR S  %CPU %MEM     TIME+ COMMAND
30598 kenenth   20   0   41904   3860   3132 R   1.0  0.0   0:00.25 top

top - 18:13:08 up 29 min,  1 user,  load average: 0.12, 0.66, 1.30
Tasks: 288 total,   1 running, 227 sleeping,   0 stopped,   0 zombie
%Cpu(s):  0.1 us,  0.1 sy,  0.0 ni, 99.8 id,  0.0 wa,  0.0 hi,  0.0 si,  0.0 st
KiB Mem : 16278772 total, 13317340 free,  1333060 used,  1628372 buff/cache
KiB Swap: 16630780 total, 16630780 free,        0 used. 14503884 avail Mem 

  PID USER      PR  NI    VIRT    RES    SHR S  %CPU %MEM     TIME+ COMMAND
 2192 root      20   0  433352  93656  61704 S   1.0  0.6   0:11.37 Xorg
30598 kenenth   20   0   41904   3860   3132 R   1.0  0.0   0:00.26 top

top - 18:13:09 up 29 min,  1 user,  load average: 0.12, 0.66, 1.30
Tasks: 288 total,   1 running, 227 sleeping,   0 stopped,   0 zombie
%Cpu(s):  0.0 us,  0.4 sy,  0.0 ni, 99.6 id,  0.0 wa,  0.0 hi,  0.0 si,  0.0 st
KiB Mem : 16278772 total, 13317340 free,  1333060 used,  1628372 buff/cache
KiB Swap: 16630780 total, 16630780 free,        0 used. 14503884 avail Mem 

  PID USER      PR  NI    VIRT    RES    SHR S  %CPU %MEM     TIME+ COMMAND
30598 kenenth   20   0   41904   3860   3132 R   2.0  0.0   0:00.28 top
  228 root      20   0       0      0      0 I   1.0  0.0   0:00.26 kworker/3:2

top - 18:13:10 up 29 min,  1 user,  load average: 0.11, 0.65, 1.29
Tasks: 288 total,   1 running, 227 sleeping,   0 stopped,   0 zombie
%Cpu(s):  0.4 us,  0.1 sy,  0.0 ni, 99.5 id,  0.0 wa,  0.0 hi,  0.0 si,  0.0 st
KiB Mem : 16278772 total, 13317356 free,  1333032 used,  1628384 buff/cache
KiB Swap: 16630780 total, 16630780 free,        0 used. 14503900 avail Mem 

  PID USER      PR  NI    VIRT    RES    SHR S  %CPU %MEM     TIME+ COMMAND
  967 root      20   0  493476  23572  13940 S   1.0  0.1   0:17.69 NetworkManager
 1280 gdm       20   0 3332632 121524  66516 S   1.0  0.7   0:27.65 gnome-shell
 2192 root      20   0  433352  93656  61704 S   1.0  0.6   0:11.38 Xorg
 2193 root     -51   0       0      0      0 S   1.0  0.0   0:01.55 irq/135-nvidia

top - 18:13:11 up 29 min,  1 user,  load average: 0.11, 0.65, 1.29
Tasks: 288 total,   1 running, 227 sleeping,   0 stopped,   0 zombie
%Cpu(s):  0.1 us,  0.2 sy,  0.0 ni, 99.6 id,  0.0 wa,  0.0 hi,  0.0 si,  0.0 st
KiB Mem : 16278772 total, 13317356 free,  1333032 used,  1628384 buff/cache
KiB Swap: 16630780 total, 16630780 free,        0 used. 14503900 avail Mem 

  PID USER      PR  NI    VIRT    RES    SHR S  %CPU %MEM     TIME+ COMMAND
30598 kenenth   20   0   41904   3860   3132 R   1.0  0.0   0:00.29 top

top - 18:13:13 up 29 min,  1 user,  load average: 0.11, 0.65, 1.29
Tasks: 288 total,   1 running, 227 sleeping,   0 stopped,   0 zombie
%Cpu(s):  0.0 us,  0.1 sy,  0.0 ni, 99.9 id,  0.0 wa,  0.0 hi,  0.0 si,  0.0 st
KiB Mem : 16278772 total, 13317356 free,  1333032 used,  1628384 buff/cache
KiB Swap: 16630780 total, 16630780 free,        0 used. 14503900 avail Mem 

  PID USER      PR  NI    VIRT    RES    SHR S  %CPU %MEM     TIME+ COMMAND
30598 kenenth   20   0   41904   3860   3132 R   2.0  0.0   0:00.31 top
 2192 root      20   0  433352  93656  61704 S   1.0  0.6   0:11.39 Xorg

top - 18:13:14 up 29 min,  1 user,  load average: 0.11, 0.65, 1.29
Tasks: 288 total,   1 running, 227 sleeping,   0 stopped,   0 zombie
%Cpu(s):  0.1 us,  0.2 sy,  0.0 ni, 99.6 id,  0.0 wa,  0.0 hi,  0.0 si,  0.0 st
KiB Mem : 16278772 total, 13317356 free,  1333032 used,  1628384 buff/cache
KiB Swap: 16630780 total, 16630780 free,        0 used. 14503900 avail Mem 

  PID USER      PR  NI    VIRT    RES    SHR S  %CPU %MEM     TIME+ COMMAND
  973 root      20   0  110512   3452   3112 S   1.0  0.0   0:00.31 irqbalance
30598 kenenth   20   0   41904   3860   3132 R   1.0  0.0   0:00.32 top

top - 18:13:15 up 29 min,  1 user,  load average: 0.11, 0.65, 1.29
Tasks: 288 total,   1 running, 227 sleeping,   0 stopped,   0 zombie
%Cpu(s):  0.1 us,  0.1 sy,  0.0 ni, 99.8 id,  0.0 wa,  0.0 hi,  0.0 si,  0.0 st
KiB Mem : 16278772 total, 13317356 free,  1333032 used,  1628384 buff/cache
KiB Swap: 16630780 total, 16630780 free,        0 used. 14503900 avail Mem 

  PID USER      PR  NI    VIRT    RES    SHR S  %CPU %MEM     TIME+ COMMAND
 1124 root      20   0 4980128  39668  24916 S   1.0  0.2   0:10.18 containerd
 2192 root      20   0  433352  93656  61704 S   1.0  0.6   0:11.40 Xorg
30598 kenenth   20   0   41904   3860   3132 R   1.0  0.0   0:00.33 top

top - 18:13:16 up 29 min,  1 user,  load average: 0.10, 0.64, 1.29
Tasks: 288 total,   1 running, 227 sleeping,   0 stopped,   0 zombie
%Cpu(s):  0.0 us,  0.1 sy,  0.0 ni, 99.9 id,  0.0 wa,  0.0 hi,  0.0 si,  0.0 st
KiB Mem : 16278772 total, 13317300 free,  1333076 used,  1628396 buff/cache
KiB Swap: 16630780 total, 16630780 free,        0 used. 14503848 avail Mem 

  PID USER      PR  NI    VIRT    RES    SHR S  %CPU %MEM     TIME+ COMMAND
30598 kenenth   20   0   41904   3860   3132 R   2.0  0.0   0:00.35 top

top - 18:13:17 up 29 min,  1 user,  load average: 0.10, 0.64, 1.29
Tasks: 288 total,   1 running, 227 sleeping,   0 stopped,   0 zombie
%Cpu(s):  0.0 us,  0.1 sy,  0.0 ni, 99.9 id,  0.0 wa,  0.0 hi,  0.0 si,  0.0 st
KiB Mem : 16278772 total, 13317300 free,  1333076 used,  1628396 buff/cache
KiB Swap: 16630780 total, 16630780 free,        0 used. 14503848 avail Mem 

  PID USER      PR  NI    VIRT    RES    SHR S  %CPU %MEM     TIME+ COMMAND
30598 kenenth   20   0   41904   3860   3132 R   1.0  0.0   0:00.36 top

top - 18:13:18 up 29 min,  1 user,  load average: 0.10, 0.64, 1.29
Tasks: 288 total,   1 running, 227 sleeping,   0 stopped,   0 zombie
%Cpu(s):  0.0 us,  0.1 sy,  0.0 ni, 99.9 id,  0.0 wa,  0.0 hi,  0.0 si,  0.0 st
KiB Mem : 16278772 total, 13317300 free,  1333076 used,  1628396 buff/cache
KiB Swap: 16630780 total, 16630780 free,        0 used. 14503848 avail Mem 

  PID USER      PR  NI    VIRT    RES    SHR S  %CPU %MEM     TIME+ COMMAND
30598 kenenth   20   0   41904   3860   3132 R   1.0  0.0   0:00.37 top

top - 18:13:19 up 29 min,  1 user,  load average: 0.10, 0.64, 1.29
Tasks: 288 total,   1 running, 227 sleeping,   0 stopped,   0 zombie
%Cpu(s):  0.0 us,  0.1 sy,  0.0 ni, 99.9 id,  0.0 wa,  0.0 hi,  0.0 si,  0.0 st
KiB Mem : 16278772 total, 13317284 free,  1333088 used,  1628400 buff/cache
KiB Swap: 16630780 total, 16630780 free,        0 used. 14503840 avail Mem 

  PID USER      PR  NI    VIRT    RES    SHR S  %CPU %MEM     TIME+ COMMAND
 2192 root      20   0  433352  93656  61704 S   2.0  0.6   0:11.42 Xorg
30598 kenenth   20   0   41904   3860   3132 R   1.0  0.0   0:00.38 top

top - 18:13:20 up 29 min,  1 user,  load average: 0.10, 0.64, 1.29
Tasks: 288 total,   1 running, 227 sleeping,   0 stopped,   0 zombie
%Cpu(s):  0.1 us,  0.2 sy,  0.0 ni, 99.6 id,  0.0 wa,  0.0 hi,  0.0 si,  0.0 st
KiB Mem : 16278772 total, 13317284 free,  1333088 used,  1628400 buff/cache
KiB Swap: 16630780 total, 16630780 free,        0 used. 14503840 avail Mem 

  PID USER      PR  NI    VIRT    RES    SHR S  %CPU %MEM     TIME+ COMMAND
 1124 root      20   0 4980128  39668  24916 S   1.0  0.2   0:10.19 containerd
30598 kenenth   20   0   41904   3860   3132 R   1.0  0.0   0:00.39 top

top - 18:13:21 up 29 min,  1 user,  load average: 0.09, 0.63, 1.28
Tasks: 288 total,   1 running, 227 sleeping,   0 stopped,   0 zombie
%Cpu(s):  0.1 us,  0.2 sy,  0.0 ni, 99.6 id,  0.0 wa,  0.0 hi,  0.0 si,  0.0 st
KiB Mem : 16278772 total, 13317284 free,  1333088 used,  1628400 buff/cache
KiB Swap: 16630780 total, 16630780 free,        0 used. 14503840 avail Mem 

  PID USER      PR  NI    VIRT    RES    SHR S  %CPU %MEM     TIME+ COMMAND
 3202 kenenth   20   0 1063864  15528  13320 S   1.0  0.1   0:00.07 zeitgeist-datah
30598 kenenth   20   0   41904   3860   3132 R   1.0  0.0   0:00.40 top

top - 18:13:22 up 29 min,  1 user,  load average: 0.09, 0.63, 1.28
Tasks: 288 total,   1 running, 227 sleeping,   0 stopped,   0 zombie
%Cpu(s):  0.2 us,  0.1 sy,  0.0 ni, 99.6 id,  0.0 wa,  0.0 hi,  0.0 si,  0.0 st
KiB Mem : 16278772 total, 13317284 free,  1333088 used,  1628400 buff/cache
KiB Swap: 16630780 total, 16630780 free,        0 used. 14503840 avail Mem 

  PID USER      PR  NI    VIRT    RES    SHR S  %CPU %MEM     TIME+ COMMAND
30598 kenenth   20   0   41904   3860   3132 R   2.0  0.0   0:00.42 top

top - 18:13:23 up 29 min,  1 user,  load average: 0.09, 0.63, 1.28
Tasks: 288 total,   1 running, 227 sleeping,   0 stopped,   0 zombie
%Cpu(s):  0.0 us,  0.2 sy,  0.0 ni, 99.8 id,  0.0 wa,  0.0 hi,  0.0 si,  0.0 st
KiB Mem : 16278772 total, 13317284 free,  1333088 used,  1628400 buff/cache
KiB Swap: 16630780 total, 16630780 free,        0 used. 14503840 avail Mem 

  PID USER      PR  NI    VIRT    RES    SHR S  %CPU %MEM     TIME+ COMMAND
30598 kenenth   20   0   41904   3860   3132 R   2.0  0.0   0:00.44 top
  941 root      20   0  269688   5916   5156 S   1.0  0.0   0:00.37 iio-sensor-prox
 2192 root      20   0  433352  93656  61704 S   1.0  0.6   0:11.43 Xorg

top - 18:13:24 up 29 min,  1 user,  load average: 0.09, 0.63, 1.28
Tasks: 288 total,   1 running, 227 sleeping,   0 stopped,   0 zombie
%Cpu(s):  0.0 us,  0.2 sy,  0.0 ni, 99.8 id,  0.0 wa,  0.0 hi,  0.0 si,  0.0 st
KiB Mem : 16278772 total, 13317284 free,  1333088 used,  1628400 buff/cache
KiB Swap: 16630780 total, 16630780 free,        0 used. 14503840 avail Mem 

  PID USER      PR  NI    VIRT    RES    SHR S  %CPU %MEM     TIME+ COMMAND
 2192 root      20   0  433352  93656  61704 S   1.0  0.6   0:11.44 Xorg
30598 kenenth   20   0   41904   3860   3132 R   1.0  0.0   0:00.45 top

top - 18:13:25 up 29 min,  1 user,  load average: 0.09, 0.63, 1.28
Tasks: 288 total,   1 running, 227 sleeping,   0 stopped,   0 zombie
%Cpu(s):  0.5 us,  0.1 sy,  0.0 ni, 99.1 id,  0.1 wa,  0.0 hi,  0.1 si,  0.0 st
KiB Mem : 16278772 total, 13317252 free,  1333112 used,  1628408 buff/cache
KiB Swap: 16630780 total, 16630780 free,        0 used. 14503812 avail Mem 

  PID USER      PR  NI    VIRT    RES    SHR S  %CPU %MEM     TIME+ COMMAND
  987 root      20   0 1090076  30056  17960 S   2.0  0.2   0:05.68 snapd
30598 kenenth   20   0   41904   3860   3132 R   1.0  0.0   0:00.46 top

top - 18:13:26 up 29 min,  1 user,  load average: 0.08, 0.62, 1.27
Tasks: 288 total,   1 running, 227 sleeping,   0 stopped,   0 zombie
%Cpu(s):  0.1 us,  0.1 sy,  0.0 ni, 99.8 id,  0.0 wa,  0.0 hi,  0.0 si,  0.0 st
KiB Mem : 16278772 total, 13317252 free,  1333112 used,  1628408 buff/cache
KiB Swap: 16630780 total, 16630780 free,        0 used. 14503812 avail Mem 

  PID USER      PR  NI    VIRT    RES    SHR S  %CPU %MEM     TIME+ COMMAND
 1124 root      20   0 4980128  39668  24916 S   1.0  0.2   0:10.20 containerd
 2192 root      20   0  433352  93656  61704 S   1.0  0.6   0:11.45 Xorg
 2398 kenenth   20   0 3531420 237016  90416 S   1.0  1.5   0:32.07 gnome-shell
30598 kenenth   20   0   41904   3860   3132 R   1.0  0.0   0:00.47 top
30601 kenenth   20   0   22648   2544   2372 S   1.0  0.0   0:00.01 ping

top - 18:13:27 up 29 min,  1 user,  load average: 0.08, 0.62, 1.27
Tasks: 288 total,   1 running, 227 sleeping,   0 stopped,   0 zombie
%Cpu(s):  0.1 us,  0.2 sy,  0.0 ni, 99.6 id,  0.0 wa,  0.0 hi,  0.0 si,  0.0 st
KiB Mem : 16278772 total, 13317252 free,  1333112 used,  1628408 buff/cache
KiB Swap: 16630780 total, 16630780 free,        0 used. 14503812 avail Mem 

  PID USER      PR  NI    VIRT    RES    SHR S  %CPU %MEM     TIME+ COMMAND
30598 kenenth   20   0   41904   3860   3132 R   1.0  0.0   0:00.48 top
30604 kenenth   20   0   22648   2532   2356 S   1.0  0.0   0:00.01 ping

top - 18:13:28 up 29 min,  1 user,  load average: 0.08, 0.62, 1.27
Tasks: 288 total,   1 running, 227 sleeping,   0 stopped,   0 zombie
%Cpu(s):  0.1 us,  0.5 sy,  0.0 ni, 99.4 id,  0.0 wa,  0.0 hi,  0.0 si,  0.0 st
KiB Mem : 16278772 total, 13317236 free,  1333116 used,  1628420 buff/cache
KiB Swap: 16630780 total, 16630780 free,        0 used. 14503800 avail Mem 

  PID USER      PR  NI    VIRT    RES    SHR S  %CPU %MEM     TIME+ COMMAND
30598 kenenth   20   0   41904   3860   3132 R   2.0  0.0   0:00.50 top
30606 kenenth   20   0   22648   2476   2300 S   1.0  0.0   0:00.01 ping
30607 kenenth   20   0   22648   2488   2316 S   1.0  0.0   0:00.01 ping
30610 kenenth   20   0   22648   2544   2372 S   1.0  0.0   0:00.01 ping

top - 18:13:29 up 29 min,  1 user,  load average: 0.08, 0.62, 1.27
Tasks: 288 total,   1 running, 227 sleeping,   0 stopped,   0 zombie
%Cpu(s):  0.1 us,  0.1 sy,  0.0 ni, 99.8 id,  0.0 wa,  0.0 hi,  0.0 si,  0.0 st
KiB Mem : 16278772 total, 13317236 free,  1333116 used,  1628420 buff/cache
KiB Swap: 16630780 total, 16630780 free,        0 used. 14503800 avail Mem 

  PID USER      PR  NI    VIRT    RES    SHR S  %CPU %MEM     TIME+ COMMAND
 1124 root      20   0 4980128  39668  24916 S   1.0  0.2   0:10.21 containerd
30598 kenenth   20   0   41904   3860   3132 R   1.0  0.0   0:00.51 top
30603 kenenth   20   0   22648   2472   2296 S   1.0  0.0   0:00.01 ping

top - 18:13:30 up 29 min,  1 user,  load average: 0.08, 0.60, 1.26
Tasks: 288 total,   1 running, 227 sleeping,   0 stopped,   0 zombie
%Cpu(s):  0.0 us,  0.2 sy,  0.0 ni, 99.8 id,  0.0 wa,  0.0 hi,  0.0 si,  0.0 st
KiB Mem : 16278772 total, 13317236 free,  1333116 used,  1628420 buff/cache
KiB Swap: 16630780 total, 16630780 free,        0 used. 14503800 avail Mem 

  PID USER      PR  NI    VIRT    RES    SHR S  %CPU %MEM     TIME+ COMMAND
 2192 root      20   0  433352  93656  61704 S   1.0  0.6   0:11.46 Xorg
30598 kenenth   20   0   41904   3860   3132 R   1.0  0.0   0:00.52 top

top - 18:13:31 up 29 min,  1 user,  load average: 0.08, 0.60, 1.26
Tasks: 288 total,   1 running, 227 sleeping,   0 stopped,   0 zombie
%Cpu(s):  0.0 us,  0.2 sy,  0.0 ni, 99.8 id,  0.0 wa,  0.0 hi,  0.0 si,  0.0 st
KiB Mem : 16278772 total, 13317220 free,  1333120 used,  1628432 buff/cache
KiB Swap: 16630780 total, 16630780 free,        0 used. 14503784 avail Mem 

  PID USER      PR  NI    VIRT    RES    SHR S  %CPU %MEM     TIME+ COMMAND
 2192 root      20   0  433352  93656  61704 S   1.0  0.6   0:11.47 Xorg
30598 kenenth   20   0   41904   3860   3132 R   1.0  0.0   0:00.53 top

top - 18:13:32 up 29 min,  1 user,  load average: 0.08, 0.60, 1.26
Tasks: 288 total,   1 running, 227 sleeping,   0 stopped,   0 zombie
%Cpu(s):  0.1 us,  0.1 sy,  0.0 ni, 99.8 id,  0.0 wa,  0.0 hi,  0.0 si,  0.0 st
KiB Mem : 16278772 total, 13317220 free,  1333120 used,  1628432 buff/cache
KiB Swap: 16630780 total, 16630780 free,        0 used. 14503784 avail Mem 

  PID USER      PR  NI    VIRT    RES    SHR S  %CPU %MEM     TIME+ COMMAND
 1280 gdm       20   0 3332632 121524  66516 S   1.0  0.7   0:27.66 gnome-shell
30598 kenenth   20   0   41904   3860   3132 R   1.0  0.0   0:00.54 top

top - 18:13:33 up 29 min,  1 user,  load average: 0.08, 0.60, 1.26
Tasks: 288 total,   1 running, 227 sleeping,   0 stopped,   0 zombie
%Cpu(s):  0.0 us,  0.6 sy,  0.0 ni, 99.4 id,  0.0 wa,  0.0 hi,  0.0 si,  0.0 st
KiB Mem : 16278772 total, 13317220 free,  1333120 used,  1628432 buff/cache
KiB Swap: 16630780 total, 16630780 free,        0 used. 14503784 avail Mem 

  PID USER      PR  NI    VIRT    RES    SHR S  %CPU %MEM     TIME+ COMMAND
 2192 root      20   0  433352  93656  61704 S   1.0  0.6   0:11.48 Xorg
30598 kenenth   20   0   41904   3860   3132 R   1.0  0.0   0:00.55 top

top - 18:13:34 up 29 min,  1 user,  load average: 0.08, 0.60, 1.26
Tasks: 288 total,   1 running, 227 sleeping,   0 stopped,   0 zombie
%Cpu(s):  0.1 us,  0.2 sy,  0.0 ni, 99.6 id,  0.0 wa,  0.0 hi,  0.0 si,  0.0 st
KiB Mem : 16278772 total, 13317220 free,  1333120 used,  1628432 buff/cache
KiB Swap: 16630780 total, 16630780 free,        0 used. 14503784 avail Mem 

  PID USER      PR  NI    VIRT    RES    SHR S  %CPU %MEM     TIME+ COMMAND
30598 kenenth   20   0   41904   3860   3132 R   2.0  0.0   0:00.57 top

top - 18:13:35 up 29 min,  1 user,  load average: 0.07, 0.59, 1.26
Tasks: 288 total,   1 running, 227 sleeping,   0 stopped,   0 zombie
%Cpu(s):  0.0 us,  0.1 sy,  0.0 ni, 99.9 id,  0.0 wa,  0.0 hi,  0.0 si,  0.0 st
KiB Mem : 16278772 total, 13317220 free,  1333120 used,  1628432 buff/cache
KiB Swap: 16630780 total, 16630780 free,        0 used. 14503784 avail Mem 

  PID USER      PR  NI    VIRT    RES    SHR S  %CPU %MEM     TIME+ COMMAND
30598 kenenth   20   0   41904   3860   3132 R   1.0  0.0   0:00.58 top

top - 18:13:36 up 29 min,  1 user,  load average: 0.07, 0.59, 1.26
Tasks: 288 total,   1 running, 227 sleeping,   0 stopped,   0 zombie
%Cpu(s):  0.0 us,  0.1 sy,  0.0 ni, 99.9 id,  0.0 wa,  0.0 hi,  0.0 si,  0.0 st
KiB Mem : 16278772 total, 13317220 free,  1333120 used,  1628432 buff/cache
KiB Swap: 16630780 total, 16630780 free,        0 used. 14503784 avail Mem 

  PID USER      PR  NI    VIRT    RES    SHR S  %CPU %MEM     TIME+ COMMAND
    8 root      20   0       0      0      0 I   1.0  0.0   0:01.21 rcu_sched
 2192 root      20   0  433352  93656  61704 S   1.0  0.6   0:11.49 Xorg
30598 kenenth   20   0   41904   3860   3132 R   1.0  0.0   0:00.59 top

top - 18:13:37 up 29 min,  1 user,  load average: 0.07, 0.59, 1.26
Tasks: 288 total,   1 running, 227 sleeping,   0 stopped,   0 zombie
%Cpu(s):  0.1 us,  0.2 sy,  0.0 ni, 99.6 id,  0.0 wa,  0.0 hi,  0.0 si,  0.0 st
KiB Mem : 16278772 total, 13317188 free,  1333140 used,  1628444 buff/cache
KiB Swap: 16630780 total, 16630780 free,        0 used. 14503768 avail Mem 

  PID USER      PR  NI    VIRT    RES    SHR S  %CPU %MEM     TIME+ COMMAND
  967 root      20   0  493476  23572  13940 S   1.0  0.1   0:17.70 NetworkManager
 1784 kernoops  20   0   56936    424      0 S   1.0  0.0   0:00.07 kerneloops
30598 kenenth   20   0   41904   3860   3132 R   1.0  0.0   0:00.60 top

top - 18:13:38 up 29 min,  1 user,  load average: 0.07, 0.59, 1.26
Tasks: 288 total,   1 running, 227 sleeping,   0 stopped,   0 zombie
%Cpu(s):  0.1 us,  0.4 sy,  0.0 ni, 99.5 id,  0.0 wa,  0.0 hi,  0.0 si,  0.0 st
KiB Mem : 16278772 total, 13317188 free,  1333140 used,  1628444 buff/cache
KiB Swap: 16630780 total, 16630780 free,        0 used. 14503768 avail Mem 

  PID USER      PR  NI    VIRT    RES    SHR S  %CPU %MEM     TIME+ COMMAND
 1124 root      20   0 4980128  39668  24916 S   1.0  0.2   0:10.22 containerd
 1791 kernoops  20   0   56936    416      0 S   1.0  0.0   0:00.07 kerneloops
 2192 root      20   0  433352  93656  61704 S   1.0  0.6   0:11.50 Xorg
30598 kenenth   20   0   41904   3860   3132 R   1.0  0.0   0:00.61 top

top - 18:13:39 up 29 min,  1 user,  load average: 0.07, 0.59, 1.26
Tasks: 288 total,   1 running, 227 sleeping,   0 stopped,   0 zombie
%Cpu(s):  0.0 us,  0.1 sy,  0.0 ni, 99.9 id,  0.0 wa,  0.0 hi,  0.0 si,  0.0 st
KiB Mem : 16278772 total, 13317188 free,  1333140 used,  1628444 buff/cache
KiB Swap: 16630780 total, 16630780 free,        0 used. 14503768 avail Mem 

  PID USER      PR  NI    VIRT    RES    SHR S  %CPU %MEM     TIME+ COMMAND
30598 kenenth   20   0   41904   3860   3132 R   2.0  0.0   0:00.63 top

top - 18:13:40 up 29 min,  1 user,  load average: 0.06, 0.58, 1.25
Tasks: 288 total,   1 running, 227 sleeping,   0 stopped,   0 zombie
%Cpu(s):  0.0 us,  0.2 sy,  0.0 ni, 99.8 id,  0.0 wa,  0.0 hi,  0.0 si,  0.0 st
KiB Mem : 16278772 total, 13317156 free,  1333172 used,  1628444 buff/cache
KiB Swap: 16630780 total, 16630780 free,        0 used. 14503736 avail Mem 

  PID USER      PR  NI    VIRT    RES    SHR S  %CPU %MEM     TIME+ COMMAND
 2193 root     -51   0       0      0      0 S   1.0  0.0   0:01.56 irq/135-nvidia
30598 kenenth   20   0   41904   3860   3132 R   1.0  0.0   0:00.64 top
30602 kenenth   20   0   22648   2480   2304 S   1.0  0.0   0:00.01 ping

top - 18:13:41 up 29 min,  1 user,  load average: 0.06, 0.58, 1.25
Tasks: 288 total,   1 running, 227 sleeping,   0 stopped,   0 zombie
%Cpu(s):  0.5 us,  0.1 sy,  0.0 ni, 99.4 id,  0.0 wa,  0.0 hi,  0.0 si,  0.0 st
KiB Mem : 16278772 total, 13317156 free,  1333172 used,  1628444 buff/cache
KiB Swap: 16630780 total, 16630780 free,        0 used. 14503736 avail Mem 

  PID USER      PR  NI    VIRT    RES    SHR S  %CPU %MEM     TIME+ COMMAND
 1124 root      20   0 4980128  39668  24916 S   2.0  0.2   0:10.24 containerd
 2192 root      20   0  433352  93656  61704 S   1.0  0.6   0:11.51 Xorg
30598 kenenth   20   0   41904   3860   3132 R   1.0  0.0   0:00.65 top
30605 kenenth   20   0   22648   2488   2316 S   1.0  0.0   0:00.01 ping

top - 18:13:42 up 29 min,  1 user,  load average: 0.06, 0.58, 1.25
Tasks: 288 total,   1 running, 227 sleeping,   0 stopped,   0 zombie
%Cpu(s):  0.0 us,  0.1 sy,  0.0 ni, 99.9 id,  0.0 wa,  0.0 hi,  0.0 si,  0.0 st
KiB Mem : 16278772 total, 13317156 free,  1333172 used,  1628444 buff/cache
KiB Swap: 16630780 total, 16630780 free,        0 used. 14503736 avail Mem 

  PID USER      PR  NI    VIRT    RES    SHR S  %CPU %MEM     TIME+ COMMAND
30598 kenenth   20   0   41904   3860   3132 R   1.0  0.0   0:00.66 top

top - 18:13:43 up 29 min,  1 user,  load average: 0.06, 0.58, 1.25
Tasks: 288 total,   1 running, 227 sleeping,   0 stopped,   0 zombie
%Cpu(s):  0.2 us,  0.4 sy,  0.0 ni, 99.4 id,  0.0 wa,  0.0 hi,  0.0 si,  0.0 st
KiB Mem : 16278772 total, 13317124 free,  1333192 used,  1628456 buff/cache
KiB Swap: 16630780 total, 16630780 free,        0 used. 14503704 avail Mem 

  PID USER      PR  NI    VIRT    RES    SHR S  %CPU %MEM     TIME+ COMMAND
  902 message+  20   0   51832   6324   3928 S   1.0  0.0   0:33.57 dbus-daemon
 1124 root      20   0 4980128  39668  24916 S   1.0  0.2   0:10.25 containerd
 2192 root      20   0  433352  93656  61704 S   1.0  0.6   0:11.52 Xorg
 2509 kenenth   20   0  448080  12692   7988 S   1.0  0.1   0:10.50 gsd-sharing
30598 kenenth   20   0   41904   3860   3132 R   1.0  0.0   0:00.67 top

top - 18:13:44 up 29 min,  1 user,  load average: 0.06, 0.58, 1.25
Tasks: 288 total,   1 running, 227 sleeping,   0 stopped,   0 zombie
%Cpu(s):  0.1 us,  0.1 sy,  0.0 ni, 99.8 id,  0.0 wa,  0.0 hi,  0.0 si,  0.0 st
KiB Mem : 16278772 total, 13317124 free,  1333192 used,  1628456 buff/cache
KiB Swap: 16630780 total, 16630780 free,        0 used. 14503704 avail Mem 

  PID USER      PR  NI    VIRT    RES    SHR S  %CPU %MEM     TIME+ COMMAND
30598 kenenth   20   0   41904   3860   3132 R   2.0  0.0   0:00.69 top

top - 18:13:45 up 29 min,  1 user,  load average: 0.06, 0.57, 1.24
Tasks: 288 total,   1 running, 227 sleeping,   0 stopped,   0 zombie
%Cpu(s):  0.0 us,  0.1 sy,  0.0 ni, 99.9 id,  0.0 wa,  0.0 hi,  0.0 si,  0.0 st
KiB Mem : 16278772 total, 13317124 free,  1333192 used,  1628456 buff/cache
KiB Swap: 16630780 total, 16630780 free,        0 used. 14503704 avail Mem 

  PID USER      PR  NI    VIRT    RES    SHR S  %CPU %MEM     TIME+ COMMAND
 2192 root      20   0  433352  93656  61704 S   1.0  0.6   0:11.53 Xorg
30598 kenenth   20   0   41904   3860   3132 R   1.0  0.0   0:00.70 top

top - 18:13:46 up 29 min,  1 user,  load average: 0.06, 0.57, 1.24
Tasks: 288 total,   1 running, 227 sleeping,   0 stopped,   0 zombie
%Cpu(s):  0.1 us,  0.2 sy,  0.0 ni, 99.6 id,  0.0 wa,  0.0 hi,  0.0 si,  0.0 st
KiB Mem : 16278772 total, 13317076 free,  1333232 used,  1628464 buff/cache
KiB Swap: 16630780 total, 16630780 free,        0 used. 14503668 avail Mem 

  PID USER      PR  NI    VIRT    RES    SHR S  %CPU %MEM     TIME+ COMMAND
30598 kenenth   20   0   41904   3860   3132 R   1.0  0.0   0:00.71 top

top - 18:13:47 up 29 min,  1 user,  load average: 0.06, 0.57, 1.24
Tasks: 288 total,   1 running, 227 sleeping,   0 stopped,   0 zombie
%Cpu(s):  0.0 us,  0.1 sy,  0.0 ni, 99.9 id,  0.0 wa,  0.0 hi,  0.0 si,  0.0 st
KiB Mem : 16278772 total, 13317076 free,  1333232 used,  1628464 buff/cache
KiB Swap: 16630780 total, 16630780 free,        0 used. 14503668 avail Mem 

  PID USER      PR  NI    VIRT    RES    SHR S  %CPU %MEM     TIME+ COMMAND
30598 kenenth   20   0   41904   3860   3132 R   2.0  0.0   0:00.73 top
 2192 root      20   0  433352  93656  61704 S   1.0  0.6   0:11.54 Xorg
 3386 kenenth   20   0 1319884 158512  36724 S   1.0  1.0   0:05.44 gnome-software

top - 18:13:48 up 29 min,  1 user,  load average: 0.06, 0.57, 1.24
Tasks: 288 total,   1 running, 227 sleeping,   0 stopped,   0 zombie
%Cpu(s):  0.1 us,  0.1 sy,  0.0 ni, 99.8 id,  0.0 wa,  0.0 hi,  0.0 si,  0.0 st
KiB Mem : 16278772 total, 13317076 free,  1333232 used,  1628464 buff/cache
KiB Swap: 16630780 total, 16630780 free,        0 used. 14503668 avail Mem 

  PID USER      PR  NI    VIRT    RES    SHR S  %CPU %MEM     TIME+ COMMAND
30598 kenenth   20   0   41904   3860   3132 R   1.0  0.0   0:00.74 top

top - 18:13:49 up 30 min,  1 user,  load average: 0.06, 0.57, 1.24
Tasks: 288 total,   1 running, 227 sleeping,   0 stopped,   0 zombie
%Cpu(s):  0.1 us,  0.1 sy,  0.0 ni, 99.8 id,  0.0 wa,  0.0 hi,  0.0 si,  0.0 st
KiB Mem : 16278772 total, 13317092 free,  1333216 used,  1628464 buff/cache
KiB Swap: 16630780 total, 16630780 free,        0 used. 14503684 avail Mem 

  PID USER      PR  NI    VIRT    RES    SHR S  %CPU %MEM     TIME+ COMMAND
 2192 root      20   0  433352  93656  61704 S   1.0  0.6   0:11.55 Xorg
30598 kenenth   20   0   41904   3860   3132 R   1.0  0.0   0:00.75 top

top - 18:13:50 up 30 min,  1 user,  load average: 0.05, 0.56, 1.24
Tasks: 288 total,   1 running, 227 sleeping,   0 stopped,   0 zombie
%Cpu(s):  0.1 us,  0.1 sy,  0.0 ni, 99.6 id,  0.1 wa,  0.0 hi,  0.0 si,  0.0 st
KiB Mem : 16278772 total, 13317092 free,  1333216 used,  1628464 buff/cache
KiB Swap: 16630780 total, 16630780 free,        0 used. 14503684 avail Mem 

  PID USER      PR  NI    VIRT    RES    SHR S  %CPU %MEM     TIME+ COMMAND
 1771 root      20   0 6041544 101436  38060 S   1.0  0.6   0:39.69 dockerd
30598 kenenth   20   0   41904   3860   3132 R   1.0  0.0   0:00.76 top

top - 18:13:51 up 30 min,  1 user,  load average: 0.05, 0.56, 1.24
Tasks: 288 total,   1 running, 227 sleeping,   0 stopped,   0 zombie
%Cpu(s):  0.1 us,  0.0 sy,  0.0 ni, 99.9 id,  0.0 wa,  0.0 hi,  0.0 si,  0.0 st
KiB Mem : 16278772 total, 13317092 free,  1333216 used,  1628464 buff/cache
KiB Swap: 16630780 total, 16630780 free,        0 used. 14503684 avail Mem 

  PID USER      PR  NI    VIRT    RES    SHR S  %CPU %MEM     TIME+ COMMAND
30598 kenenth   20   0   41904   3860   3132 R   2.0  0.0   0:00.78 top
 1124 root      20   0 4980128  39668  24916 S   1.0  0.2   0:10.26 containerd
 2192 root      20   0  433352  93656  61704 S   1.0  0.6   0:11.56 Xorg

top - 18:13:52 up 30 min,  1 user,  load average: 0.05, 0.56, 1.24
Tasks: 288 total,   1 running, 227 sleeping,   0 stopped,   0 zombie
%Cpu(s):  0.0 us,  0.1 sy,  0.0 ni, 99.9 id,  0.0 wa,  0.0 hi,  0.0 si,  0.0 st
KiB Mem : 16278772 total, 13316920 free,  1333380 used,  1628472 buff/cache
KiB Swap: 16630780 total, 16630780 free,        0 used. 14503516 avail Mem 

  PID USER      PR  NI    VIRT    RES    SHR S  %CPU %MEM     TIME+ COMMAND
 1510 gdm       20   0  730084  30304  22776 S   1.0  0.2   0:00.41 gsd-color
30598 kenenth   20   0   41904   3860   3132 R   1.0  0.0   0:00.79 top

top - 18:13:53 up 30 min,  1 user,  load average: 0.05, 0.56, 1.24
Tasks: 288 total,   1 running, 227 sleeping,   0 stopped,   0 zombie
%Cpu(s):  0.2 us,  0.2 sy,  0.0 ni, 99.5 id,  0.0 wa,  0.0 hi,  0.0 si,  0.0 st
KiB Mem : 16278772 total, 13316920 free,  1333380 used,  1628472 buff/cache
KiB Swap: 16630780 total, 16630780 free,        0 used. 14503516 avail Mem 

  PID USER      PR  NI    VIRT    RES    SHR S  %CPU %MEM     TIME+ COMMAND
  696 systemd+  20   0   70744   6044   5348 S   1.0  0.0   0:01.56 systemd-resolve
 1771 root      20   0 6041544 101436  38060 S   1.0  0.6   0:39.70 dockerd
 2192 root      20   0  433352  93656  61704 S   1.0  0.6   0:11.57 Xorg
 8415 root      20   0       0      0      0 I   1.0  0.0   0:00.15 kworker/5:2
30598 kenenth   20   0   41904   3860   3132 R   1.0  0.0   0:00.80 top
30608 kenenth   20   0   22648   2488   2316 S   1.0  0.0   0:00.01 ping

top - 18:13:54 up 30 min,  1 user,  load average: 0.05, 0.56, 1.24
Tasks: 288 total,   1 running, 227 sleeping,   0 stopped,   0 zombie
%Cpu(s):  0.0 us,  0.1 sy,  0.0 ni, 99.9 id,  0.0 wa,  0.0 hi,  0.0 si,  0.0 st
KiB Mem : 16278772 total, 13316920 free,  1333380 used,  1628472 buff/cache
KiB Swap: 16630780 total, 16630780 free,        0 used. 14503516 avail Mem 

  PID USER      PR  NI    VIRT    RES    SHR S  %CPU %MEM     TIME+ COMMAND
30598 kenenth   20   0   41904   3860   3132 R   1.0  0.0   0:00.81 top
30609 kenenth   20   0   22648   2468   2296 S   1.0  0.0   0:00.01 ping

top - 18:13:55 up 30 min,  1 user,  load average: 0.05, 0.56, 1.23
Tasks: 288 total,   1 running, 227 sleeping,   0 stopped,   0 zombie
%Cpu(s):  0.2 us,  0.1 sy,  0.0 ni, 99.6 id,  0.0 wa,  0.0 hi,  0.0 si,  0.0 st
KiB Mem : 16278772 total, 13316904 free,  1333392 used,  1628476 buff/cache
KiB Swap: 16630780 total, 16630780 free,        0 used. 14503520 avail Mem 

  PID USER      PR  NI    VIRT    RES    SHR S  %CPU %MEM     TIME+ COMMAND
 1305 root      20   0  315340   8664   7392 S   1.0  0.1   0:00.15 upowerd
 1522 gdm       20   0  644592  29676  22072 S   1.0  0.2   0:00.20 gsd-power
30598 kenenth   20   0   41904   3860   3132 R   1.0  0.0   0:00.82 top

top - 18:13:56 up 30 min,  1 user,  load average: 0.05, 0.56, 1.23
Tasks: 288 total,   1 running, 227 sleeping,   0 stopped,   0 zombie
%Cpu(s):  0.0 us,  0.1 sy,  0.0 ni, 99.9 id,  0.0 wa,  0.0 hi,  0.0 si,  0.0 st
KiB Mem : 16278772 total, 13316904 free,  1333392 used,  1628476 buff/cache
KiB Swap: 16630780 total, 16630780 free,        0 used. 14503520 avail Mem 

  PID USER      PR  NI    VIRT    RES    SHR S  %CPU %MEM     TIME+ COMMAND
 2192 root      20   0  433352  93656  61704 S   1.0  0.6   0:11.58 Xorg
30598 kenenth   20   0   41904   3860   3132 R   1.0  0.0   0:00.83 top

top - 18:13:57 up 30 min,  1 user,  load average: 0.05, 0.56, 1.23
Tasks: 288 total,   1 running, 227 sleeping,   0 stopped,   0 zombie
%Cpu(s):  0.1 us,  0.1 sy,  0.0 ni, 99.8 id,  0.0 wa,  0.0 hi,  0.0 si,  0.0 st
KiB Mem : 16278772 total, 13316904 free,  1333392 used,  1628476 buff/cache
KiB Swap: 16630780 total, 16630780 free,        0 used. 14503520 avail Mem 

  PID USER      PR  NI    VIRT    RES    SHR S  %CPU %MEM     TIME+ COMMAND
 1124 root      20   0 4980128  39668  24916 S   1.0  0.2   0:10.27 containerd
30598 kenenth   20   0   41904   3860   3132 R   1.0  0.0   0:00.84 top

top - 18:13:58 up 30 min,  1 user,  load average: 0.05, 0.56, 1.23
Tasks: 288 total,   1 running, 227 sleeping,   0 stopped,   0 zombie
%Cpu(s):  0.1 us,  0.1 sy,  0.0 ni, 99.8 id,  0.0 wa,  0.0 hi,  0.0 si,  0.0 st
KiB Mem : 16278772 total, 13316904 free,  1333392 used,  1628476 buff/cache
KiB Swap: 16630780 total, 16630780 free,        0 used. 14503520 avail Mem 

  PID USER      PR  NI    VIRT    RES    SHR S  %CPU %MEM     TIME+ COMMAND
  967 root      20   0  493476  23572  13940 S   1.0  0.1   0:17.71 NetworkManager
 2192 root      20   0  433352  93656  61704 S   1.0  0.6   0:11.59 Xorg
30598 kenenth   20   0   41904   3860   3132 R   1.0  0.0   0:00.85 top

top - 18:13:59 up 30 min,  1 user,  load average: 0.05, 0.56, 1.23
Tasks: 288 total,   1 running, 227 sleeping,   0 stopped,   0 zombie
%Cpu(s):  0.1 us,  0.2 sy,  0.0 ni, 99.6 id,  0.0 wa,  0.0 hi,  0.0 si,  0.0 st
KiB Mem : 16278772 total, 13316904 free,  1333392 used,  1628476 buff/cache
KiB Swap: 16630780 total, 16630780 free,        0 used. 14503520 avail Mem 

  PID USER      PR  NI    VIRT    RES    SHR S  %CPU %MEM     TIME+ COMMAND
30598 kenenth   20   0   41904   3860   3132 R   1.0  0.0   0:00.86 top

top - 18:14:00 up 30 min,  1 user,  load average: 0.04, 0.55, 1.22
Tasks: 288 total,   1 running, 227 sleeping,   0 stopped,   0 zombie
%Cpu(s):  0.1 us,  0.1 sy,  0.0 ni, 99.8 id,  0.0 wa,  0.0 hi,  0.0 si,  0.0 st
KiB Mem : 16278772 total, 13316904 free,  1333392 used,  1628476 buff/cache
KiB Swap: 16630780 total, 16630780 free,        0 used. 14503520 avail Mem 

  PID USER      PR  NI    VIRT    RES    SHR S  %CPU %MEM     TIME+ COMMAND
30598 kenenth   20   0   41904   3860   3132 R   2.0  0.0   0:00.88 top
  260 root      20   0       0      0      0 S   1.0  0.0   0:00.81 jbd2/nvme0n1p5-
 2192 root      20   0  433352  93656  61704 S   1.0  0.6   0:11.60 Xorg
 2398 kenenth   20   0 3531420 237016  90416 S   1.0  1.5   0:32.08 gnome-shell

top - 18:14:01 up 30 min,  1 user,  load average: 0.04, 0.55, 1.22
Tasks: 288 total,   1 running, 227 sleeping,   0 stopped,   0 zombie
%Cpu(s):  0.1 us,  0.2 sy,  0.0 ni, 99.6 id,  0.0 wa,  0.0 hi,  0.0 si,  0.0 st
KiB Mem : 16278772 total, 13316824 free,  1333456 used,  1628492 buff/cache
KiB Swap: 16630780 total, 16630780 free,        0 used. 14503464 avail Mem 

  PID USER      PR  NI    VIRT    RES    SHR S  %CPU %MEM     TIME+ COMMAND
30598 kenenth   20   0   41904   3860   3132 R   1.0  0.0   0:00.89 top

top - 18:14:02 up 30 min,  1 user,  load average: 0.04, 0.55, 1.22
Tasks: 288 total,   1 running, 227 sleeping,   0 stopped,   0 zombie
%Cpu(s):  0.1 us,  0.0 sy,  0.0 ni, 99.9 id,  0.0 wa,  0.0 hi,  0.0 si,  0.0 st
KiB Mem : 16278772 total, 13316824 free,  1333456 used,  1628492 buff/cache
KiB Swap: 16630780 total, 16630780 free,        0 used. 14503464 avail Mem 

  PID USER      PR  NI    VIRT    RES    SHR S  %CPU %MEM     TIME+ COMMAND
 1124 root      20   0 4980128  39668  24916 S   1.0  0.2   0:10.28 containerd
 2192 root      20   0  433352  93656  61704 S   1.0  0.6   0:11.61 Xorg

top - 18:14:03 up 30 min,  1 user,  load average: 0.04, 0.55, 1.22
Tasks: 288 total,   1 running, 227 sleeping,   0 stopped,   0 zombie
%Cpu(s):  0.2 us,  0.2 sy,  0.0 ni, 99.5 id,  0.0 wa,  0.0 hi,  0.0 si,  0.0 st
KiB Mem : 16278772 total, 13316824 free,  1333456 used,  1628492 buff/cache
KiB Swap: 16630780 total, 16630780 free,        0 used. 14503464 avail Mem 

  PID USER      PR  NI    VIRT    RES    SHR S  %CPU %MEM     TIME+ COMMAND
30598 kenenth   20   0   41904   3860   3132 R   2.0  0.0   0:00.91 top

top - 18:14:04 up 30 min,  1 user,  load average: 0.04, 0.55, 1.22
Tasks: 288 total,   1 running, 227 sleeping,   0 stopped,   0 zombie
%Cpu(s):  0.0 us,  0.2 sy,  0.0 ni, 99.8 id,  0.0 wa,  0.0 hi,  0.0 si,  0.0 st
KiB Mem : 16278772 total, 13316824 free,  1333452 used,  1628496 buff/cache
KiB Swap: 16630780 total, 16630780 free,        0 used. 14503464 avail Mem 

  PID USER      PR  NI    VIRT    RES    SHR S  %CPU %MEM     TIME+ COMMAND
 1124 root      20   0 4980128  39668  24916 S   1.0  0.2   0:10.29 containerd
30598 kenenth   20   0   41904   3860   3132 R   1.0  0.0   0:00.92 top

top - 18:14:05 up 30 min,  1 user,  load average: 0.04, 0.54, 1.22
Tasks: 288 total,   1 running, 227 sleeping,   0 stopped,   0 zombie
%Cpu(s):  0.1 us,  0.1 sy,  0.0 ni, 99.8 id,  0.0 wa,  0.0 hi,  0.0 si,  0.0 st
KiB Mem : 16278772 total, 13316824 free,  1333452 used,  1628496 buff/cache
KiB Swap: 16630780 total, 16630780 free,        0 used. 14503464 avail Mem 

  PID USER      PR  NI    VIRT    RES    SHR S  %CPU %MEM     TIME+ COMMAND

top - 18:14:06 up 30 min,  1 user,  load average: 0.04, 0.54, 1.22
Tasks: 288 total,   1 running, 227 sleeping,   0 stopped,   0 zombie
%Cpu(s):  0.2 us,  0.1 sy,  0.0 ni, 99.6 id,  0.0 wa,  0.0 hi,  0.0 si,  0.0 st
KiB Mem : 16278772 total, 13316824 free,  1333452 used,  1628496 buff/cache
KiB Swap: 16630780 total, 16630780 free,        0 used. 14503464 avail Mem 

  PID USER      PR  NI    VIRT    RES    SHR S  %CPU %MEM     TIME+ COMMAND
 2398 kenenth   20   0 3531420 237016  90416 S   2.0  1.5   0:32.10 gnome-shell
30598 kenenth   20   0   41904   3860   3132 R   2.0  0.0   0:00.94 top
 2192 root      20   0  433352  93656  61704 S   1.0  0.6   0:11.62 Xorg

top - 18:14:07 up 30 min,  1 user,  load average: 0.04, 0.54, 1.22
Tasks: 288 total,   1 running, 227 sleeping,   0 stopped,   0 zombie
%Cpu(s):  0.1 us,  0.1 sy,  0.0 ni, 99.8 id,  0.0 wa,  0.0 hi,  0.0 si,  0.0 st
KiB Mem : 16278772 total, 13316808 free,  1333460 used,  1628504 buff/cache
KiB Swap: 16630780 total, 16630780 free,        0 used. 14503464 avail Mem 

  PID USER      PR  NI    VIRT    RES    SHR S  %CPU %MEM     TIME+ COMMAND
    8 root      20   0       0      0      0 I   1.0  0.0   0:01.22 rcu_sched
30598 kenenth   20   0   41904   3860   3132 R   1.0  0.0   0:00.95 top

top - 18:14:08 up 30 min,  1 user,  load average: 0.04, 0.54, 1.22
Tasks: 288 total,   1 running, 227 sleeping,   0 stopped,   0 zombie
%Cpu(s):  0.1 us,  0.5 sy,  0.0 ni, 99.4 id,  0.0 wa,  0.0 hi,  0.0 si,  0.0 st
KiB Mem : 16278772 total, 13316808 free,  1333460 used,  1628504 buff/cache
KiB Swap: 16630780 total, 16630780 free,        0 used. 14503464 avail Mem 

  PID USER      PR  NI    VIRT    RES    SHR S  %CPU %MEM     TIME+ COMMAND
30598 kenenth   20   0   41904   3860   3132 R   1.0  0.0   0:00.96 top

top - 18:14:09 up 30 min,  1 user,  load average: 0.04, 0.54, 1.22
Tasks: 288 total,   1 running, 227 sleeping,   0 stopped,   0 zombie
%Cpu(s):  0.1 us,  0.1 sy,  0.0 ni, 99.8 id,  0.0 wa,  0.0 hi,  0.0 si,  0.0 st
KiB Mem : 16278772 total, 13316808 free,  1333460 used,  1628504 buff/cache
KiB Swap: 16630780 total, 16630780 free,        0 used. 14503464 avail Mem 

  PID USER      PR  NI    VIRT    RES    SHR S  %CPU %MEM     TIME+ COMMAND
 2192 root      20   0  433352  93656  61704 S   1.0  0.6   0:11.63 Xorg
30598 kenenth   20   0   41904   3860   3132 R   1.0  0.0   0:00.97 top

top - 18:14:10 up 30 min,  1 user,  load average: 0.04, 0.53, 1.21
Tasks: 288 total,   1 running, 227 sleeping,   0 stopped,   0 zombie
%Cpu(s):  0.1 us,  0.1 sy,  0.0 ni, 99.8 id,  0.0 wa,  0.0 hi,  0.0 si,  0.0 st
KiB Mem : 16278772 total, 13316792 free,  1333476 used,  1628504 buff/cache
KiB Swap: 16630780 total, 16630780 free,        0 used. 14503448 avail Mem 

  PID USER      PR  NI    VIRT    RES    SHR S  %CPU %MEM     TIME+ COMMAND
 1280 gdm       20   0 3332632 121524  66516 S   2.0  0.7   0:27.68 gnome-shell
30598 kenenth   20   0   41904   3860   3132 R   2.0  0.0   0:00.99 top
 2193 root     -51   0       0      0      0 S   1.0  0.0   0:01.57 irq/135-nvidia

top - 18:14:11 up 30 min,  1 user,  load average: 0.04, 0.53, 1.21
Tasks: 288 total,   1 running, 227 sleeping,   0 stopped,   0 zombie
%Cpu(s):  0.1 us,  0.1 sy,  0.0 ni, 99.8 id,  0.0 wa,  0.0 hi,  0.0 si,  0.0 st
KiB Mem : 16278772 total, 13316792 free,  1333476 used,  1628504 buff/cache
KiB Swap: 16630780 total, 16630780 free,        0 used. 14503448 avail Mem 

  PID USER      PR  NI    VIRT    RES    SHR S  %CPU %MEM     TIME+ COMMAND
30598 kenenth   20   0   41904   3860   3132 R   1.0  0.0   0:01.00 top

top - 18:14:12 up 30 min,  1 user,  load average: 0.04, 0.53, 1.21
Tasks: 288 total,   1 running, 227 sleeping,   0 stopped,   0 zombie
%Cpu(s):  0.1 us,  0.1 sy,  0.0 ni, 99.8 id,  0.0 wa,  0.0 hi,  0.0 si,  0.0 st
KiB Mem : 16278772 total, 13316792 free,  1333476 used,  1628504 buff/cache
KiB Swap: 16630780 total, 16630780 free,        0 used. 14503448 avail Mem 

  PID USER      PR  NI    VIRT    RES    SHR S  %CPU %MEM     TIME+ COMMAND
30598 kenenth   20   0   41904   3860   3132 R   2.0  0.0   0:01.02 top
 1124 root      20   0 4980128  39668  24916 S   1.0  0.2   0:10.30 containerd
 2192 root      20   0  433352  93656  61704 S   1.0  0.6   0:11.64 Xorg

top - 18:14:13 up 30 min,  1 user,  load average: 0.04, 0.53, 1.21
Tasks: 288 total,   1 running, 227 sleeping,   0 stopped,   0 zombie
%Cpu(s):  0.1 us,  0.2 sy,  0.0 ni, 99.6 id,  0.0 wa,  0.0 hi,  0.0 si,  0.0 st
KiB Mem : 16278772 total, 13316808 free,  1333448 used,  1628516 buff/cache
KiB Swap: 16630780 total, 16630780 free,        0 used. 14503472 avail Mem 

  PID USER      PR  NI    VIRT    RES    SHR S  %CPU %MEM     TIME+ COMMAND
  973 root      20   0  110512   3452   3112 S   1.0  0.0   0:00.32 irqbalance
 2192 root      20   0  433352  93656  61704 S   1.0  0.6   0:11.65 Xorg
30598 kenenth   20   0   41904   3860   3132 R   1.0  0.0   0:01.03 top

top - 18:14:14 up 30 min,  1 user,  load average: 0.04, 0.53, 1.21
Tasks: 288 total,   1 running, 227 sleeping,   0 stopped,   0 zombie
%Cpu(s):  0.0 us,  0.1 sy,  0.0 ni, 99.8 id,  0.1 wa,  0.0 hi,  0.0 si,  0.0 st
KiB Mem : 16278772 total, 13316808 free,  1333448 used,  1628516 buff/cache
KiB Swap: 16630780 total, 16630780 free,        0 used. 14503472 avail Mem 

  PID USER      PR  NI    VIRT    RES    SHR S  %CPU %MEM     TIME+ COMMAND
30598 kenenth   20   0   41904   3860   3132 R   1.0  0.0   0:01.04 top

top - 18:14:15 up 30 min,  1 user,  load average: 0.03, 0.52, 1.20
Tasks: 288 total,   1 running, 227 sleeping,   0 stopped,   0 zombie
%Cpu(s):  0.0 us,  0.1 sy,  0.0 ni, 99.9 id,  0.0 wa,  0.0 hi,  0.0 si,  0.0 st
KiB Mem : 16278772 total, 13316808 free,  1333448 used,  1628516 buff/cache
KiB Swap: 16630780 total, 16630780 free,        0 used. 14503472 avail Mem 

  PID USER      PR  NI    VIRT    RES    SHR S  %CPU %MEM     TIME+ COMMAND
 2192 root      20   0  433352  93656  61704 S   1.0  0.6   0:11.66 Xorg
30598 kenenth   20   0   41904   3860   3132 R   1.0  0.0   0:01.05 top

top - 18:14:16 up 30 min,  1 user,  load average: 0.03, 0.52, 1.20
Tasks: 288 total,   1 running, 227 sleeping,   0 stopped,   0 zombie
%Cpu(s):  0.0 us,  0.1 sy,  0.0 ni, 99.9 id,  0.0 wa,  0.0 hi,  0.0 si,  0.0 st
KiB Mem : 16278772 total, 13316760 free,  1333488 used,  1628524 buff/cache
KiB Swap: 16630780 total, 16630780 free,        0 used. 14503452 avail Mem 

  PID USER      PR  NI    VIRT    RES    SHR S  %CPU %MEM     TIME+ COMMAND
30598 kenenth   20   0   41904   3860   3132 R   1.0  0.0   0:01.06 top

top - 18:14:17 up 30 min,  1 user,  load average: 0.03, 0.52, 1.20
Tasks: 288 total,   1 running, 227 sleeping,   0 stopped,   0 zombie
%Cpu(s):  0.1 us,  0.2 sy,  0.0 ni, 99.6 id,  0.0 wa,  0.0 hi,  0.0 si,  0.0 st
KiB Mem : 16278772 total, 13316760 free,  1333488 used,  1628524 buff/cache
KiB Swap: 16630780 total, 16630780 free,        0 used. 14503452 avail Mem 

  PID USER      PR  NI    VIRT    RES    SHR S  %CPU %MEM     TIME+ COMMAND
 1124 root      20   0 4980128  39668  24916 S   1.0  0.2   0:10.31 containerd
30598 kenenth   20   0   41904   3860   3132 R   1.0  0.0   0:01.07 top

top - 18:14:18 up 30 min,  1 user,  load average: 0.03, 0.52, 1.20
Tasks: 288 total,   1 running, 227 sleeping,   0 stopped,   0 zombie
%Cpu(s):  0.1 us,  0.1 sy,  0.0 ni, 99.8 id,  0.0 wa,  0.0 hi,  0.0 si,  0.0 st
KiB Mem : 16278772 total, 13316760 free,  1333488 used,  1628524 buff/cache
KiB Swap: 16630780 total, 16630780 free,        0 used. 14503452 avail Mem 

  PID USER      PR  NI    VIRT    RES    SHR S  %CPU %MEM     TIME+ COMMAND
30598 kenenth   20   0   41904   3860   3132 R   2.0  0.0   0:01.09 top
30606 kenenth   20   0   22648   2476   2300 S   1.0  0.0   0:00.02 ping

top - 18:14:19 up 30 min,  1 user,  load average: 0.03, 0.52, 1.20
Tasks: 288 total,   1 running, 227 sleeping,   0 stopped,   0 zombie
%Cpu(s):  0.1 us,  0.1 sy,  0.0 ni, 99.8 id,  0.0 wa,  0.0 hi,  0.0 si,  0.0 st
KiB Mem : 16278772 total, 13316728 free,  1333512 used,  1628532 buff/cache
KiB Swap: 16630780 total, 16630780 free,        0 used. 14503420 avail Mem 

  PID USER      PR  NI    VIRT    RES    SHR S  %CPU %MEM     TIME+ COMMAND
  962 root      20   0  179856   9624   8808 S   1.0  0.1   0:01.58 thermald
  967 root      20   0  493476  23572  13940 S   1.0  0.1   0:17.72 NetworkManager
 2192 root      20   0  433352  93656  61704 S   1.0  0.6   0:11.67 Xorg
30598 kenenth   20   0   41904   3860   3132 R   1.0  0.0   0:01.10 top
30604 kenenth   20   0   22648   2532   2356 S   1.0  0.0   0:00.02 ping

top - 18:14:20 up 30 min,  1 user,  load average: 0.03, 0.51, 1.20
Tasks: 288 total,   1 running, 227 sleeping,   0 stopped,   0 zombie
%Cpu(s):  0.0 us,  0.2 sy,  0.0 ni, 99.8 id,  0.0 wa,  0.0 hi,  0.0 si,  0.0 st
KiB Mem : 16278772 total, 13316728 free,  1333512 used,  1628532 buff/cache
KiB Swap: 16630780 total, 16630780 free,        0 used. 14503420 avail Mem 

  PID USER      PR  NI    VIRT    RES    SHR S  %CPU %MEM     TIME+ COMMAND
30598 kenenth   20   0   41904   3860   3132 R   2.0  0.0   0:01.12 top
 2192 root      20   0  433352  93656  61704 S   1.0  0.6   0:11.68 Xorg
30610 kenenth   20   0   22648   2544   2372 S   1.0  0.0   0:00.02 ping

top - 18:14:21 up 30 min,  1 user,  load average: 0.03, 0.51, 1.20
Tasks: 288 total,   1 running, 227 sleeping,   0 stopped,   0 zombie
%Cpu(s):  0.1 us,  0.1 sy,  0.0 ni, 99.8 id,  0.0 wa,  0.0 hi,  0.0 si,  0.0 st
KiB Mem : 16278772 total, 13316728 free,  1333512 used,  1628532 buff/cache
KiB Swap: 16630780 total, 16630780 free,        0 used. 14503420 avail Mem 

  PID USER      PR  NI    VIRT    RES    SHR S  %CPU %MEM     TIME+ COMMAND
30602 kenenth   20   0   22648   2480   2304 S   1.0  0.0   0:00.02 ping

top - 18:14:22 up 30 min,  1 user,  load average: 0.03, 0.51, 1.20
Tasks: 288 total,   1 running, 227 sleeping,   0 stopped,   0 zombie
%Cpu(s):  0.0 us,  0.1 sy,  0.0 ni, 99.9 id,  0.0 wa,  0.0 hi,  0.0 si,  0.0 st
KiB Mem : 16278772 total, 13316696 free,  1333536 used,  1628540 buff/cache
KiB Swap: 16630780 total, 16630780 free,        0 used. 14503388 avail Mem 

  PID USER      PR  NI    VIRT    RES    SHR S  %CPU %MEM     TIME+ COMMAND
 2192 root      20   0  433352  93656  61704 S   1.0  0.6   0:11.69 Xorg
30598 kenenth   20   0   41904   3860   3132 R   1.0  0.0   0:01.13 top
30603 kenenth   20   0   22648   2472   2296 S   1.0  0.0   0:00.02 ping

top - 18:14:23 up 30 min,  1 user,  load average: 0.03, 0.51, 1.20
Tasks: 288 total,   1 running, 227 sleeping,   0 stopped,   0 zombie
%Cpu(s):  0.1 us,  0.2 sy,  0.0 ni, 99.6 id,  0.0 wa,  0.0 hi,  0.0 si,  0.0 st
KiB Mem : 16278772 total, 13316696 free,  1333536 used,  1628540 buff/cache
KiB Swap: 16630780 total, 16630780 free,        0 used. 14503388 avail Mem 

  PID USER      PR  NI    VIRT    RES    SHR S  %CPU %MEM     TIME+ COMMAND
30598 kenenth   20   0   41904   3860   3132 R   2.0  0.0   0:01.15 top

top - 18:14:24 up 30 min,  1 user,  load average: 0.03, 0.51, 1.20
Tasks: 288 total,   1 running, 227 sleeping,   0 stopped,   0 zombie
%Cpu(s):  0.1 us,  0.0 sy,  0.0 ni, 99.9 id,  0.0 wa,  0.0 hi,  0.0 si,  0.0 st
KiB Mem : 16278772 total, 13316696 free,  1333536 used,  1628540 buff/cache
KiB Swap: 16630780 total, 16630780 free,        0 used. 14503388 avail Mem 

  PID USER      PR  NI    VIRT    RES    SHR S  %CPU %MEM     TIME+ COMMAND
30598 kenenth   20   0   41904   3860   3132 R   2.0  0.0   0:01.17 top

top - 18:14:25 up 30 min,  1 user,  load average: 0.03, 0.50, 1.19
Tasks: 288 total,   1 running, 227 sleeping,   0 stopped,   0 zombie
%Cpu(s):  0.1 us,  0.1 sy,  0.0 ni, 99.8 id,  0.0 wa,  0.0 hi,  0.0 si,  0.0 st
KiB Mem : 16278772 total, 13316696 free,  1333536 used,  1628540 buff/cache
KiB Swap: 16630780 total, 16630780 free,        0 used. 14503388 avail Mem 

  PID USER      PR  NI    VIRT    RES    SHR S  %CPU %MEM     TIME+ COMMAND
    5 root      20   0       0      0      0 I   1.0  0.0   0:02.66 kworker/u16:0
 2192 root      20   0  433352  93656  61704 S   1.0  0.6   0:11.70 Xorg

top - 18:14:26 up 30 min,  1 user,  load average: 0.03, 0.50, 1.19
Tasks: 288 total,   1 running, 227 sleeping,   0 stopped,   0 zombie
%Cpu(s):  0.2 us,  0.2 sy,  0.0 ni, 99.5 id,  0.0 wa,  0.0 hi,  0.0 si,  0.0 st
KiB Mem : 16278772 total, 13316696 free,  1333536 used,  1628540 buff/cache
KiB Swap: 16630780 total, 16630780 free,        0 used. 14503388 avail Mem 

  PID USER      PR  NI    VIRT    RES    SHR S  %CPU %MEM     TIME+ COMMAND
 1124 root      20   0 4980128  39668  24916 S   1.0  0.2   0:10.32 containerd
30598 kenenth   20   0   41904   3860   3132 R   1.0  0.0   0:01.18 top

top - 18:14:28 up 30 min,  1 user,  load average: 0.03, 0.50, 1.19
Tasks: 288 total,   1 running, 227 sleeping,   0 stopped,   0 zombie
%Cpu(s):  0.1 us,  0.1 sy,  0.0 ni, 99.8 id,  0.0 wa,  0.0 hi,  0.0 si,  0.0 st
KiB Mem : 16278772 total, 13316696 free,  1333536 used,  1628540 buff/cache
KiB Swap: 16630780 total, 16630780 free,        0 used. 14503388 avail Mem 

  PID USER      PR  NI    VIRT    RES    SHR S  %CPU %MEM     TIME+ COMMAND
30598 kenenth   20   0   41904   3860   3132 R   2.0  0.0   0:01.20 top