PING 216.58.195.238 (216.58.195.238) 56(84) bytes of data.
64 bytes from 216.58.195.238: icmp_seq=1 ttl=54 time=13.2 ms
PING 216.58.195.238 (216.58.195.238) 56(84) bytes of data.
64 bytes from 216.58.195.238: icmp_seq=1 ttl=54 time=13.1 ms
PING 216.58.195.238 (216.58.195.238) 56(84) bytes of data.
64 bytes from 216.58.195.238: icmp_seq=1 ttl=54 time=13.0 ms
PING 216.58.195.238 (216.58.195.238) 56(84) bytes of data.
64 bytes from 216.58.195.238: icmp_seq=1 ttl=54 time=13.2 ms
PING 216.58.195.238 (216.58.195.238) 56(84) bytes of data.
64 bytes from 216.58.195.238: icmp_seq=1 ttl=54 time=13.1 ms
PING 216.58.195.238 (216.58.195.238) 56(84) bytes of data.
64 bytes from 216.58.195.238: icmp_seq=1 ttl=54 time=13.2 ms
PING 216.58.195.238 (216.58.195.238) 56(84) bytes of data.
64 bytes from 216.58.195.238: icmp_seq=1 ttl=54 time=12.9 ms
PING 216.58.195.238 (216.58.195.238) 56(84) bytes of data.
64 bytes from 216.58.195.238: icmp_seq=1 ttl=54 time=12.9 ms
PING 216.58.195.238 (216.58.195.238) 56(84) bytes of data.
64 bytes from 216.58.195.238: icmp_seq=1 ttl=54 time=12.7 ms
PING 216.58.195.238 (216.58.195.238) 56(84) bytes of data.
64 bytes from 216.58.195.238: icmp_seq=1 ttl=54 time=12.8 ms
64 bytes from 216.58.195.238: icmp_seq=2 ttl=54 time=13.7 ms
64 bytes from 216.58.195.238: icmp_seq=2 ttl=54 time=13.7 ms
64 bytes from 216.58.195.238: icmp_seq=2 ttl=54 time=13.7 ms
64 bytes from 216.58.195.238: icmp_seq=2 ttl=54 time=13.7 ms
64 bytes from 216.58.195.238: icmp_seq=2 ttl=54 time=13.7 ms
64 bytes from 216.58.195.238: icmp_seq=2 ttl=54 time=13.7 ms
64 bytes from 216.58.195.238: icmp_seq=2 ttl=54 time=13.6 ms
64 bytes from 216.58.195.238: icmp_seq=2 ttl=54 time=13.0 ms
64 bytes from 216.58.195.238: icmp_seq=2 ttl=54 time=13.0 ms
64 bytes from 216.58.195.238: icmp_seq=2 ttl=54 time=13.0 ms
64 bytes from 216.58.195.238: icmp_seq=3 ttl=54 time=13.4 ms
64 bytes from 216.58.195.238: icmp_seq=3 ttl=54 time=13.4 ms
64 bytes from 216.58.195.238: icmp_seq=3 ttl=54 time=13.4 ms
64 bytes from 216.58.195.238: icmp_seq=3 ttl=54 time=13.4 ms
64 bytes from 216.58.195.238: icmp_seq=3 ttl=54 time=13.5 ms
64 bytes from 216.58.195.238: icmp_seq=3 ttl=54 time=13.5 ms
64 bytes from 216.58.195.238: icmp_seq=3 ttl=54 time=13.3 ms
64 bytes from 216.58.195.238: icmp_seq=3 ttl=54 time=13.4 ms
64 bytes from 216.58.195.238: icmp_seq=3 ttl=54 time=13.5 ms
64 bytes from 216.58.195.238: icmp_seq=3 ttl=54 time=13.4 ms
64 bytes from 216.58.195.238: icmp_seq=4 ttl=54 time=13.3 ms
64 bytes from 216.58.195.238: icmp_seq=4 ttl=54 time=13.3 ms
64 bytes from 216.58.195.238: icmp_seq=4 ttl=54 time=13.3 ms
64 bytes from 216.58.195.238: icmp_seq=4 ttl=54 time=13.3 ms
64 bytes from 216.58.195.238: icmp_seq=4 ttl=54 time=13.3 ms
64 bytes from 216.58.195.238: icmp_seq=4 ttl=54 time=13.3 ms
64 bytes from 216.58.195.238: icmp_seq=4 ttl=54 time=13.3 ms
64 bytes from 216.58.195.238: icmp_seq=4 ttl=54 time=13.4 ms
64 bytes from 216.58.195.238: icmp_seq=4 ttl=54 time=13.2 ms
64 bytes from 216.58.195.238: icmp_seq=4 ttl=54 time=13.3 ms
64 bytes from 216.58.195.238: icmp_seq=5 ttl=54 time=13.5 ms
64 bytes from 216.58.195.238: icmp_seq=5 ttl=54 time=13.5 ms
64 bytes from 216.58.195.238: icmp_seq=5 ttl=54 time=13.6 ms
64 bytes from 216.58.195.238: icmp_seq=5 ttl=54 time=13.5 ms
64 bytes from 216.58.195.238: icmp_seq=5 ttl=54 time=13.6 ms
64 bytes from 216.58.195.238: icmp_seq=5 ttl=54 time=13.5 ms
64 bytes from 216.58.195.238: icmp_seq=5 ttl=54 time=13.4 ms
64 bytes from 216.58.195.238: icmp_seq=5 ttl=54 time=13.4 ms
64 bytes from 216.58.195.238: icmp_seq=5 ttl=54 time=13.5 ms
64 bytes from 216.58.195.238: icmp_seq=5 ttl=54 time=13.5 ms
64 bytes from 216.58.195.238: icmp_seq=6 ttl=54 time=13.1 ms
64 bytes from 216.58.195.238: icmp_seq=6 ttl=54 time=13.1 ms
64 bytes from 216.58.195.238: icmp_seq=6 ttl=54 time=13.1 ms
64 bytes from 216.58.195.238: icmp_seq=6 ttl=54 time=13.1 ms
64 bytes from 216.58.195.238: icmp_seq=6 ttl=54 time=13.1 ms
64 bytes from 216.58.195.238: icmp_seq=6 ttl=54 time=13.1 ms
64 bytes from 216.58.195.238: icmp_seq=6 ttl=54 time=13.1 ms
64 bytes from 216.58.195.238: icmp_seq=6 ttl=54 time=13.1 ms
64 bytes from 216.58.195.238: icmp_seq=6 ttl=54 time=13.4 ms
64 bytes from 216.58.195.238: icmp_seq=6 ttl=54 time=13.1 ms
64 bytes from 216.58.195.238: icmp_seq=7 ttl=54 time=13.2 ms
64 bytes from 216.58.195.238: icmp_seq=7 ttl=54 time=13.3 ms
64 bytes from 216.58.195.238: icmp_seq=7 ttl=54 time=13.2 ms
64 bytes from 216.58.195.238: icmp_seq=7 ttl=54 time=13.2 ms
64 bytes from 216.58.195.238: icmp_seq=7 ttl=54 time=13.2 ms
64 bytes from 216.58.195.238: icmp_seq=7 ttl=54 time=13.2 ms
64 bytes from 216.58.195.238: icmp_seq=7 ttl=54 time=13.2 ms
64 bytes from 216.58.195.238: icmp_seq=7 ttl=54 time=13.2 ms
64 bytes from 216.58.195.238: icmp_seq=7 ttl=54 time=13.2 ms
64 bytes from 216.58.195.238: icmp_seq=7 ttl=54 time=13.2 ms
64 bytes from 216.58.195.238: icmp_seq=8 ttl=54 time=13.6 ms
64 bytes from 216.58.195.238: icmp_seq=8 ttl=54 time=13.6 ms
64 bytes from 216.58.195.238: icmp_seq=8 ttl=54 time=13.6 ms
64 bytes from 216.58.195.238: icmp_seq=8 ttl=54 time=13.6 ms
64 bytes from 216.58.195.238: icmp_seq=8 ttl=54 time=13.7 ms
64 bytes from 216.58.195.238: icmp_seq=8 ttl=54 time=13.6 ms
64 bytes from 216.58.195.238: icmp_seq=8 ttl=54 time=13.6 ms
64 bytes from 216.58.195.238: icmp_seq=8 ttl=54 time=13.8 ms
64 bytes from 216.58.195.238: icmp_seq=8 ttl=54 time=13.5 ms
64 bytes from 216.58.195.238: icmp_seq=8 ttl=54 time=13.6 ms
64 bytes from 216.58.195.238: icmp_seq=9 ttl=54 time=13.6 ms
64 bytes from 216.58.195.238: icmp_seq=9 ttl=54 time=13.5 ms
64 bytes from 216.58.195.238: icmp_seq=9 ttl=54 time=13.6 ms
64 bytes from 216.58.195.238: icmp_seq=9 ttl=54 time=13.6 ms
64 bytes from 216.58.195.238: icmp_seq=9 ttl=54 time=13.7 ms
64 bytes from 216.58.195.238: icmp_seq=9 ttl=54 time=13.6 ms
64 bytes from 216.58.195.238: icmp_seq=9 ttl=54 time=13.7 ms
64 bytes from 216.58.195.238: icmp_seq=9 ttl=54 time=13.7 ms
64 bytes from 216.58.195.238: icmp_seq=9 ttl=54 time=13.6 ms
64 bytes from 216.58.195.238: icmp_seq=9 ttl=54 time=13.6 ms
64 bytes from 216.58.195.238: icmp_seq=10 ttl=54 time=13.3 ms
64 bytes from 216.58.195.238: icmp_seq=10 ttl=54 time=13.3 ms
64 bytes from 216.58.195.238: icmp_seq=10 ttl=54 time=13.3 ms
64 bytes from 216.58.195.238: icmp_seq=10 ttl=54 time=13.3 ms
64 bytes from 216.58.195.238: icmp_seq=10 ttl=54 time=13.3 ms
64 bytes from 216.58.195.238: icmp_seq=10 ttl=54 time=13.4 ms
64 bytes from 216.58.195.238: icmp_seq=10 ttl=54 time=13.3 ms
64 bytes from 216.58.195.238: icmp_seq=10 ttl=54 time=13.3 ms
64 bytes from 216.58.195.238: icmp_seq=10 ttl=54 time=13.3 ms
64 bytes from 216.58.195.238: icmp_seq=10 ttl=54 time=13.3 ms
64 bytes from 216.58.195.238: icmp_seq=11 ttl=54 time=13.4 ms
64 bytes from 216.58.195.238: icmp_seq=11 ttl=54 time=13.4 ms
64 bytes from 216.58.195.238: icmp_seq=11 ttl=54 time=13.4 ms
64 bytes from 216.58.195.238: icmp_seq=11 ttl=54 time=13.4 ms
64 bytes from 216.58.195.238: icmp_seq=11 ttl=54 time=13.4 ms
64 bytes from 216.58.195.238: icmp_seq=11 ttl=54 time=13.4 ms
64 bytes from 216.58.195.238: icmp_seq=11 ttl=54 time=13.3 ms
64 bytes from 216.58.195.238: icmp_seq=11 ttl=54 time=13.4 ms
64 bytes from 216.58.195.238: icmp_seq=11 ttl=54 time=13.4 ms
64 bytes from 216.58.195.238: icmp_seq=11 ttl=54 time=13.4 ms
64 bytes from 216.58.195.238: icmp_seq=12 ttl=54 time=13.6 ms
64 bytes from 216.58.195.238: icmp_seq=12 ttl=54 time=13.6 ms
64 bytes from 216.58.195.238: icmp_seq=12 ttl=54 time=13.7 ms
64 bytes from 216.58.195.238: icmp_seq=12 ttl=54 time=13.7 ms
64 bytes from 216.58.195.238: icmp_seq=12 ttl=54 time=13.7 ms
64 bytes from 216.58.195.238: icmp_seq=12 ttl=54 time=13.8 ms
64 bytes from 216.58.195.238: icmp_seq=12 ttl=54 time=13.6 ms
64 bytes from 216.58.195.238: icmp_seq=12 ttl=54 time=13.8 ms
64 bytes from 216.58.195.238: icmp_seq=12 ttl=54 time=13.7 ms
64 bytes from 216.58.195.238: icmp_seq=12 ttl=54 time=13.7 ms
64 bytes from 216.58.195.238: icmp_seq=13 ttl=54 time=13.4 ms
64 bytes from 216.58.195.238: icmp_seq=13 ttl=54 time=13.4 ms
64 bytes from 216.58.195.238: icmp_seq=13 ttl=54 time=13.5 ms
64 bytes from 216.58.195.238: icmp_seq=13 ttl=54 time=13.5 ms
64 bytes from 216.58.195.238: icmp_seq=13 ttl=54 time=13.5 ms
64 bytes from 216.58.195.238: icmp_seq=13 ttl=54 time=13.5 ms
64 bytes from 216.58.195.238: icmp_seq=13 ttl=54 time=13.5 ms
64 bytes from 216.58.195.238: icmp_seq=13 ttl=54 time=13.5 ms
64 bytes from 216.58.195.238: icmp_seq=13 ttl=54 time=13.5 ms
64 bytes from 216.58.195.238: icmp_seq=13 ttl=54 time=13.3 ms
64 bytes from 216.58.195.238: icmp_seq=14 ttl=54 time=13.4 ms
64 bytes from 216.58.195.238: icmp_seq=14 ttl=54 time=13.5 ms
64 bytes from 216.58.195.238: icmp_seq=14 ttl=54 time=13.5 ms
64 bytes from 216.58.195.238: icmp_seq=14 ttl=54 time=13.5 ms
64 bytes from 216.58.195.238: icmp_seq=14 ttl=54 time=13.6 ms
64 bytes from 216.58.195.238: icmp_seq=14 ttl=54 time=13.5 ms
64 bytes from 216.58.195.238: icmp_seq=14 ttl=54 time=13.6 ms
64 bytes from 216.58.195.238: icmp_seq=14 ttl=54 time=13.5 ms
64 bytes from 216.58.195.238: icmp_seq=14 ttl=54 time=13.5 ms
64 bytes from 216.58.195.238: icmp_seq=14 ttl=54 time=13.4 ms
64 bytes from 216.58.195.238: icmp_seq=15 ttl=54 time=13.5 ms
64 bytes from 216.58.195.238: icmp_seq=15 ttl=54 time=13.5 ms
64 bytes from 216.58.195.238: icmp_seq=15 ttl=54 time=13.5 ms
64 bytes from 216.58.195.238: icmp_seq=15 ttl=54 time=13.5 ms
64 bytes from 216.58.195.238: icmp_seq=15 ttl=54 time=13.6 ms
64 bytes from 216.58.195.238: icmp_seq=15 ttl=54 time=13.6 ms
64 bytes from 216.58.195.238: icmp_seq=15 ttl=54 time=13.5 ms
64 bytes from 216.58.195.238: icmp_seq=15 ttl=54 time=13.5 ms
64 bytes from 216.58.195.238: icmp_seq=15 ttl=54 time=13.5 ms
64 bytes from 216.58.195.238: icmp_seq=15 ttl=54 time=13.4 ms
64 bytes from 216.58.195.238: icmp_seq=16 ttl=54 time=13.6 ms
64 bytes from 216.58.195.238: icmp_seq=16 ttl=54 time=13.5 ms
64 bytes from 216.58.195.238: icmp_seq=16 ttl=54 time=13.6 ms
64 bytes from 216.58.195.238: icmp_seq=16 ttl=54 time=13.6 ms
64 bytes from 216.58.195.238: icmp_seq=16 ttl=54 time=13.6 ms
64 bytes from 216.58.195.238: icmp_seq=16 ttl=54 time=13.4 ms
64 bytes from 216.58.195.238: icmp_seq=16 ttl=54 time=13.5 ms
64 bytes from 216.58.195.238: icmp_seq=16 ttl=54 time=13.7 ms
64 bytes from 216.58.195.238: icmp_seq=16 ttl=54 time=13.5 ms
64 bytes from 216.58.195.238: icmp_seq=16 ttl=54 time=13.7 ms
64 bytes from 216.58.195.238: icmp_seq=17 ttl=54 time=13.4 ms
64 bytes from 216.58.195.238: icmp_seq=17 ttl=54 time=13.5 ms
64 bytes from 216.58.195.238: icmp_seq=17 ttl=54 time=13.5 ms
64 bytes from 216.58.195.238: icmp_seq=17 ttl=54 time=13.5 ms
64 bytes from 216.58.195.238: icmp_seq=17 ttl=54 time=13.6 ms
64 bytes from 216.58.195.238: icmp_seq=17 ttl=54 time=13.5 ms
64 bytes from 216.58.195.238: icmp_seq=17 ttl=54 time=13.5 ms
64 bytes from 216.58.195.238: icmp_seq=17 ttl=54 time=13.4 ms
64 bytes from 216.58.195.238: icmp_seq=17 ttl=54 time=13.5 ms
64 bytes from 216.58.195.238: icmp_seq=17 ttl=54 time=13.5 ms
64 bytes from 216.58.195.238: icmp_seq=18 ttl=54 time=13.2 ms
64 bytes from 216.58.195.238: icmp_seq=18 ttl=54 time=13.2 ms
64 bytes from 216.58.195.238: icmp_seq=18 ttl=54 time=13.2 ms
64 bytes from 216.58.195.238: icmp_seq=18 ttl=54 time=13.3 ms
64 bytes from 216.58.195.238: icmp_seq=18 ttl=54 time=13.2 ms
64 bytes from 216.58.195.238: icmp_seq=18 ttl=54 time=13.3 ms
64 bytes from 216.58.195.238: icmp_seq=18 ttl=54 time=13.2 ms
64 bytes from 216.58.195.238: icmp_seq=18 ttl=54 time=13.2 ms
64 bytes from 216.58.195.238: icmp_seq=18 ttl=54 time=13.3 ms
64 bytes from 216.58.195.238: icmp_seq=18 ttl=54 time=13.1 ms
64 bytes from 216.58.195.238: icmp_seq=19 ttl=54 time=13.3 ms
64 bytes from 216.58.195.238: icmp_seq=19 ttl=54 time=13.3 ms
64 bytes from 216.58.195.238: icmp_seq=19 ttl=54 time=13.3 ms
64 bytes from 216.58.195.238: icmp_seq=19 ttl=54 time=13.4 ms
64 bytes from 216.58.195.238: icmp_seq=19 ttl=54 time=13.4 ms
64 bytes from 216.58.195.238: icmp_seq=19 ttl=54 time=13.4 ms
64 bytes from 216.58.195.238: icmp_seq=19 ttl=54 time=13.4 ms
64 bytes from 216.58.195.238: icmp_seq=19 ttl=54 time=13.4 ms
64 bytes from 216.58.195.238: icmp_seq=19 ttl=54 time=13.4 ms
64 bytes from 216.58.195.238: icmp_seq=19 ttl=54 time=13.3 ms
64 bytes from 216.58.195.238: icmp_seq=20 ttl=54 time=13.1 ms
64 bytes from 216.58.195.238: icmp_seq=20 ttl=54 time=13.1 ms
64 bytes from 216.58.195.238: icmp_seq=20 ttl=54 time=13.1 ms
64 bytes from 216.58.195.238: icmp_seq=20 ttl=54 time=13.1 ms
64 bytes from 216.58.195.238: icmp_seq=20 ttl=54 time=13.1 ms
64 bytes from 216.58.195.238: icmp_seq=20 ttl=54 time=13.2 ms
64 bytes from 216.58.195.238: icmp_seq=20 ttl=54 time=13.2 ms
64 bytes from 216.58.195.238: icmp_seq=20 ttl=54 time=13.0 ms
64 bytes from 216.58.195.238: icmp_seq=20 ttl=54 time=13.1 ms
64 bytes from 216.58.195.238: icmp_seq=20 ttl=54 time=13.1 ms
64 bytes from 216.58.195.238: icmp_seq=21 ttl=54 time=13.2 ms
64 bytes from 216.58.195.238: icmp_seq=21 ttl=54 time=13.3 ms
64 bytes from 216.58.195.238: icmp_seq=21 ttl=54 time=13.3 ms
64 bytes from 216.58.195.238: icmp_seq=21 ttl=54 time=13.3 ms
64 bytes from 216.58.195.238: icmp_seq=21 ttl=54 time=13.3 ms
64 bytes from 216.58.195.238: icmp_seq=21 ttl=54 time=13.3 ms
64 bytes from 216.58.195.238: icmp_seq=21 ttl=54 time=13.3 ms
64 bytes from 216.58.195.238: icmp_seq=21 ttl=54 time=13.3 ms
64 bytes from 216.58.195.238: icmp_seq=21 ttl=54 time=13.3 ms
64 bytes from 216.58.195.238: icmp_seq=21 ttl=54 time=13.2 ms
64 bytes from 216.58.195.238: icmp_seq=22 ttl=54 time=13.5 ms
64 bytes from 216.58.195.238: icmp_seq=22 ttl=54 time=13.6 ms
64 bytes from 216.58.195.238: icmp_seq=22 ttl=54 time=13.5 ms
64 bytes from 216.58.195.238: icmp_seq=22 ttl=54 time=13.5 ms
64 bytes from 216.58.195.238: icmp_seq=22 ttl=54 time=13.6 ms
64 bytes from 216.58.195.238: icmp_seq=22 ttl=54 time=13.6 ms
64 bytes from 216.58.195.238: icmp_seq=22 ttl=54 time=13.6 ms
64 bytes from 216.58.195.238: icmp_seq=22 ttl=54 time=13.5 ms
64 bytes from 216.58.195.238: icmp_seq=22 ttl=54 time=13.5 ms
64 bytes from 216.58.195.238: icmp_seq=22 ttl=54 time=13.6 ms
64 bytes from 216.58.195.238: icmp_seq=23 ttl=54 time=13.6 ms
64 bytes from 216.58.195.238: icmp_seq=23 ttl=54 time=13.6 ms
64 bytes from 216.58.195.238: icmp_seq=23 ttl=54 time=13.6 ms
64 bytes from 216.58.195.238: icmp_seq=23 ttl=54 time=13.7 ms
64 bytes from 216.58.195.238: icmp_seq=23 ttl=54 time=13.7 ms
64 bytes from 216.58.195.238: icmp_seq=23 ttl=54 time=13.6 ms
64 bytes from 216.58.195.238: icmp_seq=23 ttl=54 time=13.6 ms
64 bytes from 216.58.195.238: icmp_seq=23 ttl=54 time=13.5 ms
64 bytes from 216.58.195.238: icmp_seq=23 ttl=54 time=13.6 ms
64 bytes from 216.58.195.238: icmp_seq=23 ttl=54 time=13.6 ms
64 bytes from 216.58.195.238: icmp_seq=24 ttl=54 time=13.4 ms
64 bytes from 216.58.195.238: icmp_seq=24 ttl=54 time=13.4 ms
64 bytes from 216.58.195.238: icmp_seq=24 ttl=54 time=13.5 ms
64 bytes from 216.58.195.238: icmp_seq=24 ttl=54 time=13.5 ms
64 bytes from 216.58.195.238: icmp_seq=24 ttl=54 time=13.5 ms
64 bytes from 216.58.195.238: icmp_seq=24 ttl=54 time=13.5 ms
64 bytes from 216.58.195.238: icmp_seq=24 ttl=54 time=13.6 ms
64 bytes from 216.58.195.238: icmp_seq=24 ttl=54 time=13.5 ms
64 bytes from 216.58.195.238: icmp_seq=24 ttl=54 time=13.5 ms
64 bytes from 216.58.195.238: icmp_seq=24 ttl=54 time=13.3 ms
64 bytes from 216.58.195.238: icmp_seq=25 ttl=54 time=13.3 ms
64 bytes from 216.58.195.238: icmp_seq=25 ttl=54 time=13.3 ms
64 bytes from 216.58.195.238: icmp_seq=25 ttl=54 time=13.3 ms
64 bytes from 216.58.195.238: icmp_seq=25 ttl=54 time=13.3 ms
64 bytes from 216.58.195.238: icmp_seq=25 ttl=54 time=13.4 ms
64 bytes from 216.58.195.238: icmp_seq=25 ttl=54 time=13.4 ms
64 bytes from 216.58.195.238: icmp_seq=25 ttl=54 time=13.4 ms
64 bytes from 216.58.195.238: icmp_seq=25 ttl=54 time=13.2 ms
64 bytes from 216.58.195.238: icmp_seq=25 ttl=54 time=13.3 ms
64 bytes from 216.58.195.238: icmp_seq=25 ttl=54 time=13.3 ms
64 bytes from 216.58.195.238: icmp_seq=26 ttl=54 time=13.6 ms
64 bytes from 216.58.195.238: icmp_seq=26 ttl=54 time=13.6 ms
64 bytes from 216.58.195.238: icmp_seq=26 ttl=54 time=13.6 ms
64 bytes from 216.58.195.238: icmp_seq=26 ttl=54 time=13.6 ms
64 bytes from 216.58.195.238: icmp_seq=26 ttl=54 time=13.6 ms
64 bytes from 216.58.195.238: icmp_seq=26 ttl=54 time=13.7 ms
64 bytes from 216.58.195.238: icmp_seq=26 ttl=54 time=13.6 ms
64 bytes from 216.58.195.238: icmp_seq=26 ttl=54 time=13.7 ms
64 bytes from 216.58.195.238: icmp_seq=26 ttl=54 time=13.5 ms
64 bytes from 216.58.195.238: icmp_seq=26 ttl=54 time=13.6 ms
64 bytes from 216.58.195.238: icmp_seq=27 ttl=54 time=13.4 ms
64 bytes from 216.58.195.238: icmp_seq=27 ttl=54 time=13.5 ms
64 bytes from 216.58.195.238: icmp_seq=27 ttl=54 time=13.5 ms
64 bytes from 216.58.195.238: icmp_seq=27 ttl=54 time=13.5 ms
64 bytes from 216.58.195.238: icmp_seq=27 ttl=54 time=13.5 ms
64 bytes from 216.58.195.238: icmp_seq=27 ttl=54 time=13.5 ms
64 bytes from 216.58.195.238: icmp_seq=27 ttl=54 time=13.5 ms
64 bytes from 216.58.195.238: icmp_seq=27 ttl=54 time=13.4 ms
64 bytes from 216.58.195.238: icmp_seq=27 ttl=54 time=13.5 ms
64 bytes from 216.58.195.238: icmp_seq=27 ttl=54 time=13.5 ms
64 bytes from 216.58.195.238: icmp_seq=28 ttl=54 time=13.0 ms
64 bytes from 216.58.195.238: icmp_seq=28 ttl=54 time=13.0 ms
64 bytes from 216.58.195.238: icmp_seq=28 ttl=54 time=13.0 ms
64 bytes from 216.58.195.238: icmp_seq=28 ttl=54 time=13.0 ms
64 bytes from 216.58.195.238: icmp_seq=28 ttl=54 time=13.0 ms
64 bytes from 216.58.195.238: icmp_seq=28 ttl=54 time=13.0 ms
64 bytes from 216.58.195.238: icmp_seq=28 ttl=54 time=13.0 ms
64 bytes from 216.58.195.238: icmp_seq=28 ttl=54 time=13.0 ms
64 bytes from 216.58.195.238: icmp_seq=28 ttl=54 time=13.0 ms
64 bytes from 216.58.195.238: icmp_seq=28 ttl=54 time=13.0 ms
64 bytes from 216.58.195.238: icmp_seq=29 ttl=54 time=13.5 ms
64 bytes from 216.58.195.238: icmp_seq=29 ttl=54 time=13.4 ms
64 bytes from 216.58.195.238: icmp_seq=29 ttl=54 time=13.4 ms
64 bytes from 216.58.195.238: icmp_seq=29 ttl=54 time=13.5 ms
64 bytes from 216.58.195.238: icmp_seq=29 ttl=54 time=13.4 ms
64 bytes from 216.58.195.238: icmp_seq=29 ttl=54 time=13.5 ms
64 bytes from 216.58.195.238: icmp_seq=29 ttl=54 time=13.5 ms
64 bytes from 216.58.195.238: icmp_seq=29 ttl=54 time=13.4 ms
64 bytes from 216.58.195.238: icmp_seq=29 ttl=54 time=13.3 ms
64 bytes from 216.58.195.238: icmp_seq=29 ttl=54 time=13.5 ms
64 bytes from 216.58.195.238: icmp_seq=30 ttl=54 time=13.3 ms
64 bytes from 216.58.195.238: icmp_seq=30 ttl=54 time=13.3 ms
64 bytes from 216.58.195.238: icmp_seq=30 ttl=54 time=13.4 ms
64 bytes from 216.58.195.238: icmp_seq=30 ttl=54 time=13.4 ms
64 bytes from 216.58.195.238: icmp_seq=30 ttl=54 time=13.4 ms
64 bytes from 216.58.195.238: icmp_seq=30 ttl=54 time=13.3 ms
64 bytes from 216.58.195.238: icmp_seq=30 ttl=54 time=13.4 ms
64 bytes from 216.58.195.238: icmp_seq=30 ttl=54 time=13.3 ms
64 bytes from 216.58.195.238: icmp_seq=30 ttl=54 time=13.2 ms
64 bytes from 216.58.195.238: icmp_seq=30 ttl=54 time=13.4 ms
64 bytes from 216.58.195.238: icmp_seq=31 ttl=54 time=13.3 ms
64 bytes from 216.58.195.238: icmp_seq=31 ttl=54 time=13.0 ms
64 bytes from 216.58.195.238: icmp_seq=31 ttl=54 time=13.0 ms
64 bytes from 216.58.195.238: icmp_seq=31 ttl=54 time=13.0 ms
64 bytes from 216.58.195.238: icmp_seq=31 ttl=54 time=13.0 ms
64 bytes from 216.58.195.238: icmp_seq=31 ttl=54 time=13.0 ms
64 bytes from 216.58.195.238: icmp_seq=31 ttl=54 time=13.0 ms
64 bytes from 216.58.195.238: icmp_seq=31 ttl=54 time=13.0 ms
64 bytes from 216.58.195.238: icmp_seq=31 ttl=54 time=13.0 ms
64 bytes from 216.58.195.238: icmp_seq=31 ttl=54 time=13.0 ms
64 bytes from 216.58.195.238: icmp_seq=32 ttl=54 time=13.0 ms
64 bytes from 216.58.195.238: icmp_seq=32 ttl=54 time=13.0 ms
64 bytes from 216.58.195.238: icmp_seq=32 ttl=54 time=13.0 ms
64 bytes from 216.58.195.238: icmp_seq=32 ttl=54 time=12.9 ms
64 bytes from 216.58.195.238: icmp_seq=32 ttl=54 time=13.0 ms
64 bytes from 216.58.195.238: icmp_seq=32 ttl=54 time=12.9 ms
64 bytes from 216.58.195.238: icmp_seq=32 ttl=54 time=13.0 ms
64 bytes from 216.58.195.238: icmp_seq=32 ttl=54 time=13.5 ms
64 bytes from 216.58.195.238: icmp_seq=32 ttl=54 time=12.8 ms
64 bytes from 216.58.195.238: icmp_seq=32 ttl=54 time=12.9 ms
64 bytes from 216.58.195.238: icmp_seq=33 ttl=54 time=13.6 ms
64 bytes from 216.58.195.238: icmp_seq=33 ttl=54 time=13.7 ms
64 bytes from 216.58.195.238: icmp_seq=33 ttl=54 time=13.7 ms
64 bytes from 216.58.195.238: icmp_seq=33 ttl=54 time=13.7 ms
64 bytes from 216.58.195.238: icmp_seq=33 ttl=54 time=13.7 ms
64 bytes from 216.58.195.238: icmp_seq=33 ttl=54 time=13.7 ms
64 bytes from 216.58.195.238: icmp_seq=33 ttl=54 time=13.6 ms
64 bytes from 216.58.195.238: icmp_seq=33 ttl=54 time=13.8 ms
64 bytes from 216.58.195.238: icmp_seq=33 ttl=54 time=13.7 ms
64 bytes from 216.58.195.238: icmp_seq=33 ttl=54 time=13.7 ms
64 bytes from 216.58.195.238: icmp_seq=34 ttl=54 time=13.6 ms
64 bytes from 216.58.195.238: icmp_seq=34 ttl=54 time=13.6 ms
64 bytes from 216.58.195.238: icmp_seq=34 ttl=54 time=13.6 ms
64 bytes from 216.58.195.238: icmp_seq=34 ttl=54 time=13.7 ms
64 bytes from 216.58.195.238: icmp_seq=34 ttl=54 time=13.6 ms
64 bytes from 216.58.195.238: icmp_seq=34 ttl=54 time=13.6 ms
64 bytes from 216.58.195.238: icmp_seq=34 ttl=54 time=13.7 ms
64 bytes from 216.58.195.238: icmp_seq=34 ttl=54 time=13.6 ms
64 bytes from 216.58.195.238: icmp_seq=34 ttl=54 time=13.5 ms
64 bytes from 216.58.195.238: icmp_seq=34 ttl=54 time=13.6 ms
64 bytes from 216.58.195.238: icmp_seq=35 ttl=54 time=13.5 ms
64 bytes from 216.58.195.238: icmp_seq=35 ttl=54 time=13.5 ms
64 bytes from 216.58.195.238: icmp_seq=35 ttl=54 time=13.5 ms
64 bytes from 216.58.195.238: icmp_seq=35 ttl=54 time=13.5 ms
64 bytes from 216.58.195.238: icmp_seq=35 ttl=54 time=13.5 ms
64 bytes from 216.58.195.238: icmp_seq=35 ttl=54 time=13.5 ms
64 bytes from 216.58.195.238: icmp_seq=35 ttl=54 time=13.5 ms
64 bytes from 216.58.195.238: icmp_seq=35 ttl=54 time=13.5 ms
64 bytes from 216.58.195.238: icmp_seq=35 ttl=54 time=13.5 ms
64 bytes from 216.58.195.238: icmp_seq=35 ttl=54 time=13.4 ms
64 bytes from 216.58.195.238: icmp_seq=36 ttl=54 time=13.4 ms
64 bytes from 216.58.195.238: icmp_seq=36 ttl=54 time=13.4 ms
64 bytes from 216.58.195.238: icmp_seq=36 ttl=54 time=13.4 ms
64 bytes from 216.58.195.238: icmp_seq=36 ttl=54 time=13.5 ms
64 bytes from 216.58.195.238: icmp_seq=36 ttl=54 time=13.4 ms
64 bytes from 216.58.195.238: icmp_seq=36 ttl=54 time=13.5 ms
64 bytes from 216.58.195.238: icmp_seq=36 ttl=54 time=13.5 ms
64 bytes from 216.58.195.238: icmp_seq=36 ttl=54 time=13.3 ms
64 bytes from 216.58.195.238: icmp_seq=36 ttl=54 time=13.4 ms
64 bytes from 216.58.195.238: icmp_seq=36 ttl=54 time=13.4 ms
64 bytes from 216.58.195.238: icmp_seq=37 ttl=54 time=13.2 ms
64 bytes from 216.58.195.238: icmp_seq=37 ttl=54 time=13.2 ms
64 bytes from 216.58.195.238: icmp_seq=37 ttl=54 time=13.2 ms
64 bytes from 216.58.195.238: icmp_seq=37 ttl=54 time=13.2 ms
64 bytes from 216.58.195.238: icmp_seq=37 ttl=54 time=13.2 ms
64 bytes from 216.58.195.238: icmp_seq=37 ttl=54 time=13.2 ms
64 bytes from 216.58.195.238: icmp_seq=37 ttl=54 time=13.2 ms
64 bytes from 216.58.195.238: icmp_seq=37 ttl=54 time=13.3 ms
64 bytes from 216.58.195.238: icmp_seq=37 ttl=54 time=13.0 ms
64 bytes from 216.58.195.238: icmp_seq=37 ttl=54 time=13.0 ms
64 bytes from 216.58.195.238: icmp_seq=38 ttl=54 time=13.5 ms
64 bytes from 216.58.195.238: icmp_seq=38 ttl=54 time=13.5 ms
64 bytes from 216.58.195.238: icmp_seq=38 ttl=54 time=13.5 ms
64 bytes from 216.58.195.238: icmp_seq=38 ttl=54 time=13.6 ms
64 bytes from 216.58.195.238: icmp_seq=38 ttl=54 time=13.5 ms
64 bytes from 216.58.195.238: icmp_seq=38 ttl=54 time=13.6 ms
64 bytes from 216.58.195.238: icmp_seq=38 ttl=54 time=13.6 ms
64 bytes from 216.58.195.238: icmp_seq=38 ttl=54 time=13.5 ms
64 bytes from 216.58.195.238: icmp_seq=38 ttl=54 time=13.5 ms
64 bytes from 216.58.195.238: icmp_seq=38 ttl=54 time=13.5 ms
64 bytes from 216.58.195.238: icmp_seq=39 ttl=54 time=13.6 ms
64 bytes from 216.58.195.238: icmp_seq=39 ttl=54 time=13.6 ms
64 bytes from 216.58.195.238: icmp_seq=39 ttl=54 time=13.6 ms
64 bytes from 216.58.195.238: icmp_seq=39 ttl=54 time=13.6 ms
64 bytes from 216.58.195.238: icmp_seq=39 ttl=54 time=13.7 ms
64 bytes from 216.58.195.238: icmp_seq=39 ttl=54 time=13.6 ms
64 bytes from 216.58.195.238: icmp_seq=39 ttl=54 time=13.6 ms
64 bytes from 216.58.195.238: icmp_seq=39 ttl=54 time=13.5 ms
64 bytes from 216.58.195.238: icmp_seq=39 ttl=54 time=13.5 ms
64 bytes from 216.58.195.238: icmp_seq=39 ttl=54 time=13.6 ms
64 bytes from 216.58.195.238: icmp_seq=40 ttl=54 time=13.5 ms

64 bytes from 216.58.195.238: icmp_seq=40 ttl=54 time=13.5 ms
64 bytes from 216.58.195.238: icmp_seq=40 ttl=54 time=13.5 ms
64 bytes from 216.58.195.238: icmp_seq=40 ttl=54 time=13.5 ms



64 bytes from 216.58.195.238: icmp_seq=40 ttl=54 time=13.6 ms
64 bytes from 216.58.195.238: icmp_seq=40 ttl=54 time=13.6 ms
--- 216.58.195.238 ping statistics ---
40 packets transmitted, 40 received, 0% packet loss, time 39074ms
rtt min/avg/max/mdev = 12.953/13.472/13.768/0.242 ms

--- 216.58.195.238 ping statistics ---
40 packets transmitted, 40 received, 0% packet loss, time 39075ms
rtt min/avg/max/mdev = 13.055/13.457/13.723/0.201 ms

--- 216.58.195.238 ping statistics ---
40 packets transmitted, 40 received, 0% packet loss, time 39074ms
rtt min/avg/max/mdev = 12.799/13.433/13.714/0.253 ms
--- 216.58.195.238 ping statistics ---
40 packets transmitted, 40 received, 0% packet loss, time 39075ms
rtt min/avg/max/mdev = 13.069/13.459/13.787/0.203 ms
64 bytes from 216.58.195.238: icmp_seq=40 ttl=54 time=13.6 ms

--- 216.58.195.238 ping statistics ---
40 packets transmitted, 40 received, 0% packet loss, time 39074ms
rtt min/avg/max/mdev = 12.866/13.436/13.730/0.241 ms
--- 216.58.195.238 ping statistics ---
40 packets transmitted, 40 received, 0% packet loss, time 39074ms
rtt min/avg/max/mdev = 12.918/13.440/13.807/0.264 ms
--- 216.58.195.238 ping statistics ---
40 packets transmitted, 40 received, 0% packet loss, time 39075ms
rtt min/avg/max/mdev = 13.005/13.461/13.788/0.200 ms
64 bytes from 216.58.195.238: icmp_seq=40 ttl=54 time=13.4 ms

--- 216.58.195.238 ping statistics ---
40 packets transmitted, 40 received, 0% packet loss, time 39075ms
rtt min/avg/max/mdev = 12.966/13.454/13.834/0.232 ms
64 bytes from 216.58.195.238: icmp_seq=40 ttl=54 time=13.5 ms
64 bytes from 216.58.195.238: icmp_seq=40 ttl=54 time=13.5 ms


--- 216.58.195.238 ping statistics ---
40 packets transmitted, 40 received, 0% packet loss, time 39075ms
rtt min/avg/max/mdev = 12.961/13.444/13.785/0.256 ms
--- 216.58.195.238 ping statistics ---
40 packets transmitted, 40 received, 0% packet loss, time 39075ms
rtt min/avg/max/mdev = 12.888/13.458/13.829/0.241 ms
