Attaching to softwareoverhead_ping_2, softwareoverhead_ping_8, softwareoverhead_ping_1, softwareoverhead_ping_5, softwareoverhead_ping_10, softwareoverhead_ping_9, softwareoverhead_ping_3, softwareoverhead_ping_4, softwareoverhead_ping_6, softwareoverhead_ping_7, softwareoverhead_ping_13, softwareoverhead_ping_12, softwareoverhead_ping_20, softwareoverhead_ping_15, softwareoverhead_ping_19, softwareoverhead_ping_17, softwareoverhead_ping_18, softwareoverhead_ping_16, softwareoverhead_ping_14, softwareoverhead_ping_11
ping_8  | PING nyc.speedtest.sbcglobal.net (99.24.18.25): 56 data bytes
ping_2  | PING nyc.speedtest.sbcglobal.net (99.24.18.25): 56 data bytes
ping_2  | 64 bytes from 99.24.18.25: seq=0 ttl=50 time=79.853 ms
ping_8  | 64 bytes from 99.24.18.25: seq=0 ttl=50 time=80.049 ms
ping_1  | PING nyc.speedtest.sbcglobal.net (99.24.18.25): 56 data bytes
ping_2  | 64 bytes from 99.24.18.25: seq=1 ttl=50 time=79.891 ms
ping_8  | 64 bytes from 99.24.18.25: seq=1 ttl=50 time=80.096 ms
ping_1  | 64 bytes from 99.24.18.25: seq=0 ttl=50 time=80.331 ms
ping_2  | 64 bytes from 99.24.18.25: seq=2 ttl=50 time=80.202 ms
ping_8  | 64 bytes from 99.24.18.25: seq=2 ttl=50 time=80.146 ms
ping_1  | 64 bytes from 99.24.18.25: seq=1 ttl=50 time=80.169 ms
ping_2  | 64 bytes from 99.24.18.25: seq=3 ttl=50 time=81.993 ms
ping_8  | 64 bytes from 99.24.18.25: seq=3 ttl=50 time=80.340 ms
ping_1  | 64 bytes from 99.24.18.25: seq=2 ttl=50 time=80.093 ms
ping_2  | 64 bytes from 99.24.18.25: seq=4 ttl=50 time=80.142 ms
ping_8  | 64 bytes from 99.24.18.25: seq=4 ttl=50 time=82.012 ms
ping_1  | 64 bytes from 99.24.18.25: seq=3 ttl=50 time=80.183 ms
ping_2  | 64 bytes from 99.24.18.25: seq=5 ttl=50 time=79.990 ms
ping_8  | 64 bytes from 99.24.18.25: seq=5 ttl=50 time=79.861 ms
ping_2  | 64 bytes from 99.24.18.25: seq=6 ttl=50 time=80.042 ms
ping_1  | 64 bytes from 99.24.18.25: seq=4 ttl=50 time=80.225 ms
ping_8  | 64 bytes from 99.24.18.25: seq=6 ttl=50 time=79.777 ms
ping_2  | 64 bytes from 99.24.18.25: seq=7 ttl=50 time=80.231 ms
ping_1  | 64 bytes from 99.24.18.25: seq=5 ttl=50 time=80.177 ms
ping_8  | 64 bytes from 99.24.18.25: seq=7 ttl=50 time=79.768 ms
ping_2  | 64 bytes from 99.24.18.25: seq=8 ttl=50 time=79.810 ms
ping_1  | 64 bytes from 99.24.18.25: seq=6 ttl=50 time=79.762 ms
ping_2  | 64 bytes from 99.24.18.25: seq=9 ttl=50 time=80.009 ms
ping_1  | 64 bytes from 99.24.18.25: seq=7 ttl=50 time=80.276 ms
ping_8  | 64 bytes from 99.24.18.25: seq=8 ttl=50 time=80.211 ms
ping_1  | 64 bytes from 99.24.18.25: seq=8 ttl=50 time=80.222 ms
ping_8  | 64 bytes from 99.24.18.25: seq=9 ttl=50 time=80.051 ms
ping_2  | 64 bytes from 99.24.18.25: seq=10 ttl=50 time=79.801 ms
ping_8  | 64 bytes from 99.24.18.25: seq=10 ttl=50 time=80.024 ms
ping_1  | 64 bytes from 99.24.18.25: seq=9 ttl=50 time=80.031 ms
ping_2  | 64 bytes from 99.24.18.25: seq=11 ttl=50 time=80.837 ms
ping_8  | 64 bytes from 99.24.18.25: seq=11 ttl=50 time=79.946 ms
ping_2  | 64 bytes from 99.24.18.25: seq=12 ttl=50 time=80.261 ms
ping_1  | 64 bytes from 99.24.18.25: seq=10 ttl=50 time=79.943 ms
ping_8  | 64 bytes from 99.24.18.25: seq=12 ttl=50 time=79.945 ms
ping_1  | 64 bytes from 99.24.18.25: seq=11 ttl=50 time=79.847 ms
ping_8  | 64 bytes from 99.24.18.25: seq=13 ttl=50 time=79.987 ms
ping_2  | 64 bytes from 99.24.18.25: seq=13 ttl=50 time=80.672 ms
ping_1  | 64 bytes from 99.24.18.25: seq=12 ttl=50 time=80.204 ms
ping_8  | 64 bytes from 99.24.18.25: seq=14 ttl=50 time=80.244 ms
ping_1  | 64 bytes from 99.24.18.25: seq=13 ttl=50 time=80.397 ms
ping_8  | 64 bytes from 99.24.18.25: seq=15 ttl=50 time=80.351 ms
ping_1  | 64 bytes from 99.24.18.25: seq=14 ttl=50 time=79.959 ms
ping_2  | 64 bytes from 99.24.18.25: seq=14 ttl=50 time=80.073 ms
ping_1  | 64 bytes from 99.24.18.25: seq=15 ttl=50 time=80.133 ms
ping_2  | 64 bytes from 99.24.18.25: seq=15 ttl=50 time=80.197 ms
ping_5  | PING nyc.speedtest.sbcglobal.net (99.24.18.25): 56 data bytes
ping_2  | 64 bytes from 99.24.18.25: seq=16 ttl=50 time=79.976 ms
ping_5  | 64 bytes from 99.24.18.25: seq=0 ttl=50 time=79.922 ms
ping_5  | 64 bytes from 99.24.18.25: seq=1 ttl=50 time=80.310 ms
ping_10 | PING nyc.speedtest.sbcglobal.net (99.24.18.25): 56 data bytes
ping_5  | 64 bytes from 99.24.18.25: seq=2 ttl=50 time=80.436 ms
ping_9  | PING nyc.speedtest.sbcglobal.net (99.24.18.25): 56 data bytes
ping_9  | 64 bytes from 99.24.18.25: seq=0 ttl=50 time=79.830 ms
ping_10 | 64 bytes from 99.24.18.25: seq=0 ttl=50 time=79.833 ms
ping_5  | 64 bytes from 99.24.18.25: seq=3 ttl=50 time=80.362 ms
ping_9  | 64 bytes from 99.24.18.25: seq=1 ttl=50 time=79.855 ms
ping_3  | PING nyc.speedtest.sbcglobal.net (99.24.18.25): 56 data bytes
ping_9  | 64 bytes from 99.24.18.25: seq=2 ttl=50 time=80.812 ms
ping_5  | 64 bytes from 99.24.18.25: seq=4 ttl=50 time=79.806 ms
ping_4  | PING nyc.speedtest.sbcglobal.net (99.24.18.25): 56 data bytes
ping_3  | 64 bytes from 99.24.18.25: seq=0 ttl=50 time=79.821 ms
ping_3  | 64 bytes from 99.24.18.25: seq=1 ttl=50 time=79.788 ms
ping_4  | 64 bytes from 99.24.18.25: seq=0 ttl=50 time=79.841 ms
ping_10 | 64 bytes from 99.24.18.25: seq=1 ttl=50 time=80.127 ms
ping_9  | 64 bytes from 99.24.18.25: seq=3 ttl=50 time=79.717 ms
ping_4  | 64 bytes from 99.24.18.25: seq=1 ttl=50 time=80.057 ms
ping_5  | 64 bytes from 99.24.18.25: seq=5 ttl=50 time=80.041 ms
ping_6  | PING nyc.speedtest.sbcglobal.net (99.24.18.25): 56 data bytes
ping_4  | 64 bytes from 99.24.18.25: seq=2 ttl=50 time=79.931 ms
ping_9  | 64 bytes from 99.24.18.25: seq=4 ttl=50 time=79.697 ms
ping_5  | 64 bytes from 99.24.18.25: seq=6 ttl=50 time=79.891 ms
ping_6  | 64 bytes from 99.24.18.25: seq=0 ttl=50 time=80.078 ms
ping_4  | 64 bytes from 99.24.18.25: seq=3 ttl=50 time=79.979 ms
ping_9  | 64 bytes from 99.24.18.25: seq=5 ttl=50 time=79.799 ms
ping_5  | 64 bytes from 99.24.18.25: seq=7 ttl=50 time=80.210 ms
ping_10 | 64 bytes from 99.24.18.25: seq=2 ttl=50 time=79.930 ms
ping_6  | 64 bytes from 99.24.18.25: seq=1 ttl=50 time=79.738 ms
ping_4  | 64 bytes from 99.24.18.25: seq=4 ttl=50 time=80.258 ms
ping_9  | 64 bytes from 99.24.18.25: seq=6 ttl=50 time=80.337 ms
ping_5  | 64 bytes from 99.24.18.25: seq=8 ttl=50 time=80.365 ms
ping_6  | 64 bytes from 99.24.18.25: seq=2 ttl=50 time=79.827 ms
ping_4  | 64 bytes from 99.24.18.25: seq=5 ttl=50 time=80.088 ms
ping_9  | 64 bytes from 99.24.18.25: seq=7 ttl=50 time=80.232 ms
ping_10 | 64 bytes from 99.24.18.25: seq=3 ttl=50 time=79.952 ms
ping_5  | 64 bytes from 99.24.18.25: seq=9 ttl=50 time=80.216 ms
ping_6  | 64 bytes from 99.24.18.25: seq=3 ttl=50 time=80.186 ms
ping_9  | 64 bytes from 99.24.18.25: seq=8 ttl=50 time=80.126 ms
ping_4  | 64 bytes from 99.24.18.25: seq=6 ttl=50 time=80.624 ms
ping_10 | 64 bytes from 99.24.18.25: seq=4 ttl=50 time=80.694 ms
ping_6  | 64 bytes from 99.24.18.25: seq=4 ttl=50 time=80.064 ms
ping_5  | 64 bytes from 99.24.18.25: seq=10 ttl=50 time=81.279 ms
ping_9  | 64 bytes from 99.24.18.25: seq=9 ttl=50 time=80.196 ms
ping_4  | 64 bytes from 99.24.18.25: seq=7 ttl=50 time=80.175 ms
ping_6  | 64 bytes from 99.24.18.25: seq=5 ttl=50 time=80.156 ms
ping_5  | 64 bytes from 99.24.18.25: seq=11 ttl=50 time=80.885 ms
ping_4  | 64 bytes from 99.24.18.25: seq=8 ttl=50 time=80.118 ms
ping_9  | 64 bytes from 99.24.18.25: seq=10 ttl=50 time=80.312 ms
ping_5  | 64 bytes from 99.24.18.25: seq=12 ttl=50 time=80.002 ms
ping_6  | 64 bytes from 99.24.18.25: seq=6 ttl=50 time=80.271 ms
ping_4  | 64 bytes from 99.24.18.25: seq=9 ttl=50 time=80.204 ms
ping_10 | 64 bytes from 99.24.18.25: seq=5 ttl=50 time=79.754 ms
ping_5  | 64 bytes from 99.24.18.25: seq=13 ttl=50 time=80.718 ms
ping_9  | 64 bytes from 99.24.18.25: seq=11 ttl=50 time=80.377 ms
ping_4  | 64 bytes from 99.24.18.25: seq=10 ttl=50 time=79.940 ms
ping_5  | 64 bytes from 99.24.18.25: seq=14 ttl=50 time=80.274 ms
ping_3  | 64 bytes from 99.24.18.25: seq=2 ttl=50 time=79.842 ms
ping_4  | 64 bytes from 99.24.18.25: seq=11 ttl=50 time=79.983 ms
ping_6  | 64 bytes from 99.24.18.25: seq=7 ttl=50 time=80.237 ms
ping_9  | 64 bytes from 99.24.18.25: seq=12 ttl=50 time=80.687 ms
ping_10 | 64 bytes from 99.24.18.25: seq=6 ttl=50 time=79.969 ms
ping_3  | 64 bytes from 99.24.18.25: seq=3 ttl=50 time=79.821 ms
ping_7  | PING nyc.speedtest.sbcglobal.net (99.24.18.25): 56 data bytes
ping_6  | 64 bytes from 99.24.18.25: seq=8 ttl=50 time=80.040 ms
ping_13 | PING nyc.speedtest.sbcglobal.net (99.24.18.25): 56 data bytes
ping_10 | 64 bytes from 99.24.18.25: seq=7 ttl=50 time=79.923 ms
ping_9  | 64 bytes from 99.24.18.25: seq=13 ttl=50 time=80.426 ms
ping_10 | 64 bytes from 99.24.18.25: seq=8 ttl=50 time=80.666 ms
ping_12 | PING nyc.speedtest.sbcglobal.net (99.24.18.25): 56 data bytes
ping_7  | 64 bytes from 99.24.18.25: seq=0 ttl=50 time=79.898 ms
ping_10 | 64 bytes from 99.24.18.25: seq=9 ttl=50 time=80.418 ms
ping_12 | 64 bytes from 99.24.18.25: seq=0 ttl=50 time=80.254 ms
ping_3  | 64 bytes from 99.24.18.25: seq=4 ttl=50 time=79.738 ms
ping_13 | 64 bytes from 99.24.18.25: seq=0 ttl=50 time=80.085 ms
ping_6  | 64 bytes from 99.24.18.25: seq=9 ttl=50 time=79.989 ms
ping_7  | 64 bytes from 99.24.18.25: seq=1 ttl=50 time=79.757 ms
ping_10 | 64 bytes from 99.24.18.25: seq=10 ttl=50 time=80.094 ms
ping_12 | 64 bytes from 99.24.18.25: seq=1 ttl=50 time=80.629 ms
ping_13 | 64 bytes from 99.24.18.25: seq=1 ttl=50 time=79.869 ms
ping_3  | 64 bytes from 99.24.18.25: seq=5 ttl=50 time=80.149 ms
ping_6  | 64 bytes from 99.24.18.25: seq=10 ttl=50 time=79.917 ms
ping_20 | PING nyc.speedtest.sbcglobal.net (99.24.18.25): 56 data bytes
ping_12 | 64 bytes from 99.24.18.25: seq=2 ttl=50 time=80.036 ms
ping_10 | 64 bytes from 99.24.18.25: seq=11 ttl=50 time=79.913 ms
ping_20 | 64 bytes from 99.24.18.25: seq=0 ttl=50 time=79.904 ms
ping_10 | 64 bytes from 99.24.18.25: seq=12 ttl=50 time=79.980 ms
ping_3  | 64 bytes from 99.24.18.25: seq=6 ttl=50 time=80.347 ms
ping_7  | 64 bytes from 99.24.18.25: seq=2 ttl=50 time=80.276 ms
ping_20 | 64 bytes from 99.24.18.25: seq=1 ttl=50 time=80.008 ms
ping_12 | 64 bytes from 99.24.18.25: seq=3 ttl=50 time=79.819 ms
ping_10 | 64 bytes from 99.24.18.25: seq=13 ttl=50 time=79.774 ms
ping_20 | 64 bytes from 99.24.18.25: seq=2 ttl=50 time=80.181 ms
ping_12 | 64 bytes from 99.24.18.25: seq=4 ttl=50 time=79.743 ms
ping_10 | 64 bytes from 99.24.18.25: seq=14 ttl=50 time=79.834 ms
ping_7  | 64 bytes from 99.24.18.25: seq=3 ttl=50 time=80.169 ms
ping_20 | 64 bytes from 99.24.18.25: seq=3 ttl=50 time=79.941 ms
ping_13 | 64 bytes from 99.24.18.25: seq=2 ttl=50 time=80.956 ms
ping_20 | 64 bytes from 99.24.18.25: seq=4 ttl=50 time=80.238 ms
ping_7  | 64 bytes from 99.24.18.25: seq=4 ttl=50 time=80.544 ms
ping_12 | 64 bytes from 99.24.18.25: seq=5 ttl=50 time=80.115 ms
ping_3  | 64 bytes from 99.24.18.25: seq=7 ttl=50 time=80.259 ms
ping_15 | PING nyc.speedtest.sbcglobal.net (99.24.18.25): 56 data bytes
ping_13 | 64 bytes from 99.24.18.25: seq=3 ttl=50 time=80.325 ms
ping_20 | 64 bytes from 99.24.18.25: seq=5 ttl=50 time=79.957 ms
ping_12 | 64 bytes from 99.24.18.25: seq=6 ttl=50 time=80.063 ms
ping_7  | 64 bytes from 99.24.18.25: seq=5 ttl=50 time=80.356 ms
ping_19 | PING nyc.speedtest.sbcglobal.net (99.24.18.25): 56 data bytes
ping_15 | 64 bytes from 99.24.18.25: seq=0 ttl=50 time=80.442 ms
ping_7  | 64 bytes from 99.24.18.25: seq=6 ttl=50 time=80.214 ms
ping_17 | PING nyc.speedtest.sbcglobal.net (99.24.18.25): 56 data bytes
ping_15 | 64 bytes from 99.24.18.25: seq=1 ttl=50 time=79.882 ms
ping_3  | 64 bytes from 99.24.18.25: seq=8 ttl=50 time=80.074 ms
ping_20 | 64 bytes from 99.24.18.25: seq=6 ttl=50 time=80.251 ms
ping_13 | 64 bytes from 99.24.18.25: seq=4 ttl=50 time=79.824 ms
ping_12 | 64 bytes from 99.24.18.25: seq=7 ttl=50 time=80.326 ms
ping_19 | 64 bytes from 99.24.18.25: seq=0 ttl=50 time=80.180 ms
ping_17 | 64 bytes from 99.24.18.25: seq=0 ttl=50 time=79.861 ms
ping_15 | 64 bytes from 99.24.18.25: seq=2 ttl=50 time=80.114 ms
ping_3  | 64 bytes from 99.24.18.25: seq=9 ttl=50 time=80.217 ms
ping_19 | 64 bytes from 99.24.18.25: seq=1 ttl=50 time=80.033 ms
ping_17 | 64 bytes from 99.24.18.25: seq=1 ttl=50 time=79.923 ms
ping_13 | 64 bytes from 99.24.18.25: seq=5 ttl=50 time=79.697 ms
ping_3  | 64 bytes from 99.24.18.25: seq=10 ttl=50 time=80.237 ms
ping_15 | 64 bytes from 99.24.18.25: seq=3 ttl=50 time=79.960 ms
ping_3  | 64 bytes from 99.24.18.25: seq=11 ttl=50 time=80.454 ms
ping_13 | 64 bytes from 99.24.18.25: seq=6 ttl=50 time=80.240 ms
ping_19 | 64 bytes from 99.24.18.25: seq=2 ttl=50 time=80.206 ms
ping_15 | 64 bytes from 99.24.18.25: seq=4 ttl=50 time=80.053 ms
ping_17 | 64 bytes from 99.24.18.25: seq=2 ttl=50 time=79.900 ms
ping_13 | 64 bytes from 99.24.18.25: seq=7 ttl=50 time=80.424 ms
ping_19 | 64 bytes from 99.24.18.25: seq=3 ttl=50 time=80.040 ms
ping_3  | 64 bytes from 99.24.18.25: seq=12 ttl=50 time=80.363 ms
ping_15 | 64 bytes from 99.24.18.25: seq=5 ttl=50 time=80.198 ms
ping_13 | 64 bytes from 99.24.18.25: seq=8 ttl=50 time=80.459 ms
ping_19 | 64 bytes from 99.24.18.25: seq=4 ttl=50 time=80.064 ms
ping_17 | 64 bytes from 99.24.18.25: seq=3 ttl=50 time=79.850 ms
ping_17 | 64 bytes from 99.24.18.25: seq=4 ttl=50 time=79.849 ms
ping_19 | 64 bytes from 99.24.18.25: seq=5 ttl=50 time=80.272 ms
ping_7  | 64 bytes from 99.24.18.25: seq=7 ttl=50 time=80.290 ms
ping_7  | 64 bytes from 99.24.18.25: seq=8 ttl=50 time=79.975 ms
ping_18 | PING nyc.speedtest.sbcglobal.net (99.24.18.25): 56 data bytes
ping_7  | 64 bytes from 99.24.18.25: seq=9 ttl=50 time=80.444 ms
ping_16 | PING nyc.speedtest.sbcglobal.net (99.24.18.25): 56 data bytes
ping_14 | PING nyc.speedtest.sbcglobal.net (99.24.18.25): 56 data bytes
ping_18 | 64 bytes from 99.24.18.25: seq=0 ttl=50 time=80.119 ms
ping_16 | 64 bytes from 99.24.18.25: seq=0 ttl=50 time=80.184 ms
ping_18 | 64 bytes from 99.24.18.25: seq=1 ttl=50 time=80.060 ms
ping_11 | PING nyc.speedtest.sbcglobal.net (99.24.18.25): 56 data bytes
ping_14 | 64 bytes from 99.24.18.25: seq=0 ttl=50 time=80.207 ms
ping_16 | 64 bytes from 99.24.18.25: seq=1 ttl=50 time=80.242 ms
ping_18 | 64 bytes from 99.24.18.25: seq=2 ttl=50 time=79.960 ms
ping_18 | 64 bytes from 99.24.18.25: seq=3 ttl=50 time=79.927 ms
ping_14 | 64 bytes from 99.24.18.25: seq=1 ttl=50 time=80.214 ms
ping_11 | 64 bytes from 99.24.18.25: seq=0 ttl=50 time=80.083 ms
ping_16 | 64 bytes from 99.24.18.25: seq=2 ttl=50 time=79.967 ms
ping_3  | 64 bytes from 99.24.18.25: seq=13 ttl=50 time=80.331 ms
ping_9  | 64 bytes from 99.24.18.25: seq=14 ttl=50 time=80.263 ms
ping_7  | 64 bytes from 99.24.18.25: seq=10 ttl=50 time=80.315 ms
ping_4  | 64 bytes from 99.24.18.25: seq=12 ttl=50 time=79.976 ms
ping_6  | 64 bytes from 99.24.18.25: seq=11 ttl=50 time=80.326 ms
ping_8  | 64 bytes from 99.24.18.25: seq=16 ttl=50 time=79.930 ms
ping_5  | 64 bytes from 99.24.18.25: seq=15 ttl=50 time=80.006 ms
ping_2  | 64 bytes from 99.24.18.25: seq=17 ttl=50 time=80.333 ms
ping_15 | 64 bytes from 99.24.18.25: seq=6 ttl=50 time=80.306 ms
ping_20 | 64 bytes from 99.24.18.25: seq=7 ttl=50 time=80.225 ms
ping_12 | 64 bytes from 99.24.18.25: seq=8 ttl=50 time=80.263 ms
ping_13 | 64 bytes from 99.24.18.25: seq=9 ttl=50 time=80.350 ms
ping_1  | 64 bytes from 99.24.18.25: seq=16 ttl=50 time=80.443 ms
ping_19 | 64 bytes from 99.24.18.25: seq=6 ttl=50 time=80.267 ms
ping_10 | 64 bytes from 99.24.18.25: seq=15 ttl=50 time=80.322 ms
ping_17 | 64 bytes from 99.24.18.25: seq=5 ttl=50 time=79.976 ms
ping_18 | 64 bytes from 99.24.18.25: seq=4 ttl=50 time=80.310 ms
ping_14 | 64 bytes from 99.24.18.25: seq=2 ttl=50 time=80.333 ms
ping_11 | 64 bytes from 99.24.18.25: seq=1 ttl=50 time=80.213 ms
ping_16 | 64 bytes from 99.24.18.25: seq=3 ttl=50 time=80.002 ms
ping_3  | 64 bytes from 99.24.18.25: seq=14 ttl=50 time=80.276 ms
ping_9  | 64 bytes from 99.24.18.25: seq=15 ttl=50 time=80.290 ms
ping_7  | 64 bytes from 99.24.18.25: seq=11 ttl=50 time=80.251 ms
ping_4  | 64 bytes from 99.24.18.25: seq=13 ttl=50 time=79.880 ms
ping_6  | 64 bytes from 99.24.18.25: seq=12 ttl=50 time=79.933 ms
ping_8  | 64 bytes from 99.24.18.25: seq=17 ttl=50 time=81.603 ms
ping_5  | 64 bytes from 99.24.18.25: seq=16 ttl=50 time=80.462 ms
ping_2  | 64 bytes from 99.24.18.25: seq=18 ttl=50 time=80.225 ms
ping_15 | 64 bytes from 99.24.18.25: seq=7 ttl=50 time=80.371 ms
ping_20 | 64 bytes from 99.24.18.25: seq=8 ttl=50 time=80.861 ms
ping_12 | 64 bytes from 99.24.18.25: seq=9 ttl=50 time=80.314 ms
ping_13 | 64 bytes from 99.24.18.25: seq=10 ttl=50 time=80.405 ms
ping_1  | 64 bytes from 99.24.18.25: seq=17 ttl=50 time=80.504 ms
ping_19 | 64 bytes from 99.24.18.25: seq=7 ttl=50 time=80.130 ms
ping_10 | 64 bytes from 99.24.18.25: seq=16 ttl=50 time=80.342 ms
ping_17 | 64 bytes from 99.24.18.25: seq=6 ttl=50 time=80.423 ms
ping_18 | 64 bytes from 99.24.18.25: seq=5 ttl=50 time=80.078 ms
ping_14 | 64 bytes from 99.24.18.25: seq=3 ttl=50 time=80.421 ms
ping_11 | 64 bytes from 99.24.18.25: seq=2 ttl=50 time=80.239 ms
ping_16 | 64 bytes from 99.24.18.25: seq=4 ttl=50 time=81.473 ms
ping_3  | 64 bytes from 99.24.18.25: seq=15 ttl=50 time=80.147 ms
ping_9  | 64 bytes from 99.24.18.25: seq=16 ttl=50 time=80.413 ms
ping_7  | 64 bytes from 99.24.18.25: seq=12 ttl=50 time=80.363 ms
ping_4  | 64 bytes from 99.24.18.25: seq=14 ttl=50 time=79.985 ms
ping_6  | 64 bytes from 99.24.18.25: seq=13 ttl=50 time=80.428 ms
ping_8  | 64 bytes from 99.24.18.25: seq=18 ttl=50 time=80.375 ms
ping_5  | 64 bytes from 99.24.18.25: seq=17 ttl=50 time=80.371 ms
ping_2  | 64 bytes from 99.24.18.25: seq=19 ttl=50 time=80.293 ms
ping_15 | 64 bytes from 99.24.18.25: seq=8 ttl=50 time=80.451 ms
ping_20 | 64 bytes from 99.24.18.25: seq=9 ttl=50 time=80.206 ms
ping_12 | 64 bytes from 99.24.18.25: seq=10 ttl=50 time=80.291 ms
ping_13 | 64 bytes from 99.24.18.25: seq=11 ttl=50 time=79.970 ms
ping_1  | 64 bytes from 99.24.18.25: seq=18 ttl=50 time=80.064 ms
ping_19 | 64 bytes from 99.24.18.25: seq=8 ttl=50 time=80.495 ms
ping_10 | 64 bytes from 99.24.18.25: seq=17 ttl=50 time=79.915 ms
ping_17 | 64 bytes from 99.24.18.25: seq=7 ttl=50 time=80.272 ms
ping_18 | 64 bytes from 99.24.18.25: seq=6 ttl=50 time=80.352 ms
ping_14 | 64 bytes from 99.24.18.25: seq=4 ttl=50 time=80.143 ms
ping_11 | 64 bytes from 99.24.18.25: seq=3 ttl=50 time=80.086 ms
ping_16 | 64 bytes from 99.24.18.25: seq=5 ttl=50 time=80.216 ms
ping_3  | 64 bytes from 99.24.18.25: seq=16 ttl=50 time=80.348 ms
ping_9  | 64 bytes from 99.24.18.25: seq=17 ttl=50 time=80.267 ms
ping_7  | 64 bytes from 99.24.18.25: seq=13 ttl=50 time=80.293 ms
ping_4  | 64 bytes from 99.24.18.25: seq=15 ttl=50 time=80.337 ms
ping_6  | 64 bytes from 99.24.18.25: seq=14 ttl=50 time=80.995 ms
ping_8  | 64 bytes from 99.24.18.25: seq=19 ttl=50 time=80.254 ms
ping_5  | 64 bytes from 99.24.18.25: seq=18 ttl=50 time=80.276 ms
ping_2  | 64 bytes from 99.24.18.25: seq=20 ttl=50 time=80.292 ms
ping_15 | 64 bytes from 99.24.18.25: seq=9 ttl=50 time=80.134 ms
ping_20 | 64 bytes from 99.24.18.25: seq=10 ttl=50 time=80.272 ms
ping_12 | 64 bytes from 99.24.18.25: seq=11 ttl=50 time=80.283 ms
ping_13 | 64 bytes from 99.24.18.25: seq=12 ttl=50 time=79.984 ms
ping_1  | 64 bytes from 99.24.18.25: seq=19 ttl=50 time=80.196 ms
ping_19 | 64 bytes from 99.24.18.25: seq=9 ttl=50 time=80.479 ms
ping_10 | 64 bytes from 99.24.18.25: seq=18 ttl=50 time=79.963 ms
ping_17 | 64 bytes from 99.24.18.25: seq=8 ttl=50 time=80.087 ms
ping_18 | 64 bytes from 99.24.18.25: seq=7 ttl=50 time=80.183 ms
ping_14 | 64 bytes from 99.24.18.25: seq=5 ttl=50 time=80.438 ms
ping_11 | 64 bytes from 99.24.18.25: seq=4 ttl=50 time=79.919 ms
ping_16 | 64 bytes from 99.24.18.25: seq=6 ttl=50 time=80.097 ms
ping_3  | 64 bytes from 99.24.18.25: seq=17 ttl=50 time=79.930 ms
ping_9  | 64 bytes from 99.24.18.25: seq=18 ttl=50 time=80.324 ms
ping_7  | 64 bytes from 99.24.18.25: seq=14 ttl=50 time=80.593 ms
ping_4  | 64 bytes from 99.24.18.25: seq=16 ttl=50 time=80.431 ms
ping_6  | 64 bytes from 99.24.18.25: seq=15 ttl=50 time=80.273 ms
ping_8  | 64 bytes from 99.24.18.25: seq=20 ttl=50 time=80.099 ms
ping_5  | 64 bytes from 99.24.18.25: seq=19 ttl=50 time=79.975 ms
ping_2  | 64 bytes from 99.24.18.25: seq=21 ttl=50 time=80.217 ms
ping_15 | 64 bytes from 99.24.18.25: seq=10 ttl=50 time=80.328 ms
ping_20 | 64 bytes from 99.24.18.25: seq=11 ttl=50 time=80.300 ms
ping_12 | 64 bytes from 99.24.18.25: seq=12 ttl=50 time=80.361 ms
ping_13 | 64 bytes from 99.24.18.25: seq=13 ttl=50 time=80.148 ms
ping_1  | 64 bytes from 99.24.18.25: seq=20 ttl=50 time=80.247 ms
ping_19 | 64 bytes from 99.24.18.25: seq=10 ttl=50 time=80.511 ms
ping_10 | 64 bytes from 99.24.18.25: seq=19 ttl=50 time=80.179 ms
ping_17 | 64 bytes from 99.24.18.25: seq=9 ttl=50 time=80.001 ms
ping_18 | 64 bytes from 99.24.18.25: seq=8 ttl=50 time=79.946 ms
ping_14 | 64 bytes from 99.24.18.25: seq=6 ttl=50 time=80.276 ms
ping_11 | 64 bytes from 99.24.18.25: seq=5 ttl=50 time=80.265 ms
ping_16 | 64 bytes from 99.24.18.25: seq=7 ttl=50 time=80.049 ms
ping_3  | 64 bytes from 99.24.18.25: seq=18 ttl=50 time=80.132 ms
ping_9  | 64 bytes from 99.24.18.25: seq=19 ttl=50 time=80.507 ms
ping_7  | 64 bytes from 99.24.18.25: seq=15 ttl=50 time=80.312 ms
ping_4  | 64 bytes from 99.24.18.25: seq=17 ttl=50 time=80.019 ms
ping_6  | 64 bytes from 99.24.18.25: seq=16 ttl=50 time=80.446 ms
ping_8  | 64 bytes from 99.24.18.25: seq=21 ttl=50 time=80.019 ms
ping_5  | 64 bytes from 99.24.18.25: seq=20 ttl=50 time=80.274 ms
ping_2  | 64 bytes from 99.24.18.25: seq=22 ttl=50 time=80.551 ms
ping_15 | 64 bytes from 99.24.18.25: seq=11 ttl=50 time=80.378 ms
ping_20 | 64 bytes from 99.24.18.25: seq=12 ttl=50 time=80.650 ms
ping_12 | 64 bytes from 99.24.18.25: seq=13 ttl=50 time=80.352 ms
ping_13 | 64 bytes from 99.24.18.25: seq=14 ttl=50 time=80.279 ms
ping_1  | 64 bytes from 99.24.18.25: seq=21 ttl=50 time=80.462 ms
ping_19 | 64 bytes from 99.24.18.25: seq=11 ttl=50 time=80.223 ms
ping_10 | 64 bytes from 99.24.18.25: seq=20 ttl=50 time=80.400 ms
ping_17 | 64 bytes from 99.24.18.25: seq=10 ttl=50 time=80.413 ms
ping_18 | 64 bytes from 99.24.18.25: seq=9 ttl=50 time=80.057 ms
ping_14 | 64 bytes from 99.24.18.25: seq=7 ttl=50 time=79.997 ms
ping_11 | 64 bytes from 99.24.18.25: seq=6 ttl=50 time=80.436 ms
ping_16 | 64 bytes from 99.24.18.25: seq=8 ttl=50 time=80.550 ms
ping_3  | 64 bytes from 99.24.18.25: seq=19 ttl=50 time=79.955 ms
ping_9  | 64 bytes from 99.24.18.25: seq=20 ttl=50 time=80.345 ms
ping_7  | 64 bytes from 99.24.18.25: seq=16 ttl=50 time=80.554 ms
ping_4  | 64 bytes from 99.24.18.25: seq=18 ttl=50 time=80.336 ms
ping_6  | 64 bytes from 99.24.18.25: seq=17 ttl=50 time=80.318 ms
ping_8  | 64 bytes from 99.24.18.25: seq=22 ttl=50 time=80.242 ms
ping_5  | 64 bytes from 99.24.18.25: seq=21 ttl=50 time=80.884 ms
ping_2  | 64 bytes from 99.24.18.25: seq=23 ttl=50 time=80.507 ms
ping_15 | 64 bytes from 99.24.18.25: seq=12 ttl=50 time=80.288 ms
ping_20 | 64 bytes from 99.24.18.25: seq=13 ttl=50 time=81.186 ms
ping_12 | 64 bytes from 99.24.18.25: seq=14 ttl=50 time=80.464 ms
ping_13 | 64 bytes from 99.24.18.25: seq=15 ttl=50 time=80.292 ms
ping_1  | 64 bytes from 99.24.18.25: seq=22 ttl=50 time=82.593 ms
ping_19 | 64 bytes from 99.24.18.25: seq=12 ttl=50 time=83.663 ms
ping_10 | 64 bytes from 99.24.18.25: seq=21 ttl=50 time=84.826 ms
ping_17 | 64 bytes from 99.24.18.25: seq=11 ttl=50 time=83.829 ms
ping_18 | 64 bytes from 99.24.18.25: seq=10 ttl=50 time=83.523 ms
ping_14 | 64 bytes from 99.24.18.25: seq=8 ttl=50 time=80.455 ms
ping_11 | 64 bytes from 99.24.18.25: seq=7 ttl=50 time=80.416 ms
ping_16 | 64 bytes from 99.24.18.25: seq=9 ttl=50 time=80.109 ms
ping_3  | 64 bytes from 99.24.18.25: seq=20 ttl=50 time=80.296 ms
ping_9  | 64 bytes from 99.24.18.25: seq=21 ttl=50 time=80.367 ms
ping_7  | 64 bytes from 99.24.18.25: seq=17 ttl=50 time=79.987 ms
ping_4  | 64 bytes from 99.24.18.25: seq=19 ttl=50 time=80.308 ms
ping_6  | 64 bytes from 99.24.18.25: seq=18 ttl=50 time=80.311 ms
ping_8  | 64 bytes from 99.24.18.25: seq=23 ttl=50 time=80.586 ms
ping_5  | 64 bytes from 99.24.18.25: seq=22 ttl=50 time=80.709 ms
ping_2  | 64 bytes from 99.24.18.25: seq=24 ttl=50 time=80.242 ms
ping_15 | 64 bytes from 99.24.18.25: seq=13 ttl=50 time=80.393 ms
ping_20 | 64 bytes from 99.24.18.25: seq=14 ttl=50 time=80.317 ms
ping_12 | 64 bytes from 99.24.18.25: seq=15 ttl=50 time=80.650 ms
ping_13 | 64 bytes from 99.24.18.25: seq=16 ttl=50 time=80.203 ms
ping_1  | 64 bytes from 99.24.18.25: seq=23 ttl=50 time=80.317 ms
ping_19 | 64 bytes from 99.24.18.25: seq=13 ttl=50 time=80.138 ms
ping_10 | 64 bytes from 99.24.18.25: seq=22 ttl=50 time=80.232 ms
ping_17 | 64 bytes from 99.24.18.25: seq=12 ttl=50 time=79.980 ms
ping_18 | 64 bytes from 99.24.18.25: seq=11 ttl=50 time=79.902 ms
ping_14 | 64 bytes from 99.24.18.25: seq=9 ttl=50 time=80.200 ms
ping_11 | 64 bytes from 99.24.18.25: seq=8 ttl=50 time=80.456 ms
ping_16 | 64 bytes from 99.24.18.25: seq=10 ttl=50 time=80.146 ms
ping_3  | 64 bytes from 99.24.18.25: seq=21 ttl=50 time=80.000 ms
ping_9  | 64 bytes from 99.24.18.25: seq=22 ttl=50 time=80.317 ms
ping_7  | 64 bytes from 99.24.18.25: seq=18 ttl=50 time=80.349 ms
ping_4  | 64 bytes from 99.24.18.25: seq=20 ttl=50 time=80.355 ms
ping_6  | 64 bytes from 99.24.18.25: seq=19 ttl=50 time=79.984 ms
ping_8  | 64 bytes from 99.24.18.25: seq=24 ttl=50 time=80.415 ms
ping_5  | 64 bytes from 99.24.18.25: seq=23 ttl=50 time=80.365 ms
ping_2  | 64 bytes from 99.24.18.25: seq=25 ttl=50 time=80.286 ms
ping_15 | 64 bytes from 99.24.18.25: seq=14 ttl=50 time=80.316 ms
ping_20 | 64 bytes from 99.24.18.25: seq=15 ttl=50 time=79.810 ms
ping_12 | 64 bytes from 99.24.18.25: seq=16 ttl=50 time=80.271 ms
ping_13 | 64 bytes from 99.24.18.25: seq=17 ttl=50 time=80.323 ms
ping_1  | 64 bytes from 99.24.18.25: seq=24 ttl=50 time=80.348 ms
ping_19 | 64 bytes from 99.24.18.25: seq=14 ttl=50 time=80.197 ms
ping_10 | 64 bytes from 99.24.18.25: seq=23 ttl=50 time=80.241 ms
ping_17 | 64 bytes from 99.24.18.25: seq=13 ttl=50 time=80.433 ms
ping_18 | 64 bytes from 99.24.18.25: seq=12 ttl=50 time=80.313 ms
ping_14 | 64 bytes from 99.24.18.25: seq=10 ttl=50 time=80.575 ms
ping_11 | 64 bytes from 99.24.18.25: seq=9 ttl=50 time=80.670 ms
ping_16 | 64 bytes from 99.24.18.25: seq=11 ttl=50 time=80.173 ms
ping_3  | 64 bytes from 99.24.18.25: seq=22 ttl=50 time=80.018 ms
ping_9  | 64 bytes from 99.24.18.25: seq=23 ttl=50 time=80.323 ms
ping_7  | 64 bytes from 99.24.18.25: seq=19 ttl=50 time=80.111 ms
ping_4  | 64 bytes from 99.24.18.25: seq=21 ttl=50 time=80.268 ms
ping_6  | 64 bytes from 99.24.18.25: seq=20 ttl=50 time=80.706 ms
ping_8  | 64 bytes from 99.24.18.25: seq=25 ttl=50 time=80.165 ms
ping_5  | 64 bytes from 99.24.18.25: seq=24 ttl=50 time=80.356 ms
ping_2  | 64 bytes from 99.24.18.25: seq=26 ttl=50 time=79.934 ms
ping_15 | 64 bytes from 99.24.18.25: seq=15 ttl=50 time=80.298 ms
ping_20 | 64 bytes from 99.24.18.25: seq=16 ttl=50 time=80.392 ms
ping_12 | 64 bytes from 99.24.18.25: seq=17 ttl=50 time=80.398 ms
ping_13 | 64 bytes from 99.24.18.25: seq=18 ttl=50 time=79.941 ms
ping_1  | 64 bytes from 99.24.18.25: seq=25 ttl=50 time=80.198 ms
ping_19 | 64 bytes from 99.24.18.25: seq=15 ttl=50 time=80.185 ms
ping_10 | 64 bytes from 99.24.18.25: seq=24 ttl=50 time=80.040 ms
ping_17 | 64 bytes from 99.24.18.25: seq=14 ttl=50 time=80.439 ms
ping_18 | 64 bytes from 99.24.18.25: seq=13 ttl=50 time=80.201 ms
ping_14 | 64 bytes from 99.24.18.25: seq=11 ttl=50 time=80.443 ms
ping_11 | 64 bytes from 99.24.18.25: seq=10 ttl=50 time=79.897 ms
ping_16 | 64 bytes from 99.24.18.25: seq=12 ttl=50 time=80.450 ms
ping_3  | 64 bytes from 99.24.18.25: seq=23 ttl=50 time=80.741 ms
ping_9  | 64 bytes from 99.24.18.25: seq=24 ttl=50 time=80.325 ms
ping_7  | 64 bytes from 99.24.18.25: seq=20 ttl=50 time=80.262 ms
ping_4  | 64 bytes from 99.24.18.25: seq=22 ttl=50 time=80.355 ms
ping_6  | 64 bytes from 99.24.18.25: seq=21 ttl=50 time=80.554 ms
ping_8  | 64 bytes from 99.24.18.25: seq=26 ttl=50 time=79.962 ms
ping_5  | 64 bytes from 99.24.18.25: seq=25 ttl=50 time=80.448 ms
ping_2  | 64 bytes from 99.24.18.25: seq=27 ttl=50 time=80.220 ms
ping_15 | 64 bytes from 99.24.18.25: seq=16 ttl=50 time=79.999 ms
ping_20 | 64 bytes from 99.24.18.25: seq=17 ttl=50 time=79.881 ms
ping_12 | 64 bytes from 99.24.18.25: seq=18 ttl=50 time=80.847 ms
ping_13 | 64 bytes from 99.24.18.25: seq=19 ttl=50 time=79.884 ms
ping_1  | 64 bytes from 99.24.18.25: seq=26 ttl=50 time=79.933 ms
ping_19 | 64 bytes from 99.24.18.25: seq=16 ttl=50 time=80.499 ms
ping_10 | 64 bytes from 99.24.18.25: seq=25 ttl=50 time=80.175 ms
ping_17 | 64 bytes from 99.24.18.25: seq=15 ttl=50 time=79.892 ms
ping_18 | 64 bytes from 99.24.18.25: seq=14 ttl=50 time=79.902 ms
ping_14 | 64 bytes from 99.24.18.25: seq=12 ttl=50 time=80.507 ms
ping_11 | 64 bytes from 99.24.18.25: seq=11 ttl=50 time=80.334 ms
ping_16 | 64 bytes from 99.24.18.25: seq=13 ttl=50 time=80.387 ms
ping_3  | 64 bytes from 99.24.18.25: seq=24 ttl=50 time=80.323 ms
ping_9  | 64 bytes from 99.24.18.25: seq=25 ttl=50 time=80.194 ms
ping_7  | 64 bytes from 99.24.18.25: seq=21 ttl=50 time=80.213 ms
ping_4  | 64 bytes from 99.24.18.25: seq=23 ttl=50 time=79.948 ms
ping_6  | 64 bytes from 99.24.18.25: seq=22 ttl=50 time=79.889 ms
ping_8  | 64 bytes from 99.24.18.25: seq=27 ttl=50 time=80.386 ms
ping_5  | 64 bytes from 99.24.18.25: seq=26 ttl=50 time=80.059 ms
ping_2  | 64 bytes from 99.24.18.25: seq=28 ttl=50 time=80.103 ms
ping_15 | 64 bytes from 99.24.18.25: seq=17 ttl=50 time=80.195 ms
ping_20 | 64 bytes from 99.24.18.25: seq=18 ttl=50 time=80.764 ms
ping_12 | 64 bytes from 99.24.18.25: seq=19 ttl=50 time=80.374 ms
ping_13 | 64 bytes from 99.24.18.25: seq=20 ttl=50 time=80.124 ms
ping_1  | 64 bytes from 99.24.18.25: seq=27 ttl=50 time=81.510 ms
ping_19 | 64 bytes from 99.24.18.25: seq=17 ttl=50 time=81.401 ms
ping_10 | 64 bytes from 99.24.18.25: seq=26 ttl=50 time=80.221 ms
ping_17 | 64 bytes from 99.24.18.25: seq=16 ttl=50 time=80.296 ms
ping_18 | 64 bytes from 99.24.18.25: seq=15 ttl=50 time=80.312 ms
ping_14 | 64 bytes from 99.24.18.25: seq=13 ttl=50 time=80.236 ms
ping_11 | 64 bytes from 99.24.18.25: seq=12 ttl=50 time=80.288 ms
ping_16 | 64 bytes from 99.24.18.25: seq=14 ttl=50 time=80.527 ms
ping_3  | 64 bytes from 99.24.18.25: seq=25 ttl=50 time=80.042 ms
ping_9  | 64 bytes from 99.24.18.25: seq=26 ttl=50 time=80.499 ms
ping_7  | 64 bytes from 99.24.18.25: seq=22 ttl=50 time=80.291 ms
ping_4  | 64 bytes from 99.24.18.25: seq=24 ttl=50 time=79.995 ms
ping_6  | 64 bytes from 99.24.18.25: seq=23 ttl=50 time=79.893 ms
ping_8  | 64 bytes from 99.24.18.25: seq=28 ttl=50 time=80.493 ms
ping_5  | 64 bytes from 99.24.18.25: seq=27 ttl=50 time=80.492 ms
ping_2  | 64 bytes from 99.24.18.25: seq=29 ttl=50 time=79.999 ms
ping_15 | 64 bytes from 99.24.18.25: seq=18 ttl=50 time=79.851 ms
ping_20 | 64 bytes from 99.24.18.25: seq=19 ttl=50 time=80.547 ms
ping_12 | 64 bytes from 99.24.18.25: seq=20 ttl=50 time=79.923 ms
ping_13 | 64 bytes from 99.24.18.25: seq=21 ttl=50 time=80.573 ms
ping_1  | 64 bytes from 99.24.18.25: seq=28 ttl=50 time=79.997 ms
ping_19 | 64 bytes from 99.24.18.25: seq=18 ttl=50 time=79.863 ms
ping_10 | 64 bytes from 99.24.18.25: seq=27 ttl=50 time=79.867 ms
ping_17 | 64 bytes from 99.24.18.25: seq=17 ttl=50 time=79.999 ms
ping_18 | 64 bytes from 99.24.18.25: seq=16 ttl=50 time=80.221 ms
ping_14 | 64 bytes from 99.24.18.25: seq=14 ttl=50 time=79.954 ms
ping_11 | 64 bytes from 99.24.18.25: seq=13 ttl=50 time=79.984 ms
ping_16 | 64 bytes from 99.24.18.25: seq=15 ttl=50 time=79.962 ms
ping_3  | 64 bytes from 99.24.18.25: seq=26 ttl=50 time=79.840 ms
ping_9  | 64 bytes from 99.24.18.25: seq=27 ttl=50 time=79.876 ms
ping_7  | 64 bytes from 99.24.18.25: seq=23 ttl=50 time=80.069 ms
ping_4  | 64 bytes from 99.24.18.25: seq=25 ttl=50 time=79.904 ms
ping_6  | 64 bytes from 99.24.18.25: seq=24 ttl=50 time=79.833 ms
ping_8  | 64 bytes from 99.24.18.25: seq=29 ttl=50 time=79.917 ms
ping_5  | 64 bytes from 99.24.18.25: seq=28 ttl=50 time=80.421 ms
ping_2  | 64 bytes from 99.24.18.25: seq=30 ttl=50 time=80.004 ms
ping_15 | 64 bytes from 99.24.18.25: seq=19 ttl=50 time=80.537 ms
ping_20 | 64 bytes from 99.24.18.25: seq=20 ttl=50 time=80.487 ms
ping_12 | 64 bytes from 99.24.18.25: seq=21 ttl=50 time=80.278 ms
ping_13 | 64 bytes from 99.24.18.25: seq=22 ttl=50 time=80.311 ms
ping_1  | 64 bytes from 99.24.18.25: seq=29 ttl=50 time=80.895 ms
ping_19 | 64 bytes from 99.24.18.25: seq=19 ttl=50 time=80.313 ms
ping_10 | 64 bytes from 99.24.18.25: seq=28 ttl=50 time=80.343 ms
ping_17 | 64 bytes from 99.24.18.25: seq=18 ttl=50 time=80.396 ms
ping_18 | 64 bytes from 99.24.18.25: seq=17 ttl=50 time=80.436 ms
ping_14 | 64 bytes from 99.24.18.25: seq=15 ttl=50 time=80.281 ms
ping_11 | 64 bytes from 99.24.18.25: seq=14 ttl=50 time=80.156 ms
ping_16 | 64 bytes from 99.24.18.25: seq=16 ttl=50 time=80.533 ms
ping_3  | 64 bytes from 99.24.18.25: seq=27 ttl=50 time=80.095 ms
ping_9  | 64 bytes from 99.24.18.25: seq=28 ttl=50 time=80.348 ms
ping_7  | 64 bytes from 99.24.18.25: seq=24 ttl=50 time=80.273 ms
ping_4  | 64 bytes from 99.24.18.25: seq=26 ttl=50 time=80.206 ms
ping_6  | 64 bytes from 99.24.18.25: seq=25 ttl=50 time=80.497 ms
ping_8  | 64 bytes from 99.24.18.25: seq=30 ttl=50 time=80.215 ms
ping_5  | 64 bytes from 99.24.18.25: seq=29 ttl=50 time=80.078 ms
ping_2  | 64 bytes from 99.24.18.25: seq=31 ttl=50 time=80.048 ms
ping_15 | 64 bytes from 99.24.18.25: seq=20 ttl=50 time=80.358 ms
ping_20 | 64 bytes from 99.24.18.25: seq=21 ttl=50 time=80.075 ms
ping_12 | 64 bytes from 99.24.18.25: seq=22 ttl=50 time=80.343 ms
ping_13 | 64 bytes from 99.24.18.25: seq=23 ttl=50 time=80.241 ms
ping_1  | 64 bytes from 99.24.18.25: seq=30 ttl=50 time=80.480 ms
ping_19 | 64 bytes from 99.24.18.25: seq=20 ttl=50 time=80.306 ms
ping_10 | 64 bytes from 99.24.18.25: seq=29 ttl=50 time=79.951 ms
ping_17 | 64 bytes from 99.24.18.25: seq=19 ttl=50 time=79.910 ms
ping_18 | 64 bytes from 99.24.18.25: seq=18 ttl=50 time=79.959 ms
ping_14 | 64 bytes from 99.24.18.25: seq=16 ttl=50 time=80.193 ms
ping_11 | 64 bytes from 99.24.18.25: seq=15 ttl=50 time=80.592 ms
ping_16 | 64 bytes from 99.24.18.25: seq=17 ttl=50 time=80.544 ms
ping_3  | 64 bytes from 99.24.18.25: seq=28 ttl=50 time=80.264 ms
ping_9  | 64 bytes from 99.24.18.25: seq=29 ttl=50 time=80.272 ms
ping_7  | 64 bytes from 99.24.18.25: seq=25 ttl=50 time=80.337 ms
ping_4  | 64 bytes from 99.24.18.25: seq=27 ttl=50 time=80.289 ms
ping_6  | 64 bytes from 99.24.18.25: seq=26 ttl=50 time=79.967 ms
ping_8  | 64 bytes from 99.24.18.25: seq=31 ttl=50 time=80.574 ms
ping_5  | 64 bytes from 99.24.18.25: seq=30 ttl=50 time=80.279 ms
ping_2  | 64 bytes from 99.24.18.25: seq=32 ttl=50 time=80.038 ms
ping_15 | 64 bytes from 99.24.18.25: seq=21 ttl=50 time=80.456 ms
ping_20 | 64 bytes from 99.24.18.25: seq=22 ttl=50 time=79.904 ms
ping_12 | 64 bytes from 99.24.18.25: seq=23 ttl=50 time=80.245 ms
ping_13 | 64 bytes from 99.24.18.25: seq=24 ttl=50 time=80.492 ms
ping_1  | 64 bytes from 99.24.18.25: seq=31 ttl=50 time=80.651 ms
ping_19 | 64 bytes from 99.24.18.25: seq=21 ttl=50 time=80.595 ms
ping_10 | 64 bytes from 99.24.18.25: seq=30 ttl=50 time=80.124 ms
ping_17 | 64 bytes from 99.24.18.25: seq=20 ttl=50 time=79.929 ms
ping_18 | 64 bytes from 99.24.18.25: seq=19 ttl=50 time=79.981 ms
ping_14 | 64 bytes from 99.24.18.25: seq=17 ttl=50 time=80.218 ms
ping_11 | 64 bytes from 99.24.18.25: seq=16 ttl=50 time=80.389 ms
ping_16 | 64 bytes from 99.24.18.25: seq=18 ttl=50 time=80.256 ms
ping_3  | 64 bytes from 99.24.18.25: seq=29 ttl=50 time=80.088 ms
ping_9  | 64 bytes from 99.24.18.25: seq=30 ttl=50 time=80.445 ms
ping_7  | 64 bytes from 99.24.18.25: seq=26 ttl=50 time=79.923 ms
ping_4  | 64 bytes from 99.24.18.25: seq=28 ttl=50 time=80.021 ms
ping_6  | 64 bytes from 99.24.18.25: seq=27 ttl=50 time=80.157 ms
ping_8  | 64 bytes from 99.24.18.25: seq=32 ttl=50 time=80.237 ms
ping_5  | 64 bytes from 99.24.18.25: seq=31 ttl=50 time=80.176 ms
ping_2  | 64 bytes from 99.24.18.25: seq=33 ttl=50 time=80.013 ms
ping_15 | 64 bytes from 99.24.18.25: seq=22 ttl=50 time=80.368 ms
ping_20 | 64 bytes from 99.24.18.25: seq=23 ttl=50 time=80.469 ms
ping_12 | 64 bytes from 99.24.18.25: seq=24 ttl=50 time=80.283 ms
ping_13 | 64 bytes from 99.24.18.25: seq=25 ttl=50 time=80.192 ms
ping_1  | 64 bytes from 99.24.18.25: seq=32 ttl=50 time=80.501 ms
ping_19 | 64 bytes from 99.24.18.25: seq=22 ttl=50 time=80.262 ms
ping_10 | 64 bytes from 99.24.18.25: seq=31 ttl=50 time=80.074 ms
ping_17 | 64 bytes from 99.24.18.25: seq=21 ttl=50 time=80.027 ms
ping_18 | 64 bytes from 99.24.18.25: seq=20 ttl=50 time=80.275 ms
ping_14 | 64 bytes from 99.24.18.25: seq=18 ttl=50 time=80.560 ms
ping_11 | 64 bytes from 99.24.18.25: seq=17 ttl=50 time=80.324 ms
ping_16 | 64 bytes from 99.24.18.25: seq=19 ttl=50 time=80.493 ms
ping_3  | 64 bytes from 99.24.18.25: seq=30 ttl=50 time=80.013 ms
ping_9  | 64 bytes from 99.24.18.25: seq=31 ttl=50 time=80.040 ms
ping_7  | 64 bytes from 99.24.18.25: seq=27 ttl=50 time=80.276 ms
ping_4  | 64 bytes from 99.24.18.25: seq=29 ttl=50 time=80.315 ms
ping_6  | 64 bytes from 99.24.18.25: seq=28 ttl=50 time=80.412 ms
ping_8  | 64 bytes from 99.24.18.25: seq=33 ttl=50 time=80.133 ms
ping_5  | 64 bytes from 99.24.18.25: seq=32 ttl=50 time=81.324 ms
ping_2  | 64 bytes from 99.24.18.25: seq=34 ttl=50 time=80.036 ms
ping_15 | 64 bytes from 99.24.18.25: seq=23 ttl=50 time=80.302 ms
ping_20 | 64 bytes from 99.24.18.25: seq=24 ttl=50 time=80.314 ms
ping_12 | 64 bytes from 99.24.18.25: seq=25 ttl=50 time=80.368 ms
ping_13 | 64 bytes from 99.24.18.25: seq=26 ttl=50 time=80.102 ms
ping_1  | 64 bytes from 99.24.18.25: seq=33 ttl=50 time=80.396 ms
ping_19 | 64 bytes from 99.24.18.25: seq=23 ttl=50 time=80.252 ms
ping_10 | 64 bytes from 99.24.18.25: seq=32 ttl=50 time=80.371 ms
ping_17 | 64 bytes from 99.24.18.25: seq=22 ttl=50 time=80.169 ms
ping_18 | 64 bytes from 99.24.18.25: seq=21 ttl=50 time=79.875 ms
ping_14 | 64 bytes from 99.24.18.25: seq=19 ttl=50 time=80.122 ms
ping_11 | 64 bytes from 99.24.18.25: seq=18 ttl=50 time=80.285 ms
ping_16 | 64 bytes from 99.24.18.25: seq=20 ttl=50 time=79.989 ms
ping_3  | 64 bytes from 99.24.18.25: seq=31 ttl=50 time=79.908 ms
ping_9  | 64 bytes from 99.24.18.25: seq=32 ttl=50 time=79.858 ms
ping_7  | 64 bytes from 99.24.18.25: seq=28 ttl=50 time=79.858 ms
ping_4  | 64 bytes from 99.24.18.25: seq=30 ttl=50 time=80.281 ms
ping_6  | 64 bytes from 99.24.18.25: seq=29 ttl=50 time=79.832 ms
ping_8  | 64 bytes from 99.24.18.25: seq=34 ttl=50 time=80.257 ms
ping_5  | 64 bytes from 99.24.18.25: seq=33 ttl=50 time=80.372 ms
ping_2  | 64 bytes from 99.24.18.25: seq=35 ttl=50 time=80.087 ms
ping_15 | 64 bytes from 99.24.18.25: seq=24 ttl=50 time=80.312 ms
ping_20 | 64 bytes from 99.24.18.25: seq=25 ttl=50 time=80.329 ms
ping_12 | 64 bytes from 99.24.18.25: seq=26 ttl=50 time=80.002 ms
ping_13 | 64 bytes from 99.24.18.25: seq=27 ttl=50 time=80.209 ms
ping_1  | 64 bytes from 99.24.18.25: seq=34 ttl=50 time=80.129 ms
ping_19 | 64 bytes from 99.24.18.25: seq=24 ttl=50 time=80.441 ms
ping_10 | 64 bytes from 99.24.18.25: seq=33 ttl=50 time=80.207 ms
ping_17 | 64 bytes from 99.24.18.25: seq=23 ttl=50 time=80.033 ms
ping_18 | 64 bytes from 99.24.18.25: seq=22 ttl=50 time=79.926 ms
ping_14 | 64 bytes from 99.24.18.25: seq=20 ttl=50 time=80.346 ms
ping_11 | 64 bytes from 99.24.18.25: seq=19 ttl=50 time=80.737 ms
ping_16 | 64 bytes from 99.24.18.25: seq=21 ttl=50 time=80.371 ms
ping_3  | 64 bytes from 99.24.18.25: seq=32 ttl=50 time=80.742 ms
ping_9  | 64 bytes from 99.24.18.25: seq=33 ttl=50 time=81.947 ms
ping_7  | 64 bytes from 99.24.18.25: seq=29 ttl=50 time=81.447 ms
ping_4  | 64 bytes from 99.24.18.25: seq=31 ttl=50 time=81.432 ms
ping_6  | 64 bytes from 99.24.18.25: seq=30 ttl=50 time=80.428 ms
ping_8  | 64 bytes from 99.24.18.25: seq=35 ttl=50 time=81.126 ms
ping_5  | 64 bytes from 99.24.18.25: seq=34 ttl=50 time=80.406 ms
ping_2  | 64 bytes from 99.24.18.25: seq=36 ttl=50 time=80.585 ms
ping_15 | 64 bytes from 99.24.18.25: seq=25 ttl=50 time=80.706 ms
ping_20 | 64 bytes from 99.24.18.25: seq=26 ttl=50 time=80.777 ms
ping_12 | 64 bytes from 99.24.18.25: seq=27 ttl=50 time=80.214 ms
ping_13 | 64 bytes from 99.24.18.25: seq=28 ttl=50 time=79.926 ms
ping_1  | 64 bytes from 99.24.18.25: seq=35 ttl=50 time=80.272 ms
ping_19 | 64 bytes from 99.24.18.25: seq=25 ttl=50 time=80.413 ms
ping_10 | 64 bytes from 99.24.18.25: seq=34 ttl=50 time=80.405 ms
ping_17 | 64 bytes from 99.24.18.25: seq=24 ttl=50 time=80.287 ms
ping_18 | 64 bytes from 99.24.18.25: seq=23 ttl=50 time=80.346 ms
ping_14 | 64 bytes from 99.24.18.25: seq=21 ttl=50 time=80.024 ms
ping_11 | 64 bytes from 99.24.18.25: seq=20 ttl=50 time=79.887 ms
ping_16 | 64 bytes from 99.24.18.25: seq=22 ttl=50 time=79.922 ms
ping_3  | 64 bytes from 99.24.18.25: seq=33 ttl=50 time=80.027 ms
ping_9  | 64 bytes from 99.24.18.25: seq=34 ttl=50 time=80.241 ms
ping_7  | 64 bytes from 99.24.18.25: seq=30 ttl=50 time=80.225 ms
ping_4  | 64 bytes from 99.24.18.25: seq=32 ttl=50 time=80.302 ms
ping_6  | 64 bytes from 99.24.18.25: seq=31 ttl=50 time=80.231 ms
ping_8  | 64 bytes from 99.24.18.25: seq=36 ttl=50 time=80.521 ms
ping_5  | 64 bytes from 99.24.18.25: seq=35 ttl=50 time=79.918 ms
ping_2  | 64 bytes from 99.24.18.25: seq=37 ttl=50 time=79.944 ms
ping_15 | 64 bytes from 99.24.18.25: seq=26 ttl=50 time=82.034 ms
ping_20 | 64 bytes from 99.24.18.25: seq=27 ttl=50 time=80.147 ms
ping_12 | 64 bytes from 99.24.18.25: seq=28 ttl=50 time=79.844 ms
ping_13 | 64 bytes from 99.24.18.25: seq=29 ttl=50 time=80.328 ms
ping_1  | 64 bytes from 99.24.18.25: seq=36 ttl=50 time=79.914 ms
ping_19 | 64 bytes from 99.24.18.25: seq=26 ttl=50 time=80.190 ms
ping_10 | 64 bytes from 99.24.18.25: seq=35 ttl=50 time=80.134 ms
ping_17 | 64 bytes from 99.24.18.25: seq=25 ttl=50 time=80.162 ms
ping_18 | 64 bytes from 99.24.18.25: seq=24 ttl=50 time=80.192 ms
ping_14 | 64 bytes from 99.24.18.25: seq=22 ttl=50 time=80.003 ms
ping_11 | 64 bytes from 99.24.18.25: seq=21 ttl=50 time=79.930 ms
ping_16 | 64 bytes from 99.24.18.25: seq=23 ttl=50 time=80.396 ms
ping_3  | 64 bytes from 99.24.18.25: seq=34 ttl=50 time=80.017 ms
ping_9  | 64 bytes from 99.24.18.25: seq=35 ttl=50 time=80.423 ms
ping_7  | 64 bytes from 99.24.18.25: seq=31 ttl=50 time=80.283 ms
ping_4  | 64 bytes from 99.24.18.25: seq=33 ttl=50 time=80.307 ms
ping_6  | 64 bytes from 99.24.18.25: seq=32 ttl=50 time=80.429 ms
ping_8  | 64 bytes from 99.24.18.25: seq=37 ttl=50 time=80.326 ms
ping_5  | 64 bytes from 99.24.18.25: seq=36 ttl=50 time=80.322 ms
ping_2  | 64 bytes from 99.24.18.25: seq=38 ttl=50 time=80.024 ms
ping_15 | 64 bytes from 99.24.18.25: seq=27 ttl=50 time=80.372 ms
ping_20 | 64 bytes from 99.24.18.25: seq=28 ttl=50 time=80.787 ms
ping_12 | 64 bytes from 99.24.18.25: seq=29 ttl=50 time=80.233 ms
ping_13 | 64 bytes from 99.24.18.25: seq=30 ttl=50 time=80.225 ms
ping_1  | 64 bytes from 99.24.18.25: seq=37 ttl=50 time=80.336 ms
ping_19 | 64 bytes from 99.24.18.25: seq=27 ttl=50 time=81.149 ms
ping_10 | 64 bytes from 99.24.18.25: seq=36 ttl=50 time=83.666 ms
ping_17 | 64 bytes from 99.24.18.25: seq=26 ttl=50 time=79.791 ms
ping_18 | 64 bytes from 99.24.18.25: seq=25 ttl=50 time=80.059 ms
ping_14 | 64 bytes from 99.24.18.25: seq=23 ttl=50 time=81.256 ms
ping_11 | 64 bytes from 99.24.18.25: seq=22 ttl=50 time=80.154 ms
ping_16 | 64 bytes from 99.24.18.25: seq=24 ttl=50 time=79.911 ms
ping_3  | 64 bytes from 99.24.18.25: seq=35 ttl=50 time=80.090 ms
ping_9  | 64 bytes from 99.24.18.25: seq=36 ttl=50 time=80.413 ms
ping_7  | 64 bytes from 99.24.18.25: seq=32 ttl=50 time=80.229 ms
ping_4  | 64 bytes from 99.24.18.25: seq=34 ttl=50 time=80.505 ms
ping_6  | 64 bytes from 99.24.18.25: seq=33 ttl=50 time=80.489 ms
ping_8  | 64 bytes from 99.24.18.25: seq=38 ttl=50 time=80.026 ms
ping_5  | 64 bytes from 99.24.18.25: seq=37 ttl=50 time=80.130 ms
ping_2  | 64 bytes from 99.24.18.25: seq=39 ttl=50 time=79.972 ms
ping_15 | 64 bytes from 99.24.18.25: seq=28 ttl=50 time=79.987 ms
ping_20 | 64 bytes from 99.24.18.25: seq=29 ttl=50 time=80.312 ms
ping_12 | 64 bytes from 99.24.18.25: seq=30 ttl=50 time=80.238 ms
ping_13 | 64 bytes from 99.24.18.25: seq=31 ttl=50 time=80.236 ms
ping_1  | 64 bytes from 99.24.18.25: seq=38 ttl=50 time=80.237 ms
ping_19 | 64 bytes from 99.24.18.25: seq=28 ttl=50 time=80.615 ms
ping_10 | 64 bytes from 99.24.18.25: seq=37 ttl=50 time=80.236 ms
ping_17 | 64 bytes from 99.24.18.25: seq=27 ttl=50 time=80.127 ms
ping_18 | 64 bytes from 99.24.18.25: seq=26 ttl=50 time=80.055 ms
ping_14 | 64 bytes from 99.24.18.25: seq=24 ttl=50 time=80.417 ms
ping_11 | 64 bytes from 99.24.18.25: seq=23 ttl=50 time=80.327 ms
ping_16 | 64 bytes from 99.24.18.25: seq=25 ttl=50 time=80.311 ms
ping_3  | 64 bytes from 99.24.18.25: seq=36 ttl=50 time=80.131 ms
ping_9  | 64 bytes from 99.24.18.25: seq=37 ttl=50 time=80.264 ms
ping_7  | 64 bytes from 99.24.18.25: seq=33 ttl=50 time=80.180 ms
ping_4  | 64 bytes from 99.24.18.25: seq=35 ttl=50 time=79.978 ms
ping_6  | 64 bytes from 99.24.18.25: seq=34 ttl=50 time=80.405 ms
ping_8  | 64 bytes from 99.24.18.25: seq=39 ttl=50 time=80.258 ms
ping_5  | 64 bytes from 99.24.18.25: seq=38 ttl=50 time=80.402 ms
ping_2  | 64 bytes from 99.24.18.25: seq=40 ttl=50 time=79.923 ms
ping_15 | 64 bytes from 99.24.18.25: seq=29 ttl=50 time=80.459 ms
ping_20 | 64 bytes from 99.24.18.25: seq=30 ttl=50 time=80.516 ms
ping_12 | 64 bytes from 99.24.18.25: seq=31 ttl=50 time=80.185 ms
ping_13 | 64 bytes from 99.24.18.25: seq=32 ttl=50 time=80.866 ms
ping_1  | 64 bytes from 99.24.18.25: seq=39 ttl=50 time=79.917 ms
ping_19 | 64 bytes from 99.24.18.25: seq=29 ttl=50 time=80.783 ms
ping_10 | 64 bytes from 99.24.18.25: seq=38 ttl=50 time=80.400 ms
ping_17 | 64 bytes from 99.24.18.25: seq=28 ttl=50 time=80.191 ms
ping_18 | 64 bytes from 99.24.18.25: seq=27 ttl=50 time=79.916 ms
ping_14 | 64 bytes from 99.24.18.25: seq=25 ttl=50 time=80.276 ms
ping_11 | 64 bytes from 99.24.18.25: seq=24 ttl=50 time=79.995 ms
ping_16 | 64 bytes from 99.24.18.25: seq=26 ttl=50 time=79.993 ms
ping_3  | 64 bytes from 99.24.18.25: seq=37 ttl=50 time=80.225 ms
ping_9  | 64 bytes from 99.24.18.25: seq=38 ttl=50 time=80.210 ms
ping_7  | 64 bytes from 99.24.18.25: seq=34 ttl=50 time=79.961 ms
ping_4  | 64 bytes from 99.24.18.25: seq=36 ttl=50 time=80.191 ms
ping_6  | 64 bytes from 99.24.18.25: seq=35 ttl=50 time=80.247 ms
ping_8  | 64 bytes from 99.24.18.25: seq=40 ttl=50 time=80.147 ms
ping_5  | 64 bytes from 99.24.18.25: seq=39 ttl=50 time=80.211 ms
ping_2  | 64 bytes from 99.24.18.25: seq=41 ttl=50 time=80.127 ms
ping_15 | 64 bytes from 99.24.18.25: seq=30 ttl=50 time=80.354 ms
ping_20 | 64 bytes from 99.24.18.25: seq=31 ttl=50 time=80.536 ms
ping_12 | 64 bytes from 99.24.18.25: seq=32 ttl=50 time=80.372 ms
ping_13 | 64 bytes from 99.24.18.25: seq=33 ttl=50 time=80.326 ms
ping_1  | 64 bytes from 99.24.18.25: seq=40 ttl=50 time=80.218 ms
ping_19 | 64 bytes from 99.24.18.25: seq=30 ttl=50 time=80.257 ms
ping_10 | 64 bytes from 99.24.18.25: seq=39 ttl=50 time=80.347 ms
ping_17 | 64 bytes from 99.24.18.25: seq=29 ttl=50 time=80.272 ms
ping_18 | 64 bytes from 99.24.18.25: seq=28 ttl=50 time=80.246 ms
ping_14 | 64 bytes from 99.24.18.25: seq=26 ttl=50 time=80.541 ms
ping_11 | 64 bytes from 99.24.18.25: seq=25 ttl=50 time=79.935 ms
ping_16 | 64 bytes from 99.24.18.25: seq=27 ttl=50 time=80.494 ms
ping_3  | 64 bytes from 99.24.18.25: seq=38 ttl=50 time=79.909 ms
ping_9  | 64 bytes from 99.24.18.25: seq=39 ttl=50 time=79.922 ms
ping_7  | 64 bytes from 99.24.18.25: seq=35 ttl=50 time=80.186 ms
ping_4  | 64 bytes from 99.24.18.25: seq=37 ttl=50 time=80.252 ms
ping_6  | 64 bytes from 99.24.18.25: seq=36 ttl=50 time=80.289 ms
ping_8  | 64 bytes from 99.24.18.25: seq=41 ttl=50 time=80.257 ms
ping_5  | 64 bytes from 99.24.18.25: seq=40 ttl=50 time=79.990 ms
ping_2  | 64 bytes from 99.24.18.25: seq=42 ttl=50 time=80.160 ms
ping_15 | 64 bytes from 99.24.18.25: seq=31 ttl=50 time=80.465 ms
ping_20 | 64 bytes from 99.24.18.25: seq=32 ttl=50 time=80.489 ms
ping_12 | 64 bytes from 99.24.18.25: seq=33 ttl=50 time=80.288 ms
ping_13 | 64 bytes from 99.24.18.25: seq=34 ttl=50 time=80.394 ms
ping_1  | 64 bytes from 99.24.18.25: seq=41 ttl=50 time=79.826 ms
ping_19 | 64 bytes from 99.24.18.25: seq=31 ttl=50 time=80.326 ms
ping_10 | 64 bytes from 99.24.18.25: seq=40 ttl=50 time=80.367 ms
ping_17 | 64 bytes from 99.24.18.25: seq=30 ttl=50 time=79.954 ms
ping_18 | 64 bytes from 99.24.18.25: seq=29 ttl=50 time=80.084 ms
ping_14 | 64 bytes from 99.24.18.25: seq=27 ttl=50 time=80.455 ms
ping_11 | 64 bytes from 99.24.18.25: seq=26 ttl=50 time=80.370 ms
ping_16 | 64 bytes from 99.24.18.25: seq=28 ttl=50 time=80.522 ms
ping_3  | 64 bytes from 99.24.18.25: seq=39 ttl=50 time=79.961 ms
ping_9  | 64 bytes from 99.24.18.25: seq=40 ttl=50 time=80.256 ms
ping_7  | 64 bytes from 99.24.18.25: seq=36 ttl=50 time=80.178 ms
ping_4  | 64 bytes from 99.24.18.25: seq=38 ttl=50 time=80.563 ms
ping_6  | 64 bytes from 99.24.18.25: seq=37 ttl=50 time=80.402 ms
ping_8  | 64 bytes from 99.24.18.25: seq=42 ttl=50 time=80.525 ms
ping_5  | 64 bytes from 99.24.18.25: seq=41 ttl=50 time=80.270 ms
ping_2  | 64 bytes from 99.24.18.25: seq=43 ttl=50 time=80.154 ms
ping_15 | 64 bytes from 99.24.18.25: seq=32 ttl=50 time=80.207 ms
ping_20 | 64 bytes from 99.24.18.25: seq=33 ttl=50 time=80.194 ms
ping_12 | 64 bytes from 99.24.18.25: seq=34 ttl=50 time=80.255 ms
ping_13 | 64 bytes from 99.24.18.25: seq=35 ttl=50 time=80.304 ms
ping_1  | 64 bytes from 99.24.18.25: seq=42 ttl=50 time=80.148 ms
ping_19 | 64 bytes from 99.24.18.25: seq=32 ttl=50 time=79.916 ms
ping_10 | 64 bytes from 99.24.18.25: seq=41 ttl=50 time=79.903 ms
ping_17 | 64 bytes from 99.24.18.25: seq=31 ttl=50 time=80.180 ms
ping_18 | 64 bytes from 99.24.18.25: seq=30 ttl=50 time=80.248 ms
ping_14 | 64 bytes from 99.24.18.25: seq=28 ttl=50 time=79.782 ms
ping_11 | 64 bytes from 99.24.18.25: seq=27 ttl=50 time=79.753 ms
ping_16 | 64 bytes from 99.24.18.25: seq=29 ttl=50 time=79.784 ms
ping_3  | 64 bytes from 99.24.18.25: seq=40 ttl=50 time=80.102 ms
ping_9  | 64 bytes from 99.24.18.25: seq=41 ttl=50 time=81.392 ms
ping_7  | 64 bytes from 99.24.18.25: seq=37 ttl=50 time=80.260 ms
ping_4  | 64 bytes from 99.24.18.25: seq=39 ttl=50 time=80.160 ms
ping_6  | 64 bytes from 99.24.18.25: seq=38 ttl=50 time=80.223 ms
ping_8  | 64 bytes from 99.24.18.25: seq=43 ttl=50 time=80.302 ms
ping_5  | 64 bytes from 99.24.18.25: seq=42 ttl=50 time=80.681 ms
ping_2  | 64 bytes from 99.24.18.25: seq=44 ttl=50 time=79.933 ms
ping_15 | 64 bytes from 99.24.18.25: seq=33 ttl=50 time=80.194 ms
ping_20 | 64 bytes from 99.24.18.25: seq=34 ttl=50 time=80.431 ms
ping_12 | 64 bytes from 99.24.18.25: seq=35 ttl=50 time=80.157 ms
ping_13 | 64 bytes from 99.24.18.25: seq=36 ttl=50 time=80.355 ms
ping_1  | 64 bytes from 99.24.18.25: seq=43 ttl=50 time=80.450 ms
ping_19 | 64 bytes from 99.24.18.25: seq=33 ttl=50 time=80.281 ms
ping_10 | 64 bytes from 99.24.18.25: seq=42 ttl=50 time=80.056 ms
ping_17 | 64 bytes from 99.24.18.25: seq=32 ttl=50 time=79.884 ms
ping_18 | 64 bytes from 99.24.18.25: seq=31 ttl=50 time=79.774 ms
ping_14 | 64 bytes from 99.24.18.25: seq=29 ttl=50 time=80.131 ms
ping_11 | 64 bytes from 99.24.18.25: seq=28 ttl=50 time=80.196 ms
ping_16 | 64 bytes from 99.24.18.25: seq=30 ttl=50 time=80.072 ms
ping_3  | 64 bytes from 99.24.18.25: seq=41 ttl=50 time=80.080 ms
ping_9  | 64 bytes from 99.24.18.25: seq=42 ttl=50 time=80.383 ms
ping_7  | 64 bytes from 99.24.18.25: seq=38 ttl=50 time=79.931 ms
ping_4  | 64 bytes from 99.24.18.25: seq=40 ttl=50 time=80.336 ms
ping_6  | 64 bytes from 99.24.18.25: seq=39 ttl=50 time=80.076 ms
ping_8  | 64 bytes from 99.24.18.25: seq=44 ttl=50 time=80.490 ms
ping_5  | 64 bytes from 99.24.18.25: seq=43 ttl=50 time=81.524 ms
ping_2  | 64 bytes from 99.24.18.25: seq=45 ttl=50 time=80.047 ms
ping_15 | 64 bytes from 99.24.18.25: seq=34 ttl=50 time=80.251 ms
ping_20 | 64 bytes from 99.24.18.25: seq=35 ttl=50 time=80.462 ms
ping_12 | 64 bytes from 99.24.18.25: seq=36 ttl=50 time=80.292 ms
ping_13 | 64 bytes from 99.24.18.25: seq=37 ttl=50 time=80.225 ms
ping_1  | 64 bytes from 99.24.18.25: seq=44 ttl=50 time=80.249 ms
ping_19 | 64 bytes from 99.24.18.25: seq=34 ttl=50 time=81.114 ms
ping_10 | 64 bytes from 99.24.18.25: seq=43 ttl=50 time=80.394 ms
ping_17 | 64 bytes from 99.24.18.25: seq=33 ttl=50 time=80.163 ms
ping_18 | 64 bytes from 99.24.18.25: seq=32 ttl=50 time=79.993 ms
ping_14 | 64 bytes from 99.24.18.25: seq=30 ttl=50 time=80.445 ms
ping_11 | 64 bytes from 99.24.18.25: seq=29 ttl=50 time=79.912 ms
ping_16 | 64 bytes from 99.24.18.25: seq=31 ttl=50 time=80.243 ms
ping_3  | 64 bytes from 99.24.18.25: seq=42 ttl=50 time=80.370 ms
ping_9  | 64 bytes from 99.24.18.25: seq=43 ttl=50 time=79.975 ms
ping_7  | 64 bytes from 99.24.18.25: seq=39 ttl=50 time=80.316 ms
ping_4  | 64 bytes from 99.24.18.25: seq=41 ttl=50 time=80.314 ms
ping_6  | 64 bytes from 99.24.18.25: seq=40 ttl=50 time=79.905 ms
ping_8  | 64 bytes from 99.24.18.25: seq=45 ttl=50 time=80.194 ms
ping_5  | 64 bytes from 99.24.18.25: seq=44 ttl=50 time=80.869 ms
ping_2  | 64 bytes from 99.24.18.25: seq=46 ttl=50 time=80.242 ms
ping_15 | 64 bytes from 99.24.18.25: seq=35 ttl=50 time=80.358 ms
ping_20 | 64 bytes from 99.24.18.25: seq=36 ttl=50 time=80.211 ms
ping_12 | 64 bytes from 99.24.18.25: seq=37 ttl=50 time=80.058 ms
ping_13 | 64 bytes from 99.24.18.25: seq=38 ttl=50 time=80.149 ms
ping_1  | 64 bytes from 99.24.18.25: seq=45 ttl=50 time=80.814 ms
ping_19 | 64 bytes from 99.24.18.25: seq=35 ttl=50 time=80.615 ms
ping_10 | 64 bytes from 99.24.18.25: seq=44 ttl=50 time=80.030 ms
ping_17 | 64 bytes from 99.24.18.25: seq=34 ttl=50 time=79.888 ms
ping_18 | 64 bytes from 99.24.18.25: seq=33 ttl=50 time=80.288 ms
ping_14 | 64 bytes from 99.24.18.25: seq=31 ttl=50 time=80.317 ms
ping_11 | 64 bytes from 99.24.18.25: seq=30 ttl=50 time=80.368 ms
ping_16 | 64 bytes from 99.24.18.25: seq=32 ttl=50 time=80.556 ms
ping_3  | 64 bytes from 99.24.18.25: seq=43 ttl=50 time=80.056 ms
ping_9  | 64 bytes from 99.24.18.25: seq=44 ttl=50 time=80.679 ms
ping_7  | 64 bytes from 99.24.18.25: seq=40 ttl=50 time=80.176 ms
ping_4  | 64 bytes from 99.24.18.25: seq=42 ttl=50 time=79.989 ms
ping_6  | 64 bytes from 99.24.18.25: seq=41 ttl=50 time=79.975 ms
ping_8  | 64 bytes from 99.24.18.25: seq=46 ttl=50 time=80.240 ms
ping_5  | 64 bytes from 99.24.18.25: seq=45 ttl=50 time=80.202 ms
ping_2  | 64 bytes from 99.24.18.25: seq=47 ttl=50 time=80.064 ms
ping_15 | 64 bytes from 99.24.18.25: seq=36 ttl=50 time=80.322 ms
ping_20 | 64 bytes from 99.24.18.25: seq=37 ttl=50 time=79.995 ms
ping_12 | 64 bytes from 99.24.18.25: seq=38 ttl=50 time=80.273 ms
ping_13 | 64 bytes from 99.24.18.25: seq=39 ttl=50 time=80.324 ms
ping_1  | 64 bytes from 99.24.18.25: seq=46 ttl=50 time=79.965 ms
ping_19 | 64 bytes from 99.24.18.25: seq=36 ttl=50 time=80.349 ms
ping_10 | 64 bytes from 99.24.18.25: seq=45 ttl=50 time=80.275 ms
ping_17 | 64 bytes from 99.24.18.25: seq=35 ttl=50 time=80.305 ms
ping_18 | 64 bytes from 99.24.18.25: seq=34 ttl=50 time=79.866 ms
ping_14 | 64 bytes from 99.24.18.25: seq=32 ttl=50 time=80.109 ms
ping_11 | 64 bytes from 99.24.18.25: seq=31 ttl=50 time=80.557 ms
ping_16 | 64 bytes from 99.24.18.25: seq=33 ttl=50 time=81.020 ms
ping_3  | 64 bytes from 99.24.18.25: seq=44 ttl=50 time=80.017 ms
ping_9  | 64 bytes from 99.24.18.25: seq=45 ttl=50 time=80.252 ms
ping_7  | 64 bytes from 99.24.18.25: seq=41 ttl=50 time=80.101 ms
ping_4  | 64 bytes from 99.24.18.25: seq=43 ttl=50 time=80.088 ms
ping_6  | 64 bytes from 99.24.18.25: seq=42 ttl=50 time=80.629 ms
ping_8  | 64 bytes from 99.24.18.25: seq=47 ttl=50 time=80.581 ms
ping_5  | 64 bytes from 99.24.18.25: seq=46 ttl=50 time=80.513 ms
ping_2  | 64 bytes from 99.24.18.25: seq=48 ttl=50 time=79.969 ms
ping_15 | 64 bytes from 99.24.18.25: seq=37 ttl=50 time=80.394 ms
ping_20 | 64 bytes from 99.24.18.25: seq=38 ttl=50 time=80.233 ms
ping_12 | 64 bytes from 99.24.18.25: seq=39 ttl=50 time=80.615 ms
ping_13 | 64 bytes from 99.24.18.25: seq=40 ttl=50 time=80.467 ms
ping_1  | 64 bytes from 99.24.18.25: seq=47 ttl=50 time=80.434 ms
ping_19 | 64 bytes from 99.24.18.25: seq=37 ttl=50 time=80.220 ms
ping_10 | 64 bytes from 99.24.18.25: seq=46 ttl=50 time=80.327 ms
ping_17 | 64 bytes from 99.24.18.25: seq=36 ttl=50 time=79.983 ms
ping_18 | 64 bytes from 99.24.18.25: seq=35 ttl=50 time=80.021 ms
ping_14 | 64 bytes from 99.24.18.25: seq=33 ttl=50 time=80.549 ms
ping_11 | 64 bytes from 99.24.18.25: seq=32 ttl=50 time=80.375 ms
ping_16 | 64 bytes from 99.24.18.25: seq=34 ttl=50 time=80.559 ms
ping_3  | 64 bytes from 99.24.18.25: seq=45 ttl=50 time=79.928 ms
ping_9  | 64 bytes from 99.24.18.25: seq=46 ttl=50 time=80.176 ms
ping_7  | 64 bytes from 99.24.18.25: seq=42 ttl=50 time=80.202 ms
ping_4  | 64 bytes from 99.24.18.25: seq=44 ttl=50 time=80.004 ms
ping_6  | 64 bytes from 99.24.18.25: seq=43 ttl=50 time=79.984 ms
ping_8  | 64 bytes from 99.24.18.25: seq=48 ttl=50 time=79.958 ms
ping_5  | 64 bytes from 99.24.18.25: seq=47 ttl=50 time=80.121 ms
ping_2  | 64 bytes from 99.24.18.25: seq=49 ttl=50 time=80.025 ms
ping_2  | 
ping_2  | --- nyc.speedtest.sbcglobal.net ping statistics ---
ping_2  | 50 packets transmitted, 50 packets received, 0% packet loss
ping_2  | round-trip min/avg/max = 79.801/80.171/81.993 ms
ping_15 | 64 bytes from 99.24.18.25: seq=38 ttl=50 time=80.029 ms
ping_20 | 64 bytes from 99.24.18.25: seq=39 ttl=50 time=79.810 ms
ping_12 | 64 bytes from 99.24.18.25: seq=40 ttl=50 time=79.754 ms
ping_13 | 64 bytes from 99.24.18.25: seq=41 ttl=50 time=79.724 ms
ping_1  | 64 bytes from 99.24.18.25: seq=48 ttl=50 time=80.002 ms
ping_19 | 64 bytes from 99.24.18.25: seq=38 ttl=50 time=80.091 ms
ping_10 | 64 bytes from 99.24.18.25: seq=47 ttl=50 time=79.861 ms
ping_17 | 64 bytes from 99.24.18.25: seq=37 ttl=50 time=79.781 ms
ping_18 | 64 bytes from 99.24.18.25: seq=36 ttl=50 time=79.781 ms
softwareoverhead_ping_2 exited with code 0
ping_14 | 64 bytes from 99.24.18.25: seq=34 ttl=50 time=79.889 ms
ping_11 | 64 bytes from 99.24.18.25: seq=33 ttl=50 time=80.279 ms
ping_16 | 64 bytes from 99.24.18.25: seq=35 ttl=50 time=80.155 ms
ping_3  | 64 bytes from 99.24.18.25: seq=46 ttl=50 time=80.046 ms
ping_9  | 64 bytes from 99.24.18.25: seq=47 ttl=50 time=80.429 ms
ping_7  | 64 bytes from 99.24.18.25: seq=43 ttl=50 time=80.182 ms
ping_4  | 64 bytes from 99.24.18.25: seq=45 ttl=50 time=79.938 ms
ping_6  | 64 bytes from 99.24.18.25: seq=44 ttl=50 time=79.943 ms
ping_8  | 64 bytes from 99.24.18.25: seq=49 ttl=50 time=79.953 ms
ping_8  | 
ping_8  | --- nyc.speedtest.sbcglobal.net ping statistics ---
ping_8  | 50 packets transmitted, 50 packets received, 0% packet loss
ping_8  | round-trip min/avg/max = 79.768/80.271/82.012 ms
ping_5  | 64 bytes from 99.24.18.25: seq=48 ttl=50 time=80.170 ms
softwareoverhead_ping_8 exited with code 0
ping_15 | 64 bytes from 99.24.18.25: seq=39 ttl=50 time=80.215 ms
ping_20 | 64 bytes from 99.24.18.25: seq=40 ttl=50 time=80.342 ms
ping_12 | 64 bytes from 99.24.18.25: seq=41 ttl=50 time=81.081 ms
ping_13 | 64 bytes from 99.24.18.25: seq=42 ttl=50 time=80.107 ms
ping_1  | 64 bytes from 99.24.18.25: seq=49 ttl=50 time=80.301 ms
ping_1  | 
ping_1  | --- nyc.speedtest.sbcglobal.net ping statistics ---
ping_1  | 50 packets transmitted, 50 packets received, 0% packet loss
ping_1  | round-trip min/avg/max = 79.762/80.297/82.593 ms
ping_19 | 64 bytes from 99.24.18.25: seq=39 ttl=50 time=80.293 ms
ping_10 | 64 bytes from 99.24.18.25: seq=48 ttl=50 time=80.322 ms
ping_17 | 64 bytes from 99.24.18.25: seq=38 ttl=50 time=79.940 ms
ping_18 | 64 bytes from 99.24.18.25: seq=37 ttl=50 time=79.957 ms
ping_14 | 64 bytes from 99.24.18.25: seq=35 ttl=50 time=80.080 ms
ping_11 | 64 bytes from 99.24.18.25: seq=34 ttl=50 time=79.843 ms
ping_16 | 64 bytes from 99.24.18.25: seq=36 ttl=50 time=80.188 ms
ping_3  | 64 bytes from 99.24.18.25: seq=47 ttl=50 time=79.719 ms
ping_9  | 64 bytes from 99.24.18.25: seq=48 ttl=50 time=79.789 ms
softwareoverhead_ping_1 exited with code 0
ping_7  | 64 bytes from 99.24.18.25: seq=44 ttl=50 time=79.774 ms
ping_4  | 64 bytes from 99.24.18.25: seq=46 ttl=50 time=79.806 ms
ping_6  | 64 bytes from 99.24.18.25: seq=45 ttl=50 time=80.176 ms
ping_5  | 64 bytes from 99.24.18.25: seq=49 ttl=50 time=80.207 ms
ping_5  | 
ping_5  | --- nyc.speedtest.sbcglobal.net ping statistics ---
ping_5  | 50 packets transmitted, 50 packets received, 0% packet loss
ping_5  | round-trip min/avg/max = 79.806/80.359/81.524 ms
ping_15 | 64 bytes from 99.24.18.25: seq=40 ttl=50 time=80.101 ms
softwareoverhead_ping_5 exited with code 0
ping_20 | 64 bytes from 99.24.18.25: seq=41 ttl=50 time=80.012 ms
ping_12 | 64 bytes from 99.24.18.25: seq=42 ttl=50 time=80.059 ms
ping_13 | 64 bytes from 99.24.18.25: seq=43 ttl=50 time=79.887 ms
ping_19 | 64 bytes from 99.24.18.25: seq=40 ttl=50 time=79.864 ms
ping_10 | 64 bytes from 99.24.18.25: seq=49 ttl=50 time=80.219 ms
ping_10 | 
ping_10 | --- nyc.speedtest.sbcglobal.net ping statistics ---
ping_10 | 50 packets transmitted, 50 packets received, 0% packet loss
ping_10 | round-trip min/avg/max = 79.754/80.311/84.826 ms
ping_17 | 64 bytes from 99.24.18.25: seq=39 ttl=50 time=79.824 ms
ping_18 | 64 bytes from 99.24.18.25: seq=38 ttl=50 time=79.854 ms
ping_14 | 64 bytes from 99.24.18.25: seq=36 ttl=50 time=79.908 ms
ping_11 | 64 bytes from 99.24.18.25: seq=35 ttl=50 time=79.803 ms
ping_16 | 64 bytes from 99.24.18.25: seq=37 ttl=50 time=79.816 ms
ping_3  | 64 bytes from 99.24.18.25: seq=48 ttl=50 time=79.941 ms
ping_9  | 64 bytes from 99.24.18.25: seq=49 ttl=50 time=79.837 ms
ping_9  | 
ping_9  | --- nyc.speedtest.sbcglobal.net ping statistics ---
ping_9  | 50 packets transmitted, 50 packets received, 0% packet loss
ping_9  | round-trip min/avg/max = 79.697/80.285/81.947 ms
ping_7  | 64 bytes from 99.24.18.25: seq=45 ttl=50 time=80.474 ms
ping_4  | 64 bytes from 99.24.18.25: seq=47 ttl=50 time=79.822 ms
ping_6  | 64 bytes from 99.24.18.25: seq=46 ttl=50 time=80.119 ms
softwareoverhead_ping_10 exited with code 0
softwareoverhead_ping_9 exited with code 0
ping_15 | 64 bytes from 99.24.18.25: seq=41 ttl=50 time=79.837 ms
ping_20 | 64 bytes from 99.24.18.25: seq=42 ttl=50 time=80.420 ms
ping_12 | 64 bytes from 99.24.18.25: seq=43 ttl=50 time=80.287 ms
ping_13 | 64 bytes from 99.24.18.25: seq=44 ttl=50 time=80.366 ms
ping_19 | 64 bytes from 99.24.18.25: seq=41 ttl=50 time=80.014 ms
ping_17 | 64 bytes from 99.24.18.25: seq=40 ttl=50 time=80.596 ms
ping_18 | 64 bytes from 99.24.18.25: seq=39 ttl=50 time=80.317 ms
ping_14 | 64 bytes from 99.24.18.25: seq=37 ttl=50 time=80.159 ms
ping_11 | 64 bytes from 99.24.18.25: seq=36 ttl=50 time=80.004 ms
ping_16 | 64 bytes from 99.24.18.25: seq=38 ttl=50 time=80.432 ms
ping_3  | 64 bytes from 99.24.18.25: seq=49 ttl=50 time=79.902 ms
ping_3  | 
ping_3  | --- nyc.speedtest.sbcglobal.net ping statistics ---
ping_3  | 50 packets transmitted, 50 packets received, 0% packet loss
ping_3  | round-trip min/avg/max = 79.719/80.102/80.742 ms
ping_7  | 64 bytes from 99.24.18.25: seq=46 ttl=50 time=79.828 ms
ping_4  | 64 bytes from 99.24.18.25: seq=48 ttl=50 time=79.810 ms
ping_6  | 64 bytes from 99.24.18.25: seq=47 ttl=50 time=80.490 ms
softwareoverhead_ping_3 exited with code 0
ping_15 | 64 bytes from 99.24.18.25: seq=42 ttl=50 time=80.285 ms
ping_20 | 64 bytes from 99.24.18.25: seq=43 ttl=50 time=80.086 ms
ping_12 | 64 bytes from 99.24.18.25: seq=44 ttl=50 time=83.855 ms
ping_13 | 64 bytes from 99.24.18.25: seq=45 ttl=50 time=80.008 ms
ping_19 | 64 bytes from 99.24.18.25: seq=42 ttl=50 time=80.346 ms
ping_17 | 64 bytes from 99.24.18.25: seq=41 ttl=50 time=80.285 ms
ping_18 | 64 bytes from 99.24.18.25: seq=40 ttl=50 time=79.946 ms
ping_14 | 64 bytes from 99.24.18.25: seq=38 ttl=50 time=79.898 ms
ping_11 | 64 bytes from 99.24.18.25: seq=37 ttl=50 time=80.208 ms
ping_16 | 64 bytes from 99.24.18.25: seq=39 ttl=50 time=80.332 ms
ping_7  | 64 bytes from 99.24.18.25: seq=47 ttl=50 time=80.946 ms
ping_4  | 64 bytes from 99.24.18.25: seq=49 ttl=50 time=80.585 ms
ping_4  | 
ping_4  | --- nyc.speedtest.sbcglobal.net ping statistics ---
ping_4  | 50 packets transmitted, 50 packets received, 0% packet loss
ping_4  | round-trip min/avg/max = 79.806/80.175/81.432 ms
ping_6  | 64 bytes from 99.24.18.25: seq=48 ttl=50 time=80.433 ms
ping_15 | 64 bytes from 99.24.18.25: seq=43 ttl=50 time=80.167 ms
softwareoverhead_ping_4 exited with code 0
ping_20 | 64 bytes from 99.24.18.25: seq=44 ttl=50 time=79.893 ms
ping_12 | 64 bytes from 99.24.18.25: seq=45 ttl=50 time=79.859 ms
ping_13 | 64 bytes from 99.24.18.25: seq=46 ttl=50 time=79.854 ms
ping_19 | 64 bytes from 99.24.18.25: seq=43 ttl=50 time=79.870 ms
ping_17 | 64 bytes from 99.24.18.25: seq=42 ttl=50 time=80.191 ms
ping_18 | 64 bytes from 99.24.18.25: seq=41 ttl=50 time=80.384 ms
ping_14 | 64 bytes from 99.24.18.25: seq=39 ttl=50 time=80.254 ms
ping_11 | 64 bytes from 99.24.18.25: seq=38 ttl=50 time=79.904 ms
ping_16 | 64 bytes from 99.24.18.25: seq=40 ttl=50 time=80.501 ms
ping_7  | 64 bytes from 99.24.18.25: seq=48 ttl=50 time=79.976 ms
ping_6  | 64 bytes from 99.24.18.25: seq=49 ttl=50 time=80.277 ms
ping_6  | 
ping_6  | --- nyc.speedtest.sbcglobal.net ping statistics ---
ping_6  | 50 packets transmitted, 50 packets received, 0% packet loss
ping_6  | round-trip min/avg/max = 79.738/80.208/80.995 ms
softwareoverhead_ping_6 exited with code 0
ping_15 | 64 bytes from 99.24.18.25: seq=44 ttl=50 time=79.865 ms
ping_20 | 64 bytes from 99.24.18.25: seq=45 ttl=50 time=79.845 ms
ping_12 | 64 bytes from 99.24.18.25: seq=46 ttl=50 time=80.027 ms
ping_13 | 64 bytes from 99.24.18.25: seq=47 ttl=50 time=80.394 ms
ping_19 | 64 bytes from 99.24.18.25: seq=44 ttl=50 time=80.710 ms
ping_17 | 64 bytes from 99.24.18.25: seq=43 ttl=50 time=80.203 ms
ping_18 | 64 bytes from 99.24.18.25: seq=42 ttl=50 time=80.264 ms
ping_14 | 64 bytes from 99.24.18.25: seq=40 ttl=50 time=80.477 ms
ping_11 | 64 bytes from 99.24.18.25: seq=39 ttl=50 time=80.857 ms
ping_16 | 64 bytes from 99.24.18.25: seq=41 ttl=50 time=79.853 ms
ping_7  | 64 bytes from 99.24.18.25: seq=49 ttl=50 time=80.980 ms
ping_7  | 
ping_7  | --- nyc.speedtest.sbcglobal.net ping statistics ---
ping_7  | 50 packets transmitted, 50 packets received, 0% packet loss
ping_7  | round-trip min/avg/max = 79.757/80.247/81.447 ms
softwareoverhead_ping_7 exited with code 0
ping_15 | 64 bytes from 99.24.18.25: seq=45 ttl=50 time=79.893 ms
ping_20 | 64 bytes from 99.24.18.25: seq=46 ttl=50 time=80.407 ms
ping_12 | 64 bytes from 99.24.18.25: seq=47 ttl=50 time=79.925 ms
ping_13 | 64 bytes from 99.24.18.25: seq=48 ttl=50 time=80.307 ms
ping_19 | 64 bytes from 99.24.18.25: seq=45 ttl=50 time=80.464 ms
ping_17 | 64 bytes from 99.24.18.25: seq=44 ttl=50 time=81.655 ms
ping_18 | 64 bytes from 99.24.18.25: seq=43 ttl=50 time=80.779 ms
ping_14 | 64 bytes from 99.24.18.25: seq=41 ttl=50 time=79.960 ms
ping_11 | 64 bytes from 99.24.18.25: seq=40 ttl=50 time=80.508 ms
ping_16 | 64 bytes from 99.24.18.25: seq=42 ttl=50 time=80.466 ms
ping_15 | 64 bytes from 99.24.18.25: seq=46 ttl=50 time=80.247 ms
ping_20 | 64 bytes from 99.24.18.25: seq=47 ttl=50 time=80.014 ms
ping_12 | 64 bytes from 99.24.18.25: seq=48 ttl=50 time=80.284 ms
ping_13 | 64 bytes from 99.24.18.25: seq=49 ttl=50 time=80.392 ms
ping_13 | 
ping_13 | --- nyc.speedtest.sbcglobal.net ping statistics ---
ping_13 | 50 packets transmitted, 50 packets received, 0% packet loss
ping_13 | round-trip min/avg/max = 79.697/80.221/80.956 ms
ping_19 | 64 bytes from 99.24.18.25: seq=46 ttl=50 time=79.935 ms
ping_17 | 64 bytes from 99.24.18.25: seq=45 ttl=50 time=79.918 ms
ping_18 | 64 bytes from 99.24.18.25: seq=44 ttl=50 time=79.796 ms
ping_14 | 64 bytes from 99.24.18.25: seq=42 ttl=50 time=79.778 ms
ping_11 | 64 bytes from 99.24.18.25: seq=41 ttl=50 time=80.377 ms
ping_16 | 64 bytes from 99.24.18.25: seq=43 ttl=50 time=80.575 ms
softwareoverhead_ping_13 exited with code 0
ping_15 | 64 bytes from 99.24.18.25: seq=47 ttl=50 time=80.537 ms
ping_20 | 64 bytes from 99.24.18.25: seq=48 ttl=50 time=80.276 ms
ping_12 | 64 bytes from 99.24.18.25: seq=49 ttl=50 time=80.258 ms
ping_12 | 
ping_12 | --- nyc.speedtest.sbcglobal.net ping statistics ---
ping_12 | 50 packets transmitted, 50 packets received, 0% packet loss
ping_12 | round-trip min/avg/max = 79.743/80.314/83.855 ms
ping_19 | 64 bytes from 99.24.18.25: seq=47 ttl=50 time=79.895 ms
ping_17 | 64 bytes from 99.24.18.25: seq=46 ttl=50 time=79.895 ms
ping_18 | 64 bytes from 99.24.18.25: seq=45 ttl=50 time=79.964 ms
ping_14 | 64 bytes from 99.24.18.25: seq=43 ttl=50 time=79.824 ms
ping_11 | 64 bytes from 99.24.18.25: seq=42 ttl=50 time=79.771 ms
ping_16 | 64 bytes from 99.24.18.25: seq=44 ttl=50 time=79.997 ms
softwareoverhead_ping_12 exited with code 0
ping_15 | 64 bytes from 99.24.18.25: seq=48 ttl=50 time=80.225 ms
ping_20 | 64 bytes from 99.24.18.25: seq=49 ttl=50 time=80.343 ms
ping_20 | 
ping_20 | --- nyc.speedtest.sbcglobal.net ping statistics ---
ping_20 | 50 packets transmitted, 50 packets received, 0% packet loss
ping_20 | round-trip min/avg/max = 79.810/80.280/81.186 ms
ping_19 | 64 bytes from 99.24.18.25: seq=48 ttl=50 time=80.004 ms
ping_17 | 64 bytes from 99.24.18.25: seq=47 ttl=50 time=79.892 ms
ping_18 | 64 bytes from 99.24.18.25: seq=46 ttl=50 time=79.726 ms
ping_14 | 64 bytes from 99.24.18.25: seq=44 ttl=50 time=79.770 ms
ping_11 | 64 bytes from 99.24.18.25: seq=43 ttl=50 time=79.751 ms
ping_16 | 64 bytes from 99.24.18.25: seq=45 ttl=50 time=80.335 ms
softwareoverhead_ping_20 exited with code 0
ping_15 | 64 bytes from 99.24.18.25: seq=49 ttl=50 time=80.470 ms
ping_15 | 
ping_15 | --- nyc.speedtest.sbcglobal.net ping statistics ---
ping_15 | 50 packets transmitted, 50 packets received, 0% packet loss
ping_15 | round-trip min/avg/max = 79.837/80.285/82.034 ms
ping_19 | 64 bytes from 99.24.18.25: seq=49 ttl=50 time=79.862 ms
ping_19 | 
ping_19 | --- nyc.speedtest.sbcglobal.net ping statistics ---
ping_19 | 50 packets transmitted, 50 packets received, 0% packet loss
ping_19 | round-trip min/avg/max = 79.862/80.371/83.663 ms
ping_17 | 64 bytes from 99.24.18.25: seq=48 ttl=50 time=80.054 ms
ping_18 | 64 bytes from 99.24.18.25: seq=47 ttl=50 time=80.250 ms
softwareoverhead_ping_15 exited with code 0
ping_14 | 64 bytes from 99.24.18.25: seq=45 ttl=50 time=80.130 ms
ping_11 | 64 bytes from 99.24.18.25: seq=44 ttl=50 time=81.009 ms
ping_16 | 64 bytes from 99.24.18.25: seq=46 ttl=50 time=80.244 ms
softwareoverhead_ping_19 exited with code 0
ping_17 | 64 bytes from 99.24.18.25: seq=49 ttl=50 time=80.524 ms
ping_17 | 
ping_17 | --- nyc.speedtest.sbcglobal.net ping statistics ---
ping_17 | 50 packets transmitted, 50 packets received, 0% packet loss
ping_17 | round-trip min/avg/max = 79.781/80.196/83.829 ms
ping_18 | 64 bytes from 99.24.18.25: seq=48 ttl=50 time=80.197 ms
ping_14 | 64 bytes from 99.24.18.25: seq=46 ttl=50 time=81.780 ms
ping_11 | 64 bytes from 99.24.18.25: seq=45 ttl=50 time=81.815 ms
ping_16 | 64 bytes from 99.24.18.25: seq=47 ttl=50 time=80.120 ms
softwareoverhead_ping_17 exited with code 0
ping_18 | 64 bytes from 99.24.18.25: seq=49 ttl=50 time=80.336 ms
ping_18 | 
ping_18 | --- nyc.speedtest.sbcglobal.net ping statistics ---
ping_18 | 50 packets transmitted, 50 packets received, 0% packet loss
ping_18 | round-trip min/avg/max = 79.726/80.169/83.523 ms
ping_14 | 64 bytes from 99.24.18.25: seq=47 ttl=50 time=79.802 ms
ping_11 | 64 bytes from 99.24.18.25: seq=46 ttl=50 time=79.803 ms
ping_16 | 64 bytes from 99.24.18.25: seq=48 ttl=50 time=79.709 ms
softwareoverhead_ping_18 exited with code 0
ping_14 | 64 bytes from 99.24.18.25: seq=48 ttl=50 time=80.330 ms
ping_11 | 64 bytes from 99.24.18.25: seq=47 ttl=50 time=80.443 ms
ping_16 | 64 bytes from 99.24.18.25: seq=49 ttl=50 time=79.963 ms
ping_16 | 
ping_16 | --- nyc.speedtest.sbcglobal.net ping statistics ---
ping_16 | 50 packets transmitted, 50 packets received, 0% packet loss
ping_16 | round-trip min/avg/max = 79.709/80.263/81.473 ms
softwareoverhead_ping_16 exited with code 0
ping_14 | 64 bytes from 99.24.18.25: seq=49 ttl=50 time=80.406 ms
ping_14 | 
ping_14 | --- nyc.speedtest.sbcglobal.net ping statistics ---
ping_14 | 50 packets transmitted, 50 packets received, 0% packet loss
ping_14 | round-trip min/avg/max = 79.770/80.257/81.780 ms
ping_11 | 64 bytes from 99.24.18.25: seq=48 ttl=50 time=80.023 ms
softwareoverhead_ping_14 exited with code 0
ping_11 | 64 bytes from 99.24.18.25: seq=49 ttl=50 time=80.213 ms
ping_11 | 
ping_11 | --- nyc.speedtest.sbcglobal.net ping statistics ---
ping_11 | 50 packets transmitted, 50 packets received, 0% packet loss
ping_11 | round-trip min/avg/max = 79.751/80.242/81.815 ms
softwareoverhead_ping_11 exited with code 0
