     1	285 
     2	286 
     3	320 
     4	349 
     5	343 
     6	334 
     7	330 
     8	326 
     9	322 
    10	318 
    11	385 
    12	385 
    13	381 
    14	373 
    15	369 
    16	365 
    17	361 
    18	357 
    19	353 
    20	349 
    21	349 
    22	349 
    23	349 
    24	349 
    25	349 
    26	349 
    27	349 
    28	349 
    29	349 
    30	349 
    31	349 
    32	349 
    33	349 
    34	349 
    35	349 
    36	349 
    37	349 
    38	349 
    39	349 
    40	349 
    41	349 
    42	349 
    43	349 
    44	349 
    45	349 
    46	349 
    47	349 
    48	349 
    49	349 
    50	349 
    51	349 
    52	346 
    53	342 
    54	335 
    55	331 
    56	328 
    57	325 
    58	322 
    59	319 
    60	316 
    61	313 
    62	310 
    63	304 
    64	301 
    65	298 
    66	295 
    67	292 
    68	289 
