Attaching to softwareoverhead_ping_25, softwareoverhead_ping_32, softwareoverhead_ping_13, softwareoverhead_ping_9, softwareoverhead_ping_14, softwareoverhead_ping_40, softwareoverhead_ping_10, softwareoverhead_ping_17, softwareoverhead_ping_34, softwareoverhead_ping_36, softwareoverhead_ping_12, softwareoverhead_ping_29, softwareoverhead_ping_11, softwareoverhead_ping_35, softwareoverhead_ping_5, softwareoverhead_ping_16, softwareoverhead_ping_37, softwareoverhead_ping_30, softwareoverhead_ping_20, softwareoverhead_ping_15, softwareoverhead_ping_27, softwareoverhead_ping_26, softwareoverhead_ping_23, softwareoverhead_ping_19, softwareoverhead_ping_39, softwareoverhead_ping_18, softwareoverhead_ping_38, softwareoverhead_ping_28, softwareoverhead_ping_8, softwareoverhead_ping_31, softwareoverhead_ping_22, softwareoverhead_ping_1, softwareoverhead_ping_4, softwareoverhead_ping_3, softwareoverhead_ping_6, softwareoverhead_ping_33, softwareoverhead_ping_21, softwareoverhead_ping_2, softwareoverhead_ping_7, softwareoverhead_ping_24
ping_25 | PING 216.58.195.238 (216.58.195.238): 56 data bytes
ping_25 | 64 bytes from 216.58.195.238: seq=0 ttl=53 time=13.214 ms
ping_25 | 64 bytes from 216.58.195.238: seq=1 ttl=53 time=13.683 ms
ping_25 | 64 bytes from 216.58.195.238: seq=2 ttl=53 time=13.166 ms
ping_25 | 64 bytes from 216.58.195.238: seq=3 ttl=53 time=13.445 ms
ping_25 | 64 bytes from 216.58.195.238: seq=4 ttl=53 time=13.426 ms
ping_9  | PING 216.58.195.238 (216.58.195.238): 56 data bytes
ping_32 | PING 216.58.195.238 (216.58.195.238): 56 data bytes
ping_9  | 64 bytes from 216.58.195.238: seq=0 ttl=53 time=13.090 ms
ping_13 | PING 216.58.195.238 (216.58.195.238): 56 data bytes
ping_25 | 64 bytes from 216.58.195.238: seq=5 ttl=53 time=12.994 ms
ping_14 | PING 216.58.195.238 (216.58.195.238): 56 data bytes
ping_14 | 64 bytes from 216.58.195.238: seq=0 ttl=53 time=13.127 ms
ping_9  | 64 bytes from 216.58.195.238: seq=1 ttl=53 time=13.247 ms
ping_40 | PING 216.58.195.238 (216.58.195.238): 56 data bytes
ping_14 | 64 bytes from 216.58.195.238: seq=1 ttl=53 time=13.425 ms
ping_9  | 64 bytes from 216.58.195.238: seq=2 ttl=53 time=13.081 ms
ping_17 | PING 216.58.195.238 (216.58.195.238): 56 data bytes
ping_9  | 64 bytes from 216.58.195.238: seq=3 ttl=53 time=13.729 ms
ping_32 | 64 bytes from 216.58.195.238: seq=0 ttl=53 time=15.553 ms
ping_10 | PING 216.58.195.238 (216.58.195.238): 56 data bytes
ping_13 | 64 bytes from 216.58.195.238: seq=0 ttl=53 time=13.148 ms
ping_14 | 64 bytes from 216.58.195.238: seq=2 ttl=53 time=13.075 ms
ping_32 | 64 bytes from 216.58.195.238: seq=1 ttl=53 time=13.231 ms
ping_25 | 64 bytes from 216.58.195.238: seq=6 ttl=53 time=13.217 ms
ping_13 | 64 bytes from 216.58.195.238: seq=1 ttl=53 time=13.082 ms
ping_40 | 64 bytes from 216.58.195.238: seq=0 ttl=53 time=13.107 ms
ping_17 | 64 bytes from 216.58.195.238: seq=0 ttl=53 time=13.157 ms
ping_10 | 64 bytes from 216.58.195.238: seq=0 ttl=53 time=13.209 ms
ping_32 | 64 bytes from 216.58.195.238: seq=2 ttl=53 time=13.421 ms
ping_9  | 64 bytes from 216.58.195.238: seq=4 ttl=53 time=13.126 ms
ping_36 | PING 216.58.195.238 (216.58.195.238): 56 data bytes
ping_14 | 64 bytes from 216.58.195.238: seq=3 ttl=53 time=13.254 ms
ping_34 | PING 216.58.195.238 (216.58.195.238): 56 data bytes
ping_13 | 64 bytes from 216.58.195.238: seq=2 ttl=53 time=13.231 ms
ping_9  | 64 bytes from 216.58.195.238: seq=5 ttl=53 time=13.372 ms
ping_40 | 64 bytes from 216.58.195.238: seq=1 ttl=53 time=13.210 ms
ping_14 | 64 bytes from 216.58.195.238: seq=4 ttl=53 time=13.348 ms
ping_34 | 64 bytes from 216.58.195.238: seq=0 ttl=53 time=13.097 ms
ping_29 | PING 216.58.195.238 (216.58.195.238): 56 data bytes
ping_10 | 64 bytes from 216.58.195.238: seq=1 ttl=53 time=13.213 ms
ping_25 | 64 bytes from 216.58.195.238: seq=7 ttl=53 time=12.995 ms
ping_32 | 64 bytes from 216.58.195.238: seq=3 ttl=53 time=13.512 ms
ping_17 | 64 bytes from 216.58.195.238: seq=1 ttl=53 time=13.018 ms
ping_12 | PING 216.58.195.238 (216.58.195.238): 56 data bytes
ping_36 | 64 bytes from 216.58.195.238: seq=0 ttl=53 time=13.216 ms
ping_11 | PING 216.58.195.238 (216.58.195.238): 56 data bytes
ping_10 | 64 bytes from 216.58.195.238: seq=2 ttl=53 time=13.079 ms
ping_34 | 64 bytes from 216.58.195.238: seq=1 ttl=53 time=13.300 ms
ping_9  | 64 bytes from 216.58.195.238: seq=6 ttl=53 time=13.219 ms
ping_17 | 64 bytes from 216.58.195.238: seq=2 ttl=53 time=13.400 ms
ping_32 | 64 bytes from 216.58.195.238: seq=4 ttl=53 time=13.278 ms
ping_11 | 64 bytes from 216.58.195.238: seq=0 ttl=53 time=13.117 ms
ping_25 | 64 bytes from 216.58.195.238: seq=8 ttl=53 time=13.288 ms
ping_17 | 64 bytes from 216.58.195.238: seq=4 ttl=53 time=13.192 ms
ping_35 | PING 216.58.195.238 (216.58.195.238): 56 data bytes
ping_14 | 64 bytes from 216.58.195.238: seq=5 ttl=53 time=13.357 ms
ping_40 | 64 bytes from 216.58.195.238: seq=2 ttl=53 time=13.245 ms
ping_10 | 64 bytes from 216.58.195.238: seq=3 ttl=53 time=13.324 ms
ping_36 | 64 bytes from 216.58.195.238: seq=1 ttl=53 time=13.481 ms
ping_32 | 64 bytes from 216.58.195.238: seq=5 ttl=53 time=13.269 ms
ping_12 | 64 bytes from 216.58.195.238: seq=0 ttl=53 time=13.139 ms
ping_35 | 64 bytes from 216.58.195.238: seq=0 ttl=53 time=13.177 ms
ping_11 | 64 bytes from 216.58.195.238: seq=1 ttl=53 time=13.278 ms
ping_10 | 64 bytes from 216.58.195.238: seq=4 ttl=53 time=13.498 ms
ping_34 | 64 bytes from 216.58.195.238: seq=2 ttl=53 time=13.000 ms
ping_25 | 64 bytes from 216.58.195.238: seq=9 ttl=53 time=13.187 ms
ping_40 | 64 bytes from 216.58.195.238: seq=3 ttl=53 time=13.178 ms
ping_13 | 64 bytes from 216.58.195.238: seq=3 ttl=53 time=13.092 ms
ping_11 | 64 bytes from 216.58.195.238: seq=2 ttl=53 time=13.263 ms
ping_29 | 64 bytes from 216.58.195.238: seq=0 ttl=53 time=13.209 ms
ping_9  | 64 bytes from 216.58.195.238: seq=7 ttl=53 time=13.312 ms
ping_36 | 64 bytes from 216.58.195.238: seq=2 ttl=53 time=13.090 ms
ping_13 | 64 bytes from 216.58.195.238: seq=4 ttl=53 time=13.358 ms
ping_10 | 64 bytes from 216.58.195.238: seq=5 ttl=53 time=13.528 ms
ping_25 | 64 bytes from 216.58.195.238: seq=10 ttl=53 time=13.308 ms
ping_40 | 64 bytes from 216.58.195.238: seq=4 ttl=53 time=13.247 ms
ping_17 | 64 bytes from 216.58.195.238: seq=5 ttl=53 time=13.450 ms
ping_29 | 64 bytes from 216.58.195.238: seq=1 ttl=53 time=13.438 ms
ping_32 | 64 bytes from 216.58.195.238: seq=6 ttl=53 time=13.246 ms
ping_5  | PING 216.58.195.238 (216.58.195.238): 56 data bytes
ping_9  | 64 bytes from 216.58.195.238: seq=8 ttl=53 time=13.261 ms
ping_12 | 64 bytes from 216.58.195.238: seq=1 ttl=53 time=13.526 ms
ping_14 | 64 bytes from 216.58.195.238: seq=6 ttl=53 time=13.182 ms
ping_10 | 64 bytes from 216.58.195.238: seq=6 ttl=53 time=13.510 ms
ping_16 | PING 216.58.195.238 (216.58.195.238): 56 data bytes
ping_34 | 64 bytes from 216.58.195.238: seq=3 ttl=53 time=13.445 ms
ping_25 | 64 bytes from 216.58.195.238: seq=11 ttl=53 time=13.194 ms
ping_5  | 64 bytes from 216.58.195.238: seq=0 ttl=53 time=13.197 ms
ping_10 | 64 bytes from 216.58.195.238: seq=7 ttl=53 time=13.536 ms
ping_13 | 64 bytes from 216.58.195.238: seq=5 ttl=53 time=13.157 ms
ping_17 | 64 bytes from 216.58.195.238: seq=6 ttl=53 time=13.222 ms
ping_12 | 64 bytes from 216.58.195.238: seq=2 ttl=53 time=13.625 ms
ping_40 | 64 bytes from 216.58.195.238: seq=5 ttl=53 time=13.511 ms
ping_11 | 64 bytes from 216.58.195.238: seq=3 ttl=53 time=13.397 ms
ping_37 | PING 216.58.195.238 (216.58.195.238): 56 data bytes
ping_35 | 64 bytes from 216.58.195.238: seq=1 ttl=53 time=13.357 ms
ping_5  | 64 bytes from 216.58.195.238: seq=1 ttl=53 time=13.504 ms
ping_36 | 64 bytes from 216.58.195.238: seq=3 ttl=53 time=13.516 ms
ping_25 | 64 bytes from 216.58.195.238: seq=12 ttl=53 time=13.199 ms
ping_16 | 64 bytes from 216.58.195.238: seq=0 ttl=53 time=13.237 ms
ping_10 | 64 bytes from 216.58.195.238: seq=8 ttl=53 time=13.513 ms
ping_9  | 64 bytes from 216.58.195.238: seq=9 ttl=53 time=13.386 ms
ping_14 | 64 bytes from 216.58.195.238: seq=7 ttl=53 time=13.256 ms
ping_35 | 64 bytes from 216.58.195.238: seq=2 ttl=53 time=13.440 ms
ping_12 | 64 bytes from 216.58.195.238: seq=3 ttl=53 time=13.338 ms
ping_40 | 64 bytes from 216.58.195.238: seq=6 ttl=53 time=13.502 ms
ping_9  | 64 bytes from 216.58.195.238: seq=10 ttl=53 time=13.123 ms
ping_35 | 64 bytes from 216.58.195.238: seq=3 ttl=53 time=13.196 ms
ping_29 | 64 bytes from 216.58.195.238: seq=2 ttl=53 time=13.141 ms
ping_32 | 64 bytes from 216.58.195.238: seq=7 ttl=53 time=13.166 ms
ping_35 | 64 bytes from 216.58.195.238: seq=4 ttl=53 time=13.479 ms
ping_10 | 64 bytes from 216.58.195.238: seq=9 ttl=53 time=13.175 ms
ping_12 | 64 bytes from 216.58.195.238: seq=4 ttl=53 time=13.215 ms
ping_37 | 64 bytes from 216.58.195.238: seq=0 ttl=53 time=13.134 ms
ping_9  | 64 bytes from 216.58.195.238: seq=11 ttl=53 time=13.220 ms
ping_30 | PING 216.58.195.238 (216.58.195.238): 56 data bytes
ping_40 | 64 bytes from 216.58.195.238: seq=7 ttl=53 time=13.494 ms
ping_17 | 64 bytes from 216.58.195.238: seq=7 ttl=53 time=13.289 ms
ping_34 | 64 bytes from 216.58.195.238: seq=4 ttl=53 time=13.178 ms
ping_29 | 64 bytes from 216.58.195.238: seq=3 ttl=53 time=13.182 ms
ping_9  | 64 bytes from 216.58.195.238: seq=12 ttl=53 time=13.312 ms
ping_16 | 64 bytes from 216.58.195.238: seq=1 ttl=53 time=13.177 ms
ping_10 | 64 bytes from 216.58.195.238: seq=10 ttl=53 time=13.241 ms
ping_40 | 64 bytes from 216.58.195.238: seq=8 ttl=53 time=13.562 ms
ping_29 | 64 bytes from 216.58.195.238: seq=4 ttl=53 time=13.479 ms
ping_30 | 64 bytes from 216.58.195.238: seq=0 ttl=53 time=13.210 ms
ping_37 | 64 bytes from 216.58.195.238: seq=1 ttl=53 time=13.394 ms
ping_17 | 64 bytes from 216.58.195.238: seq=8 ttl=53 time=13.250 ms
ping_5  | 64 bytes from 216.58.195.238: seq=2 ttl=53 time=13.270 ms
ping_9  | 64 bytes from 216.58.195.238: seq=13 ttl=53 time=13.021 ms
ping_12 | 64 bytes from 216.58.195.238: seq=5 ttl=53 time=13.336 ms
ping_36 | 64 bytes from 216.58.195.238: seq=4 ttl=53 time=13.416 ms
ping_40 | 64 bytes from 216.58.195.238: seq=9 ttl=53 time=13.562 ms
ping_32 | 64 bytes from 216.58.195.238: seq=8 ttl=53 time=13.024 ms
ping_13 | 64 bytes from 216.58.195.238: seq=6 ttl=53 time=13.532 ms
ping_11 | 64 bytes from 216.58.195.238: seq=4 ttl=53 time=13.389 ms
ping_16 | 64 bytes from 216.58.195.238: seq=2 ttl=53 time=13.071 ms
ping_37 | 64 bytes from 216.58.195.238: seq=2 ttl=53 time=13.262 ms
ping_14 | 64 bytes from 216.58.195.238: seq=8 ttl=53 time=13.185 ms
ping_25 | 64 bytes from 216.58.195.238: seq=13 ttl=53 time=13.439 ms
ping_34 | 64 bytes from 216.58.195.238: seq=5 ttl=53 time=13.311 ms
ping_10 | 64 bytes from 216.58.195.238: seq=11 ttl=53 time=13.193 ms
ping_20 | PING 216.58.195.238 (216.58.195.238): 56 data bytes
ping_11 | 64 bytes from 216.58.195.238: seq=5 ttl=53 time=13.407 ms
ping_37 | 64 bytes from 216.58.195.238: seq=3 ttl=53 time=13.218 ms
ping_29 | 64 bytes from 216.58.195.238: seq=5 ttl=53 time=13.285 ms
ping_30 | 64 bytes from 216.58.195.238: seq=1 ttl=53 time=13.530 ms
ping_40 | 64 bytes from 216.58.195.238: seq=10 ttl=53 time=13.252 ms
ping_14 | 64 bytes from 216.58.195.238: seq=9 ttl=53 time=13.206 ms
ping_17 | 64 bytes from 216.58.195.238: seq=9 ttl=53 time=13.158 ms
ping_36 | 64 bytes from 216.58.195.238: seq=5 ttl=53 time=13.483 ms
ping_15 | PING 216.58.195.238 (216.58.195.238): 56 data bytes
ping_9  | 64 bytes from 216.58.195.238: seq=14 ttl=53 time=13.220 ms
ping_5  | 64 bytes from 216.58.195.238: seq=3 ttl=53 time=13.267 ms
ping_32 | 64 bytes from 216.58.195.238: seq=9 ttl=53 time=13.041 ms
ping_29 | 64 bytes from 216.58.195.238: seq=6 ttl=53 time=13.247 ms
ping_40 | 64 bytes from 216.58.195.238: seq=11 ttl=53 time=13.206 ms
ping_13 | 64 bytes from 216.58.195.238: seq=7 ttl=53 time=13.451 ms
ping_34 | 64 bytes from 216.58.195.238: seq=6 ttl=53 time=13.330 ms
ping_35 | 64 bytes from 216.58.195.238: seq=5 ttl=53 time=13.604 ms
ping_13 | 64 bytes from 216.58.195.238: seq=8 ttl=53 time=13.520 ms
ping_30 | 64 bytes from 216.58.195.238: seq=2 ttl=53 time=13.720 ms
ping_35 | 64 bytes from 216.58.195.238: seq=6 ttl=53 time=13.313 ms
ping_25 | 64 bytes from 216.58.195.238: seq=14 ttl=53 time=13.416 ms
ping_17 | 64 bytes from 216.58.195.238: seq=10 ttl=53 time=13.015 ms
ping_10 | 64 bytes from 216.58.195.238: seq=12 ttl=53 time=13.130 ms
ping_16 | 64 bytes from 216.58.195.238: seq=3 ttl=53 time=13.016 ms
ping_11 | 64 bytes from 216.58.195.238: seq=6 ttl=53 time=13.061 ms
ping_36 | 64 bytes from 216.58.195.238: seq=6 ttl=53 time=13.307 ms
ping_20 | 64 bytes from 216.58.195.238: seq=0 ttl=53 time=13.238 ms
ping_14 | 64 bytes from 216.58.195.238: seq=10 ttl=53 time=13.149 ms
ping_37 | 64 bytes from 216.58.195.238: seq=4 ttl=53 time=13.181 ms
ping_13 | 64 bytes from 216.58.195.238: seq=9 ttl=53 time=13.535 ms
ping_12 | 64 bytes from 216.58.195.238: seq=6 ttl=53 time=13.288 ms
ping_34 | 64 bytes from 216.58.195.238: seq=7 ttl=53 time=13.238 ms
ping_15 | 64 bytes from 216.58.195.238: seq=0 ttl=53 time=13.217 ms
ping_35 | 64 bytes from 216.58.195.238: seq=7 ttl=53 time=13.248 ms
ping_25 | 64 bytes from 216.58.195.238: seq=15 ttl=53 time=13.168 ms
ping_17 | 64 bytes from 216.58.195.238: seq=11 ttl=53 time=13.425 ms
ping_29 | 64 bytes from 216.58.195.238: seq=7 ttl=53 time=13.213 ms
ping_13 | 64 bytes from 216.58.195.238: seq=10 ttl=53 time=13.043 ms
ping_30 | 64 bytes from 216.58.195.238: seq=3 ttl=53 time=13.204 ms
ping_9  | 64 bytes from 216.58.195.238: seq=15 ttl=53 time=12.983 ms
ping_12 | 64 bytes from 216.58.195.238: seq=7 ttl=53 time=13.128 ms
ping_5  | 64 bytes from 216.58.195.238: seq=4 ttl=53 time=13.318 ms
ping_27 | PING 216.58.195.238 (216.58.195.238): 56 data bytes
ping_26 | PING 216.58.195.238 (216.58.195.238): 56 data bytes
ping_40 | 64 bytes from 216.58.195.238: seq=12 ttl=53 time=13.529 ms
ping_16 | 64 bytes from 216.58.195.238: seq=4 ttl=53 time=13.104 ms
ping_36 | 64 bytes from 216.58.195.238: seq=7 ttl=53 time=13.462 ms
ping_34 | 64 bytes from 216.58.195.238: seq=8 ttl=53 time=13.253 ms
ping_15 | 64 bytes from 216.58.195.238: seq=1 ttl=53 time=13.437 ms
ping_14 | 64 bytes from 216.58.195.238: seq=11 ttl=53 time=13.357 ms
ping_11 | 64 bytes from 216.58.195.238: seq=7 ttl=53 time=13.243 ms
ping_10 | 64 bytes from 216.58.195.238: seq=13 ttl=53 time=13.394 ms
ping_34 | 64 bytes from 216.58.195.238: seq=9 ttl=53 time=13.224 ms
ping_20 | 64 bytes from 216.58.195.238: seq=1 ttl=53 time=13.482 ms
ping_37 | 64 bytes from 216.58.195.238: seq=5 ttl=53 time=13.128 ms
ping_5  | 64 bytes from 216.58.195.238: seq=5 ttl=53 time=13.226 ms
ping_32 | 64 bytes from 216.58.195.238: seq=10 ttl=53 time=13.175 ms
ping_29 | 64 bytes from 216.58.195.238: seq=8 ttl=53 time=13.146 ms
ping_40 | 64 bytes from 216.58.195.238: seq=13 ttl=53 time=13.214 ms
ping_15 | 64 bytes from 216.58.195.238: seq=2 ttl=53 time=14.625 ms
ping_27 | 64 bytes from 216.58.195.238: seq=0 ttl=53 time=13.150 ms
ping_5  | 64 bytes from 216.58.195.238: seq=6 ttl=53 time=13.532 ms
ping_13 | 64 bytes from 216.58.195.238: seq=11 ttl=53 time=13.299 ms
ping_17 | 64 bytes from 216.58.195.238: seq=12 ttl=53 time=13.137 ms
ping_32 | 64 bytes from 216.58.195.238: seq=11 ttl=53 time=13.088 ms
ping_23 | PING 216.58.195.238 (216.58.195.238): 56 data bytes
ping_26 | 64 bytes from 216.58.195.238: seq=0 ttl=53 time=13.181 ms
ping_20 | 64 bytes from 216.58.195.238: seq=2 ttl=53 time=13.251 ms
ping_30 | 64 bytes from 216.58.195.238: seq=4 ttl=53 time=13.204 ms
ping_37 | 64 bytes from 216.58.195.238: seq=6 ttl=53 time=13.191 ms
ping_11 | 64 bytes from 216.58.195.238: seq=8 ttl=53 time=13.026 ms
ping_19 | PING 216.58.195.238 (216.58.195.238): 56 data bytes
ping_12 | 64 bytes from 216.58.195.238: seq=8 ttl=53 time=13.235 ms
ping_14 | 64 bytes from 216.58.195.238: seq=12 ttl=53 time=13.035 ms
ping_15 | 64 bytes from 216.58.195.238: seq=3 ttl=53 time=12.993 ms
ping_16 | 64 bytes from 216.58.195.238: seq=5 ttl=53 time=13.229 ms
ping_29 | 64 bytes from 216.58.195.238: seq=9 ttl=53 time=13.003 ms
ping_40 | 64 bytes from 216.58.195.238: seq=14 ttl=53 time=13.294 ms
ping_11 | 64 bytes from 216.58.195.238: seq=9 ttl=53 time=13.295 ms
ping_32 | 64 bytes from 216.58.195.238: seq=12 ttl=53 time=13.403 ms
ping_13 | 64 bytes from 216.58.195.238: seq=12 ttl=53 time=12.924 ms
ping_36 | 64 bytes from 216.58.195.238: seq=8 ttl=53 time=13.030 ms
ping_5  | 64 bytes from 216.58.195.238: seq=7 ttl=53 time=13.236 ms
ping_12 | 64 bytes from 216.58.195.238: seq=9 ttl=53 time=13.128 ms
ping_37 | 64 bytes from 216.58.195.238: seq=7 ttl=53 time=13.422 ms
ping_34 | 64 bytes from 216.58.195.238: seq=10 ttl=53 time=13.273 ms
ping_27 | 64 bytes from 216.58.195.238: seq=1 ttl=53 time=13.015 ms
ping_36 | 64 bytes from 216.58.195.238: seq=9 ttl=53 time=13.390 ms
ping_16 | 64 bytes from 216.58.195.238: seq=6 ttl=53 time=13.465 ms
ping_11 | 64 bytes from 216.58.195.238: seq=10 ttl=53 time=13.186 ms
ping_32 | 64 bytes from 216.58.195.238: seq=13 ttl=53 time=13.424 ms
ping_20 | 64 bytes from 216.58.195.238: seq=3 ttl=53 time=13.006 ms
ping_30 | 64 bytes from 216.58.195.238: seq=5 ttl=53 time=13.233 ms
ping_23 | 64 bytes from 216.58.195.238: seq=0 ttl=53 time=13.176 ms
ping_14 | 64 bytes from 216.58.195.238: seq=13 ttl=53 time=13.237 ms
ping_20 | 64 bytes from 216.58.195.238: seq=4 ttl=53 time=13.114 ms
ping_30 | 64 bytes from 216.58.195.238: seq=6 ttl=53 time=13.454 ms
ping_36 | 64 bytes from 216.58.195.238: seq=10 ttl=53 time=13.189 ms
ping_19 | 64 bytes from 216.58.195.238: seq=0 ttl=53 time=15.165 ms
ping_11 | 64 bytes from 216.58.195.238: seq=11 ttl=53 time=13.143 ms
ping_32 | 64 bytes from 216.58.195.238: seq=14 ttl=53 time=13.189 ms
ping_5  | 64 bytes from 216.58.195.238: seq=8 ttl=53 time=13.244 ms
ping_35 | 64 bytes from 216.58.195.238: seq=8 ttl=53 time=13.310 ms
ping_29 | 64 bytes from 216.58.195.238: seq=11 ttl=53 time=13.164 ms
ping_13 | 64 bytes from 216.58.195.238: seq=13 ttl=53 time=13.127 ms
ping_37 | 64 bytes from 216.58.195.238: seq=8 ttl=53 time=13.382 ms
ping_39 | PING 216.58.195.238 (216.58.195.238): 56 data bytes
ping_16 | 64 bytes from 216.58.195.238: seq=7 ttl=53 time=13.422 ms
ping_23 | 64 bytes from 216.58.195.238: seq=1 ttl=53 time=13.081 ms
ping_27 | 64 bytes from 216.58.195.238: seq=2 ttl=53 time=13.293 ms
ping_32 | 64 bytes from 216.58.195.238: seq=15 ttl=53 time=13.421 ms
ping_26 | 64 bytes from 216.58.195.238: seq=1 ttl=53 time=12.988 ms
ping_25 | 64 bytes from 216.58.195.238: seq=16 ttl=53 time=13.032 ms
ping_13 | 64 bytes from 216.58.195.238: seq=14 ttl=53 time=15.475 ms
ping_14 | 64 bytes from 216.58.195.238: seq=14 ttl=53 time=13.477 ms
ping_17 | 64 bytes from 216.58.195.238: seq=13 ttl=53 time=13.126 ms
ping_35 | 64 bytes from 216.58.195.238: seq=9 ttl=53 time=13.323 ms
ping_11 | 64 bytes from 216.58.195.238: seq=12 ttl=53 time=13.258 ms
ping_39 | 64 bytes from 216.58.195.238: seq=0 ttl=53 time=13.138 ms
ping_19 | 64 bytes from 216.58.195.238: seq=1 ttl=53 time=12.945 ms
ping_12 | 64 bytes from 216.58.195.238: seq=10 ttl=53 time=13.204 ms
ping_36 | 64 bytes from 216.58.195.238: seq=11 ttl=53 time=13.284 ms
ping_37 | 64 bytes from 216.58.195.238: seq=9 ttl=53 time=13.047 ms
ping_20 | 64 bytes from 216.58.195.238: seq=5 ttl=53 time=12.950 ms
ping_27 | 64 bytes from 216.58.195.238: seq=3 ttl=53 time=13.208 ms
ping_30 | 64 bytes from 216.58.195.238: seq=7 ttl=53 time=13.229 ms
ping_34 | 64 bytes from 216.58.195.238: seq=11 ttl=53 time=13.026 ms
ping_19 | 64 bytes from 216.58.195.238: seq=2 ttl=53 time=13.204 ms
ping_35 | 64 bytes from 216.58.195.238: seq=10 ttl=53 time=13.060 ms
ping_20 | 64 bytes from 216.58.195.238: seq=6 ttl=53 time=13.466 ms
ping_25 | 64 bytes from 216.58.195.238: seq=17 ttl=53 time=13.500 ms
ping_15 | 64 bytes from 216.58.195.238: seq=4 ttl=53 time=13.291 ms
ping_19 | 64 bytes from 216.58.195.238: seq=3 ttl=53 time=13.210 ms
ping_39 | 64 bytes from 216.58.195.238: seq=1 ttl=53 time=13.246 ms
ping_20 | 64 bytes from 216.58.195.238: seq=7 ttl=53 time=13.436 ms
ping_27 | 64 bytes from 216.58.195.238: seq=4 ttl=53 time=13.264 ms
ping_30 | 64 bytes from 216.58.195.238: seq=8 ttl=53 time=13.446 ms
ping_25 | 64 bytes from 216.58.195.238: seq=18 ttl=53 time=12.995 ms
ping_13 | 64 bytes from 216.58.195.238: seq=15 ttl=53 time=12.968 ms
ping_12 | 64 bytes from 216.58.195.238: seq=11 ttl=53 time=13.602 ms
ping_36 | 64 bytes from 216.58.195.238: seq=12 ttl=53 time=13.359 ms
ping_32 | 64 bytes from 216.58.195.238: seq=16 ttl=53 time=13.447 ms
ping_20 | 64 bytes from 216.58.195.238: seq=8 ttl=53 time=13.028 ms
ping_28 | PING 216.58.195.238 (216.58.195.238): 56 data bytes
ping_27 | 64 bytes from 216.58.195.238: seq=5 ttl=53 time=13.426 ms
ping_26 | 64 bytes from 216.58.195.238: seq=2 ttl=53 time=13.023 ms
ping_13 | 64 bytes from 216.58.195.238: seq=16 ttl=53 time=13.387 ms
ping_12 | 64 bytes from 216.58.195.238: seq=12 ttl=53 time=13.500 ms
ping_32 | 64 bytes from 216.58.195.238: seq=17 ttl=53 time=13.149 ms
ping_16 | 64 bytes from 216.58.195.238: seq=8 ttl=53 time=13.509 ms
ping_23 | 64 bytes from 216.58.195.238: seq=2 ttl=53 time=13.063 ms
ping_39 | 64 bytes from 216.58.195.238: seq=2 ttl=53 time=13.080 ms
ping_14 | 64 bytes from 216.58.195.238: seq=15 ttl=53 time=13.029 ms
ping_36 | 64 bytes from 216.58.195.238: seq=13 ttl=53 time=13.024 ms
ping_15 | 64 bytes from 216.58.195.238: seq=5 ttl=53 time=13.393 ms
ping_39 | 64 bytes from 216.58.195.238: seq=3 ttl=53 time=13.325 ms
ping_26 | 64 bytes from 216.58.195.238: seq=3 ttl=53 time=13.247 ms
ping_18 | PING 216.58.195.238 (216.58.195.238): 56 data bytes
ping_35 | 64 bytes from 216.58.195.238: seq=11 ttl=53 time=13.354 ms
ping_5  | 64 bytes from 216.58.195.238: seq=9 ttl=53 time=13.672 ms
ping_16 | 64 bytes from 216.58.195.238: seq=9 ttl=53 time=13.482 ms
ping_28 | 64 bytes from 216.58.195.238: seq=0 ttl=53 time=13.131 ms
ping_23 | 64 bytes from 216.58.195.238: seq=3 ttl=53 time=13.327 ms
ping_20 | 64 bytes from 216.58.195.238: seq=9 ttl=53 time=13.424 ms
ping_26 | 64 bytes from 216.58.195.238: seq=4 ttl=53 time=13.209 ms
ping_37 | 64 bytes from 216.58.195.238: seq=10 ttl=53 time=13.509 ms
ping_27 | 64 bytes from 216.58.195.238: seq=6 ttl=53 time=13.385 ms
ping_19 | 64 bytes from 216.58.195.238: seq=4 ttl=53 time=13.239 ms
ping_28 | 64 bytes from 216.58.195.238: seq=1 ttl=53 time=13.194 ms
ping_38 | PING 216.58.195.238 (216.58.195.238): 56 data bytes
ping_30 | 64 bytes from 216.58.195.238: seq=9 ttl=53 time=13.382 ms
ping_27 | 64 bytes from 216.58.195.238: seq=7 ttl=53 time=13.169 ms
ping_5  | 64 bytes from 216.58.195.238: seq=10 ttl=53 time=13.611 ms
ping_38 | 64 bytes from 216.58.195.238: seq=0 ttl=53 time=13.158 ms
ping_16 | 64 bytes from 216.58.195.238: seq=10 ttl=53 time=13.582 ms
ping_30 | 64 bytes from 216.58.195.238: seq=10 ttl=53 time=13.243 ms
ping_8  | PING 216.58.195.238 (216.58.195.238): 56 data bytes
ping_20 | 64 bytes from 216.58.195.238: seq=10 ttl=53 time=13.071 ms
ping_18 | 64 bytes from 216.58.195.238: seq=0 ttl=53 time=13.104 ms
ping_19 | 64 bytes from 216.58.195.238: seq=5 ttl=53 time=13.482 ms
ping_28 | 64 bytes from 216.58.195.238: seq=2 ttl=53 time=13.608 ms
ping_8  | 64 bytes from 216.58.195.238: seq=0 ttl=53 time=13.312 ms
ping_16 | 64 bytes from 216.58.195.238: seq=11 ttl=53 time=13.563 ms
ping_34 | 64 bytes from 216.58.195.238: seq=12 ttl=53 time=13.458 ms
ping_39 | 64 bytes from 216.58.195.238: seq=4 ttl=53 time=13.375 ms
ping_38 | 64 bytes from 216.58.195.238: seq=1 ttl=53 time=13.088 ms
ping_23 | 64 bytes from 216.58.195.238: seq=4 ttl=53 time=13.046 ms
ping_5  | 64 bytes from 216.58.195.238: seq=11 ttl=53 time=13.296 ms
ping_8  | 64 bytes from 216.58.195.238: seq=1 ttl=53 time=13.291 ms
ping_26 | 64 bytes from 216.58.195.238: seq=5 ttl=53 time=13.143 ms
ping_19 | 64 bytes from 216.58.195.238: seq=6 ttl=53 time=13.504 ms
ping_23 | 64 bytes from 216.58.195.238: seq=5 ttl=53 time=13.192 ms
ping_31 | PING 216.58.195.238 (216.58.195.238): 56 data bytes
ping_34 | 64 bytes from 216.58.195.238: seq=13 ttl=53 time=12.996 ms
ping_27 | 64 bytes from 216.58.195.238: seq=8 ttl=53 time=13.556 ms
ping_8  | 64 bytes from 216.58.195.238: seq=2 ttl=53 time=13.519 ms
ping_26 | 64 bytes from 216.58.195.238: seq=6 ttl=53 time=13.258 ms
ping_39 | 64 bytes from 216.58.195.238: seq=5 ttl=53 time=13.018 ms
ping_28 | 64 bytes from 216.58.195.238: seq=3 ttl=53 time=13.465 ms
ping_15 | 64 bytes from 216.58.195.238: seq=6 ttl=53 time=13.206 ms
ping_38 | 64 bytes from 216.58.195.238: seq=2 ttl=53 time=13.463 ms
ping_19 | 64 bytes from 216.58.195.238: seq=7 ttl=53 time=13.272 ms
ping_18 | 64 bytes from 216.58.195.238: seq=1 ttl=53 time=13.484 ms
ping_26 | 64 bytes from 216.58.195.238: seq=7 ttl=53 time=13.437 ms
ping_28 | 64 bytes from 216.58.195.238: seq=4 ttl=53 time=16.173 ms
ping_15 | 64 bytes from 216.58.195.238: seq=7 ttl=53 time=13.435 ms
ping_31 | 64 bytes from 216.58.195.238: seq=0 ttl=53 time=13.140 ms
ping_39 | 64 bytes from 216.58.195.238: seq=6 ttl=53 time=13.488 ms
ping_28 | 64 bytes from 216.58.195.238: seq=5 ttl=53 time=13.031 ms
ping_15 | 64 bytes from 216.58.195.238: seq=8 ttl=53 time=13.502 ms
ping_8  | 64 bytes from 216.58.195.238: seq=3 ttl=53 time=14.152 ms
ping_38 | 64 bytes from 216.58.195.238: seq=3 ttl=53 time=13.461 ms
ping_26 | 64 bytes from 216.58.195.238: seq=8 ttl=53 time=13.271 ms
ping_27 | 64 bytes from 216.58.195.238: seq=9 ttl=53 time=13.175 ms
ping_18 | 64 bytes from 216.58.195.238: seq=2 ttl=53 time=13.198 ms
ping_28 | 64 bytes from 216.58.195.238: seq=6 ttl=53 time=13.426 ms
ping_31 | 64 bytes from 216.58.195.238: seq=1 ttl=53 time=13.489 ms
ping_8  | 64 bytes from 216.58.195.238: seq=4 ttl=53 time=13.477 ms
ping_38 | 64 bytes from 216.58.195.238: seq=4 ttl=53 time=13.118 ms
ping_26 | 64 bytes from 216.58.195.238: seq=9 ttl=53 time=13.284 ms
ping_23 | 64 bytes from 216.58.195.238: seq=6 ttl=53 time=13.344 ms
ping_18 | 64 bytes from 216.58.195.238: seq=3 ttl=53 time=13.117 ms
ping_38 | 64 bytes from 216.58.195.238: seq=5 ttl=53 time=13.515 ms
ping_15 | 64 bytes from 216.58.195.238: seq=9 ttl=53 time=13.194 ms
ping_8  | 64 bytes from 216.58.195.238: seq=5 ttl=53 time=13.038 ms
ping_22 | PING 216.58.195.238 (216.58.195.238): 56 data bytes
ping_18 | 64 bytes from 216.58.195.238: seq=4 ttl=53 time=13.222 ms
ping_23 | 64 bytes from 216.58.195.238: seq=7 ttl=53 time=13.486 ms
ping_1  | PING 216.58.195.238 (216.58.195.238): 56 data bytes
ping_19 | 64 bytes from 216.58.195.238: seq=8 ttl=53 time=13.181 ms
ping_18 | 64 bytes from 216.58.195.238: seq=5 ttl=53 time=13.489 ms
ping_23 | 64 bytes from 216.58.195.238: seq=8 ttl=53 time=13.097 ms
ping_39 | 64 bytes from 216.58.195.238: seq=7 ttl=53 time=13.120 ms
ping_38 | 64 bytes from 216.58.195.238: seq=6 ttl=53 time=13.191 ms
ping_1  | 64 bytes from 216.58.195.238: seq=0 ttl=53 time=13.237 ms
ping_31 | 64 bytes from 216.58.195.238: seq=2 ttl=53 time=13.464 ms
ping_15 | 64 bytes from 216.58.195.238: seq=10 ttl=53 time=13.227 ms
ping_18 | 64 bytes from 216.58.195.238: seq=6 ttl=53 time=13.184 ms
ping_31 | 64 bytes from 216.58.195.238: seq=3 ttl=53 time=13.103 ms
ping_1  | 64 bytes from 216.58.195.238: seq=1 ttl=53 time=13.193 ms
ping_18 | 64 bytes from 216.58.195.238: seq=7 ttl=53 time=13.126 ms
ping_4  | PING 216.58.195.238 (216.58.195.238): 56 data bytes
ping_1  | 64 bytes from 216.58.195.238: seq=2 ttl=53 time=14.634 ms
ping_31 | 64 bytes from 216.58.195.238: seq=4 ttl=53 time=13.225 ms
ping_4  | 64 bytes from 216.58.195.238: seq=0 ttl=53 time=13.339 ms
ping_1  | 64 bytes from 216.58.195.238: seq=3 ttl=53 time=13.001 ms
ping_31 | 64 bytes from 216.58.195.238: seq=5 ttl=53 time=13.060 ms
ping_4  | 64 bytes from 216.58.195.238: seq=1 ttl=53 time=13.600 ms
ping_1  | 64 bytes from 216.58.195.238: seq=4 ttl=53 time=13.225 ms
ping_6  | PING 216.58.195.238 (216.58.195.238): 56 data bytes
ping_3  | PING 216.58.195.238 (216.58.195.238): 56 data bytes
ping_6  | 64 bytes from 216.58.195.238: seq=0 ttl=53 time=13.201 ms
ping_4  | 64 bytes from 216.58.195.238: seq=2 ttl=53 time=13.546 ms
ping_33 | PING 216.58.195.238 (216.58.195.238): 56 data bytes
ping_6  | 64 bytes from 216.58.195.238: seq=1 ttl=53 time=13.303 ms
ping_21 | PING 216.58.195.238 (216.58.195.238): 56 data bytes
ping_22 | 64 bytes from 216.58.195.238: seq=0 ttl=53 time=13.160 ms
ping_4  | 64 bytes from 216.58.195.238: seq=3 ttl=53 time=13.254 ms
ping_2  | PING 216.58.195.238 (216.58.195.238): 56 data bytes
ping_3  | 64 bytes from 216.58.195.238: seq=0 ttl=53 time=13.172 ms
ping_6  | 64 bytes from 216.58.195.238: seq=2 ttl=53 time=13.003 ms
ping_21 | 64 bytes from 216.58.195.238: seq=0 ttl=53 time=13.140 ms
ping_3  | 64 bytes from 216.58.195.238: seq=1 ttl=53 time=13.152 ms
ping_21 | 64 bytes from 216.58.195.238: seq=1 ttl=53 time=13.206 ms
ping_2  | 64 bytes from 216.58.195.238: seq=0 ttl=53 time=13.194 ms
ping_7  | PING 216.58.195.238 (216.58.195.238): 56 data bytes
ping_33 | 64 bytes from 216.58.195.238: seq=0 ttl=53 time=13.184 ms
ping_22 | 64 bytes from 216.58.195.238: seq=1 ttl=53 time=13.413 ms
ping_7  | 64 bytes from 216.58.195.238: seq=0 ttl=53 time=13.282 ms
ping_3  | 64 bytes from 216.58.195.238: seq=2 ttl=53 time=13.362 ms
ping_3  | 64 bytes from 216.58.195.238: seq=3 ttl=53 time=12.978 ms
ping_22 | 64 bytes from 216.58.195.238: seq=2 ttl=53 time=13.514 ms
ping_33 | 64 bytes from 216.58.195.238: seq=1 ttl=53 time=13.361 ms
ping_24 | PING 216.58.195.238 (216.58.195.238): 56 data bytes
ping_24 | 64 bytes from 216.58.195.238: seq=0 ttl=53 time=13.279 ms
ping_22 | 64 bytes from 216.58.195.238: seq=3 ttl=53 time=13.225 ms
ping_22 | 64 bytes from 216.58.195.238: seq=4 ttl=53 time=13.319 ms
ping_37 | 64 bytes from 216.58.195.238: seq=11 ttl=53 time=13.113 ms
ping_33 | 64 bytes from 216.58.195.238: seq=2 ttl=53 time=13.248 ms
ping_10 | 64 bytes from 216.58.195.238: seq=14 ttl=53 time=13.474 ms
ping_35 | 64 bytes from 216.58.195.238: seq=12 ttl=53 time=13.293 ms
ping_40 | 64 bytes from 216.58.195.238: seq=15 ttl=53 time=13.353 ms
ping_30 | 64 bytes from 216.58.195.238: seq=11 ttl=53 time=13.570 ms
ping_12 | 64 bytes from 216.58.195.238: seq=13 ttl=53 time=13.796 ms
ping_29 | 64 bytes from 216.58.195.238: seq=13 ttl=53 time=13.629 ms
ping_17 | 64 bytes from 216.58.195.238: seq=14 ttl=53 time=13.654 ms
ping_4  | 64 bytes from 216.58.195.238: seq=4 ttl=53 time=13.240 ms
ping_22 | 64 bytes from 216.58.195.238: seq=5 ttl=53 time=13.750 ms
ping_27 | 64 bytes from 216.58.195.238: seq=10 ttl=53 time=13.275 ms
ping_32 | 64 bytes from 216.58.195.238: seq=18 ttl=53 time=13.278 ms
ping_23 | 64 bytes from 216.58.195.238: seq=9 ttl=53 time=13.489 ms
ping_38 | 64 bytes from 216.58.195.238: seq=7 ttl=53 time=13.521 ms
ping_39 | 64 bytes from 216.58.195.238: seq=8 ttl=53 time=13.643 ms
ping_20 | 64 bytes from 216.58.195.238: seq=11 ttl=53 time=13.565 ms
ping_8  | 64 bytes from 216.58.195.238: seq=6 ttl=53 time=13.655 ms
ping_6  | 64 bytes from 216.58.195.238: seq=3 ttl=53 time=13.585 ms
ping_2  | 64 bytes from 216.58.195.238: seq=1 ttl=53 time=13.223 ms
ping_9  | 64 bytes from 216.58.195.238: seq=16 ttl=53 time=13.205 ms
ping_34 | 64 bytes from 216.58.195.238: seq=14 ttl=53 time=13.464 ms
ping_25 | 64 bytes from 216.58.195.238: seq=19 ttl=53 time=13.293 ms
ping_7  | 64 bytes from 216.58.195.238: seq=1 ttl=53 time=13.234 ms
ping_5  | 64 bytes from 216.58.195.238: seq=12 ttl=53 time=13.221 ms
ping_16 | 64 bytes from 216.58.195.238: seq=12 ttl=53 time=13.533 ms
ping_26 | 64 bytes from 216.58.195.238: seq=10 ttl=53 time=13.489 ms
ping_19 | 64 bytes from 216.58.195.238: seq=9 ttl=53 time=13.271 ms
ping_18 | 64 bytes from 216.58.195.238: seq=8 ttl=53 time=13.243 ms
ping_15 | 64 bytes from 216.58.195.238: seq=11 ttl=53 time=13.283 ms
ping_11 | 64 bytes from 216.58.195.238: seq=13 ttl=53 time=13.512 ms
ping_1  | 64 bytes from 216.58.195.238: seq=5 ttl=53 time=13.848 ms
ping_13 | 64 bytes from 216.58.195.238: seq=17 ttl=53 time=13.208 ms
ping_28 | 64 bytes from 216.58.195.238: seq=7 ttl=53 time=13.383 ms
ping_21 | 64 bytes from 216.58.195.238: seq=2 ttl=53 time=13.153 ms
ping_14 | 64 bytes from 216.58.195.238: seq=16 ttl=53 time=13.165 ms
ping_3  | 64 bytes from 216.58.195.238: seq=4 ttl=53 time=13.144 ms
ping_24 | 64 bytes from 216.58.195.238: seq=1 ttl=53 time=13.431 ms
ping_36 | 64 bytes from 216.58.195.238: seq=14 ttl=53 time=13.590 ms
ping_31 | 64 bytes from 216.58.195.238: seq=6 ttl=53 time=13.644 ms
ping_37 | 64 bytes from 216.58.195.238: seq=12 ttl=53 time=13.603 ms
ping_33 | 64 bytes from 216.58.195.238: seq=3 ttl=53 time=13.461 ms
ping_10 | 64 bytes from 216.58.195.238: seq=15 ttl=53 time=13.495 ms
ping_35 | 64 bytes from 216.58.195.238: seq=13 ttl=53 time=13.462 ms
ping_40 | 64 bytes from 216.58.195.238: seq=16 ttl=53 time=13.110 ms
ping_30 | 64 bytes from 216.58.195.238: seq=12 ttl=53 time=13.568 ms
ping_12 | 64 bytes from 216.58.195.238: seq=14 ttl=53 time=13.541 ms
ping_29 | 64 bytes from 216.58.195.238: seq=14 ttl=53 time=13.576 ms
ping_17 | 64 bytes from 216.58.195.238: seq=15 ttl=53 time=13.605 ms
ping_4  | 64 bytes from 216.58.195.238: seq=5 ttl=53 time=13.311 ms
ping_22 | 64 bytes from 216.58.195.238: seq=6 ttl=53 time=13.698 ms
ping_27 | 64 bytes from 216.58.195.238: seq=11 ttl=53 time=13.623 ms
ping_32 | 64 bytes from 216.58.195.238: seq=19 ttl=53 time=13.281 ms
ping_23 | 64 bytes from 216.58.195.238: seq=10 ttl=53 time=13.402 ms
ping_38 | 64 bytes from 216.58.195.238: seq=8 ttl=53 time=13.571 ms
ping_39 | 64 bytes from 216.58.195.238: seq=9 ttl=53 time=13.784 ms
ping_20 | 64 bytes from 216.58.195.238: seq=12 ttl=53 time=13.233 ms
ping_8  | 64 bytes from 216.58.195.238: seq=7 ttl=53 time=13.853 ms
ping_6  | 64 bytes from 216.58.195.238: seq=4 ttl=53 time=13.642 ms
ping_2  | 64 bytes from 216.58.195.238: seq=2 ttl=53 time=13.688 ms
ping_9  | 64 bytes from 216.58.195.238: seq=17 ttl=53 time=13.582 ms
ping_34 | 64 bytes from 216.58.195.238: seq=15 ttl=53 time=13.577 ms
ping_25 | 64 bytes from 216.58.195.238: seq=20 ttl=53 time=13.324 ms
ping_7  | 64 bytes from 216.58.195.238: seq=2 ttl=53 time=13.311 ms
ping_5  | 64 bytes from 216.58.195.238: seq=13 ttl=53 time=13.861 ms
ping_16 | 64 bytes from 216.58.195.238: seq=13 ttl=53 time=13.490 ms
ping_26 | 64 bytes from 216.58.195.238: seq=11 ttl=53 time=13.457 ms
ping_19 | 64 bytes from 216.58.195.238: seq=10 ttl=53 time=13.264 ms
ping_18 | 64 bytes from 216.58.195.238: seq=9 ttl=53 time=13.208 ms
ping_15 | 64 bytes from 216.58.195.238: seq=12 ttl=53 time=13.574 ms
ping_11 | 64 bytes from 216.58.195.238: seq=14 ttl=53 time=13.670 ms
ping_13 | 64 bytes from 216.58.195.238: seq=18 ttl=53 time=13.402 ms
ping_1  | 64 bytes from 216.58.195.238: seq=6 ttl=53 time=13.636 ms
ping_28 | 64 bytes from 216.58.195.238: seq=8 ttl=53 time=14.260 ms
ping_21 | 64 bytes from 216.58.195.238: seq=3 ttl=53 time=13.392 ms
ping_14 | 64 bytes from 216.58.195.238: seq=17 ttl=53 time=13.197 ms
ping_3  | 64 bytes from 216.58.195.238: seq=5 ttl=53 time=13.210 ms
ping_24 | 64 bytes from 216.58.195.238: seq=2 ttl=53 time=13.513 ms
ping_36 | 64 bytes from 216.58.195.238: seq=15 ttl=53 time=13.578 ms
ping_31 | 64 bytes from 216.58.195.238: seq=7 ttl=53 time=13.670 ms
ping_37 | 64 bytes from 216.58.195.238: seq=13 ttl=53 time=13.777 ms
ping_33 | 64 bytes from 216.58.195.238: seq=4 ttl=53 time=13.738 ms
ping_10 | 64 bytes from 216.58.195.238: seq=16 ttl=53 time=13.775 ms
ping_35 | 64 bytes from 216.58.195.238: seq=14 ttl=53 time=13.556 ms
ping_40 | 64 bytes from 216.58.195.238: seq=17 ttl=53 time=13.204 ms
ping_30 | 64 bytes from 216.58.195.238: seq=13 ttl=53 time=13.569 ms
ping_12 | 64 bytes from 216.58.195.238: seq=15 ttl=53 time=13.542 ms
ping_29 | 64 bytes from 216.58.195.238: seq=15 ttl=53 time=13.626 ms
ping_17 | 64 bytes from 216.58.195.238: seq=16 ttl=53 time=13.629 ms
ping_4  | 64 bytes from 216.58.195.238: seq=6 ttl=53 time=13.152 ms
ping_22 | 64 bytes from 216.58.195.238: seq=7 ttl=53 time=13.496 ms
ping_27 | 64 bytes from 216.58.195.238: seq=12 ttl=53 time=13.628 ms
ping_32 | 64 bytes from 216.58.195.238: seq=20 ttl=53 time=13.493 ms
ping_23 | 64 bytes from 216.58.195.238: seq=11 ttl=53 time=13.302 ms
ping_38 | 64 bytes from 216.58.195.238: seq=9 ttl=53 time=13.581 ms
ping_39 | 64 bytes from 216.58.195.238: seq=10 ttl=53 time=13.625 ms
ping_20 | 64 bytes from 216.58.195.238: seq=13 ttl=53 time=13.462 ms
ping_8  | 64 bytes from 216.58.195.238: seq=8 ttl=53 time=13.709 ms
ping_6  | 64 bytes from 216.58.195.238: seq=5 ttl=53 time=13.468 ms
ping_2  | 64 bytes from 216.58.195.238: seq=3 ttl=53 time=13.316 ms
ping_9  | 64 bytes from 216.58.195.238: seq=18 ttl=53 time=13.506 ms
ping_34 | 64 bytes from 216.58.195.238: seq=16 ttl=53 time=13.283 ms
ping_25 | 64 bytes from 216.58.195.238: seq=21 ttl=53 time=13.223 ms
ping_7  | 64 bytes from 216.58.195.238: seq=3 ttl=53 time=13.528 ms
ping_5  | 64 bytes from 216.58.195.238: seq=14 ttl=53 time=13.853 ms
ping_16 | 64 bytes from 216.58.195.238: seq=14 ttl=53 time=13.795 ms
ping_26 | 64 bytes from 216.58.195.238: seq=12 ttl=53 time=13.154 ms
ping_19 | 64 bytes from 216.58.195.238: seq=11 ttl=53 time=13.568 ms
ping_18 | 64 bytes from 216.58.195.238: seq=10 ttl=53 time=13.186 ms
ping_15 | 64 bytes from 216.58.195.238: seq=13 ttl=53 time=13.640 ms
ping_11 | 64 bytes from 216.58.195.238: seq=15 ttl=53 time=13.566 ms
ping_13 | 64 bytes from 216.58.195.238: seq=19 ttl=53 time=13.459 ms
ping_1  | 64 bytes from 216.58.195.238: seq=7 ttl=53 time=13.609 ms
ping_28 | 64 bytes from 216.58.195.238: seq=9 ttl=53 time=13.506 ms
ping_21 | 64 bytes from 216.58.195.238: seq=4 ttl=53 time=13.491 ms
ping_14 | 64 bytes from 216.58.195.238: seq=18 ttl=53 time=13.626 ms
ping_3  | 64 bytes from 216.58.195.238: seq=6 ttl=53 time=13.574 ms
ping_24 | 64 bytes from 216.58.195.238: seq=3 ttl=53 time=13.804 ms
ping_36 | 64 bytes from 216.58.195.238: seq=16 ttl=53 time=13.427 ms
ping_31 | 64 bytes from 216.58.195.238: seq=8 ttl=53 time=13.682 ms
ping_37 | 64 bytes from 216.58.195.238: seq=14 ttl=53 time=13.626 ms
ping_33 | 64 bytes from 216.58.195.238: seq=5 ttl=53 time=13.421 ms
ping_10 | 64 bytes from 216.58.195.238: seq=17 ttl=53 time=13.206 ms
ping_35 | 64 bytes from 216.58.195.238: seq=15 ttl=53 time=13.559 ms
ping_40 | 64 bytes from 216.58.195.238: seq=18 ttl=53 time=13.785 ms
ping_30 | 64 bytes from 216.58.195.238: seq=14 ttl=53 time=13.685 ms
ping_12 | 64 bytes from 216.58.195.238: seq=16 ttl=53 time=13.457 ms
ping_17 | 64 bytes from 216.58.195.238: seq=17 ttl=53 time=13.394 ms
ping_29 | 64 bytes from 216.58.195.238: seq=16 ttl=53 time=13.363 ms
ping_4  | 64 bytes from 216.58.195.238: seq=7 ttl=53 time=13.462 ms
ping_22 | 64 bytes from 216.58.195.238: seq=8 ttl=53 time=13.826 ms
ping_27 | 64 bytes from 216.58.195.238: seq=13 ttl=53 time=13.310 ms
ping_32 | 64 bytes from 216.58.195.238: seq=21 ttl=53 time=13.273 ms
ping_23 | 64 bytes from 216.58.195.238: seq=12 ttl=53 time=13.360 ms
ping_38 | 64 bytes from 216.58.195.238: seq=10 ttl=53 time=13.330 ms
ping_39 | 64 bytes from 216.58.195.238: seq=11 ttl=53 time=13.564 ms
ping_20 | 64 bytes from 216.58.195.238: seq=14 ttl=53 time=13.462 ms
ping_8  | 64 bytes from 216.58.195.238: seq=9 ttl=53 time=13.176 ms
ping_6  | 64 bytes from 216.58.195.238: seq=6 ttl=53 time=13.354 ms
ping_2  | 64 bytes from 216.58.195.238: seq=4 ttl=53 time=13.293 ms
ping_9  | 64 bytes from 216.58.195.238: seq=19 ttl=53 time=13.530 ms
ping_34 | 64 bytes from 216.58.195.238: seq=17 ttl=53 time=13.232 ms
ping_25 | 64 bytes from 216.58.195.238: seq=22 ttl=53 time=13.158 ms
ping_7  | 64 bytes from 216.58.195.238: seq=4 ttl=53 time=13.631 ms
ping_5  | 64 bytes from 216.58.195.238: seq=15 ttl=53 time=13.548 ms
ping_16 | 64 bytes from 216.58.195.238: seq=15 ttl=53 time=13.759 ms
ping_26 | 64 bytes from 216.58.195.238: seq=13 ttl=53 time=13.284 ms
ping_19 | 64 bytes from 216.58.195.238: seq=12 ttl=53 time=13.231 ms
ping_18 | 64 bytes from 216.58.195.238: seq=11 ttl=53 time=13.267 ms
ping_15 | 64 bytes from 216.58.195.238: seq=14 ttl=53 time=13.544 ms
ping_11 | 64 bytes from 216.58.195.238: seq=16 ttl=53 time=13.738 ms
ping_13 | 64 bytes from 216.58.195.238: seq=20 ttl=53 time=13.655 ms
ping_1  | 64 bytes from 216.58.195.238: seq=8 ttl=53 time=13.672 ms
ping_28 | 64 bytes from 216.58.195.238: seq=10 ttl=53 time=13.505 ms
ping_21 | 64 bytes from 216.58.195.238: seq=5 ttl=53 time=13.531 ms
ping_14 | 64 bytes from 216.58.195.238: seq=19 ttl=53 time=13.517 ms
ping_3  | 64 bytes from 216.58.195.238: seq=7 ttl=53 time=13.507 ms
ping_24 | 64 bytes from 216.58.195.238: seq=4 ttl=53 time=13.809 ms
ping_36 | 64 bytes from 216.58.195.238: seq=17 ttl=53 time=13.565 ms
ping_31 | 64 bytes from 216.58.195.238: seq=9 ttl=53 time=13.312 ms
ping_37 | 64 bytes from 216.58.195.238: seq=15 ttl=53 time=13.562 ms
ping_33 | 64 bytes from 216.58.195.238: seq=6 ttl=53 time=13.588 ms
ping_10 | 64 bytes from 216.58.195.238: seq=18 ttl=53 time=13.658 ms
ping_35 | 64 bytes from 216.58.195.238: seq=16 ttl=53 time=13.654 ms
ping_40 | 64 bytes from 216.58.195.238: seq=19 ttl=53 time=13.545 ms
ping_30 | 64 bytes from 216.58.195.238: seq=15 ttl=53 time=13.549 ms
ping_12 | 64 bytes from 216.58.195.238: seq=17 ttl=53 time=13.577 ms
ping_29 | 64 bytes from 216.58.195.238: seq=17 ttl=53 time=13.553 ms
ping_17 | 64 bytes from 216.58.195.238: seq=18 ttl=53 time=13.585 ms
ping_4  | 64 bytes from 216.58.195.238: seq=8 ttl=53 time=13.467 ms
ping_22 | 64 bytes from 216.58.195.238: seq=9 ttl=53 time=13.714 ms
ping_27 | 64 bytes from 216.58.195.238: seq=14 ttl=53 time=13.569 ms
ping_32 | 64 bytes from 216.58.195.238: seq=22 ttl=53 time=13.520 ms
ping_23 | 64 bytes from 216.58.195.238: seq=13 ttl=53 time=13.509 ms
ping_38 | 64 bytes from 216.58.195.238: seq=11 ttl=53 time=13.278 ms
ping_39 | 64 bytes from 216.58.195.238: seq=12 ttl=53 time=13.324 ms
ping_20 | 64 bytes from 216.58.195.238: seq=15 ttl=53 time=13.244 ms
ping_8  | 64 bytes from 216.58.195.238: seq=10 ttl=53 time=13.746 ms
ping_6  | 64 bytes from 216.58.195.238: seq=7 ttl=53 time=13.606 ms
ping_2  | 64 bytes from 216.58.195.238: seq=5 ttl=53 time=13.318 ms
ping_9  | 64 bytes from 216.58.195.238: seq=20 ttl=53 time=13.235 ms
ping_34 | 64 bytes from 216.58.195.238: seq=18 ttl=53 time=13.551 ms
ping_25 | 64 bytes from 216.58.195.238: seq=23 ttl=53 time=13.274 ms
ping_7  | 64 bytes from 216.58.195.238: seq=5 ttl=53 time=13.530 ms
ping_5  | 64 bytes from 216.58.195.238: seq=16 ttl=53 time=13.502 ms
ping_16 | 64 bytes from 216.58.195.238: seq=16 ttl=53 time=13.720 ms
ping_26 | 64 bytes from 216.58.195.238: seq=14 ttl=53 time=13.463 ms
ping_19 | 64 bytes from 216.58.195.238: seq=13 ttl=53 time=13.544 ms
ping_18 | 64 bytes from 216.58.195.238: seq=12 ttl=53 time=13.226 ms
ping_15 | 64 bytes from 216.58.195.238: seq=15 ttl=53 time=13.820 ms
ping_11 | 64 bytes from 216.58.195.238: seq=17 ttl=53 time=13.260 ms
ping_1  | 64 bytes from 216.58.195.238: seq=9 ttl=53 time=13.697 ms
ping_13 | 64 bytes from 216.58.195.238: seq=21 ttl=53 time=13.658 ms
ping_28 | 64 bytes from 216.58.195.238: seq=11 ttl=53 time=13.524 ms
ping_21 | 64 bytes from 216.58.195.238: seq=6 ttl=53 time=13.224 ms
ping_14 | 64 bytes from 216.58.195.238: seq=20 ttl=53 time=13.694 ms
ping_3  | 64 bytes from 216.58.195.238: seq=8 ttl=53 time=13.616 ms
ping_24 | 64 bytes from 216.58.195.238: seq=5 ttl=53 time=13.686 ms
ping_36 | 64 bytes from 216.58.195.238: seq=18 ttl=53 time=13.749 ms
ping_31 | 64 bytes from 216.58.195.238: seq=10 ttl=53 time=13.736 ms
ping_37 | 64 bytes from 216.58.195.238: seq=16 ttl=53 time=13.627 ms
ping_33 | 64 bytes from 216.58.195.238: seq=7 ttl=53 time=13.576 ms
ping_10 | 64 bytes from 216.58.195.238: seq=19 ttl=53 time=13.637 ms
ping_35 | 64 bytes from 216.58.195.238: seq=17 ttl=53 time=13.616 ms
ping_40 | 64 bytes from 216.58.195.238: seq=20 ttl=53 time=13.167 ms
ping_30 | 64 bytes from 216.58.195.238: seq=16 ttl=53 time=13.108 ms
ping_12 | 64 bytes from 216.58.195.238: seq=18 ttl=53 time=13.113 ms
ping_17 | 64 bytes from 216.58.195.238: seq=19 ttl=53 time=13.577 ms
ping_29 | 64 bytes from 216.58.195.238: seq=18 ttl=53 time=13.624 ms
ping_4  | 64 bytes from 216.58.195.238: seq=9 ttl=53 time=13.155 ms
ping_22 | 64 bytes from 216.58.195.238: seq=10 ttl=53 time=13.056 ms
ping_27 | 64 bytes from 216.58.195.238: seq=15 ttl=53 time=13.771 ms
ping_32 | 64 bytes from 216.58.195.238: seq=23 ttl=53 time=13.483 ms
ping_23 | 64 bytes from 216.58.195.238: seq=14 ttl=53 time=13.388 ms
ping_38 | 64 bytes from 216.58.195.238: seq=12 ttl=53 time=13.586 ms
ping_39 | 64 bytes from 216.58.195.238: seq=13 ttl=53 time=13.549 ms
ping_20 | 64 bytes from 216.58.195.238: seq=16 ttl=53 time=13.203 ms
ping_8  | 64 bytes from 216.58.195.238: seq=11 ttl=53 time=13.313 ms
ping_6  | 64 bytes from 216.58.195.238: seq=8 ttl=53 time=13.683 ms
ping_2  | 64 bytes from 216.58.195.238: seq=6 ttl=53 time=13.574 ms
ping_9  | 64 bytes from 216.58.195.238: seq=21 ttl=53 time=13.602 ms
ping_34 | 64 bytes from 216.58.195.238: seq=19 ttl=53 time=13.496 ms
ping_25 | 64 bytes from 216.58.195.238: seq=24 ttl=53 time=13.254 ms
ping_25 | 
ping_25 | --- 216.58.195.238 ping statistics ---
ping_25 | 25 packets transmitted, 25 packets received, 0% packet loss
ping_25 | round-trip min/avg/max = 12.994/13.255/13.683 ms
ping_7  | 64 bytes from 216.58.195.238: seq=6 ttl=53 time=13.458 ms
ping_5  | 64 bytes from 216.58.195.238: seq=17 ttl=53 time=13.217 ms
ping_16 | 64 bytes from 216.58.195.238: seq=17 ttl=53 time=13.430 ms
ping_26 | 64 bytes from 216.58.195.238: seq=15 ttl=53 time=13.052 ms
ping_18 | 64 bytes from 216.58.195.238: seq=13 ttl=53 time=13.125 ms
ping_19 | 64 bytes from 216.58.195.238: seq=14 ttl=53 time=13.036 ms
ping_15 | 64 bytes from 216.58.195.238: seq=16 ttl=53 time=13.187 ms
ping_11 | 64 bytes from 216.58.195.238: seq=18 ttl=53 time=14.229 ms
ping_1  | 64 bytes from 216.58.195.238: seq=10 ttl=53 time=13.435 ms
ping_28 | 64 bytes from 216.58.195.238: seq=12 ttl=53 time=13.370 ms
ping_21 | 64 bytes from 216.58.195.238: seq=7 ttl=53 time=13.313 ms
ping_14 | 64 bytes from 216.58.195.238: seq=21 ttl=53 time=13.055 ms
ping_3  | 64 bytes from 216.58.195.238: seq=9 ttl=53 time=12.964 ms
ping_24 | 64 bytes from 216.58.195.238: seq=6 ttl=53 time=13.039 ms
ping_36 | 64 bytes from 216.58.195.238: seq=19 ttl=53 time=12.965 ms
softwareoverhead_ping_25 exited with code 0
ping_31 | 64 bytes from 216.58.195.238: seq=11 ttl=53 time=13.175 ms
ping_37 | 64 bytes from 216.58.195.238: seq=17 ttl=53 time=13.104 ms
ping_33 | 64 bytes from 216.58.195.238: seq=8 ttl=53 time=13.562 ms
ping_10 | 64 bytes from 216.58.195.238: seq=20 ttl=53 time=13.652 ms
ping_35 | 64 bytes from 216.58.195.238: seq=18 ttl=53 time=13.254 ms
ping_40 | 64 bytes from 216.58.195.238: seq=21 ttl=53 time=13.590 ms
ping_30 | 64 bytes from 216.58.195.238: seq=17 ttl=53 time=13.658 ms
ping_12 | 64 bytes from 216.58.195.238: seq=19 ttl=53 time=13.075 ms
ping_29 | 64 bytes from 216.58.195.238: seq=19 ttl=53 time=13.470 ms
ping_17 | 64 bytes from 216.58.195.238: seq=20 ttl=53 time=13.495 ms
ping_4  | 64 bytes from 216.58.195.238: seq=10 ttl=53 time=13.592 ms
ping_22 | 64 bytes from 216.58.195.238: seq=11 ttl=53 time=13.162 ms
ping_27 | 64 bytes from 216.58.195.238: seq=16 ttl=53 time=13.665 ms
ping_32 | 64 bytes from 216.58.195.238: seq=24 ttl=53 time=13.513 ms
ping_32 | 
ping_32 | --- 216.58.195.238 ping statistics ---
ping_32 | 25 packets transmitted, 25 packets received, 0% packet loss
ping_32 | round-trip min/avg/max = 13.024/13.395/15.553 ms
ping_23 | 64 bytes from 216.58.195.238: seq=15 ttl=53 time=13.648 ms
ping_38 | 64 bytes from 216.58.195.238: seq=13 ttl=53 time=12.998 ms
ping_39 | 64 bytes from 216.58.195.238: seq=14 ttl=53 time=13.015 ms
ping_20 | 64 bytes from 216.58.195.238: seq=17 ttl=53 time=13.014 ms
ping_8  | 64 bytes from 216.58.195.238: seq=12 ttl=53 time=13.051 ms
ping_6  | 64 bytes from 216.58.195.238: seq=9 ttl=53 time=13.258 ms
ping_2  | 64 bytes from 216.58.195.238: seq=7 ttl=53 time=13.090 ms
ping_9  | 64 bytes from 216.58.195.238: seq=22 ttl=53 time=13.449 ms
ping_34 | 64 bytes from 216.58.195.238: seq=20 ttl=53 time=13.118 ms
ping_7  | 64 bytes from 216.58.195.238: seq=7 ttl=53 time=13.498 ms
ping_5  | 64 bytes from 216.58.195.238: seq=18 ttl=53 time=13.078 ms
ping_16 | 64 bytes from 216.58.195.238: seq=18 ttl=53 time=13.261 ms
ping_26 | 64 bytes from 216.58.195.238: seq=16 ttl=53 time=13.042 ms
ping_19 | 64 bytes from 216.58.195.238: seq=15 ttl=53 time=12.986 ms
ping_18 | 64 bytes from 216.58.195.238: seq=14 ttl=53 time=12.980 ms
ping_15 | 64 bytes from 216.58.195.238: seq=17 ttl=53 time=13.019 ms
ping_11 | 64 bytes from 216.58.195.238: seq=19 ttl=53 time=13.046 ms
softwareoverhead_ping_32 exited with code 0
ping_1  | 64 bytes from 216.58.195.238: seq=11 ttl=53 time=13.484 ms
ping_13 | 64 bytes from 216.58.195.238: seq=23 ttl=53 time=13.537 ms
ping_28 | 64 bytes from 216.58.195.238: seq=13 ttl=53 time=13.505 ms
ping_21 | 64 bytes from 216.58.195.238: seq=8 ttl=53 time=13.089 ms
ping_14 | 64 bytes from 216.58.195.238: seq=22 ttl=53 time=13.503 ms
ping_3  | 64 bytes from 216.58.195.238: seq=10 ttl=53 time=13.496 ms
ping_24 | 64 bytes from 216.58.195.238: seq=7 ttl=53 time=13.453 ms
ping_36 | 64 bytes from 216.58.195.238: seq=20 ttl=53 time=13.744 ms
ping_31 | 64 bytes from 216.58.195.238: seq=12 ttl=53 time=13.670 ms
ping_37 | 64 bytes from 216.58.195.238: seq=18 ttl=53 time=13.338 ms
ping_33 | 64 bytes from 216.58.195.238: seq=9 ttl=53 time=13.505 ms
ping_10 | 64 bytes from 216.58.195.238: seq=21 ttl=53 time=13.772 ms
ping_35 | 64 bytes from 216.58.195.238: seq=19 ttl=53 time=13.632 ms
ping_40 | 64 bytes from 216.58.195.238: seq=22 ttl=53 time=13.656 ms
ping_30 | 64 bytes from 216.58.195.238: seq=18 ttl=53 time=13.820 ms
ping_12 | 64 bytes from 216.58.195.238: seq=20 ttl=53 time=13.585 ms
ping_29 | 64 bytes from 216.58.195.238: seq=20 ttl=53 time=13.437 ms
ping_17 | 64 bytes from 216.58.195.238: seq=21 ttl=53 time=13.426 ms
ping_4  | 64 bytes from 216.58.195.238: seq=11 ttl=53 time=13.556 ms
ping_22 | 64 bytes from 216.58.195.238: seq=12 ttl=53 time=13.503 ms
ping_27 | 64 bytes from 216.58.195.238: seq=17 ttl=53 time=13.538 ms
ping_23 | 64 bytes from 216.58.195.238: seq=16 ttl=53 time=13.444 ms
ping_38 | 64 bytes from 216.58.195.238: seq=14 ttl=53 time=13.317 ms
ping_39 | 64 bytes from 216.58.195.238: seq=15 ttl=53 time=13.473 ms
ping_20 | 64 bytes from 216.58.195.238: seq=18 ttl=53 time=13.252 ms
ping_8  | 64 bytes from 216.58.195.238: seq=13 ttl=53 time=13.753 ms
ping_6  | 64 bytes from 216.58.195.238: seq=10 ttl=53 time=13.465 ms
ping_2  | 64 bytes from 216.58.195.238: seq=8 ttl=53 time=13.466 ms
ping_9  | 64 bytes from 216.58.195.238: seq=23 ttl=53 time=13.586 ms
ping_34 | 64 bytes from 216.58.195.238: seq=21 ttl=53 time=13.572 ms
ping_7  | 64 bytes from 216.58.195.238: seq=8 ttl=53 time=13.704 ms
ping_5  | 64 bytes from 216.58.195.238: seq=19 ttl=53 time=13.543 ms
ping_16 | 64 bytes from 216.58.195.238: seq=19 ttl=53 time=13.391 ms
ping_26 | 64 bytes from 216.58.195.238: seq=17 ttl=53 time=13.616 ms
ping_19 | 64 bytes from 216.58.195.238: seq=16 ttl=53 time=13.468 ms
ping_18 | 64 bytes from 216.58.195.238: seq=15 ttl=53 time=13.183 ms
ping_15 | 64 bytes from 216.58.195.238: seq=18 ttl=53 time=13.455 ms
ping_11 | 64 bytes from 216.58.195.238: seq=20 ttl=53 time=13.729 ms
ping_1  | 64 bytes from 216.58.195.238: seq=12 ttl=53 time=13.474 ms
ping_13 | 64 bytes from 216.58.195.238: seq=24 ttl=53 time=13.415 ms
ping_28 | 64 bytes from 216.58.195.238: seq=14 ttl=53 time=13.479 ms
ping_21 | 64 bytes from 216.58.195.238: seq=9 ttl=53 time=13.233 ms
ping_14 | 64 bytes from 216.58.195.238: seq=23 ttl=53 time=13.283 ms
ping_3  | 64 bytes from 216.58.195.238: seq=11 ttl=53 time=13.550 ms
ping_24 | 64 bytes from 216.58.195.238: seq=8 ttl=53 time=13.813 ms
ping_36 | 64 bytes from 216.58.195.238: seq=21 ttl=53 time=13.480 ms
ping_31 | 64 bytes from 216.58.195.238: seq=13 ttl=53 time=13.809 ms
ping_37 | 64 bytes from 216.58.195.238: seq=19 ttl=53 time=13.827 ms
ping_33 | 64 bytes from 216.58.195.238: seq=10 ttl=53 time=13.386 ms
ping_10 | 64 bytes from 216.58.195.238: seq=22 ttl=53 time=13.747 ms
ping_35 | 64 bytes from 216.58.195.238: seq=20 ttl=53 time=13.606 ms
ping_40 | 64 bytes from 216.58.195.238: seq=23 ttl=53 time=13.804 ms
ping_30 | 64 bytes from 216.58.195.238: seq=19 ttl=53 time=13.226 ms
ping_12 | 64 bytes from 216.58.195.238: seq=21 ttl=53 time=13.172 ms
ping_17 | 64 bytes from 216.58.195.238: seq=22 ttl=53 time=13.131 ms
ping_29 | 64 bytes from 216.58.195.238: seq=21 ttl=53 time=13.161 ms
ping_4  | 64 bytes from 216.58.195.238: seq=12 ttl=53 time=13.575 ms
ping_22 | 64 bytes from 216.58.195.238: seq=13 ttl=53 time=13.807 ms
ping_27 | 64 bytes from 216.58.195.238: seq=18 ttl=53 time=13.724 ms
ping_23 | 64 bytes from 216.58.195.238: seq=17 ttl=53 time=13.302 ms
ping_38 | 64 bytes from 216.58.195.238: seq=15 ttl=53 time=13.271 ms
ping_39 | 64 bytes from 216.58.195.238: seq=16 ttl=53 time=13.554 ms
ping_20 | 64 bytes from 216.58.195.238: seq=19 ttl=53 time=13.227 ms
ping_8  | 64 bytes from 216.58.195.238: seq=14 ttl=53 time=13.799 ms
ping_6  | 64 bytes from 216.58.195.238: seq=11 ttl=53 time=13.302 ms
ping_2  | 64 bytes from 216.58.195.238: seq=9 ttl=53 time=13.232 ms
ping_9  | 64 bytes from 216.58.195.238: seq=24 ttl=53 time=13.607 ms
ping_9  | 
ping_9  | --- 216.58.195.238 ping statistics ---
ping_9  | 25 packets transmitted, 25 packets received, 0% packet loss
ping_9  | round-trip min/avg/max = 12.983/13.320/13.729 ms
ping_34 | 64 bytes from 216.58.195.238: seq=22 ttl=53 time=13.279 ms
ping_7  | 64 bytes from 216.58.195.238: seq=9 ttl=53 time=13.498 ms
ping_5  | 64 bytes from 216.58.195.238: seq=20 ttl=53 time=13.284 ms
ping_16 | 64 bytes from 216.58.195.238: seq=20 ttl=53 time=13.037 ms
ping_26 | 64 bytes from 216.58.195.238: seq=18 ttl=53 time=13.175 ms
ping_19 | 64 bytes from 216.58.195.238: seq=17 ttl=53 time=13.419 ms
ping_18 | 64 bytes from 216.58.195.238: seq=16 ttl=53 time=13.214 ms
ping_15 | 64 bytes from 216.58.195.238: seq=19 ttl=53 time=13.179 ms
ping_11 | 64 bytes from 216.58.195.238: seq=21 ttl=53 time=13.221 ms
ping_13 | 
ping_13 | --- 216.58.195.238 ping statistics ---
ping_13 | 25 packets transmitted, 24 packets received, 4% packet loss
ping_13 | round-trip min/avg/max = 12.924/13.402/15.475 ms
ping_1  | 64 bytes from 216.58.195.238: seq=13 ttl=53 time=13.137 ms
ping_28 | 64 bytes from 216.58.195.238: seq=15 ttl=53 time=13.089 ms
ping_21 | 64 bytes from 216.58.195.238: seq=10 ttl=53 time=13.102 ms
ping_14 | 64 bytes from 216.58.195.238: seq=24 ttl=53 time=13.023 ms
ping_14 | 
ping_14 | --- 216.58.195.238 ping statistics ---
ping_14 | 25 packets transmitted, 25 packets received, 0% packet loss
ping_14 | round-trip min/avg/max = 13.023/13.270/13.694 ms
ping_3  | 64 bytes from 216.58.195.238: seq=12 ttl=53 time=13.011 ms
softwareoverhead_ping_9 exited with code 0
ping_24 | 64 bytes from 216.58.195.238: seq=9 ttl=53 time=13.045 ms
ping_36 | 64 bytes from 216.58.195.238: seq=22 ttl=53 time=13.343 ms
ping_31 | 64 bytes from 216.58.195.238: seq=14 ttl=53 time=13.048 ms
ping_37 | 64 bytes from 216.58.195.238: seq=20 ttl=53 time=13.107 ms
ping_33 | 64 bytes from 216.58.195.238: seq=11 ttl=53 time=13.049 ms
ping_10 | 64 bytes from 216.58.195.238: seq=23 ttl=53 time=13.080 ms
ping_35 | 64 bytes from 216.58.195.238: seq=21 ttl=53 time=13.235 ms
ping_40 | 64 bytes from 216.58.195.238: seq=24 ttl=53 time=13.193 ms
ping_40 | 
ping_40 | --- 216.58.195.238 ping statistics ---
ping_40 | 25 packets transmitted, 25 packets received, 0% packet loss
ping_40 | round-trip min/avg/max = 13.107/13.380/13.804 ms
softwareoverhead_ping_13 exited with code 0
ping_30 | 64 bytes from 216.58.195.238: seq=20 ttl=53 time=13.113 ms
ping_12 | 64 bytes from 216.58.195.238: seq=22 ttl=53 time=13.058 ms
ping_29 | 64 bytes from 216.58.195.238: seq=22 ttl=53 time=13.077 ms
ping_17 | 64 bytes from 216.58.195.238: seq=23 ttl=53 time=13.048 ms
softwareoverhead_ping_14 exited with code 0
ping_4  | 64 bytes from 216.58.195.238: seq=13 ttl=53 time=13.040 ms
ping_22 | 64 bytes from 216.58.195.238: seq=14 ttl=53 time=13.470 ms
ping_27 | 64 bytes from 216.58.195.238: seq=19 ttl=53 time=13.393 ms
ping_23 | 64 bytes from 216.58.195.238: seq=18 ttl=53 time=13.195 ms
ping_38 | 64 bytes from 216.58.195.238: seq=16 ttl=53 time=13.210 ms
ping_39 | 64 bytes from 216.58.195.238: seq=17 ttl=53 time=13.224 ms
ping_20 | 64 bytes from 216.58.195.238: seq=20 ttl=53 time=13.153 ms
ping_8  | 64 bytes from 216.58.195.238: seq=15 ttl=53 time=13.181 ms
ping_6  | 64 bytes from 216.58.195.238: seq=12 ttl=53 time=13.192 ms
ping_2  | 64 bytes from 216.58.195.238: seq=10 ttl=53 time=13.252 ms
ping_34 | 64 bytes from 216.58.195.238: seq=23 ttl=53 time=13.153 ms
softwareoverhead_ping_40 exited with code 0
ping_7  | 64 bytes from 216.58.195.238: seq=10 ttl=53 time=13.052 ms
ping_5  | 64 bytes from 216.58.195.238: seq=21 ttl=53 time=13.127 ms
ping_16 | 64 bytes from 216.58.195.238: seq=21 ttl=53 time=13.577 ms
ping_26 | 64 bytes from 216.58.195.238: seq=19 ttl=53 time=13.146 ms
ping_19 | 64 bytes from 216.58.195.238: seq=18 ttl=53 time=13.111 ms
ping_18 | 64 bytes from 216.58.195.238: seq=17 ttl=53 time=13.069 ms
ping_15 | 64 bytes from 216.58.195.238: seq=20 ttl=53 time=13.532 ms
ping_11 | 64 bytes from 216.58.195.238: seq=22 ttl=53 time=13.599 ms
ping_1  | 64 bytes from 216.58.195.238: seq=14 ttl=53 time=13.659 ms
ping_28 | 64 bytes from 216.58.195.238: seq=16 ttl=53 time=13.588 ms
ping_21 | 64 bytes from 216.58.195.238: seq=11 ttl=53 time=13.511 ms
ping_3  | 64 bytes from 216.58.195.238: seq=13 ttl=53 time=13.610 ms
ping_24 | 64 bytes from 216.58.195.238: seq=10 ttl=53 time=13.240 ms
ping_36 | 64 bytes from 216.58.195.238: seq=23 ttl=53 time=13.418 ms
ping_31 | 64 bytes from 216.58.195.238: seq=15 ttl=53 time=13.713 ms
ping_37 | 64 bytes from 216.58.195.238: seq=21 ttl=53 time=13.803 ms
ping_33 | 64 bytes from 216.58.195.238: seq=12 ttl=53 time=13.285 ms
ping_10 | 64 bytes from 216.58.195.238: seq=24 ttl=53 time=13.165 ms
ping_10 | 
ping_10 | --- 216.58.195.238 ping statistics ---
ping_10 | 25 packets transmitted, 25 packets received, 0% packet loss
ping_10 | round-trip min/avg/max = 13.079/13.408/13.775 ms
ping_35 | 64 bytes from 216.58.195.238: seq=22 ttl=53 time=13.576 ms
ping_30 | 64 bytes from 216.58.195.238: seq=21 ttl=53 time=13.186 ms
ping_12 | 64 bytes from 216.58.195.238: seq=23 ttl=53 time=13.271 ms
ping_29 | 64 bytes from 216.58.195.238: seq=23 ttl=53 time=13.657 ms
ping_17 | 64 bytes from 216.58.195.238: seq=24 ttl=53 time=13.575 ms
ping_4  | 64 bytes from 216.58.195.238: seq=14 ttl=53 time=13.603 ms
ping_22 | 64 bytes from 216.58.195.238: seq=15 ttl=53 time=13.048 ms
ping_27 | 64 bytes from 216.58.195.238: seq=20 ttl=53 time=13.109 ms
softwareoverhead_ping_10 exited with code 0
ping_23 | 64 bytes from 216.58.195.238: seq=19 ttl=53 time=13.502 ms
ping_38 | 64 bytes from 216.58.195.238: seq=17 ttl=53 time=13.233 ms
ping_39 | 64 bytes from 216.58.195.238: seq=18 ttl=53 time=13.714 ms
ping_20 | 64 bytes from 216.58.195.238: seq=21 ttl=53 time=13.322 ms
ping_8  | 64 bytes from 216.58.195.238: seq=16 ttl=53 time=13.549 ms
ping_6  | 64 bytes from 216.58.195.238: seq=13 ttl=53 time=13.272 ms
ping_2  | 64 bytes from 216.58.195.238: seq=11 ttl=53 time=13.384 ms
ping_34 | 64 bytes from 216.58.195.238: seq=24 ttl=53 time=13.631 ms
ping_34 | 
ping_34 | --- 216.58.195.238 ping statistics ---
ping_34 | 25 packets transmitted, 25 packets received, 0% packet loss
ping_34 | round-trip min/avg/max = 12.996/13.299/13.631 ms
ping_7  | 64 bytes from 216.58.195.238: seq=11 ttl=53 time=13.177 ms
ping_5  | 64 bytes from 216.58.195.238: seq=22 ttl=53 time=13.187 ms
ping_16 | 64 bytes from 216.58.195.238: seq=22 ttl=53 time=13.033 ms
ping_26 | 64 bytes from 216.58.195.238: seq=20 ttl=53 time=13.047 ms
ping_19 | 64 bytes from 216.58.195.238: seq=19 ttl=53 time=13.020 ms
ping_18 | 64 bytes from 216.58.195.238: seq=18 ttl=53 time=12.985 ms
ping_15 | 64 bytes from 216.58.195.238: seq=21 ttl=53 time=13.065 ms
ping_11 | 64 bytes from 216.58.195.238: seq=23 ttl=53 time=13.237 ms
ping_1  | 64 bytes from 216.58.195.238: seq=15 ttl=53 time=13.304 ms
ping_28 | 64 bytes from 216.58.195.238: seq=17 ttl=53 time=13.273 ms
ping_21 | 64 bytes from 216.58.195.238: seq=12 ttl=53 time=13.181 ms
ping_3  | 64 bytes from 216.58.195.238: seq=14 ttl=53 time=13.062 ms
ping_24 | 64 bytes from 216.58.195.238: seq=11 ttl=53 time=13.090 ms
ping_36 | 64 bytes from 216.58.195.238: seq=24 ttl=53 time=12.971 ms
ping_36 | 
ping_36 | --- 216.58.195.238 ping statistics ---
ping_36 | 25 packets transmitted, 25 packets received, 0% packet loss
ping_36 | round-trip min/avg/max = 12.965/13.363/13.749 ms
softwareoverhead_ping_34 exited with code 0
ping_31 | 64 bytes from 216.58.195.238: seq=16 ttl=53 time=13.193 ms
ping_37 | 64 bytes from 216.58.195.238: seq=22 ttl=53 time=13.199 ms
ping_33 | 64 bytes from 216.58.195.238: seq=13 ttl=53 time=13.018 ms
ping_35 | 64 bytes from 216.58.195.238: seq=23 ttl=53 time=13.060 ms
ping_30 | 64 bytes from 216.58.195.238: seq=22 ttl=53 time=13.080 ms
ping_12 | 64 bytes from 216.58.195.238: seq=24 ttl=53 time=13.042 ms
ping_12 | 
ping_12 | --- 216.58.195.238 ping statistics ---
ping_12 | 25 packets transmitted, 25 packets received, 0% packet loss
ping_12 | round-trip min/avg/max = 13.042/13.339/13.796 ms
ping_17 | 
ping_17 | --- 216.58.195.238 ping statistics ---
ping_17 | 25 packets transmitted, 24 packets received, 4% packet loss
ping_17 | round-trip min/avg/max = 13.015/13.331/13.654 ms
ping_29 | 64 bytes from 216.58.195.238: seq=24 ttl=53 time=13.578 ms
softwareoverhead_ping_36 exited with code 0
ping_4  | 64 bytes from 216.58.195.238: seq=15 ttl=53 time=13.032 ms
ping_22 | 64 bytes from 216.58.195.238: seq=16 ttl=53 time=13.019 ms
ping_27 | 64 bytes from 216.58.195.238: seq=21 ttl=53 time=13.130 ms
ping_23 | 64 bytes from 216.58.195.238: seq=20 ttl=53 time=13.164 ms
ping_38 | 64 bytes from 216.58.195.238: seq=18 ttl=53 time=13.261 ms
ping_39 | 64 bytes from 216.58.195.238: seq=19 ttl=53 time=13.194 ms
ping_20 | 64 bytes from 216.58.195.238: seq=22 ttl=53 time=13.186 ms
ping_8  | 64 bytes from 216.58.195.238: seq=17 ttl=53 time=13.283 ms
ping_6  | 64 bytes from 216.58.195.238: seq=14 ttl=53 time=13.669 ms
ping_2  | 64 bytes from 216.58.195.238: seq=12 ttl=53 time=13.307 ms
ping_7  | 64 bytes from 216.58.195.238: seq=12 ttl=53 time=13.273 ms
ping_5  | 64 bytes from 216.58.195.238: seq=23 ttl=53 time=13.214 ms
ping_16 | 64 bytes from 216.58.195.238: seq=23 ttl=53 time=13.191 ms
ping_26 | 64 bytes from 216.58.195.238: seq=21 ttl=53 time=13.072 ms
softwareoverhead_ping_12 exited with code 0
ping_19 | 64 bytes from 216.58.195.238: seq=20 ttl=53 time=13.044 ms
ping_18 | 64 bytes from 216.58.195.238: seq=19 ttl=53 time=12.992 ms
ping_15 | 64 bytes from 216.58.195.238: seq=22 ttl=53 time=13.053 ms
softwareoverhead_ping_17 exited with code 0
ping_11 | 64 bytes from 216.58.195.238: seq=24 ttl=53 time=13.034 ms
ping_11 | 
ping_11 | --- 216.58.195.238 ping statistics ---
ping_11 | 25 packets transmitted, 25 packets received, 0% packet loss
ping_11 | round-trip min/avg/max = 13.026/13.356/14.229 ms
ping_1  | 64 bytes from 216.58.195.238: seq=16 ttl=53 time=13.076 ms
ping_28 | 64 bytes from 216.58.195.238: seq=18 ttl=53 time=12.995 ms
ping_21 | 64 bytes from 216.58.195.238: seq=13 ttl=53 time=13.017 ms
ping_3  | 64 bytes from 216.58.195.238: seq=15 ttl=53 time=13.469 ms
ping_24 | 64 bytes from 216.58.195.238: seq=12 ttl=53 time=13.314 ms
ping_31 | 64 bytes from 216.58.195.238: seq=17 ttl=53 time=13.540 ms
ping_37 | 64 bytes from 216.58.195.238: seq=23 ttl=53 time=13.213 ms
ping_33 | 64 bytes from 216.58.195.238: seq=14 ttl=53 time=13.193 ms
ping_35 | 64 bytes from 216.58.195.238: seq=24 ttl=53 time=13.194 ms
ping_35 | 
ping_35 | --- 216.58.195.238 ping statistics ---
ping_35 | 25 packets transmitted, 25 packets received, 0% packet loss
ping_35 | round-trip min/avg/max = 13.060/13.382/13.654 ms
softwareoverhead_ping_11 exited with code 0
ping_30 | 64 bytes from 216.58.195.238: seq=23 ttl=53 time=13.228 ms
ping_29 | 
ping_29 | --- 216.58.195.238 ping statistics ---
ping_29 | 25 packets transmitted, 23 packets received, 8% packet loss
ping_29 | round-trip min/avg/max = 13.003/13.359/13.657 ms
ping_4  | 64 bytes from 216.58.195.238: seq=16 ttl=53 time=13.055 ms
ping_22 | 64 bytes from 216.58.195.238: seq=17 ttl=53 time=13.045 ms
ping_27 | 64 bytes from 216.58.195.238: seq=22 ttl=53 time=13.086 ms
ping_23 | 64 bytes from 216.58.195.238: seq=21 ttl=53 time=13.055 ms
softwareoverhead_ping_35 exited with code 0
ping_38 | 64 bytes from 216.58.195.238: seq=19 ttl=53 time=13.146 ms
ping_39 | 64 bytes from 216.58.195.238: seq=20 ttl=53 time=13.216 ms
ping_20 | 64 bytes from 216.58.195.238: seq=23 ttl=53 time=13.189 ms
ping_8  | 64 bytes from 216.58.195.238: seq=18 ttl=53 time=13.275 ms
ping_6  | 64 bytes from 216.58.195.238: seq=15 ttl=53 time=13.190 ms
ping_2  | 64 bytes from 216.58.195.238: seq=13 ttl=53 time=13.330 ms
ping_7  | 64 bytes from 216.58.195.238: seq=13 ttl=53 time=13.231 ms
ping_5  | 64 bytes from 216.58.195.238: seq=24 ttl=53 time=13.190 ms
ping_5  | 
ping_5  | --- 216.58.195.238 ping statistics ---
ping_5  | 25 packets transmitted, 25 packets received, 0% packet loss
ping_5  | round-trip min/avg/max = 13.078/13.367/13.861 ms
ping_16 | 64 bytes from 216.58.195.238: seq=24 ttl=53 time=12.992 ms
ping_16 | 
ping_16 | --- 216.58.195.238 ping statistics ---
ping_16 | 25 packets transmitted, 25 packets received, 0% packet loss
ping_16 | round-trip min/avg/max = 12.992/13.362/13.795 ms
softwareoverhead_ping_29 exited with code 0
ping_26 | 64 bytes from 216.58.195.238: seq=22 ttl=53 time=13.086 ms
ping_18 | 64 bytes from 216.58.195.238: seq=20 ttl=53 time=12.954 ms
ping_19 | 64 bytes from 216.58.195.238: seq=21 ttl=53 time=12.986 ms
ping_15 | 64 bytes from 216.58.195.238: seq=23 ttl=53 time=13.136 ms
ping_1  | 64 bytes from 216.58.195.238: seq=17 ttl=53 time=12.979 ms
ping_28 | 64 bytes from 216.58.195.238: seq=19 ttl=53 time=13.020 ms
ping_21 | 64 bytes from 216.58.195.238: seq=14 ttl=53 time=13.093 ms
ping_3  | 64 bytes from 216.58.195.238: seq=16 ttl=53 time=13.068 ms
ping_24 | 64 bytes from 216.58.195.238: seq=13 ttl=53 time=13.637 ms
ping_31 | 64 bytes from 216.58.195.238: seq=18 ttl=53 time=13.256 ms
ping_37 | 64 bytes from 216.58.195.238: seq=24 ttl=53 time=13.223 ms
ping_37 | 
ping_37 | --- 216.58.195.238 ping statistics ---
ping_37 | 25 packets transmitted, 25 packets received, 0% packet loss
ping_37 | round-trip min/avg/max = 13.047/13.359/13.827 ms
ping_33 | 64 bytes from 216.58.195.238: seq=15 ttl=53 time=13.223 ms
softwareoverhead_ping_5 exited with code 0
softwareoverhead_ping_16 exited with code 0
ping_30 | 64 bytes from 216.58.195.238: seq=24 ttl=53 time=13.603 ms
ping_30 | 
ping_30 | --- 216.58.195.238 ping statistics ---
ping_30 | 25 packets transmitted, 25 packets received, 0% packet loss
ping_30 | round-trip min/avg/max = 13.080/13.392/13.820 ms
ping_4  | 64 bytes from 216.58.195.238: seq=17 ttl=53 time=13.205 ms
ping_22 | 64 bytes from 216.58.195.238: seq=18 ttl=53 time=13.236 ms
ping_27 | 64 bytes from 216.58.195.238: seq=23 ttl=53 time=13.176 ms
ping_23 | 64 bytes from 216.58.195.238: seq=22 ttl=53 time=13.037 ms
softwareoverhead_ping_37 exited with code 0
ping_38 | 64 bytes from 216.58.195.238: seq=20 ttl=53 time=13.094 ms
ping_39 | 64 bytes from 216.58.195.238: seq=21 ttl=53 time=13.678 ms
ping_20 | 64 bytes from 216.58.195.238: seq=24 ttl=53 time=13.073 ms
ping_20 | 
ping_20 | --- 216.58.195.238 ping statistics ---
ping_20 | 25 packets transmitted, 25 packets received, 0% packet loss
ping_20 | round-trip min/avg/max = 12.950/13.242/13.565 ms
ping_8  | 64 bytes from 216.58.195.238: seq=19 ttl=53 time=12.999 ms
ping_6  | 64 bytes from 216.58.195.238: seq=16 ttl=53 time=13.081 ms
ping_2  | 64 bytes from 216.58.195.238: seq=14 ttl=53 time=13.147 ms
ping_7  | 64 bytes from 216.58.195.238: seq=14 ttl=53 time=13.242 ms
ping_26 | 64 bytes from 216.58.195.238: seq=23 ttl=53 time=13.067 ms
ping_19 | 64 bytes from 216.58.195.238: seq=22 ttl=53 time=13.013 ms
ping_18 | 64 bytes from 216.58.195.238: seq=21 ttl=53 time=12.984 ms
softwareoverhead_ping_30 exited with code 0
ping_15 | 64 bytes from 216.58.195.238: seq=24 ttl=53 time=13.233 ms
ping_15 | 
ping_15 | --- 216.58.195.238 ping statistics ---
ping_15 | 25 packets transmitted, 25 packets received, 0% packet loss
ping_15 | round-trip min/avg/max = 12.993/13.369/14.625 ms
ping_1  | 64 bytes from 216.58.195.238: seq=18 ttl=53 time=13.097 ms
ping_28 | 64 bytes from 216.58.195.238: seq=20 ttl=53 time=13.052 ms
ping_21 | 64 bytes from 216.58.195.238: seq=15 ttl=53 time=13.055 ms
ping_3  | 64 bytes from 216.58.195.238: seq=17 ttl=53 time=13.050 ms
ping_24 | 64 bytes from 216.58.195.238: seq=14 ttl=53 time=13.022 ms
softwareoverhead_ping_20 exited with code 0
ping_31 | 64 bytes from 216.58.195.238: seq=19 ttl=53 time=13.227 ms
ping_33 | 64 bytes from 216.58.195.238: seq=16 ttl=53 time=13.480 ms
softwareoverhead_ping_15 exited with code 0
ping_4  | 64 bytes from 216.58.195.238: seq=18 ttl=53 time=13.667 ms
ping_22 | 64 bytes from 216.58.195.238: seq=19 ttl=53 time=13.522 ms
ping_27 | 64 bytes from 216.58.195.238: seq=24 ttl=53 time=13.561 ms
ping_27 | 
ping_27 | --- 216.58.195.238 ping statistics ---
ping_27 | 25 packets transmitted, 25 packets received, 0% packet loss
ping_27 | round-trip min/avg/max = 13.015/13.367/13.771 ms
ping_23 | 64 bytes from 216.58.195.238: seq=23 ttl=53 time=13.160 ms
ping_38 | 64 bytes from 216.58.195.238: seq=21 ttl=53 time=13.083 ms
ping_39 | 64 bytes from 216.58.195.238: seq=22 ttl=53 time=13.070 ms
ping_8  | 64 bytes from 216.58.195.238: seq=20 ttl=53 time=13.028 ms
ping_6  | 64 bytes from 216.58.195.238: seq=17 ttl=53 time=13.143 ms
ping_2  | 64 bytes from 216.58.195.238: seq=15 ttl=53 time=13.102 ms
ping_7  | 64 bytes from 216.58.195.238: seq=15 ttl=53 time=13.333 ms
ping_26 | 64 bytes from 216.58.195.238: seq=24 ttl=53 time=13.032 ms
ping_26 | 
ping_26 | --- 216.58.195.238 ping statistics ---
ping_26 | 25 packets transmitted, 25 packets received, 0% packet loss
ping_26 | round-trip min/avg/max = 12.988/13.208/13.616 ms
ping_19 | 64 bytes from 216.58.195.238: seq=23 ttl=53 time=13.062 ms
ping_18 | 64 bytes from 216.58.195.238: seq=22 ttl=53 time=12.996 ms
softwareoverhead_ping_27 exited with code 0
ping_1  | 64 bytes from 216.58.195.238: seq=19 ttl=53 time=13.171 ms
ping_28 | 64 bytes from 216.58.195.238: seq=21 ttl=53 time=13.073 ms
ping_21 | 64 bytes from 216.58.195.238: seq=16 ttl=53 time=13.063 ms
ping_3  | 64 bytes from 216.58.195.238: seq=18 ttl=53 time=13.233 ms
ping_24 | 64 bytes from 216.58.195.238: seq=15 ttl=53 time=13.284 ms
ping_31 | 64 bytes from 216.58.195.238: seq=20 ttl=53 time=13.156 ms
ping_33 | 64 bytes from 216.58.195.238: seq=17 ttl=53 time=13.031 ms
softwareoverhead_ping_26 exited with code 0
ping_4  | 64 bytes from 216.58.195.238: seq=19 ttl=53 time=13.518 ms
ping_22 | 64 bytes from 216.58.195.238: seq=20 ttl=53 time=13.438 ms
ping_23 | 64 bytes from 216.58.195.238: seq=24 ttl=53 time=13.524 ms
ping_23 | 
ping_23 | --- 216.58.195.238 ping statistics ---
ping_23 | 25 packets transmitted, 25 packets received, 0% packet loss
ping_23 | round-trip min/avg/max = 13.037/13.291/13.648 ms
ping_38 | 64 bytes from 216.58.195.238: seq=22 ttl=53 time=13.382 ms
ping_39 | 64 bytes from 216.58.195.238: seq=23 ttl=53 time=13.111 ms
ping_8  | 64 bytes from 216.58.195.238: seq=21 ttl=53 time=13.042 ms
ping_6  | 64 bytes from 216.58.195.238: seq=18 ttl=53 time=13.052 ms
ping_2  | 64 bytes from 216.58.195.238: seq=16 ttl=53 time=13.384 ms
ping_7  | 64 bytes from 216.58.195.238: seq=16 ttl=53 time=13.143 ms
ping_19 | 64 bytes from 216.58.195.238: seq=24 ttl=53 time=13.148 ms
ping_19 | 
ping_19 | --- 216.58.195.238 ping statistics ---
ping_19 | 25 packets transmitted, 25 packets received, 0% packet loss
ping_19 | round-trip min/avg/max = 12.945/13.294/15.165 ms
ping_18 | 64 bytes from 216.58.195.238: seq=23 ttl=53 time=14.203 ms
softwareoverhead_ping_23 exited with code 0
ping_1  | 64 bytes from 216.58.195.238: seq=20 ttl=53 time=12.994 ms
ping_28 | 64 bytes from 216.58.195.238: seq=22 ttl=53 time=12.998 ms
ping_21 | 64 bytes from 216.58.195.238: seq=17 ttl=53 time=12.958 ms
ping_3  | 64 bytes from 216.58.195.238: seq=19 ttl=53 time=13.181 ms
ping_24 | 64 bytes from 216.58.195.238: seq=16 ttl=53 time=13.237 ms
ping_31 | 64 bytes from 216.58.195.238: seq=21 ttl=53 time=13.653 ms
ping_33 | 64 bytes from 216.58.195.238: seq=18 ttl=53 time=13.099 ms
softwareoverhead_ping_19 exited with code 0
ping_4  | 64 bytes from 216.58.195.238: seq=20 ttl=53 time=13.663 ms
ping_22 | 64 bytes from 216.58.195.238: seq=21 ttl=53 time=13.782 ms
ping_38 | 64 bytes from 216.58.195.238: seq=23 ttl=53 time=13.471 ms
ping_39 | 64 bytes from 216.58.195.238: seq=24 ttl=53 time=13.119 ms
ping_39 | 
ping_39 | --- 216.58.195.238 ping statistics ---
ping_39 | 25 packets transmitted, 25 packets received, 0% packet loss
ping_39 | round-trip min/avg/max = 13.015/13.345/13.784 ms
ping_8  | 64 bytes from 216.58.195.238: seq=22 ttl=53 time=13.213 ms
ping_6  | 64 bytes from 216.58.195.238: seq=19 ttl=53 time=13.091 ms
ping_2  | 64 bytes from 216.58.195.238: seq=17 ttl=53 time=13.020 ms
ping_7  | 64 bytes from 216.58.195.238: seq=17 ttl=53 time=13.163 ms
ping_18 | 64 bytes from 216.58.195.238: seq=24 ttl=53 time=13.165 ms
ping_18 | 
ping_18 | --- 216.58.195.238 ping statistics ---
ping_18 | 25 packets transmitted, 25 packets received, 0% packet loss
ping_18 | round-trip min/avg/max = 12.954/13.196/14.203 ms
ping_1  | 64 bytes from 216.58.195.238: seq=21 ttl=53 time=13.041 ms
ping_28 | 64 bytes from 216.58.195.238: seq=23 ttl=53 time=12.963 ms
ping_21 | 64 bytes from 216.58.195.238: seq=18 ttl=53 time=13.348 ms
softwareoverhead_ping_39 exited with code 0
ping_3  | 64 bytes from 216.58.195.238: seq=20 ttl=53 time=13.068 ms
ping_24 | 64 bytes from 216.58.195.238: seq=17 ttl=53 time=13.292 ms
ping_31 | 64 bytes from 216.58.195.238: seq=22 ttl=53 time=13.158 ms
ping_33 | 64 bytes from 216.58.195.238: seq=19 ttl=53 time=13.053 ms
softwareoverhead_ping_18 exited with code 0
ping_4  | 64 bytes from 216.58.195.238: seq=21 ttl=53 time=13.508 ms
ping_22 | 64 bytes from 216.58.195.238: seq=22 ttl=53 time=13.796 ms
ping_38 | 64 bytes from 216.58.195.238: seq=24 ttl=53 time=13.147 ms
ping_38 | 
ping_38 | --- 216.58.195.238 ping statistics ---
ping_38 | 25 packets transmitted, 25 packets received, 0% packet loss
ping_38 | round-trip min/avg/max = 12.998/13.298/13.586 ms
ping_8  | 64 bytes from 216.58.195.238: seq=23 ttl=53 time=13.119 ms
ping_6  | 64 bytes from 216.58.195.238: seq=20 ttl=53 time=13.024 ms
ping_2  | 64 bytes from 216.58.195.238: seq=18 ttl=53 time=12.986 ms
ping_7  | 64 bytes from 216.58.195.238: seq=18 ttl=53 time=13.310 ms
ping_1  | 64 bytes from 216.58.195.238: seq=22 ttl=53 time=13.247 ms
ping_28 | 64 bytes from 216.58.195.238: seq=24 ttl=53 time=13.078 ms
ping_28 | 
ping_28 | --- 216.58.195.238 ping statistics ---
ping_28 | 25 packets transmitted, 25 packets received, 0% packet loss
ping_28 | round-trip min/avg/max = 12.963/13.427/16.173 ms
softwareoverhead_ping_38 exited with code 0
ping_21 | 64 bytes from 216.58.195.238: seq=19 ttl=53 time=13.198 ms
ping_3  | 64 bytes from 216.58.195.238: seq=21 ttl=53 time=13.155 ms
ping_24 | 64 bytes from 216.58.195.238: seq=18 ttl=53 time=13.050 ms
ping_31 | 64 bytes from 216.58.195.238: seq=23 ttl=53 time=13.238 ms
ping_33 | 64 bytes from 216.58.195.238: seq=20 ttl=53 time=13.359 ms
softwareoverhead_ping_28 exited with code 0
ping_4  | 64 bytes from 216.58.195.238: seq=22 ttl=53 time=13.256 ms
ping_22 | 64 bytes from 216.58.195.238: seq=23 ttl=53 time=13.514 ms
ping_8  | 64 bytes from 216.58.195.238: seq=24 ttl=53 time=13.142 ms
ping_8  | 
ping_8  | --- 216.58.195.238 ping statistics ---
ping_8  | 25 packets transmitted, 25 packets received, 0% packet loss
ping_8  | round-trip min/avg/max = 12.999/13.387/14.152 ms
ping_6  | 64 bytes from 216.58.195.238: seq=21 ttl=53 time=13.525 ms
ping_2  | 64 bytes from 216.58.195.238: seq=19 ttl=53 time=13.423 ms
ping_7  | 64 bytes from 216.58.195.238: seq=19 ttl=53 time=13.073 ms
ping_1  | 64 bytes from 216.58.195.238: seq=23 ttl=53 time=13.181 ms
ping_21 | 64 bytes from 216.58.195.238: seq=20 ttl=53 time=13.024 ms
softwareoverhead_ping_8 exited with code 0
ping_3  | 64 bytes from 216.58.195.238: seq=22 ttl=53 time=13.224 ms
ping_24 | 64 bytes from 216.58.195.238: seq=19 ttl=53 time=13.118 ms
ping_31 | 64 bytes from 216.58.195.238: seq=24 ttl=53 time=13.409 ms
ping_31 | 
ping_31 | --- 216.58.195.238 ping statistics ---
ping_31 | 25 packets transmitted, 25 packets received, 0% packet loss
ping_31 | round-trip min/avg/max = 13.048/13.390/13.809 ms
ping_33 | 64 bytes from 216.58.195.238: seq=21 ttl=53 time=13.256 ms
softwareoverhead_ping_31 exited with code 0
ping_4  | 64 bytes from 216.58.195.238: seq=23 ttl=53 time=13.522 ms
ping_22 | 64 bytes from 216.58.195.238: seq=24 ttl=53 time=13.264 ms
ping_22 | 
ping_22 | --- 216.58.195.238 ping statistics ---
ping_22 | 25 packets transmitted, 25 packets received, 0% packet loss
ping_22 | round-trip min/avg/max = 13.019/13.431/13.826 ms
ping_6  | 64 bytes from 216.58.195.238: seq=22 ttl=53 time=13.176 ms
ping_2  | 64 bytes from 216.58.195.238: seq=20 ttl=53 time=13.084 ms
ping_7  | 64 bytes from 216.58.195.238: seq=20 ttl=53 time=13.177 ms
softwareoverhead_ping_22 exited with code 0
ping_1  | 64 bytes from 216.58.195.238: seq=24 ttl=53 time=13.251 ms
ping_1  | 
ping_1  | --- 216.58.195.238 ping statistics ---
ping_1  | 25 packets transmitted, 25 packets received, 0% packet loss
ping_1  | round-trip min/avg/max = 12.979/13.371/14.634 ms
ping_21 | 64 bytes from 216.58.195.238: seq=21 ttl=53 time=13.519 ms
ping_3  | 64 bytes from 216.58.195.238: seq=23 ttl=53 time=13.157 ms
ping_24 | 64 bytes from 216.58.195.238: seq=20 ttl=53 time=13.047 ms
ping_33 | 64 bytes from 216.58.195.238: seq=22 ttl=53 time=13.242 ms
softwareoverhead_ping_1 exited with code 0
ping_4  | 64 bytes from 216.58.195.238: seq=24 ttl=53 time=13.469 ms
ping_4  | 
ping_4  | --- 216.58.195.238 ping statistics ---
ping_4  | 25 packets transmitted, 25 packets received, 0% packet loss
ping_4  | round-trip min/avg/max = 13.032/13.391/13.667 ms
ping_6  | 64 bytes from 216.58.195.238: seq=23 ttl=53 time=13.089 ms
ping_2  | 64 bytes from 216.58.195.238: seq=21 ttl=53 time=13.098 ms
ping_7  | 64 bytes from 216.58.195.238: seq=21 ttl=53 time=13.374 ms
softwareoverhead_ping_4 exited with code 0
ping_21 | 64 bytes from 216.58.195.238: seq=22 ttl=53 time=13.155 ms
ping_3  | 64 bytes from 216.58.195.238: seq=24 ttl=53 time=13.507 ms
ping_3  | 
ping_3  | --- 216.58.195.238 ping statistics ---
ping_3  | 25 packets transmitted, 25 packets received, 0% packet loss
ping_3  | round-trip min/avg/max = 12.964/13.260/13.616 ms
ping_24 | 64 bytes from 216.58.195.238: seq=21 ttl=53 time=13.535 ms
ping_33 | 64 bytes from 216.58.195.238: seq=23 ttl=53 time=13.117 ms
softwareoverhead_ping_3 exited with code 0
ping_6  | 64 bytes from 216.58.195.238: seq=24 ttl=53 time=13.575 ms
ping_6  | 
ping_6  | --- 216.58.195.238 ping statistics ---
ping_6  | 25 packets transmitted, 25 packets received, 0% packet loss
ping_6  | round-trip min/avg/max = 13.003/13.317/13.683 ms
ping_2  | 64 bytes from 216.58.195.238: seq=22 ttl=53 time=13.556 ms
ping_7  | 64 bytes from 216.58.195.238: seq=22 ttl=53 time=13.180 ms
ping_21 | 64 bytes from 216.58.195.238: seq=23 ttl=53 time=13.119 ms
softwareoverhead_ping_6 exited with code 0
ping_24 | 64 bytes from 216.58.195.238: seq=22 ttl=53 time=13.207 ms
ping_33 | 64 bytes from 216.58.195.238: seq=24 ttl=53 time=13.596 ms
ping_33 | 
ping_33 | --- 216.58.195.238 ping statistics ---
ping_33 | 25 packets transmitted, 25 packets received, 0% packet loss
ping_33 | round-trip min/avg/max = 13.018/13.321/13.738 ms
softwareoverhead_ping_33 exited with code 0
ping_2  | 64 bytes from 216.58.195.238: seq=23 ttl=53 time=13.502 ms
ping_7  | 64 bytes from 216.58.195.238: seq=23 ttl=53 time=13.224 ms
ping_21 | 64 bytes from 216.58.195.238: seq=24 ttl=53 time=13.608 ms
ping_21 | 
ping_21 | --- 216.58.195.238 ping statistics ---
ping_21 | 25 packets transmitted, 25 packets received, 0% packet loss
ping_21 | round-trip min/avg/max = 12.958/13.228/13.608 ms
ping_24 | 64 bytes from 216.58.195.238: seq=23 ttl=53 time=13.054 ms
softwareoverhead_ping_21 exited with code 0
ping_2  | 64 bytes from 216.58.195.238: seq=24 ttl=53 time=13.647 ms
ping_2  | 
ping_2  | --- 216.58.195.238 ping statistics ---
ping_2  | 25 packets transmitted, 25 packets received, 0% packet loss
ping_2  | round-trip min/avg/max = 12.986/13.304/13.688 ms
ping_7  | 64 bytes from 216.58.195.238: seq=24 ttl=53 time=13.174 ms
ping_7  | 
ping_7  | --- 216.58.195.238 ping statistics ---
ping_7  | 25 packets transmitted, 25 packets received, 0% packet loss
ping_7  | round-trip min/avg/max = 13.052/13.312/13.704 ms
ping_24 | 64 bytes from 216.58.195.238: seq=24 ttl=53 time=13.231 ms
ping_24 | 
ping_24 | --- 216.58.195.238 ping statistics ---
ping_24 | 25 packets transmitted, 25 packets received, 0% packet loss
ping_24 | round-trip min/avg/max = 13.022/13.329/13.813 ms
softwareoverhead_ping_2 exited with code 0
softwareoverhead_ping_7 exited with code 0
softwareoverhead_ping_24 exited with code 0
