ping_4  | round-trip min/avg/max = 21.430/21.765/22.066 ms
ping_3  | round-trip min/avg/max = 21.382/21.674/21.997 ms
ping_1  | round-trip min/avg/max = 21.349/21.834/24.324 ms
ping_9  | round-trip min/avg/max = 21.381/21.740/23.447 ms
ping_7  | round-trip min/avg/max = 21.400/21.832/23.125 ms
ping_14 | round-trip min/avg/max = 21.330/21.773/24.078 ms
ping_2  | round-trip min/avg/max = 21.403/21.671/21.975 ms
ping_11 | round-trip min/avg/max = 21.407/21.652/22.118 ms
ping_20 | round-trip min/avg/max = 21.378/21.677/22.022 ms
ping_17 | round-trip min/avg/max = 21.369/21.884/25.449 ms
ping_12 | round-trip min/avg/max = 21.434/21.690/22.086 ms
ping_5  | round-trip min/avg/max = 21.315/21.578/21.995 ms
ping_19 | round-trip min/avg/max = 21.434/21.706/22.452 ms
ping_8  | round-trip min/avg/max = 21.375/21.855/24.808 ms
ping_10 | round-trip min/avg/max = 21.358/21.605/21.937 ms
ping_6  | round-trip min/avg/max = 21.421/21.681/24.069 ms
ping_13 | round-trip min/avg/max = 21.382/21.584/21.975 ms
ping_15 | round-trip min/avg/max = 21.370/21.755/24.343 ms
ping_18 | round-trip min/avg/max = 21.362/21.657/22.642 ms
ping_16 | round-trip min/avg/max = 21.363/21.685/22.204 ms
ping_27 | round-trip min/avg/max = 21.305/21.604/22.080 ms
ping_37 | round-trip min/avg/max = 21.367/21.689/21.984 ms
ping_35 | round-trip min/avg/max = 21.435/21.743/22.026 ms
ping_34 | round-trip min/avg/max = 21.377/21.703/22.137 ms
ping_33 | round-trip min/avg/max = 21.339/21.686/21.995 ms
ping_30 | round-trip min/avg/max = 21.427/21.715/22.155 ms
ping_22 | round-trip min/avg/max = 21.374/21.683/22.275 ms
ping_40 | round-trip min/avg/max = 21.350/21.686/21.968 ms
ping_23 | round-trip min/avg/max = 21.330/21.671/22.052 ms
ping_31 | round-trip min/avg/max = 21.445/22.021/25.544 ms
ping_25 | round-trip min/avg/max = 21.360/21.718/22.080 ms
ping_24 | round-trip min/avg/max = 21.377/21.724/22.025 ms
ping_39 | round-trip min/avg/max = 21.359/21.643/22.214 ms
ping_29 | round-trip min/avg/max = 21.400/21.708/22.093 ms
ping_36 | round-trip min/avg/max = 21.371/21.734/22.123 ms
ping_38 | round-trip min/avg/max = 21.402/21.756/23.423 ms
ping_28 | round-trip min/avg/max = 21.355/21.653/22.023 ms
ping_21 | round-trip min/avg/max = 21.413/21.712/22.114 ms
ping_26 | round-trip min/avg/max = 21.354/21.621/22.284 ms
ping_32 | round-trip min/avg/max = 21.403/21.780/22.140 ms
