     1	1233376 
     2	1233376 
     3	1233376 
     4	2080200 
     5	2080200 
     6	2080200 
     7	2097296 
     8	2097296 
     9	2097296 
    10	1900752 
    11	1900752 
    12	1900752 
    13	1713496 
    14	1713496 
    15	1713496 
    16	1462072 
    17	1462072 
    18	1462072 
    19	1728872 
    20	1728872 
    21	2497488 
    22	2497488 
    23	2497488 
    24	1996952 
    25	1996952 
    26	1996952 
    27	1735820 
    28	1735820 
    29	1735820 
    30	1541328 
    31	1541328 
    32	1541328 
    33	1398112 
    34	1398112 
    35	1398112 
    36	1388044 
    37	1388044 
    38	1388044 
    39	1378884 
    40	1378884 
    41	1378884 
    42	1367660 
    43	1367660 
    44	1367660 
    45	1357496 
    46	1357496 
    47	1357496 
    48	1334500 
    49	1334500 
    50	1334500 
    51	1310652 
    52	1310652 
    53	1310652 
    54	1304368 
    55	1304368 
    56	1304368 
