50 packets transmitted, 50 received, 0% packet loss, time 49076ms
50 packets transmitted, 50 received, 0% packet loss, time 49079ms
50 packets transmitted, 50 received, 0% packet loss, time 49077ms
50 packets transmitted, 50 received, 0% packet loss, time 49079ms
50 packets transmitted, 50 received, 0% packet loss, time 49079ms
50 packets transmitted, 50 received, 0% packet loss, time 49079ms
50 packets transmitted, 50 received, 0% packet loss, time 49077ms
50 packets transmitted, 50 received, 0% packet loss, time 49077ms
50 packets transmitted, 50 received, 0% packet loss, time 49077ms
50 packets transmitted, 50 received, 0% packet loss, time 49076ms
50 packets transmitted, 50 received, 0% packet loss, time 49077ms
50 packets transmitted, 50 received, 0% packet loss, time 49077ms
50 packets transmitted, 50 received, 0% packet loss, time 49079ms
50 packets transmitted, 50 received, 0% packet loss, time 49084ms
50 packets transmitted, 50 received, 0% packet loss, time 49084ms
50 packets transmitted, 50 received, 0% packet loss, time 49086ms
50 packets transmitted, 50 received, 0% packet loss, time 49085ms
50 packets transmitted, 50 received, 0% packet loss, time 49085ms
50 packets transmitted, 50 received, 0% packet loss, time 49093ms
50 packets transmitted, 50 received, 0% packet loss, time 49095ms
