top - 23:21:34 up  2:38,  1 user,  load average: 0.00, 0.86, 1.72
Tasks: 295 total,   1 running, 234 sleeping,   0 stopped,   0 zombie
%Cpu(s):  3.5 us,  1.8 sy,  0.0 ni, 94.6 id,  0.1 wa,  0.0 hi,  0.0 si,  0.0 st
KiB Mem : 16278768 total, 11925120 free,  1403088 used,  2950560 buff/cache
KiB Swap: 16630780 total, 16630780 free,        0 used. 14425360 avail Mem 

  PID USER      PR  NI    VIRT    RES    SHR S  %CPU %MEM     TIME+ COMMAND
14656 kenenth   20   0   41908   3784   3128 R  12.5  0.0   0:00.02 top

top - 23:21:35 up  2:38,  1 user,  load average: 0.00, 0.85, 1.71
Tasks: 295 total,   1 running, 234 sleeping,   0 stopped,   0 zombie
%Cpu(s):  0.2 us,  0.2 sy,  0.0 ni, 99.4 id,  0.1 wa,  0.0 hi,  0.0 si,  0.0 st
KiB Mem : 16278768 total, 11925120 free,  1403088 used,  2950560 buff/cache
KiB Swap: 16630780 total, 16630780 free,        0 used. 14425360 avail Mem 

  PID USER      PR  NI    VIRT    RES    SHR S  %CPU %MEM     TIME+ COMMAND
14656 kenenth   20   0   41908   3784   3128 R   1.9  0.0   0:00.04 top
 1780 root      20   0  433932  94760  61668 S   1.0  0.6   1:51.08 Xorg
 1781 root     -51   0       0      0      0 S   1.0  0.0   0:13.45 irq/135-nv+
 1985 kenenth   20   0 3540348 243700  96104 S   1.0  1.5   5:08.99 gnome-shell

top - 23:21:36 up  2:38,  1 user,  load average: 0.00, 0.85, 1.71
Tasks: 295 total,   1 running, 234 sleeping,   0 stopped,   0 zombie
%Cpu(s):  0.1 us,  0.1 sy,  0.0 ni, 99.8 id,  0.0 wa,  0.0 hi,  0.0 si,  0.0 st
KiB Mem : 16278768 total, 11925120 free,  1403088 used,  2950560 buff/cache
KiB Swap: 16630780 total, 16630780 free,        0 used. 14425360 avail Mem 

  PID USER      PR  NI    VIRT    RES    SHR S  %CPU %MEM     TIME+ COMMAND
 1780 root      20   0  433932  94760  61668 S   1.0  0.6   1:51.09 Xorg
14656 kenenth   20   0   41908   3784   3128 R   1.0  0.0   0:00.05 top
22835 kenenth   20   0  794668  37412  28120 S   1.0  0.2   0:02.94 gnome-term+

top - 23:21:37 up  2:38,  1 user,  load average: 0.00, 0.85, 1.71
Tasks: 295 total,   1 running, 234 sleeping,   0 stopped,   0 zombie
%Cpu(s):  0.2 us,  0.2 sy,  0.0 ni, 99.5 id,  0.0 wa,  0.0 hi,  0.0 si,  0.0 st
KiB Mem : 16278768 total, 11925036 free,  1403164 used,  2950568 buff/cache
KiB Swap: 16630780 total, 16630780 free,        0 used. 14425280 avail Mem 

  PID USER      PR  NI    VIRT    RES    SHR S  %CPU %MEM     TIME+ COMMAND
 1985 kenenth   20   0 3540348 243700  96104 S   2.0  1.5   5:09.01 gnome-shell
14656 kenenth   20   0   41908   3784   3128 R   2.0  0.0   0:00.07 top

top - 23:21:38 up  2:38,  1 user,  load average: 0.00, 0.85, 1.71
Tasks: 295 total,   1 running, 234 sleeping,   0 stopped,   0 zombie
%Cpu(s):  0.0 us,  0.1 sy,  0.0 ni, 99.9 id,  0.0 wa,  0.0 hi,  0.0 si,  0.0 st
KiB Mem : 16278768 total, 11925036 free,  1403164 used,  2950568 buff/cache
KiB Swap: 16630780 total, 16630780 free,        0 used. 14425280 avail Mem 

  PID USER      PR  NI    VIRT    RES    SHR S  %CPU %MEM     TIME+ COMMAND
 1129 root      20   0 5005772  38064  25972 S   1.0  0.2   0:45.08 containerd
 1780 root      20   0  433932  94760  61668 S   1.0  0.6   1:51.10 Xorg
 2140 kenenth   20   0  357956   7816   6556 S   1.0  0.0   1:43.74 gsd-housek+
14656 kenenth   20   0   41908   3784   3128 R   1.0  0.0   0:00.08 top

top - 23:21:39 up  2:38,  1 user,  load average: 0.00, 0.85, 1.71
Tasks: 295 total,   1 running, 234 sleeping,   0 stopped,   0 zombie
%Cpu(s):  0.1 us,  0.2 sy,  0.0 ni, 99.6 id,  0.0 wa,  0.0 hi,  0.0 si,  0.0 st
KiB Mem : 16278768 total, 11925036 free,  1403164 used,  2950568 buff/cache
KiB Swap: 16630780 total, 16630780 free,        0 used. 14425280 avail Mem 

  PID USER      PR  NI    VIRT    RES    SHR S  %CPU %MEM     TIME+ COMMAND
14656 kenenth   20   0   41908   3784   3128 R   2.0  0.0   0:00.10 top
  995 avahi     20   0   48332   4912   3344 S   1.0  0.0   0:11.39 avahi-daem+
 1534 gdm       20   0  816144  32524  24488 S   1.0  0.2   0:00.28 gsd-power
 1781 root     -51   0       0      0      0 S   1.0  0.0   0:13.46 irq/135-nv+
 1985 kenenth   20   0 3540348 243700  96104 S   1.0  1.5   5:09.02 gnome-shell

top - 23:21:40 up  2:38,  1 user,  load average: 0.00, 0.83, 1.70
Tasks: 295 total,   1 running, 234 sleeping,   0 stopped,   0 zombie
%Cpu(s):  0.1 us,  0.4 sy,  0.0 ni, 99.5 id,  0.0 wa,  0.0 hi,  0.0 si,  0.0 st
KiB Mem : 16278768 total, 11924972 free,  1403220 used,  2950576 buff/cache
KiB Swap: 16630780 total, 16630780 free,        0 used. 14425216 avail Mem 

  PID USER      PR  NI    VIRT    RES    SHR S  %CPU %MEM     TIME+ COMMAND
 1780 root      20   0  433932  94760  61668 S   1.0  0.6   1:51.11 Xorg
14656 kenenth   20   0   41908   3784   3128 R   1.0  0.0   0:00.11 top
22835 kenenth   20   0  794668  37412  28120 S   1.0  0.2   0:02.95 gnome-term+

top - 23:21:41 up  2:38,  1 user,  load average: 0.00, 0.83, 1.70
Tasks: 295 total,   1 running, 234 sleeping,   0 stopped,   0 zombie
%Cpu(s):  0.2 us,  0.2 sy,  0.0 ni, 99.5 id,  0.0 wa,  0.0 hi,  0.0 si,  0.0 st
KiB Mem : 16278768 total, 11924972 free,  1403220 used,  2950576 buff/cache
KiB Swap: 16630780 total, 16630780 free,        0 used. 14425216 avail Mem 

  PID USER      PR  NI    VIRT    RES    SHR S  %CPU %MEM     TIME+ COMMAND
 1780 root      20   0  433932  94760  61668 S   1.0  0.6   1:51.12 Xorg
 1985 kenenth   20   0 3540348 243700  96104 S   1.0  1.5   5:09.03 gnome-shell
 2332 root      20   0 6056052 105464  39168 S   1.0  0.6   2:35.65 dockerd
14656 kenenth   20   0   41908   3784   3128 R   1.0  0.0   0:00.12 top

top - 23:21:42 up  2:38,  1 user,  load average: 0.00, 0.83, 1.70
Tasks: 295 total,   1 running, 234 sleeping,   0 stopped,   0 zombie
%Cpu(s):  0.1 us,  0.1 sy,  0.0 ni, 99.8 id,  0.0 wa,  0.0 hi,  0.0 si,  0.0 st
KiB Mem : 16278768 total, 11924972 free,  1403220 used,  2950576 buff/cache
KiB Swap: 16630780 total, 16630780 free,        0 used. 14425216 avail Mem 

  PID USER      PR  NI    VIRT    RES    SHR S  %CPU %MEM     TIME+ COMMAND
 1985 kenenth   20   0 3540348 243700  96104 S   1.0  1.5   5:09.04 gnome-shell
14656 kenenth   20   0   41908   3784   3128 R   1.0  0.0   0:00.13 top

top - 23:21:43 up  2:38,  1 user,  load average: 0.00, 0.83, 1.70
Tasks: 295 total,   1 running, 234 sleeping,   0 stopped,   0 zombie
%Cpu(s):  0.4 us,  0.1 sy,  0.0 ni, 99.5 id,  0.0 wa,  0.0 hi,  0.0 si,  0.0 st
KiB Mem : 16278768 total, 11924964 free,  1403224 used,  2950580 buff/cache
KiB Swap: 16630780 total, 16630780 free,        0 used. 14425212 avail Mem 

  PID USER      PR  NI    VIRT    RES    SHR S  %CPU %MEM     TIME+ COMMAND
 1780 root      20   0  433932  94760  61668 S   1.0  0.6   1:51.13 Xorg
 1781 root     -51   0       0      0      0 S   1.0  0.0   0:13.47 irq/135-nv+
14656 kenenth   20   0   41908   3784   3128 R   1.0  0.0   0:00.14 top

top - 23:21:44 up  2:38,  1 user,  load average: 0.00, 0.83, 1.70
Tasks: 295 total,   1 running, 234 sleeping,   0 stopped,   0 zombie
%Cpu(s):  0.1 us,  0.2 sy,  0.0 ni, 99.6 id,  0.0 wa,  0.0 hi,  0.0 si,  0.0 st
KiB Mem : 16278768 total, 11924964 free,  1403224 used,  2950580 buff/cache
KiB Swap: 16630780 total, 16630780 free,        0 used. 14425212 avail Mem 

  PID USER      PR  NI    VIRT    RES    SHR S  %CPU %MEM     TIME+ COMMAND
 1331 root      20   0  315344   8564   7280 S   1.0  0.1   0:00.46 upowerd
 1985 kenenth   20   0 3540348 243700  96104 S   1.0  1.5   5:09.05 gnome-shell
14656 kenenth   20   0   41908   3784   3128 R   1.0  0.0   0:00.15 top

top - 23:21:45 up  2:38,  1 user,  load average: 0.00, 0.82, 1.69
Tasks: 295 total,   1 running, 234 sleeping,   0 stopped,   0 zombie
%Cpu(s):  0.1 us,  0.4 sy,  0.0 ni, 99.5 id,  0.0 wa,  0.0 hi,  0.0 si,  0.0 st
KiB Mem : 16278768 total, 11924964 free,  1403224 used,  2950580 buff/cache
KiB Swap: 16630780 total, 16630780 free,        0 used. 14425212 avail Mem 

  PID USER      PR  NI    VIRT    RES    SHR S  %CPU %MEM     TIME+ COMMAND
 1780 root      20   0  433932  94760  61668 S   2.0  0.6   1:51.15 Xorg
14656 kenenth   20   0   41908   3784   3128 R   2.0  0.0   0:00.17 top
 1129 root      20   0 5005772  38064  25972 S   1.0  0.2   0:45.09 containerd

top - 23:21:46 up  2:38,  1 user,  load average: 0.00, 0.82, 1.69
Tasks: 295 total,   1 running, 234 sleeping,   0 stopped,   0 zombie
%Cpu(s):  0.0 us,  0.2 sy,  0.0 ni, 99.8 id,  0.0 wa,  0.0 hi,  0.0 si,  0.0 st
KiB Mem : 16278768 total, 11924940 free,  1403240 used,  2950588 buff/cache
KiB Swap: 16630780 total, 16630780 free,        0 used. 14425192 avail Mem 

  PID USER      PR  NI    VIRT    RES    SHR S  %CPU %MEM     TIME+ COMMAND
 1129 root      20   0 5005772  38064  25972 S   1.0  0.2   0:45.10 containerd
14656 kenenth   20   0   41908   3784   3128 R   1.0  0.0   0:00.18 top

top - 23:21:48 up  2:38,  1 user,  load average: 0.00, 0.82, 1.69
Tasks: 295 total,   2 running, 234 sleeping,   0 stopped,   0 zombie
%Cpu(s):  0.2 us,  0.4 sy,  0.0 ni, 99.4 id,  0.0 wa,  0.0 hi,  0.0 si,  0.0 st
KiB Mem : 16278768 total, 11924940 free,  1403240 used,  2950588 buff/cache
KiB Swap: 16630780 total, 16630780 free,        0 used. 14425192 avail Mem 

  PID USER      PR  NI    VIRT    RES    SHR S  %CPU %MEM     TIME+ COMMAND
14656 kenenth   20   0   41908   3784   3128 R   1.0  0.0   0:00.19 top

top - 23:21:49 up  2:38,  1 user,  load average: 0.00, 0.82, 1.69
Tasks: 295 total,   1 running, 234 sleeping,   0 stopped,   0 zombie
%Cpu(s):  0.0 us,  0.4 sy,  0.0 ni, 99.6 id,  0.0 wa,  0.0 hi,  0.0 si,  0.0 st
KiB Mem : 16278768 total, 11924908 free,  1403268 used,  2950592 buff/cache
KiB Swap: 16630780 total, 16630780 free,        0 used. 14425160 avail Mem 

  PID USER      PR  NI    VIRT    RES    SHR S  %CPU %MEM     TIME+ COMMAND
 1985 kenenth   20   0 3540348 243700  96104 S   1.0  1.5   5:09.06 gnome-shell
14656 kenenth   20   0   41908   3784   3128 R   1.0  0.0   0:00.20 top

top - 23:21:50 up  2:38,  1 user,  load average: 0.00, 0.82, 1.69
Tasks: 295 total,   1 running, 234 sleeping,   0 stopped,   0 zombie
%Cpu(s):  0.1 us,  0.1 sy,  0.0 ni, 99.8 id,  0.0 wa,  0.0 hi,  0.0 si,  0.0 st
KiB Mem : 16278768 total, 11924908 free,  1403268 used,  2950592 buff/cache
KiB Swap: 16630780 total, 16630780 free,        0 used. 14425160 avail Mem 

  PID USER      PR  NI    VIRT    RES    SHR S  %CPU %MEM     TIME+ COMMAND
14656 kenenth   20   0   41908   3784   3128 R   2.0  0.0   0:00.22 top
 1780 root      20   0  433932  94760  61668 S   1.0  0.6   1:51.16 Xorg
 3811 kenenth   20   0  584640  24888  20028 S   1.0  0.2   0:00.31 update-not+

top - 23:21:51 up  2:38,  1 user,  load average: 0.00, 0.80, 1.69
Tasks: 295 total,   1 running, 234 sleeping,   0 stopped,   0 zombie
%Cpu(s):  0.1 us,  0.1 sy,  0.0 ni, 99.8 id,  0.0 wa,  0.0 hi,  0.0 si,  0.0 st
KiB Mem : 16278768 total, 11924908 free,  1403268 used,  2950592 buff/cache
KiB Swap: 16630780 total, 16630780 free,        0 used. 14425160 avail Mem 

  PID USER      PR  NI    VIRT    RES    SHR S  %CPU %MEM     TIME+ COMMAND
14656 kenenth   20   0   41908   3784   3128 R   2.0  0.0   0:00.24 top

top - 23:21:52 up  2:38,  1 user,  load average: 0.00, 0.80, 1.69
Tasks: 295 total,   1 running, 234 sleeping,   0 stopped,   0 zombie
%Cpu(s):  0.0 us,  0.1 sy,  0.0 ni, 99.8 id,  0.0 wa,  0.0 hi,  0.1 si,  0.0 st
KiB Mem : 16278768 total, 11924808 free,  1403364 used,  2950596 buff/cache
KiB Swap: 16630780 total, 16630780 free,        0 used. 14425060 avail Mem 

  PID USER      PR  NI    VIRT    RES    SHR S  %CPU %MEM     TIME+ COMMAND
 1780 root      20   0  433932  94760  61668 S   1.0  0.6   1:51.17 Xorg

top - 23:21:53 up  2:38,  1 user,  load average: 0.00, 0.80, 1.69
Tasks: 295 total,   1 running, 234 sleeping,   0 stopped,   0 zombie
%Cpu(s):  0.1 us,  0.2 sy,  0.0 ni, 99.6 id,  0.0 wa,  0.0 hi,  0.0 si,  0.0 st
KiB Mem : 16278768 total, 11924808 free,  1403364 used,  2950596 buff/cache
KiB Swap: 16630780 total, 16630780 free,        0 used. 14425060 avail Mem 

  PID USER      PR  NI    VIRT    RES    SHR S  %CPU %MEM     TIME+ COMMAND
 1780 root      20   0  433932  94760  61668 S   1.0  0.6   1:51.18 Xorg
14656 kenenth   20   0   41908   3784   3128 R   1.0  0.0   0:00.25 top

top - 23:21:54 up  2:38,  1 user,  load average: 0.00, 0.80, 1.69
Tasks: 295 total,   1 running, 234 sleeping,   0 stopped,   0 zombie
%Cpu(s):  0.2 us,  0.2 sy,  0.0 ni, 99.5 id,  0.0 wa,  0.0 hi,  0.0 si,  0.0 st
KiB Mem : 16278768 total, 11924808 free,  1403364 used,  2950596 buff/cache
KiB Swap: 16630780 total, 16630780 free,        0 used. 14425060 avail Mem 

  PID USER      PR  NI    VIRT    RES    SHR S  %CPU %MEM     TIME+ COMMAND
14656 kenenth   20   0   41908   3784   3128 R   2.0  0.0   0:00.27 top
  972 root      20   0  565028  23704  13716 S   1.0  0.1   1:13.27 NetworkMan+
 1129 root      20   0 5005772  38064  25972 S   1.0  0.2   0:45.11 containerd

top - 23:21:55 up  2:38,  1 user,  load average: 0.00, 0.80, 1.69
Tasks: 295 total,   1 running, 234 sleeping,   0 stopped,   0 zombie
%Cpu(s):  0.1 us,  0.2 sy,  0.0 ni, 99.5 id,  0.1 wa,  0.0 hi,  0.0 si,  0.0 st
KiB Mem : 16278768 total, 11924752 free,  1403412 used,  2950604 buff/cache
KiB Swap: 16630780 total, 16630780 free,        0 used. 14425032 avail Mem 

  PID USER      PR  NI    VIRT    RES    SHR S  %CPU %MEM     TIME+ COMMAND
14656 kenenth   20   0   41908   3784   3128 R   2.0  0.0   0:00.29 top
 1780 root      20   0  433932  94760  61668 S   1.0  0.6   1:51.19 Xorg

top - 23:21:56 up  2:38,  1 user,  load average: 0.00, 0.79, 1.68
Tasks: 295 total,   1 running, 234 sleeping,   0 stopped,   0 zombie
%Cpu(s):  0.1 us,  0.0 sy,  0.0 ni, 99.9 id,  0.0 wa,  0.0 hi,  0.0 si,  0.0 st
KiB Mem : 16278768 total, 11924752 free,  1403412 used,  2950604 buff/cache
KiB Swap: 16630780 total, 16630780 free,        0 used. 14425032 avail Mem 

  PID USER      PR  NI    VIRT    RES    SHR S  %CPU %MEM     TIME+ COMMAND
    8 root      20   0       0      0      0 I   1.0  0.0   0:06.00 rcu_sched

top - 23:21:57 up  2:38,  1 user,  load average: 0.00, 0.79, 1.68
Tasks: 295 total,   1 running, 234 sleeping,   0 stopped,   0 zombie
%Cpu(s):  0.1 us,  0.2 sy,  0.0 ni, 99.6 id,  0.0 wa,  0.0 hi,  0.0 si,  0.0 st
KiB Mem : 16278768 total, 11924752 free,  1403412 used,  2950604 buff/cache
KiB Swap: 16630780 total, 16630780 free,        0 used. 14425032 avail Mem 

  PID USER      PR  NI    VIRT    RES    SHR S  %CPU %MEM     TIME+ COMMAND
14656 kenenth   20   0   41908   3784   3128 R   2.0  0.0   0:00.31 top

top - 23:21:58 up  2:38,  1 user,  load average: 0.00, 0.79, 1.68
Tasks: 295 total,   1 running, 234 sleeping,   0 stopped,   0 zombie
%Cpu(s):  0.1 us,  0.1 sy,  0.0 ni, 99.8 id,  0.0 wa,  0.0 hi,  0.0 si,  0.0 st
KiB Mem : 16278768 total, 11924752 free,  1403408 used,  2950608 buff/cache
KiB Swap: 16630780 total, 16630780 free,        0 used. 14425032 avail Mem 

  PID USER      PR  NI    VIRT    RES    SHR S  %CPU %MEM     TIME+ COMMAND
 1780 root      20   0  433932  94760  61668 S   1.0  0.6   1:51.20 Xorg
14656 kenenth   20   0   41908   3784   3128 R   1.0  0.0   0:00.32 top

top - 23:21:59 up  2:38,  1 user,  load average: 0.00, 0.79, 1.68
Tasks: 295 total,   1 running, 234 sleeping,   0 stopped,   0 zombie
%Cpu(s):  0.0 us,  0.2 sy,  0.0 ni, 99.8 id,  0.0 wa,  0.0 hi,  0.0 si,  0.0 st
KiB Mem : 16278768 total, 11924752 free,  1403408 used,  2950608 buff/cache
KiB Swap: 16630780 total, 16630780 free,        0 used. 14425032 avail Mem 

  PID USER      PR  NI    VIRT    RES    SHR S  %CPU %MEM     TIME+ COMMAND
 1780 root      20   0  433932  94760  61668 S   1.0  0.6   1:51.21 Xorg
14656 kenenth   20   0   41908   3784   3128 R   1.0  0.0   0:00.33 top

top - 23:22:00 up  2:38,  1 user,  load average: 0.00, 0.79, 1.68
Tasks: 295 total,   1 running, 234 sleeping,   0 stopped,   0 zombie
%Cpu(s):  0.1 us,  0.6 sy,  0.0 ni, 99.3 id,  0.0 wa,  0.0 hi,  0.0 si,  0.0 st
KiB Mem : 16278768 total, 11924752 free,  1403408 used,  2950608 buff/cache
KiB Swap: 16630780 total, 16630780 free,        0 used. 14425032 avail Mem 

  PID USER      PR  NI    VIRT    RES    SHR S  %CPU %MEM     TIME+ COMMAND
 1781 root     -51   0       0      0      0 S   1.0  0.0   0:13.48 irq/135-nv+
 1985 kenenth   20   0 3540348 243700  96104 S   1.0  1.5   5:09.07 gnome-shell
14656 kenenth   20   0   41908   3784   3128 R   1.0  0.0   0:00.34 top

top - 23:22:01 up  2:38,  1 user,  load average: 0.00, 0.78, 1.67
Tasks: 295 total,   1 running, 234 sleeping,   0 stopped,   0 zombie
%Cpu(s):  0.1 us,  0.0 sy,  0.0 ni, 99.9 id,  0.0 wa,  0.0 hi,  0.0 si,  0.0 st
KiB Mem : 16278768 total, 11924720 free,  1403428 used,  2950620 buff/cache
KiB Swap: 16630780 total, 16630780 free,        0 used. 14425000 avail Mem 

  PID USER      PR  NI    VIRT    RES    SHR S  %CPU %MEM     TIME+ COMMAND
14656 kenenth   20   0   41908   3784   3128 R   1.0  0.0   0:00.35 top

top - 23:22:02 up  2:38,  1 user,  load average: 0.00, 0.78, 1.67
Tasks: 295 total,   1 running, 234 sleeping,   0 stopped,   0 zombie
%Cpu(s):  0.1 us,  0.2 sy,  0.0 ni, 99.6 id,  0.0 wa,  0.0 hi,  0.0 si,  0.0 st
KiB Mem : 16278768 total, 11924720 free,  1403428 used,  2950620 buff/cache
KiB Swap: 16630780 total, 16630780 free,        0 used. 14425000 avail Mem 

  PID USER      PR  NI    VIRT    RES    SHR S  %CPU %MEM     TIME+ COMMAND
 1780 root      20   0  433932  94760  61668 S   1.0  0.6   1:51.22 Xorg
14656 kenenth   20   0   41908   3784   3128 R   1.0  0.0   0:00.36 top

top - 23:22:03 up  2:38,  1 user,  load average: 0.00, 0.78, 1.67
Tasks: 295 total,   1 running, 234 sleeping,   0 stopped,   0 zombie
%Cpu(s):  0.0 us,  0.2 sy,  0.0 ni, 99.8 id,  0.0 wa,  0.0 hi,  0.0 si,  0.0 st
KiB Mem : 16278768 total, 11924720 free,  1403428 used,  2950620 buff/cache
KiB Swap: 16630780 total, 16630780 free,        0 used. 14425000 avail Mem 

  PID USER      PR  NI    VIRT    RES    SHR S  %CPU %MEM     TIME+ COMMAND
  995 avahi     20   0   48332   4912   3344 S   1.0  0.0   0:11.40 avahi-daem+
14656 kenenth   20   0   41908   3784   3128 R   1.0  0.0   0:00.37 top

top - 23:22:04 up  2:38,  1 user,  load average: 0.00, 0.78, 1.67
Tasks: 295 total,   1 running, 234 sleeping,   0 stopped,   0 zombie
%Cpu(s):  0.0 us,  0.1 sy,  0.0 ni, 99.9 id,  0.0 wa,  0.0 hi,  0.0 si,  0.0 st
KiB Mem : 16278768 total, 11924712 free,  1403428 used,  2950628 buff/cache
KiB Swap: 16630780 total, 16630780 free,        0 used. 14424992 avail Mem 

  PID USER      PR  NI    VIRT    RES    SHR S  %CPU %MEM     TIME+ COMMAND
 1514 gdm       20   0  803904  30996  23380 S   1.0  0.2   0:01.13 gsd-color
14656 kenenth   20   0   41908   3784   3128 R   1.0  0.0   0:00.38 top

top - 23:22:05 up  2:38,  1 user,  load average: 0.00, 0.78, 1.67
Tasks: 295 total,   1 running, 234 sleeping,   0 stopped,   0 zombie
%Cpu(s):  0.2 us,  0.0 sy,  0.0 ni, 99.8 id,  0.0 wa,  0.0 hi,  0.0 si,  0.0 st
KiB Mem : 16278768 total, 11924712 free,  1403428 used,  2950628 buff/cache
KiB Swap: 16630780 total, 16630780 free,        0 used. 14424992 avail Mem 

  PID USER      PR  NI    VIRT    RES    SHR S  %CPU %MEM     TIME+ COMMAND
14656 kenenth   20   0   41908   3784   3128 R   2.0  0.0   0:00.40 top
 1129 root      20   0 5005772  38064  25972 S   1.0  0.2   0:45.12 containerd
 1780 root      20   0  433932  94760  61668 S   1.0  0.6   1:51.23 Xorg

top - 23:22:06 up  2:38,  1 user,  load average: 0.00, 0.76, 1.66
Tasks: 295 total,   1 running, 234 sleeping,   0 stopped,   0 zombie
%Cpu(s):  0.2 us,  0.4 sy,  0.0 ni, 99.4 id,  0.0 wa,  0.0 hi,  0.0 si,  0.0 st
KiB Mem : 16278768 total, 11924712 free,  1403428 used,  2950628 buff/cache
KiB Swap: 16630780 total, 16630780 free,        0 used. 14424992 avail Mem 

  PID USER      PR  NI    VIRT    RES    SHR S  %CPU %MEM     TIME+ COMMAND
 1780 root      20   0  433932  94760  61668 S   1.0  0.6   1:51.24 Xorg
14656 kenenth   20   0   41908   3784   3128 R   1.0  0.0   0:00.41 top

top - 23:22:07 up  2:38,  1 user,  load average: 0.00, 0.76, 1.66
Tasks: 295 total,   1 running, 234 sleeping,   0 stopped,   0 zombie
%Cpu(s):  0.1 us,  0.1 sy,  0.0 ni, 99.6 id,  0.1 wa,  0.0 hi,  0.0 si,  0.0 st
KiB Mem : 16278768 total, 11924656 free,  1403476 used,  2950636 buff/cache
KiB Swap: 16630780 total, 16630780 free,        0 used. 14424952 avail Mem 

  PID USER      PR  NI    VIRT    RES    SHR S  %CPU %MEM     TIME+ COMMAND
  945 root      20   0  269688   5956   5196 S   1.0  0.0   0:01.70 iio-sensor+
14656 kenenth   20   0   41908   3784   3128 R   1.0  0.0   0:00.42 top
14661 kenenth   20   0   29024   2864   2620 S   1.0  0.0   0:00.01 ping
14663 kenenth   20   0   29024   2928   2684 S   1.0  0.0   0:00.01 ping

top - 23:22:08 up  2:38,  1 user,  load average: 0.00, 0.76, 1.66
Tasks: 295 total,   1 running, 234 sleeping,   0 stopped,   0 zombie
%Cpu(s):  0.0 us,  0.2 sy,  0.0 ni, 99.8 id,  0.0 wa,  0.0 hi,  0.0 si,  0.0 st
KiB Mem : 16278768 total, 11924656 free,  1403476 used,  2950636 buff/cache
KiB Swap: 16630780 total, 16630780 free,        0 used. 14424952 avail Mem 

  PID USER      PR  NI    VIRT    RES    SHR S  %CPU %MEM     TIME+ COMMAND
 1129 root      20   0 5005772  38064  25972 S   1.0  0.2   0:45.13 containerd
14656 kenenth   20   0   41908   3784   3128 R   1.0  0.0   0:00.43 top
14662 kenenth   20   0   29024   2944   2700 S   1.0  0.0   0:00.01 ping

top - 23:22:09 up  2:38,  1 user,  load average: 0.00, 0.76, 1.66
Tasks: 295 total,   1 running, 234 sleeping,   0 stopped,   0 zombie
%Cpu(s):  0.2 us,  0.1 sy,  0.0 ni, 99.6 id,  0.0 wa,  0.0 hi,  0.0 si,  0.0 st
KiB Mem : 16278768 total, 11924656 free,  1403476 used,  2950636 buff/cache
KiB Swap: 16630780 total, 16630780 free,        0 used. 14424952 avail Mem 

  PID USER      PR  NI    VIRT    RES    SHR S  %CPU %MEM     TIME+ COMMAND
 1985 kenenth   20   0 3540348 243700  96104 S   2.0  1.5   5:09.09 gnome-shell
14656 kenenth   20   0   41908   3784   3128 R   2.0  0.0   0:00.45 top
 1780 root      20   0  433932  94760  61668 S   1.0  0.6   1:51.25 Xorg

top - 23:22:10 up  2:38,  1 user,  load average: 0.00, 0.76, 1.66
Tasks: 295 total,   2 running, 233 sleeping,   0 stopped,   0 zombie
%Cpu(s):  0.4 us,  0.1 sy,  0.0 ni, 99.5 id,  0.0 wa,  0.0 hi,  0.0 si,  0.0 st
KiB Mem : 16278768 total, 11924648 free,  1403476 used,  2950644 buff/cache
KiB Swap: 16630780 total, 16630780 free,        0 used. 14424944 avail Mem 

  PID USER      PR  NI    VIRT    RES    SHR S  %CPU %MEM     TIME+ COMMAND
  972 root      20   0  565028  23704  13716 S   1.0  0.1   1:13.28 NetworkMan+
 1302 gdm       20   0 3332456 122260  66292 R   1.0  0.8   1:46.05 gnome-shell
14656 kenenth   20   0   41908   3784   3128 R   1.0  0.0   0:00.46 top
14666 kenenth   20   0   29024   2960   2720 S   1.0  0.0   0:00.01 ping
14669 kenenth   20   0   29024   2996   2752 S   1.0  0.0   0:00.01 ping

top - 23:22:11 up  2:38,  1 user,  load average: 0.00, 0.75, 1.65
Tasks: 295 total,   1 running, 234 sleeping,   0 stopped,   0 zombie
%Cpu(s):  0.0 us,  0.4 sy,  0.0 ni, 99.6 id,  0.0 wa,  0.0 hi,  0.0 si,  0.0 st
KiB Mem : 16278768 total, 11924648 free,  1403476 used,  2950644 buff/cache
KiB Swap: 16630780 total, 16630780 free,        0 used. 14424944 avail Mem 

  PID USER      PR  NI    VIRT    RES    SHR S  %CPU %MEM     TIME+ COMMAND
14656 kenenth   20   0   41908   3784   3128 R   2.0  0.0   0:00.48 top
 1302 gdm       20   0 3332456 122260  66292 S   1.0  0.8   1:46.06 gnome-shell

top - 23:22:12 up  2:38,  1 user,  load average: 0.00, 0.75, 1.65
Tasks: 295 total,   1 running, 234 sleeping,   0 stopped,   0 zombie
%Cpu(s):  0.1 us,  0.2 sy,  0.0 ni, 99.5 id,  0.0 wa,  0.0 hi,  0.1 si,  0.0 st
KiB Mem : 16278768 total, 11924648 free,  1403476 used,  2950644 buff/cache
KiB Swap: 16630780 total, 16630780 free,        0 used. 14424944 avail Mem 

  PID USER      PR  NI    VIRT    RES    SHR S  %CPU %MEM     TIME+ COMMAND
 1780 root      20   0  433932  94760  61668 S   1.0  0.6   1:51.26 Xorg

top - 23:22:13 up  2:38,  1 user,  load average: 0.00, 0.75, 1.65
Tasks: 295 total,   1 running, 234 sleeping,   0 stopped,   0 zombie
%Cpu(s):  0.0 us,  0.1 sy,  0.0 ni, 99.9 id,  0.0 wa,  0.0 hi,  0.0 si,  0.0 st
KiB Mem : 16278768 total, 11924616 free,  1403504 used,  2950648 buff/cache
KiB Swap: 16630780 total, 16630780 free,        0 used. 14424912 avail Mem 

  PID USER      PR  NI    VIRT    RES    SHR S  %CPU %MEM     TIME+ COMMAND
14656 kenenth   20   0   41908   3784   3128 R   1.0  0.0   0:00.49 top
14659 kenenth   20   0   29024   2960   2716 S   1.0  0.0   0:00.01 ping

top - 23:22:14 up  2:38,  1 user,  load average: 0.00, 0.75, 1.65
Tasks: 295 total,   1 running, 234 sleeping,   0 stopped,   0 zombie
%Cpu(s):  0.1 us,  0.1 sy,  0.0 ni, 99.8 id,  0.0 wa,  0.0 hi,  0.0 si,  0.0 st
KiB Mem : 16278768 total, 11924616 free,  1403504 used,  2950648 buff/cache
KiB Swap: 16630780 total, 16630780 free,        0 used. 14424912 avail Mem 

  PID USER      PR  NI    VIRT    RES    SHR S  %CPU %MEM     TIME+ COMMAND
 1780 root      20   0  433932  94760  61668 S   1.0  0.6   1:51.27 Xorg
 3813 kenenth   20   0 1262992 180124  38656 S   1.0  1.1   0:16.25 gnome-soft+
14656 kenenth   20   0   41908   3784   3128 R   1.0  0.0   0:00.50 top

top - 23:22:15 up  2:38,  1 user,  load average: 0.00, 0.75, 1.65
Tasks: 295 total,   1 running, 234 sleeping,   0 stopped,   0 zombie
%Cpu(s):  0.0 us,  0.1 sy,  0.0 ni, 99.9 id,  0.0 wa,  0.0 hi,  0.0 si,  0.0 st
KiB Mem : 16278768 total, 11924616 free,  1403504 used,  2950648 buff/cache
KiB Swap: 16630780 total, 16630780 free,        0 used. 14424912 avail Mem 

  PID USER      PR  NI    VIRT    RES    SHR S  %CPU %MEM     TIME+ COMMAND
14656 kenenth   20   0   41908   3784   3128 R   2.0  0.0   0:00.52 top

top - 23:22:16 up  2:38,  1 user,  load average: 0.08, 0.76, 1.64
Tasks: 295 total,   1 running, 234 sleeping,   0 stopped,   0 zombie
%Cpu(s):  0.1 us,  0.1 sy,  0.0 ni, 99.8 id,  0.0 wa,  0.0 hi,  0.0 si,  0.0 st
KiB Mem : 16278768 total, 11924640 free,  1403472 used,  2950656 buff/cache
KiB Swap: 16630780 total, 16630780 free,        0 used. 14424936 avail Mem 

  PID USER      PR  NI    VIRT    RES    SHR S  %CPU %MEM     TIME+ COMMAND
  980 root      20   0  179856   9644   8836 S   1.0  0.1   0:06.44 thermald
14656 kenenth   20   0   41908   3784   3128 R   1.0  0.0   0:00.53 top

top - 23:22:17 up  2:38,  1 user,  load average: 0.08, 0.76, 1.64
Tasks: 295 total,   1 running, 234 sleeping,   0 stopped,   0 zombie
%Cpu(s):  0.0 us,  0.1 sy,  0.0 ni, 99.9 id,  0.0 wa,  0.0 hi,  0.0 si,  0.0 st
KiB Mem : 16278768 total, 11924640 free,  1403472 used,  2950656 buff/cache
KiB Swap: 16630780 total, 16630780 free,        0 used. 14424936 avail Mem 

  PID USER      PR  NI    VIRT    RES    SHR S  %CPU %MEM     TIME+ COMMAND
 1780 root      20   0  433932  94760  61668 S   1.0  0.6   1:51.28 Xorg
14656 kenenth   20   0   41908   3784   3128 R   1.0  0.0   0:00.54 top
14665 kenenth   20   0   29024   2924   2684 S   1.0  0.0   0:00.01 ping

top - 23:22:18 up  2:38,  1 user,  load average: 0.08, 0.76, 1.64
Tasks: 295 total,   1 running, 234 sleeping,   0 stopped,   0 zombie
%Cpu(s):  0.0 us,  0.4 sy,  0.0 ni, 99.5 id,  0.0 wa,  0.0 hi,  0.1 si,  0.0 st
KiB Mem : 16278768 total, 11924640 free,  1403472 used,  2950656 buff/cache
KiB Swap: 16630780 total, 16630780 free,        0 used. 14424936 avail Mem 

  PID USER      PR  NI    VIRT    RES    SHR S  %CPU %MEM     TIME+ COMMAND
  944 root      20   0  110512   3520   3184 S   1.0  0.0   0:01.59 irqbalance
 1780 root      20   0  433932  94760  61668 S   1.0  0.6   1:51.29 Xorg
14656 kenenth   20   0   41908   3784   3128 R   1.0  0.0   0:00.55 top
14667 kenenth   20   0   29024   3040   2800 S   1.0  0.0   0:00.01 ping

top - 23:22:19 up  2:38,  1 user,  load average: 0.08, 0.76, 1.64
Tasks: 295 total,   1 running, 234 sleeping,   0 stopped,   0 zombie
%Cpu(s):  0.1 us,  0.0 sy,  0.0 ni, 99.9 id,  0.0 wa,  0.0 hi,  0.0 si,  0.0 st
KiB Mem : 16278768 total, 11924584 free,  1403524 used,  2950660 buff/cache
KiB Swap: 16630780 total, 16630780 free,        0 used. 14424880 avail Mem 

  PID USER      PR  NI    VIRT    RES    SHR S  %CPU %MEM     TIME+ COMMAND
 1129 root      20   0 5005772  38064  25972 S   2.0  0.2   0:45.15 containerd
14656 kenenth   20   0   41908   3784   3128 R   2.0  0.0   0:00.57 top

top - 23:22:20 up  2:38,  1 user,  load average: 0.07, 0.74, 1.64
Tasks: 295 total,   1 running, 234 sleeping,   0 stopped,   0 zombie
%Cpu(s):  0.0 us,  0.2 sy,  0.0 ni, 99.8 id,  0.0 wa,  0.0 hi,  0.0 si,  0.0 st
KiB Mem : 16278768 total, 11924584 free,  1403524 used,  2950660 buff/cache
KiB Swap: 16630780 total, 16630780 free,        0 used. 14424880 avail Mem 

  PID USER      PR  NI    VIRT    RES    SHR S  %CPU %MEM     TIME+ COMMAND
  980 root      20   0  179856   9644   8836 S   1.0  0.1   0:06.45 thermald
 2332 root      20   0 6056052 105464  39168 S   1.0  0.6   2:35.66 dockerd
14656 kenenth   20   0   41908   3784   3128 R   1.0  0.0   0:00.58 top

top - 23:22:21 up  2:38,  1 user,  load average: 0.07, 0.74, 1.64
Tasks: 295 total,   1 running, 234 sleeping,   0 stopped,   0 zombie
%Cpu(s):  0.2 us,  0.2 sy,  0.0 ni, 99.5 id,  0.0 wa,  0.0 hi,  0.0 si,  0.0 st
KiB Mem : 16278768 total, 11924584 free,  1403524 used,  2950660 buff/cache
KiB Swap: 16630780 total, 16630780 free,        0 used. 14424880 avail Mem 

  PID USER      PR  NI    VIRT    RES    SHR S  %CPU %MEM     TIME+ COMMAND
14656 kenenth   20   0   41908   3784   3128 R   1.0  0.0   0:00.59 top

top - 23:22:22 up  2:38,  1 user,  load average: 0.07, 0.74, 1.64
Tasks: 295 total,   1 running, 234 sleeping,   0 stopped,   0 zombie
%Cpu(s):  0.2 us,  0.0 sy,  0.0 ni, 99.8 id,  0.0 wa,  0.0 hi,  0.0 si,  0.0 st
KiB Mem : 16278768 total, 11924552 free,  1403548 used,  2950668 buff/cache
KiB Swap: 16630780 total, 16630780 free,        0 used. 14424848 avail Mem 

  PID USER      PR  NI    VIRT    RES    SHR S  %CPU %MEM     TIME+ COMMAND
  296 root      19  -1  155400  67580  63572 S   1.0  0.4   0:30.76 systemd-jo+
 1780 root      20   0  433932  94760  61668 S   1.0  0.6   1:51.30 Xorg
14656 kenenth   20   0   41908   3784   3128 R   1.0  0.0   0:00.60 top

top - 23:22:23 up  2:38,  1 user,  load average: 0.07, 0.74, 1.64
Tasks: 295 total,   1 running, 234 sleeping,   0 stopped,   0 zombie
%Cpu(s):  0.0 us,  0.1 sy,  0.0 ni, 99.9 id,  0.0 wa,  0.0 hi,  0.0 si,  0.0 st
KiB Mem : 16278768 total, 11924552 free,  1403548 used,  2950668 buff/cache
KiB Swap: 16630780 total, 16630780 free,        0 used. 14424848 avail Mem 

  PID USER      PR  NI    VIRT    RES    SHR S  %CPU %MEM     TIME+ COMMAND
14656 kenenth   20   0   41908   3784   3128 R   2.0  0.0   0:00.62 top
    8 root      20   0       0      0      0 I   1.0  0.0   0:06.01 rcu_sched
 1780 root      20   0  433932  94760  61668 S   1.0  0.6   1:51.31 Xorg