     1	1441288 
     2	1441288 
     3	1441288 
     4	1441412 
     5	1441412 
     6	1441412 
     7	1441424 
     8	1441424 
     9	1441424 
    10	1441452 
    11	1441452 
    12	1441452 
    13	1441300 
    14	1441300 
    15	1441300 
    16	1441332 
    17	1441332 
    18	1441332 
    19	1441272 
    20	1441272 
    21	1441272 
    22	1441400 
    23	1441400 
    24	1441400 
