top - 14:42:55 up  1:18,  1 user,  load average: 0.02, 0.07, 0.62
Tasks: 318 total,   1 running, 256 sleeping,   0 stopped,   0 zombie
%Cpu(s):  2.8 us,  1.6 sy,  0.0 ni, 95.5 id,  0.1 wa,  0.0 hi,  0.0 si,  0.0 st
KiB Mem : 16278772 total, 13544332 free,  1441288 used,  1293152 buff/cache
KiB Swap: 16630780 total, 16630780 free,        0 used. 14428096 avail Mem 

  PID USER      PR  NI    VIRT    RES    SHR S  %CPU %MEM     TIME+ COMMAND
  692 systemd+  20   0   71256   6696   5504 S  11.8  0.0   0:03.29 systemd-re+
    8 root      20   0       0      0      0 I   5.9  0.0   0:02.99 rcu_sched
 1502 root      20   0 6054224 105808  39280 S   5.9  0.6   1:15.57 dockerd
 2178 root      20   0  469124 128872  61656 S   5.9  0.8   0:26.99 Xorg
26353 kenenth   20   0   41908   3720   3128 R   5.9  0.0   0:00.02 top
31413 root      20   0       0      0      0 I   5.9  0.0   0:00.28 kworker/2:1

top - 14:42:56 up  1:18,  1 user,  load average: 0.02, 0.07, 0.62
Tasks: 318 total,   1 running, 256 sleeping,   0 stopped,   0 zombie
%Cpu(s):  0.2 us,  0.2 sy,  0.0 ni, 99.4 id,  0.1 wa,  0.0 hi,  0.0 si,  0.0 st
KiB Mem : 16278772 total, 13544332 free,  1441288 used,  1293152 buff/cache
KiB Swap: 16630780 total, 16630780 free,        0 used. 14428096 avail Mem 

  PID USER      PR  NI    VIRT    RES    SHR S  %CPU %MEM     TIME+ COMMAND
26353 kenenth   20   0   41908   3720   3128 R   2.9  0.0   0:00.05 top
 2179 root     -51   0       0      0      0 S   1.0  0.0   0:03.34 irq/142-nv+
 2390 kenenth   20   0 3566072 277084  91588 S   1.0  1.7   0:55.48 gnome-shell
 2800 kenenth   20   0  792648  36808  27432 S   1.0  0.2   0:03.10 gnome-term+

top - 14:42:57 up  1:18,  1 user,  load average: 0.02, 0.07, 0.62
Tasks: 318 total,   1 running, 256 sleeping,   0 stopped,   0 zombie
%Cpu(s):  0.1 us,  0.2 sy,  0.0 ni, 99.6 id,  0.0 wa,  0.0 hi,  0.0 si,  0.0 st
KiB Mem : 16278772 total, 13544332 free,  1441288 used,  1293152 buff/cache
KiB Swap: 16630780 total, 16630780 free,        0 used. 14428096 avail Mem 

  PID USER      PR  NI    VIRT    RES    SHR S  %CPU %MEM     TIME+ COMMAND
 2178 root      20   0  469124 128872  61656 S   1.0  0.8   0:27.00 Xorg
26353 kenenth   20   0   41908   3720   3128 R   1.0  0.0   0:00.06 top

top - 14:42:58 up  1:18,  1 user,  load average: 0.02, 0.07, 0.62
Tasks: 318 total,   1 running, 256 sleeping,   0 stopped,   0 zombie
%Cpu(s):  0.0 us,  0.4 sy,  0.0 ni, 99.6 id,  0.0 wa,  0.0 hi,  0.0 si,  0.0 st
KiB Mem : 16278772 total, 13544200 free,  1441412 used,  1293160 buff/cache
KiB Swap: 16630780 total, 16630780 free,        0 used. 14427968 avail Mem 

  PID USER      PR  NI    VIRT    RES    SHR S  %CPU %MEM     TIME+ COMMAND
  990 root      20   0 4988324  40504  26236 S   1.0  0.2   0:21.49 containerd
 2178 root      20   0  469124 128872  61656 S   1.0  0.8   0:27.01 Xorg
 2390 kenenth   20   0 3566072 277084  91588 S   1.0  1.7   0:55.49 gnome-shell
26353 kenenth   20   0   41908   3720   3128 R   1.0  0.0   0:00.07 top

top - 14:42:59 up  1:18,  1 user,  load average: 0.02, 0.07, 0.61
Tasks: 318 total,   1 running, 256 sleeping,   0 stopped,   0 zombie
%Cpu(s):  0.2 us,  0.1 sy,  0.0 ni, 99.6 id,  0.0 wa,  0.0 hi,  0.0 si,  0.0 st
KiB Mem : 16278772 total, 13544200 free,  1441412 used,  1293160 buff/cache
KiB Swap: 16630780 total, 16630780 free,        0 used. 14427968 avail Mem 

  PID USER      PR  NI    VIRT    RES    SHR S  %CPU %MEM     TIME+ COMMAND
 2390 kenenth   20   0 3566072 277084  91588 S   1.0  1.7   0:55.50 gnome-shell
26353 kenenth   20   0   41908   3720   3128 R   1.0  0.0   0:00.08 top

top - 14:43:00 up  1:18,  1 user,  load average: 0.02, 0.07, 0.61
Tasks: 318 total,   1 running, 256 sleeping,   0 stopped,   0 zombie
%Cpu(s):  0.2 us,  0.2 sy,  0.0 ni, 99.4 id,  0.0 wa,  0.0 hi,  0.1 si,  0.0 st
KiB Mem : 16278772 total, 13544200 free,  1441412 used,  1293160 buff/cache
KiB Swap: 16630780 total, 16630780 free,        0 used. 14427968 avail Mem 

  PID USER      PR  NI    VIRT    RES    SHR S  %CPU %MEM     TIME+ COMMAND
  990 root      20   0 4988324  40504  26236 S   2.0  0.2   0:21.51 containerd
 2390 kenenth   20   0 3566072 277084  91588 S   2.0  1.7   0:55.52 gnome-shell
26353 kenenth   20   0   41908   3720   3128 R   2.0  0.0   0:00.10 top
 2178 root      20   0  469124 128872  61656 S   1.0  0.8   0:27.02 Xorg
 2179 root     -51   0       0      0      0 S   1.0  0.0   0:03.35 irq/142-nv+

top - 14:43:01 up  1:18,  1 user,  load average: 0.02, 0.07, 0.61
Tasks: 318 total,   1 running, 256 sleeping,   0 stopped,   0 zombie
%Cpu(s):  0.2 us,  0.4 sy,  0.0 ni, 99.4 id,  0.0 wa,  0.0 hi,  0.0 si,  0.0 st
KiB Mem : 16278772 total, 13544168 free,  1441424 used,  1293180 buff/cache
KiB Swap: 16630780 total, 16630780 free,        0 used. 14427940 avail Mem 

  PID USER      PR  NI    VIRT    RES    SHR S  %CPU %MEM     TIME+ COMMAND
 1318 gdm       20   0  730068  31000  23232 S   1.0  0.2   0:00.66 gsd-color
 2178 root      20   0  469124 128872  61656 S   1.0  0.8   0:27.03 Xorg
26353 kenenth   20   0   41908   3720   3128 R   1.0  0.0   0:00.11 top

top - 14:43:02 up  1:18,  1 user,  load average: 0.02, 0.07, 0.61
Tasks: 318 total,   1 running, 256 sleeping,   0 stopped,   0 zombie
%Cpu(s):  1.0 us,  0.4 sy,  0.0 ni, 98.7 id,  0.0 wa,  0.0 hi,  0.0 si,  0.0 st
KiB Mem : 16278772 total, 13544168 free,  1441424 used,  1293180 buff/cache
KiB Swap: 16630780 total, 16630780 free,        0 used. 14427940 avail Mem 

  PID USER      PR  NI    VIRT    RES    SHR S  %CPU %MEM     TIME+ COMMAND
 1502 root      20   0 6054224 105648  39280 S   4.9  0.6   1:15.62 dockerd
26353 kenenth   20   0   41908   3720   3128 R   2.9  0.0   0:00.14 top
  932 root      20   0  179856   9520   8716 S   1.0  0.1   0:03.18 thermald
 2178 root      20   0  469124 128872  61656 S   1.0  0.8   0:27.04 Xorg
 2390 kenenth   20   0 3566072 277084  91588 S   1.0  1.7   0:55.53 gnome-shell

top - 14:43:04 up  1:18,  1 user,  load average: 0.02, 0.07, 0.61
Tasks: 318 total,   1 running, 256 sleeping,   0 stopped,   0 zombie
%Cpu(s):  0.2 us,  0.1 sy,  0.0 ni, 99.6 id,  0.0 wa,  0.0 hi,  0.0 si,  0.0 st
KiB Mem : 16278772 total, 13544168 free,  1441424 used,  1293180 buff/cache
KiB Swap: 16630780 total, 16630780 free,        0 used. 14427940 avail Mem 

  PID USER      PR  NI    VIRT    RES    SHR S  %CPU %MEM     TIME+ COMMAND
26353 kenenth   20   0   41908   3720   3128 R   1.0  0.0   0:00.15 top

top - 14:43:05 up  1:18,  1 user,  load average: 0.02, 0.06, 0.61
Tasks: 318 total,   1 running, 256 sleeping,   0 stopped,   0 zombie
%Cpu(s):  0.4 us,  0.2 sy,  0.0 ni, 99.4 id,  0.0 wa,  0.0 hi,  0.0 si,  0.0 st
KiB Mem : 16278772 total, 13544128 free,  1441452 used,  1293192 buff/cache
KiB Swap: 16630780 total, 16630780 free,        0 used. 14427908 avail Mem 

  PID USER      PR  NI    VIRT    RES    SHR S  %CPU %MEM     TIME+ COMMAND
 2178 root      20   0  469124 128872  61656 S   2.0  0.8   0:27.06 Xorg
 2390 kenenth   20   0 3566072 277084  91588 S   2.0  1.7   0:55.55 gnome-shell
 1523 kernoops  20   0   56936    420      0 S   1.0  0.0   0:00.24 kerneloops
 2179 root     -51   0       0      0      0 S   1.0  0.0   0:03.36 irq/142-nv+
26353 kenenth   20   0   41908   3720   3128 R   1.0  0.0   0:00.16 top

top - 14:43:06 up  1:18,  1 user,  load average: 0.02, 0.06, 0.61
Tasks: 318 total,   1 running, 256 sleeping,   0 stopped,   0 zombie
%Cpu(s):  0.2 us,  0.4 sy,  0.0 ni, 99.4 id,  0.0 wa,  0.0 hi,  0.0 si,  0.0 st
KiB Mem : 16278772 total, 13544128 free,  1441452 used,  1293192 buff/cache
KiB Swap: 16630780 total, 16630780 free,        0 used. 14427908 avail Mem 

  PID USER      PR  NI    VIRT    RES    SHR S  %CPU %MEM     TIME+ COMMAND
26353 kenenth   20   0   41908   3720   3128 R   2.0  0.0   0:00.18 top
 2390 kenenth   20   0 3566072 277084  91588 S   1.0  1.7   0:55.56 gnome-shell

top - 14:43:07 up  1:18,  1 user,  load average: 0.02, 0.06, 0.61
Tasks: 318 total,   1 running, 256 sleeping,   0 stopped,   0 zombie
%Cpu(s):  0.5 us,  0.1 sy,  0.0 ni, 99.3 id,  0.0 wa,  0.0 hi,  0.1 si,  0.0 st
KiB Mem : 16278772 total, 13544128 free,  1441452 used,  1293192 buff/cache
KiB Swap: 16630780 total, 16630780 free,        0 used. 14427908 avail Mem 

  PID USER      PR  NI    VIRT    RES    SHR S  %CPU %MEM     TIME+ COMMAND
 2390 kenenth   20   0 3566072 277064  91588 S   2.0  1.7   0:55.58 gnome-shell
26353 kenenth   20   0   41908   3720   3128 R   2.0  0.0   0:00.20 top

top - 14:43:08 up  1:18,  1 user,  load average: 0.02, 0.06, 0.61
Tasks: 318 total,   1 running, 256 sleeping,   0 stopped,   0 zombie
%Cpu(s):  0.1 us,  0.2 sy,  0.0 ni, 99.5 id,  0.0 wa,  0.0 hi,  0.1 si,  0.0 st
KiB Mem : 16278772 total, 13544260 free,  1441300 used,  1293212 buff/cache
KiB Swap: 16630780 total, 16630780 free,        0 used. 14428052 avail Mem 

  PID USER      PR  NI    VIRT    RES    SHR S  %CPU %MEM     TIME+ COMMAND
   28 root      20   0       0      0      0 S   1.0  0.0   0:00.64 ksoftirqd/3
  990 root      20   0 4988324  40504  26236 S   1.0  0.2   0:21.52 containerd
 2178 root      20   0  469124 128872  61656 S   1.0  0.8   0:27.07 Xorg
26353 kenenth   20   0   41908   3720   3128 R   1.0  0.0   0:00.21 top

top - 14:43:09 up  1:18,  1 user,  load average: 0.02, 0.06, 0.61
Tasks: 318 total,   1 running, 256 sleeping,   0 stopped,   0 zombie
%Cpu(s):  0.0 us,  0.1 sy,  0.0 ni, 99.9 id,  0.0 wa,  0.0 hi,  0.0 si,  0.0 st
KiB Mem : 16278772 total, 13544260 free,  1441300 used,  1293212 buff/cache
KiB Swap: 16630780 total, 16630780 free,        0 used. 14428052 avail Mem 

  PID USER      PR  NI    VIRT    RES    SHR S  %CPU %MEM     TIME+ COMMAND
 2178 root      20   0  469124 128872  61656 S   1.0  0.8   0:27.08 Xorg
26353 kenenth   20   0   41908   3720   3128 R   1.0  0.0   0:00.22 top

top - 14:43:10 up  1:18,  1 user,  load average: 0.02, 0.06, 0.60
Tasks: 318 total,   1 running, 256 sleeping,   0 stopped,   0 zombie
%Cpu(s):  0.1 us,  0.1 sy,  0.0 ni, 99.8 id,  0.0 wa,  0.0 hi,  0.0 si,  0.0 st
KiB Mem : 16278772 total, 13544260 free,  1441300 used,  1293212 buff/cache
KiB Swap: 16630780 total, 16630780 free,        0 used. 14428052 avail Mem 

  PID USER      PR  NI    VIRT    RES    SHR S  %CPU %MEM     TIME+ COMMAND
  864 message+  20   0   51776   6084   3720 S   1.0  0.0   1:04.40 dbus-daemon
 1062 gdm       20   0 3332008 122416  66272 S   1.0  0.8   0:53.88 gnome-shell
26353 kenenth   20   0   41908   3720   3128 R   1.0  0.0   0:00.23 top

top - 14:43:11 up  1:18,  1 user,  load average: 0.02, 0.06, 0.60
Tasks: 318 total,   1 running, 256 sleeping,   0 stopped,   0 zombie
%Cpu(s):  0.4 us,  0.5 sy,  0.0 ni, 99.0 id,  0.0 wa,  0.0 hi,  0.1 si,  0.0 st
KiB Mem : 16278772 total, 13544220 free,  1441332 used,  1293220 buff/cache
KiB Swap: 16630780 total, 16630780 free,        0 used. 14428016 avail Mem 

  PID USER      PR  NI    VIRT    RES    SHR S  %CPU %MEM     TIME+ COMMAND
26353 kenenth   20   0   41908   3720   3128 R   2.0  0.0   0:00.25 top
  990 root      20   0 4988324  40504  26236 S   1.0  0.2   0:21.53 containerd
 1062 gdm       20   0 3332008 122416  66272 S   1.0  0.8   0:53.89 gnome-shell
 1502 root      20   0 6054224 105648  39280 S   1.0  0.6   1:15.63 dockerd

top - 14:43:12 up  1:18,  1 user,  load average: 0.02, 0.06, 0.60
Tasks: 318 total,   1 running, 256 sleeping,   0 stopped,   0 zombie
%Cpu(s):  0.1 us,  0.1 sy,  0.0 ni, 99.8 id,  0.0 wa,  0.0 hi,  0.0 si,  0.0 st
KiB Mem : 16278772 total, 13544220 free,  1441332 used,  1293220 buff/cache
KiB Swap: 16630780 total, 16630780 free,        0 used. 14428016 avail Mem 

  PID USER      PR  NI    VIRT    RES    SHR S  %CPU %MEM     TIME+ COMMAND
 2178 root      20   0  469124 128872  61656 S   1.0  0.8   0:27.09 Xorg
26353 kenenth   20   0   41908   3720   3128 R   1.0  0.0   0:00.26 top

top - 14:43:13 up  1:18,  1 user,  load average: 0.02, 0.06, 0.60
Tasks: 318 total,   1 running, 256 sleeping,   0 stopped,   0 zombie
%Cpu(s):  0.0 us,  0.4 sy,  0.0 ni, 99.6 id,  0.0 wa,  0.0 hi,  0.0 si,  0.0 st
KiB Mem : 16278772 total, 13544220 free,  1441332 used,  1293220 buff/cache
KiB Swap: 16630780 total, 16630780 free,        0 used. 14428016 avail Mem 

  PID USER      PR  NI    VIRT    RES    SHR S  %CPU %MEM     TIME+ COMMAND
  920 avahi     20   0   48208   4760   3308 S   1.0  0.0   0:07.21 avahi-daem+
26353 kenenth   20   0   41908   3720   3128 R   1.0  0.0   0:00.27 top

top - 14:43:14 up  1:18,  1 user,  load average: 0.02, 0.06, 0.60
Tasks: 318 total,   1 running, 256 sleeping,   0 stopped,   0 zombie
%Cpu(s):  0.2 us,  0.1 sy,  0.0 ni, 99.6 id,  0.0 wa,  0.0 hi,  0.0 si,  0.0 st
KiB Mem : 16278772 total, 13544260 free,  1441272 used,  1293240 buff/cache
KiB Swap: 16630780 total, 16630780 free,        0 used. 14428080 avail Mem 

  PID USER      PR  NI    VIRT    RES    SHR S  %CPU %MEM     TIME+ COMMAND
26353 kenenth   20   0   41908   3720   3128 R   2.0  0.0   0:00.29 top
  920 avahi     20   0   48208   4760   3308 S   1.0  0.0   0:07.22 avahi-daem+
 2178 root      20   0  469124 128872  61656 S   1.0  0.8   0:27.10 Xorg

top - 14:43:15 up  1:18,  1 user,  load average: 0.10, 0.08, 0.61
Tasks: 318 total,   1 running, 256 sleeping,   0 stopped,   0 zombie
%Cpu(s):  0.2 us,  0.1 sy,  0.0 ni, 99.6 id,  0.0 wa,  0.0 hi,  0.0 si,  0.0 st
KiB Mem : 16278772 total, 13544260 free,  1441272 used,  1293240 buff/cache
KiB Swap: 16630780 total, 16630780 free,        0 used. 14428080 avail Mem 

  PID USER      PR  NI    VIRT    RES    SHR S  %CPU %MEM     TIME+ COMMAND
26353 kenenth   20   0   41908   3720   3128 R   2.0  0.0   0:00.31 top
 2178 root      20   0  469124 128872  61656 S   1.0  0.8   0:27.11 Xorg

top - 14:43:16 up  1:18,  1 user,  load average: 0.10, 0.08, 0.61
Tasks: 318 total,   1 running, 256 sleeping,   0 stopped,   0 zombie
%Cpu(s):  0.1 us,  0.4 sy,  0.0 ni, 99.5 id,  0.0 wa,  0.0 hi,  0.0 si,  0.0 st
KiB Mem : 16278772 total, 13544260 free,  1441272 used,  1293240 buff/cache
KiB Swap: 16630780 total, 16630780 free,        0 used. 14428080 avail Mem 

  PID USER      PR  NI    VIRT    RES    SHR S  %CPU %MEM     TIME+ COMMAND
26353 kenenth   20   0   41908   3720   3128 R   1.0  0.0   0:00.32 top

top - 14:43:17 up  1:18,  1 user,  load average: 0.10, 0.08, 0.61
Tasks: 318 total,   1 running, 256 sleeping,   0 stopped,   0 zombie
%Cpu(s):  0.1 us,  0.4 sy,  0.0 ni, 99.4 id,  0.1 wa,  0.0 hi,  0.0 si,  0.0 st
KiB Mem : 16278772 total, 13544124 free,  1441400 used,  1293248 buff/cache
KiB Swap: 16630780 total, 16630780 free,        0 used. 14427956 avail Mem 

  PID USER      PR  NI    VIRT    RES    SHR S  %CPU %MEM     TIME+ COMMAND
 2178 root      20   0  469124 128872  61656 S   1.0  0.8   0:27.12 Xorg
26353 kenenth   20   0   41908   3720   3128 R   1.0  0.0   0:00.33 top

top - 14:43:18 up  1:18,  1 user,  load average: 0.10, 0.08, 0.61
Tasks: 318 total,   1 running, 256 sleeping,   0 stopped,   0 zombie
%Cpu(s):  0.1 us,  0.1 sy,  0.0 ni, 99.6 id,  0.0 wa,  0.0 hi,  0.1 si,  0.0 st
KiB Mem : 16278772 total, 13544124 free,  1441400 used,  1293248 buff/cache
KiB Swap: 16630780 total, 16630780 free,        0 used. 14427956 avail Mem 

  PID USER      PR  NI    VIRT    RES    SHR S  %CPU %MEM     TIME+ COMMAND
    8 root      20   0       0      0      0 I   1.0  0.0   0:03.00 rcu_sched
26353 kenenth   20   0   41908   3720   3128 R   1.0  0.0   0:00.34 top

top - 14:43:19 up  1:18,  1 user,  load average: 0.10, 0.08, 0.61
Tasks: 318 total,   1 running, 256 sleeping,   0 stopped,   0 zombie
%Cpu(s):  0.1 us,  0.1 sy,  0.0 ni, 99.8 id,  0.0 wa,  0.0 hi,  0.0 si,  0.0 st
KiB Mem : 16278772 total, 13544124 free,  1441400 used,  1293248 buff/cache
KiB Swap: 16630780 total, 16630780 free,        0 used. 14427956 avail Mem 

  PID USER      PR  NI    VIRT    RES    SHR S  %CPU %MEM     TIME+ COMMAND
 2178 root      20   0  469124 128872  61656 S   1.0  0.8   0:27.13 Xorg
 2179 root     -51   0       0      0      0 S   1.0  0.0   0:03.37 irq/142-nv+
26353 kenenth   20   0   41908   3720   3128 R   1.0  0.0   0:00.35 top