     1	1209132 
     2	1209132 
     3	1209132 
     4	2036548 
     5	2036548 
     6	2036548 
     7	2119144 
     8	2119144 
     9	2119144 
    10	1758164 
    11	1758164 
    12	1758164 
    13	1561316 
    14	1561316 
    15	1561316 
    16	1373112 
    17	1373112 
    18	1373112 
    19	2466080 
    20	2466080 
    21	2466080 
    22	2275880 
    23	2275880 
    24	2275880 
    25	1965392 
    26	1965392 
    27	1717716 
    28	1717716 
    29	1717716 
    30	1521668 
    31	1521668 
    32	1521668 
    33	1375676 
    34	1375676 
    35	1375676 
    36	1362136 
    37	1362136 
    38	1362136 
    39	1354836 
    40	1354836 
    41	1354836 
    42	1344924 
    43	1344924 
    44	1344924 
    45	1330532 
    46	1330532 
    47	1330532 
    48	1310560 
    49	1310560 
    50	1310560 
    51	1292816 
    52	1292816 
    53	1292816 
    54	1281232 
    55	1281232 
    56	1281232 
