     1	1423048 
     2	1423048 
     3	1423048 
     4	1752788 
     5	1752788 
     6	1752788 
     7	3949508 
     8	3949508 
     9	3949508 
    10	3554896 
    11	3554896 
    12	3554896 
    13	3090992 
    14	3090992 
    15	2708796 
    16	2708796 
    17	2708796 
    18	2386836 
    19	2386836 
    20	2386836 
    21	1928996 
    22	1928996 
    23	1928996 
    24	1724676 
    25	1724676 
    26	1724676 
    27	1519700 
    28	1519700 
    29	1519700 
    30	2528544 
    31	2528544 
    32	2528544 
    33	4235472 
    34	4235472 
    35	4235472 
    36	4898744 
    37	4898744 
    38	4898744 
    39	4642956 
    40	4642956 
    41	4642956 
    42	4258416 
    43	4258416 
    44	4258416 
    45	3807084 
    46	3807084 
    47	3807084 
    48	3280316 
    49	3280316 
    50	3280316 
    51	2874612 
    52	2874612 
    53	2874612 
    54	2305452 
    55	2305452 
    56	2305452 
    57	2030056 
    58	2030056 
    59	2030056 
    60	1563404 
    61	1563404 
    62	1563404 
    63	1539492 
    64	1539492 
    65	1539492 
    66	1523884 
    67	1523884 
    68	1523884 
    69	1502960 
    70	1502960 
    71	1488548 
    72	1488548 
    73	1488548 
