     1	 95.2 
     2	 97.5 
     3	 64.9 
     4	 10.6 
     5	  6.7 
     6	  6.0 
     7	 39.1 
     8	 94.8 
     9	 93.7 
    10	 92.5 
    11	 85.8 
    12	 87.3 
    13	 89.1 
    14	 82.0 
    15	 79.5 
    16	 79.7 
    17	 81.0 
    18	 78.5 
    19	 88.3 
    20	 65.5 
    21	 58.2 
    22	 71.1 
    23	 84.4 
    24	 65.8 
    25	 63.9 
    26	 85.3 
    27	 91.6 
    28	 83.3 
    29	 75.8 
    30	 27.8 
    31	  6.0 
    32	  8.5 
    33	  7.2 
    34	  7.8 
    35	  5.2 
    36	 62.8 
    37	 82.7 
    38	 83.1 
    39	 88.7 
    40	 81.8 
    41	 77.6 
    42	 81.1 
    43	 86.5 
    44	 80.0 
    45	 82.5 
    46	 73.4 
    47	 67.2 
    48	 64.0 
    49	 60.8 
    50	 58.0 
    51	 80.9 
    52	 70.5 
    53	 61.4 
    54	 82.5 
    55	 85.4 
    56	 82.6 
    57	 75.2 
    58	 76.7 
    59	 89.0 
    60	 81.7 
    61	 87.3 
    62	 74.6 
    63	 80.8 
    64	 92.5 
    65	 87.8 
    66	 79.9 
    67	 94.8 
    68	 92.8 
    69	 92.6 
    70	 92.6 
