     1	295 
     2	296 
     3	296 
     4	307 
     5	369 
     6	436 
     7	534 
     8	625 
     9	709 
    10	737 
    11	746 
    12	739 
    13	738 
    14	741 
    15	758 
    16	752 
    17	756 
    18	753 
    19	754 
    20	746 
    21	762 
    22	741 
    23	740 
    24	760 
    25	761 
    26	760 
    27	750 
    28	744 
    29	733 
    30	724 
    31	710 
    32	698 
    33	659 
    34	643 
    35	623 
    36	598 
    37	574 
    38	558 
    39	538 
    40	521 
    41	488 
    42	473 
    43	455 
    44	425 
    45	409 
    46	390 
    47	368 
    48	355 
    49	340 
    50	330 
    51	321 
    52	316 
    53	349 
    54	383 
    55	446 
    56	476 
    57	553 
    58	569 
    59	627 
    60	637 
    61	681 
    62	691 
    63	721 
    64	753 
    65	749 
    66	744 
    67	744 
    68	753 
    69	752 
    70	768 
    71	762 
    72	759 
    73	743 
    74	749 
    75	759 
    76	769 
    77	753 
    78	738 
    79	749 
    80	750 
    81	755 
    82	754 
    83	741 
    84	734 
    85	713 
    86	693 
    87	673 
    88	654 
    89	624 
    90	604 
    91	576 
    92	559 
    93	528 
    94	498 
    95	478 
    96	456 
    97	423 
    98	395 
    99	372 
   100	362 
   101	343 
   102	328 
   103	319 
   104	310 
   105	306 
   106	304 
   107	304 
   108	304 
   109	301 
