Attaching to softwareoverhead_ping_12, softwareoverhead_ping_17, softwareoverhead_ping_16, softwareoverhead_ping_7, softwareoverhead_ping_2, softwareoverhead_ping_13, softwareoverhead_ping_3, softwareoverhead_ping_10, softwareoverhead_ping_15, softwareoverhead_ping_1, softwareoverhead_ping_14, softwareoverhead_ping_5, softwareoverhead_ping_20, softwareoverhead_ping_18, softwareoverhead_ping_6, softwareoverhead_ping_9, softwareoverhead_ping_8, softwareoverhead_ping_11, softwareoverhead_ping_19, softwareoverhead_ping_4, softwareoverhead_ping_31, softwareoverhead_ping_40, softwareoverhead_ping_36, softwareoverhead_ping_33, softwareoverhead_ping_32, softwareoverhead_ping_38, softwareoverhead_ping_22, softwareoverhead_ping_39, softwareoverhead_ping_24, softwareoverhead_ping_35, softwareoverhead_ping_27, softwareoverhead_ping_37, softwareoverhead_ping_28, softwareoverhead_ping_30, softwareoverhead_ping_21, softwareoverhead_ping_34, softwareoverhead_ping_25, softwareoverhead_ping_26, softwareoverhead_ping_29, softwareoverhead_ping_23
ping_12 | PING 128.223.32.36 (128.223.32.36): 56 data bytes
ping_12 | 64 bytes from 128.223.32.36: seq=0 ttl=62 time=0.504 ms
ping_17 | PING 128.223.32.36 (128.223.32.36): 56 data bytes
ping_12 | 64 bytes from 128.223.32.36: seq=1 ttl=62 time=0.759 ms
ping_17 | 64 bytes from 128.223.32.36: seq=0 ttl=62 time=0.507 ms
ping_12 | 64 bytes from 128.223.32.36: seq=2 ttl=62 time=0.654 ms
ping_16 | PING 128.223.32.36 (128.223.32.36): 56 data bytes
ping_17 | 64 bytes from 128.223.32.36: seq=1 ttl=62 time=0.629 ms
ping_7  | PING 128.223.32.36 (128.223.32.36): 56 data bytes
ping_16 | 64 bytes from 128.223.32.36: seq=1 ttl=62 time=0.855 ms
ping_12 | 64 bytes from 128.223.32.36: seq=3 ttl=62 time=0.689 ms
ping_17 | 64 bytes from 128.223.32.36: seq=2 ttl=62 time=0.795 ms
ping_16 | 64 bytes from 128.223.32.36: seq=2 ttl=62 time=0.863 ms
ping_7  | 64 bytes from 128.223.32.36: seq=0 ttl=62 time=0.464 ms
ping_16 | 64 bytes from 128.223.32.36: seq=3 ttl=62 time=0.438 ms
ping_16 | 64 bytes from 128.223.32.36: seq=4 ttl=62 time=0.443 ms
ping_12 | 64 bytes from 128.223.32.36: seq=4 ttl=62 time=0.862 ms
ping_16 | 64 bytes from 128.223.32.36: seq=5 ttl=62 time=0.446 ms
ping_2  | PING 128.223.32.36 (128.223.32.36): 56 data bytes
ping_17 | 64 bytes from 128.223.32.36: seq=3 ttl=62 time=0.626 ms
ping_13 | PING 128.223.32.36 (128.223.32.36): 56 data bytes
ping_7  | 64 bytes from 128.223.32.36: seq=1 ttl=62 time=0.446 ms
ping_17 | 64 bytes from 128.223.32.36: seq=4 ttl=62 time=0.703 ms
ping_17 | 64 bytes from 128.223.32.36: seq=5 ttl=62 time=0.894 ms
ping_7  | 64 bytes from 128.223.32.36: seq=2 ttl=62 time=0.814 ms
ping_7  | 64 bytes from 128.223.32.36: seq=3 ttl=62 time=0.623 ms
ping_17 | 64 bytes from 128.223.32.36: seq=6 ttl=62 time=0.875 ms
ping_7  | 64 bytes from 128.223.32.36: seq=4 ttl=62 time=0.556 ms
ping_13 | 64 bytes from 128.223.32.36: seq=0 ttl=62 time=0.465 ms
ping_2  | 64 bytes from 128.223.32.36: seq=0 ttl=62 time=0.500 ms
ping_3  | PING 128.223.32.36 (128.223.32.36): 56 data bytes
ping_12 | 64 bytes from 128.223.32.36: seq=5 ttl=62 time=0.891 ms
ping_7  | 64 bytes from 128.223.32.36: seq=5 ttl=62 time=0.565 ms
ping_17 | 64 bytes from 128.223.32.36: seq=7 ttl=62 time=0.944 ms
ping_16 | 64 bytes from 128.223.32.36: seq=6 ttl=62 time=0.392 ms
ping_2  | 64 bytes from 128.223.32.36: seq=1 ttl=62 time=0.902 ms
ping_3  | 64 bytes from 128.223.32.36: seq=0 ttl=62 time=0.488 ms
ping_12 | 64 bytes from 128.223.32.36: seq=6 ttl=62 time=0.906 ms
ping_13 | 64 bytes from 128.223.32.36: seq=1 ttl=62 time=0.604 ms
ping_16 | 64 bytes from 128.223.32.36: seq=7 ttl=62 time=0.594 ms
ping_13 | 64 bytes from 128.223.32.36: seq=2 ttl=62 time=0.412 ms
ping_17 | 64 bytes from 128.223.32.36: seq=8 ttl=62 time=0.842 ms
ping_7  | 64 bytes from 128.223.32.36: seq=6 ttl=62 time=0.631 ms
ping_16 | 64 bytes from 128.223.32.36: seq=8 ttl=62 time=0.815 ms
ping_3  | 64 bytes from 128.223.32.36: seq=1 ttl=62 time=0.609 ms
ping_12 | 64 bytes from 128.223.32.36: seq=7 ttl=62 time=0.812 ms
ping_16 | 64 bytes from 128.223.32.36: seq=9 ttl=62 time=0.611 ms
ping_2  | 64 bytes from 128.223.32.36: seq=2 ttl=62 time=0.813 ms
ping_15 | PING 128.223.32.36 (128.223.32.36): 56 data bytes
ping_12 | 64 bytes from 128.223.32.36: seq=8 ttl=62 time=0.900 ms
ping_16 | 64 bytes from 128.223.32.36: seq=10 ttl=62 time=0.595 ms
ping_7  | 64 bytes from 128.223.32.36: seq=7 ttl=62 time=0.546 ms
ping_13 | 64 bytes from 128.223.32.36: seq=3 ttl=62 time=0.604 ms
ping_12 | 64 bytes from 128.223.32.36: seq=9 ttl=62 time=0.817 ms
ping_10 | PING 128.223.32.36 (128.223.32.36): 56 data bytes
ping_1  | PING 128.223.32.36 (128.223.32.36): 56 data bytes
ping_15 | 64 bytes from 128.223.32.36: seq=0 ttl=62 time=0.564 ms
ping_17 | 64 bytes from 128.223.32.36: seq=9 ttl=62 time=0.685 ms
ping_3  | 64 bytes from 128.223.32.36: seq=2 ttl=62 time=0.616 ms
ping_7  | 64 bytes from 128.223.32.36: seq=8 ttl=62 time=0.725 ms
ping_10 | 64 bytes from 128.223.32.36: seq=0 ttl=62 time=0.537 ms
ping_2  | 64 bytes from 128.223.32.36: seq=3 ttl=62 time=0.606 ms
ping_10 | 64 bytes from 128.223.32.36: seq=1 ttl=62 time=0.464 ms
ping_12 | 64 bytes from 128.223.32.36: seq=10 ttl=62 time=0.814 ms
ping_16 | 
ping_16 | --- 128.223.32.36 ping statistics ---
ping_16 | 25 packets transmitted, 10 packets received, 60% packet loss
ping_16 | round-trip min/avg/max = 0.392/0.605/0.863 ms
ping_13 | 64 bytes from 128.223.32.36: seq=4 ttl=62 time=0.546 ms
ping_1  | 64 bytes from 128.223.32.36: seq=0 ttl=62 time=0.535 ms
ping_15 | 64 bytes from 128.223.32.36: seq=1 ttl=62 time=0.386 ms
ping_3  | 64 bytes from 128.223.32.36: seq=3 ttl=62 time=0.875 ms
ping_13 | 64 bytes from 128.223.32.36: seq=5 ttl=62 time=0.682 ms
ping_14 | PING 128.223.32.36 (128.223.32.36): 56 data bytes
ping_7  | 64 bytes from 128.223.32.36: seq=9 ttl=62 time=0.816 ms
ping_2  | 64 bytes from 128.223.32.36: seq=4 ttl=62 time=0.413 ms
ping_10 | 64 bytes from 128.223.32.36: seq=2 ttl=62 time=0.904 ms
ping_7  | 64 bytes from 128.223.32.36: seq=10 ttl=62 time=0.902 ms
ping_14 | 64 bytes from 128.223.32.36: seq=0 ttl=62 time=0.522 ms
ping_12 | 64 bytes from 128.223.32.36: seq=11 ttl=62 time=0.647 ms
ping_1  | 64 bytes from 128.223.32.36: seq=1 ttl=62 time=0.913 ms
ping_2  | 64 bytes from 128.223.32.36: seq=5 ttl=62 time=0.668 ms
ping_13 | 64 bytes from 128.223.32.36: seq=6 ttl=62 time=0.880 ms
ping_1  | 64 bytes from 128.223.32.36: seq=2 ttl=62 time=0.578 ms
ping_14 | 64 bytes from 128.223.32.36: seq=1 ttl=62 time=0.625 ms
ping_3  | 64 bytes from 128.223.32.36: seq=4 ttl=62 time=0.595 ms
ping_12 | 64 bytes from 128.223.32.36: seq=12 ttl=62 time=0.580 ms
softwareoverhead_ping_16 exited with code 0
ping_15 | 64 bytes from 128.223.32.36: seq=2 ttl=62 time=0.642 ms
ping_2  | 64 bytes from 128.223.32.36: seq=6 ttl=62 time=0.607 ms
ping_1  | 64 bytes from 128.223.32.36: seq=3 ttl=62 time=0.809 ms
ping_3  | 64 bytes from 128.223.32.36: seq=5 ttl=62 time=0.668 ms
ping_14 | 64 bytes from 128.223.32.36: seq=2 ttl=62 time=0.725 ms
ping_7  | 64 bytes from 128.223.32.36: seq=11 ttl=62 time=0.912 ms
ping_13 | 64 bytes from 128.223.32.36: seq=7 ttl=62 time=0.899 ms
ping_3  | 64 bytes from 128.223.32.36: seq=6 ttl=62 time=0.828 ms
ping_17 | 64 bytes from 128.223.32.36: seq=10 ttl=62 time=0.950 ms
ping_10 | 64 bytes from 128.223.32.36: seq=3 ttl=62 time=0.867 ms
ping_17 | 64 bytes from 128.223.32.36: seq=11 ttl=62 time=0.548 ms
ping_10 | 64 bytes from 128.223.32.36: seq=4 ttl=62 time=0.855 ms
ping_5  | PING 128.223.32.36 (128.223.32.36): 56 data bytes
ping_7  | 64 bytes from 128.223.32.36: seq=12 ttl=62 time=0.610 ms
ping_14 | 64 bytes from 128.223.32.36: seq=3 ttl=62 time=0.658 ms
ping_3  | 64 bytes from 128.223.32.36: seq=7 ttl=62 time=0.639 ms
ping_15 | 64 bytes from 128.223.32.36: seq=3 ttl=62 time=0.783 ms
ping_17 | 64 bytes from 128.223.32.36: seq=12 ttl=62 time=0.725 ms
ping_12 | 64 bytes from 128.223.32.36: seq=13 ttl=62 time=0.591 ms
ping_15 | 64 bytes from 128.223.32.36: seq=4 ttl=62 time=0.578 ms
ping_20 | PING 128.223.32.36 (128.223.32.36): 56 data bytes
ping_2  | 64 bytes from 128.223.32.36: seq=7 ttl=62 time=0.694 ms
ping_14 | 64 bytes from 128.223.32.36: seq=4 ttl=62 time=0.560 ms
ping_12 | 64 bytes from 128.223.32.36: seq=14 ttl=62 time=0.855 ms
ping_18 | PING 128.223.32.36 (128.223.32.36): 56 data bytes
ping_13 | 64 bytes from 128.223.32.36: seq=8 ttl=62 time=0.805 ms
ping_1  | 64 bytes from 128.223.32.36: seq=4 ttl=62 time=0.623 ms
ping_10 | 64 bytes from 128.223.32.36: seq=5 ttl=62 time=0.641 ms
ping_5  | 64 bytes from 128.223.32.36: seq=0 ttl=62 time=0.513 ms
ping_3  | 64 bytes from 128.223.32.36: seq=13 ttl=62 time=0.447 ms
ping_20 | 64 bytes from 128.223.32.36: seq=0 ttl=62 time=0.539 ms
ping_13 | 64 bytes from 128.223.32.36: seq=9 ttl=62 time=0.906 ms
ping_1  | 64 bytes from 128.223.32.36: seq=5 ttl=62 time=0.830 ms
ping_15 | 64 bytes from 128.223.32.36: seq=16 ttl=62 time=0.453 ms
ping_20 | 64 bytes from 128.223.32.36: seq=1 ttl=62 time=0.595 ms
ping_18 | 64 bytes from 128.223.32.36: seq=0 ttl=62 time=0.499 ms
ping_17 | 64 bytes from 128.223.32.36: seq=13 ttl=62 time=0.471 ms
ping_12 | 64 bytes from 128.223.32.36: seq=15 ttl=62 time=0.423 ms
ping_10 | 64 bytes from 128.223.32.36: seq=6 ttl=62 time=0.848 ms
ping_1  | 64 bytes from 128.223.32.36: seq=6 ttl=62 time=0.741 ms
ping_3  | 64 bytes from 128.223.32.36: seq=14 ttl=62 time=0.822 ms
ping_15 | 64 bytes from 128.223.32.36: seq=17 ttl=62 time=0.633 ms
ping_20 | 64 bytes from 128.223.32.36: seq=2 ttl=62 time=0.813 ms
ping_5  | 64 bytes from 128.223.32.36: seq=1 ttl=62 time=0.606 ms
ping_9  | PING 128.223.32.36 (128.223.32.36): 56 data bytes
ping_7  | 64 bytes from 128.223.32.36: seq=13 ttl=62 time=0.448 ms
ping_6  | PING 128.223.32.36 (128.223.32.36): 56 data bytes
ping_17 | 64 bytes from 128.223.32.36: seq=14 ttl=62 time=0.450 ms
ping_13 | 64 bytes from 128.223.32.36: seq=10 ttl=62 time=0.704 ms
ping_12 | 64 bytes from 128.223.32.36: seq=16 ttl=62 time=0.441 ms
ping_5  | 64 bytes from 128.223.32.36: seq=2 ttl=62 time=0.920 ms
ping_12 | 64 bytes from 128.223.32.36: seq=17 ttl=62 time=0.883 ms
ping_2  | 64 bytes from 128.223.32.36: seq=8 ttl=62 time=0.597 ms
ping_3  | 64 bytes from 128.223.32.36: seq=15 ttl=62 time=0.597 ms
ping_15 | 64 bytes from 128.223.32.36: seq=18 ttl=62 time=0.805 ms
ping_13 | 64 bytes from 128.223.32.36: seq=11 ttl=62 time=0.909 ms
ping_1  | 64 bytes from 128.223.32.36: seq=7 ttl=62 time=0.833 ms
ping_9  | 64 bytes from 128.223.32.36: seq=0 ttl=62 time=0.594 ms
ping_18 | 64 bytes from 128.223.32.36: seq=1 ttl=62 time=0.483 ms
ping_10 | 64 bytes from 128.223.32.36: seq=7 ttl=62 time=0.857 ms
ping_9  | 64 bytes from 128.223.32.36: seq=1 ttl=62 time=0.800 ms
ping_17 | 64 bytes from 128.223.32.36: seq=16 ttl=62 time=0.459 ms
ping_15 | 64 bytes from 128.223.32.36: seq=19 ttl=62 time=0.483 ms
ping_12 | 64 bytes from 128.223.32.36: seq=18 ttl=62 time=0.600 ms
ping_3  | 64 bytes from 128.223.32.36: seq=16 ttl=62 time=0.915 ms
ping_20 | 64 bytes from 128.223.32.36: seq=3 ttl=62 time=0.659 ms
ping_17 | 64 bytes from 128.223.32.36: seq=17 ttl=62 time=0.617 ms
ping_10 | 64 bytes from 128.223.32.36: seq=8 ttl=62 time=0.738 ms
ping_2  | 64 bytes from 128.223.32.36: seq=9 ttl=62 time=0.840 ms
ping_7  | 64 bytes from 128.223.32.36: seq=15 ttl=62 time=0.623 ms
ping_5  | 64 bytes from 128.223.32.36: seq=3 ttl=62 time=0.861 ms
ping_18 | 64 bytes from 128.223.32.36: seq=2 ttl=62 time=0.577 ms
ping_20 | 64 bytes from 128.223.32.36: seq=4 ttl=62 time=0.619 ms
ping_1  | 64 bytes from 128.223.32.36: seq=8 ttl=62 time=0.901 ms
ping_12 | 64 bytes from 128.223.32.36: seq=19 ttl=62 time=0.656 ms
ping_11 | PING 128.223.32.36 (128.223.32.36): 56 data bytes
ping_13 | 64 bytes from 128.223.32.36: seq=12 ttl=62 time=0.437 ms
ping_15 | 64 bytes from 128.223.32.36: seq=20 ttl=62 time=0.623 ms
ping_6  | 64 bytes from 128.223.32.36: seq=0 ttl=62 time=0.573 ms
ping_7  | 
ping_7  | --- 128.223.32.36 ping statistics ---
ping_7  | 25 packets transmitted, 15 packets received, 40% packet loss
ping_7  | round-trip min/avg/max = 0.446/0.645/0.912 ms
ping_20 | 64 bytes from 128.223.32.36: seq=5 ttl=62 time=0.668 ms
ping_9  | 64 bytes from 128.223.32.36: seq=9 ttl=62 time=0.676 ms
ping_5  | 64 bytes from 128.223.32.36: seq=4 ttl=62 time=0.631 ms
ping_8  | PING 128.223.32.36 (128.223.32.36): 56 data bytes
ping_17 | 64 bytes from 128.223.32.36: seq=18 ttl=62 time=0.639 ms
ping_10 | 64 bytes from 128.223.32.36: seq=9 ttl=62 time=0.864 ms
ping_2  | 64 bytes from 128.223.32.36: seq=10 ttl=62 time=0.571 ms
ping_9  | 64 bytes from 128.223.32.36: seq=10 ttl=62 time=0.684 ms
ping_8  | 64 bytes from 128.223.32.36: seq=0 ttl=62 time=0.529 ms
ping_3  | 64 bytes from 128.223.32.36: seq=17 ttl=62 time=0.525 ms
ping_2  | 64 bytes from 128.223.32.36: seq=11 ttl=62 time=0.645 ms
ping_1  | 64 bytes from 128.223.32.36: seq=9 ttl=62 time=0.914 ms
ping_12 | 64 bytes from 128.223.32.36: seq=20 ttl=62 time=0.839 ms
ping_19 | PING 128.223.32.36 (128.223.32.36): 56 data bytes
ping_3  | 64 bytes from 128.223.32.36: seq=18 ttl=62 time=0.819 ms
ping_18 | 64 bytes from 128.223.32.36: seq=3 ttl=62 time=0.444 ms
ping_5  | 64 bytes from 128.223.32.36: seq=5 ttl=62 time=0.658 ms
ping_17 | 64 bytes from 128.223.32.36: seq=19 ttl=62 time=0.816 ms
ping_10 | 64 bytes from 128.223.32.36: seq=10 ttl=62 time=0.916 ms
ping_9  | 64 bytes from 128.223.32.36: seq=11 ttl=62 time=0.456 ms
ping_11 | 64 bytes from 128.223.32.36: seq=0 ttl=62 time=0.509 ms
ping_1  | 64 bytes from 128.223.32.36: seq=10 ttl=62 time=0.445 ms
ping_3  | 64 bytes from 128.223.32.36: seq=19 ttl=62 time=0.916 ms
ping_5  | 64 bytes from 128.223.32.36: seq=6 ttl=62 time=0.617 ms
ping_31 | PING 128.223.32.36 (128.223.32.36): 56 data bytes
ping_20 | 64 bytes from 128.223.32.36: seq=6 ttl=62 time=0.713 ms
ping_6  | 64 bytes from 128.223.32.36: seq=1 ttl=62 time=0.424 ms
ping_8  | 64 bytes from 128.223.32.36: seq=1 ttl=62 time=0.598 ms
ping_19 | 64 bytes from 128.223.32.36: seq=0 ttl=62 time=0.519 ms
ping_9  | 64 bytes from 128.223.32.36: seq=12 ttl=62 time=0.872 ms
ping_11 | 64 bytes from 128.223.32.36: seq=1 ttl=62 time=0.596 ms
ping_12 | 
ping_12 | --- 128.223.32.36 ping statistics ---
ping_12 | 25 packets transmitted, 21 packets received, 16% packet loss
ping_12 | round-trip min/avg/max = 0.423/0.720/0.906 ms
ping_18 | 64 bytes from 128.223.32.36: seq=4 ttl=62 time=0.783 ms
ping_3  | 64 bytes from 128.223.32.36: seq=20 ttl=62 time=0.842 ms
ping_13 | 64 bytes from 128.223.32.36: seq=13 ttl=62 time=0.491 ms
ping_17 | 64 bytes from 128.223.32.36: seq=20 ttl=62 time=0.604 ms
ping_20 | 64 bytes from 128.223.32.36: seq=7 ttl=62 time=0.418 ms
ping_8  | 64 bytes from 128.223.32.36: seq=2 ttl=62 time=0.854 ms
ping_4  | PING 128.223.32.36 (128.223.32.36): 56 data bytes
ping_20 | 64 bytes from 128.223.32.36: seq=8 ttl=62 time=0.484 ms
ping_6  | 64 bytes from 128.223.32.36: seq=2 ttl=62 time=0.737 ms
ping_13 | 64 bytes from 128.223.32.36: seq=14 ttl=62 time=0.866 ms
ping_5  | 64 bytes from 128.223.32.36: seq=7 ttl=62 time=0.626 ms
ping_8  | 64 bytes from 128.223.32.36: seq=3 ttl=62 time=0.648 ms
ping_10 | 64 bytes from 128.223.32.36: seq=11 ttl=62 time=0.451 ms
ping_31 | 64 bytes from 128.223.32.36: seq=0 ttl=62 time=0.635 ms
ping_2  | 64 bytes from 128.223.32.36: seq=12 ttl=62 time=0.817 ms
ping_40 | PING 128.223.32.36 (128.223.32.36): 56 data bytes
ping_19 | 64 bytes from 128.223.32.36: seq=1 ttl=62 time=0.577 ms
ping_1  | 64 bytes from 128.223.32.36: seq=11 ttl=62 time=4.007 ms
softwareoverhead_ping_7 exited with code 0
ping_5  | 64 bytes from 128.223.32.36: seq=8 ttl=62 time=0.833 ms
ping_3  | 64 bytes from 128.223.32.36: seq=21 ttl=62 time=0.968 ms
ping_11 | 64 bytes from 128.223.32.36: seq=2 ttl=62 time=0.604 ms
ping_2  | 64 bytes from 128.223.32.36: seq=13 ttl=62 time=0.486 ms
ping_17 | 64 bytes from 128.223.32.36: seq=21 ttl=62 time=0.625 ms
ping_20 | 64 bytes from 128.223.32.36: seq=9 ttl=62 time=0.596 ms
ping_4  | 64 bytes from 128.223.32.36: seq=0 ttl=62 time=0.713 ms
ping_11 | 64 bytes from 128.223.32.36: seq=3 ttl=62 time=0.434 ms
ping_6  | 64 bytes from 128.223.32.36: seq=3 ttl=62 time=0.872 ms
ping_8  | 64 bytes from 128.223.32.36: seq=4 ttl=62 time=0.484 ms
ping_5  | 64 bytes from 128.223.32.36: seq=9 ttl=62 time=0.526 ms
ping_3  | 64 bytes from 128.223.32.36: seq=22 ttl=62 time=0.639 ms
ping_40 | 64 bytes from 128.223.32.36: seq=0 ttl=62 time=0.588 ms
ping_9  | 64 bytes from 128.223.32.36: seq=13 ttl=62 time=0.557 ms
ping_17 | 64 bytes from 128.223.32.36: seq=22 ttl=62 time=0.834 ms
ping_18 | 64 bytes from 128.223.32.36: seq=5 ttl=62 time=0.678 ms
ping_13 | 64 bytes from 128.223.32.36: seq=15 ttl=62 time=0.441 ms
ping_19 | 64 bytes from 128.223.32.36: seq=2 ttl=62 time=0.444 ms
ping_40 | 64 bytes from 128.223.32.36: seq=1 ttl=62 time=0.567 ms
ping_17 | 64 bytes from 128.223.32.36: seq=23 ttl=62 time=0.911 ms
ping_8  | 64 bytes from 128.223.32.36: seq=5 ttl=62 time=0.456 ms
ping_5  | 64 bytes from 128.223.32.36: seq=10 ttl=62 time=0.452 ms
ping_18 | 64 bytes from 128.223.32.36: seq=6 ttl=62 time=0.612 ms
ping_1  | 64 bytes from 128.223.32.36: seq=12 ttl=62 time=0.579 ms
softwareoverhead_ping_12 exited with code 0
ping_19 | 64 bytes from 128.223.32.36: seq=3 ttl=62 time=0.461 ms
ping_3  | 64 bytes from 128.223.32.36: seq=23 ttl=62 time=0.407 ms
ping_2  | 64 bytes from 128.223.32.36: seq=14 ttl=62 time=1.276 ms
ping_11 | 64 bytes from 128.223.32.36: seq=4 ttl=62 time=0.962 ms
ping_20 | 64 bytes from 128.223.32.36: seq=10 ttl=62 time=0.862 ms
ping_9  | 64 bytes from 128.223.32.36: seq=14 ttl=62 time=0.688 ms
ping_17 | 
ping_17 | --- 128.223.32.36 ping statistics ---
ping_17 | 25 packets transmitted, 23 packets received, 8% packet loss
ping_17 | round-trip min/avg/max = 0.450/0.702/0.950 ms
ping_31 | 64 bytes from 128.223.32.36: seq=1 ttl=62 time=0.627 ms
ping_5  | 64 bytes from 128.223.32.36: seq=11 ttl=62 time=0.906 ms
ping_11 | 64 bytes from 128.223.32.36: seq=5 ttl=62 time=0.542 ms
ping_4  | 64 bytes from 128.223.32.36: seq=1 ttl=62 time=0.455 ms
ping_3  | 64 bytes from 128.223.32.36: seq=24 ttl=62 time=0.474 ms
ping_1  | 64 bytes from 128.223.32.36: seq=13 ttl=62 time=0.425 ms
ping_36 | PING 128.223.32.36 (128.223.32.36): 56 data bytes
ping_10 | 64 bytes from 128.223.32.36: seq=12 ttl=62 time=0.461 ms
ping_13 | 
ping_13 | --- 128.223.32.36 ping statistics ---
ping_13 | 25 packets transmitted, 16 packets received, 36% packet loss
ping_13 | round-trip min/avg/max = 0.412/0.665/0.909 ms
ping_5  | 64 bytes from 128.223.32.36: seq=12 ttl=62 time=0.897 ms
ping_18 | 64 bytes from 128.223.32.36: seq=7 ttl=62 time=0.446 ms
ping_36 | 64 bytes from 128.223.32.36: seq=3 ttl=62 time=0.826 ms
ping_11 | 64 bytes from 128.223.32.36: seq=6 ttl=62 time=0.858 ms
ping_20 | 64 bytes from 128.223.32.36: seq=11 ttl=62 time=0.908 ms
ping_32 | PING 128.223.32.36 (128.223.32.36): 56 data bytes
ping_8  | 64 bytes from 128.223.32.36: seq=6 ttl=62 time=0.438 ms
ping_9  | 64 bytes from 128.223.32.36: seq=15 ttl=62 time=0.424 ms
ping_31 | 64 bytes from 128.223.32.36: seq=2 ttl=62 time=0.442 ms
ping_2  | 64 bytes from 128.223.32.36: seq=15 ttl=62 time=0.533 ms
ping_32 | 64 bytes from 128.223.32.36: seq=0 ttl=62 time=0.621 ms
ping_33 | PING 128.223.32.36 (128.223.32.36): 56 data bytes
ping_36 | 64 bytes from 128.223.32.36: seq=4 ttl=62 time=0.725 ms
ping_4  | 64 bytes from 128.223.32.36: seq=2 ttl=62 time=0.472 ms
ping_2  | 64 bytes from 128.223.32.36: seq=17 ttl=62 time=0.612 ms
ping_33 | 64 bytes from 128.223.32.36: seq=0 ttl=62 time=0.533 ms
ping_40 | 64 bytes from 128.223.32.36: seq=2 ttl=62 time=0.625 ms
ping_36 | 64 bytes from 128.223.32.36: seq=5 ttl=62 time=0.489 ms
ping_18 | 64 bytes from 128.223.32.36: seq=8 ttl=62 time=0.465 ms
ping_19 | 64 bytes from 128.223.32.36: seq=4 ttl=62 time=0.442 ms
ping_32 | 64 bytes from 128.223.32.36: seq=1 ttl=62 time=0.612 ms
ping_1  | 64 bytes from 128.223.32.36: seq=14 ttl=62 time=0.870 ms
ping_3  | 
ping_3  | --- 128.223.32.36 ping statistics ---
ping_3  | 25 packets transmitted, 20 packets received, 20% packet loss
ping_3  | round-trip min/avg/max = 0.407/0.684/0.968 ms
ping_11 | 64 bytes from 128.223.32.36: seq=7 ttl=62 time=0.614 ms
ping_5  | 64 bytes from 128.223.32.36: seq=13 ttl=62 time=0.639 ms
ping_31 | 64 bytes from 128.223.32.36: seq=3 ttl=62 time=0.687 ms
ping_10 | 64 bytes from 128.223.32.36: seq=13 ttl=62 time=0.620 ms
ping_2  | 
ping_2  | --- 128.223.32.36 ping statistics ---
ping_2  | 25 packets transmitted, 17 packets received, 32% packet loss
ping_2  | round-trip min/avg/max = 0.413/0.681/1.276 ms
ping_9  | 64 bytes from 128.223.32.36: seq=16 ttl=62 time=0.426 ms
ping_33 | 64 bytes from 128.223.32.36: seq=1 ttl=62 time=0.783 ms
ping_32 | 64 bytes from 128.223.32.36: seq=2 ttl=62 time=0.656 ms
softwareoverhead_ping_17 exited with code 0
ping_4  | 64 bytes from 128.223.32.36: seq=3 ttl=62 time=0.817 ms
ping_1  | 64 bytes from 128.223.32.36: seq=15 ttl=62 time=0.641 ms
ping_11 | 64 bytes from 128.223.32.36: seq=8 ttl=62 time=0.651 ms
ping_33 | 64 bytes from 128.223.32.36: seq=2 ttl=62 time=0.824 ms
ping_19 | 64 bytes from 128.223.32.36: seq=5 ttl=62 time=0.904 ms
ping_22 | PING 128.223.32.36 (128.223.32.36): 56 data bytes
ping_32 | 64 bytes from 128.223.32.36: seq=5 ttl=62 time=0.758 ms
ping_36 | 64 bytes from 128.223.32.36: seq=6 ttl=62 time=0.846 ms
ping_22 | 64 bytes from 128.223.32.36: seq=0 ttl=62 time=0.600 ms
ping_40 | 64 bytes from 128.223.32.36: seq=3 ttl=62 time=0.613 ms
ping_32 | 64 bytes from 128.223.32.36: seq=6 ttl=62 time=0.661 ms
ping_38 | PING 128.223.32.36 (128.223.32.36): 56 data bytes
ping_5  | 64 bytes from 128.223.32.36: seq=14 ttl=62 time=0.917 ms
ping_4  | 64 bytes from 128.223.32.36: seq=4 ttl=62 time=0.944 ms
ping_11 | 64 bytes from 128.223.32.36: seq=9 ttl=62 time=0.598 ms
ping_1  | 64 bytes from 128.223.32.36: seq=16 ttl=62 time=0.633 ms
ping_40 | 64 bytes from 128.223.32.36: seq=4 ttl=62 time=0.855 ms
ping_40 | 64 bytes from 128.223.32.36: seq=5 ttl=62 time=0.592 ms
softwareoverhead_ping_13 exited with code 0
ping_22 | 64 bytes from 128.223.32.36: seq=1 ttl=62 time=0.472 ms
ping_11 | 64 bytes from 128.223.32.36: seq=10 ttl=62 time=0.628 ms
ping_9  | 64 bytes from 128.223.32.36: seq=17 ttl=62 time=0.429 ms
ping_32 | 64 bytes from 128.223.32.36: seq=7 ttl=62 time=0.862 ms
ping_5  | 64 bytes from 128.223.32.36: seq=15 ttl=62 time=0.611 ms
ping_4  | 64 bytes from 128.223.32.36: seq=5 ttl=62 time=0.940 ms
ping_22 | 64 bytes from 128.223.32.36: seq=2 ttl=62 time=0.447 ms
ping_31 | 64 bytes from 128.223.32.36: seq=4 ttl=62 time=0.620 ms
ping_39 | PING 128.223.32.36 (128.223.32.36): 56 data bytes
ping_10 | 64 bytes from 128.223.32.36: seq=14 ttl=62 time=0.464 ms
ping_22 | 64 bytes from 128.223.32.36: seq=3 ttl=62 time=0.844 ms
ping_36 | 64 bytes from 128.223.32.36: seq=7 ttl=62 time=0.829 ms
ping_33 | 64 bytes from 128.223.32.36: seq=3 ttl=62 time=0.902 ms
ping_31 | 64 bytes from 128.223.32.36: seq=5 ttl=62 time=0.776 ms
ping_40 | 64 bytes from 128.223.32.36: seq=6 ttl=62 time=0.897 ms
ping_5  | 64 bytes from 128.223.32.36: seq=16 ttl=62 time=0.621 ms
ping_38 | 64 bytes from 128.223.32.36: seq=4 ttl=62 time=0.642 ms
ping_22 | 64 bytes from 128.223.32.36: seq=4 ttl=62 time=0.913 ms
ping_1  | 64 bytes from 128.223.32.36: seq=17 ttl=62 time=0.672 ms
ping_11 | 64 bytes from 128.223.32.36: seq=11 ttl=62 time=0.607 ms
ping_9  | 64 bytes from 128.223.32.36: seq=18 ttl=62 time=0.501 ms
ping_24 | PING 128.223.32.36 (128.223.32.36): 56 data bytes
ping_32 | 64 bytes from 128.223.32.36: seq=8 ttl=62 time=0.420 ms
ping_11 | 64 bytes from 128.223.32.36: seq=12 ttl=62 time=0.767 ms
ping_33 | 64 bytes from 128.223.32.36: seq=4 ttl=62 time=0.576 ms
ping_36 | 64 bytes from 128.223.32.36: seq=8 ttl=62 time=0.533 ms
ping_5  | 64 bytes from 128.223.32.36: seq=17 ttl=62 time=0.657 ms
softwareoverhead_ping_2 exited with code 0
ping_10 | 64 bytes from 128.223.32.36: seq=15 ttl=62 time=0.601 ms
ping_40 | 64 bytes from 128.223.32.36: seq=7 ttl=62 time=0.860 ms
ping_11 | 64 bytes from 128.223.32.36: seq=13 ttl=62 time=0.667 ms
ping_22 | 64 bytes from 128.223.32.36: seq=5 ttl=62 time=0.918 ms
ping_38 | 64 bytes from 128.223.32.36: seq=5 ttl=62 time=0.445 ms
ping_19 | 64 bytes from 128.223.32.36: seq=6 ttl=62 time=0.476 ms
ping_11 | 64 bytes from 128.223.32.36: seq=15 ttl=62 time=0.628 ms
ping_32 | 64 bytes from 128.223.32.36: seq=9 ttl=62 time=0.719 ms
ping_5  | 64 bytes from 128.223.32.36: seq=18 ttl=62 time=0.596 ms
ping_19 | 64 bytes from 128.223.32.36: seq=7 ttl=62 time=0.584 ms
ping_35 | PING 128.223.32.36 (128.223.32.36): 56 data bytes
ping_10 | 64 bytes from 128.223.32.36: seq=16 ttl=62 time=0.920 ms
ping_1  | 64 bytes from 128.223.32.36: seq=18 ttl=62 time=0.501 ms
ping_24 | 64 bytes from 128.223.32.36: seq=4 ttl=62 time=0.931 ms
ping_27 | PING 128.223.32.36 (128.223.32.36): 56 data bytes
ping_10 | 64 bytes from 128.223.32.36: seq=17 ttl=62 time=0.664 ms
ping_36 | 64 bytes from 128.223.32.36: seq=9 ttl=62 time=0.939 ms
ping_22 | 64 bytes from 128.223.32.36: seq=6 ttl=62 time=0.476 ms
ping_19 | 64 bytes from 128.223.32.36: seq=8 ttl=62 time=0.858 ms
ping_10 | 64 bytes from 128.223.32.36: seq=18 ttl=62 time=0.526 ms
ping_5  | 64 bytes from 128.223.32.36: seq=19 ttl=62 time=0.585 ms
ping_33 | 64 bytes from 128.223.32.36: seq=5 ttl=62 time=0.894 ms
ping_22 | 64 bytes from 128.223.32.36: seq=7 ttl=62 time=0.435 ms
ping_37 | PING 128.223.32.36 (128.223.32.36): 56 data bytes
ping_28 | PING 128.223.32.36 (128.223.32.36): 56 data bytes
ping_33 | 64 bytes from 128.223.32.36: seq=6 ttl=62 time=0.486 ms
ping_40 | 64 bytes from 128.223.32.36: seq=8 ttl=62 time=0.499 ms
ping_1  | 64 bytes from 128.223.32.36: seq=19 ttl=62 time=0.478 ms
ping_38 | 64 bytes from 128.223.32.36: seq=6 ttl=62 time=0.482 ms
ping_24 | 64 bytes from 128.223.32.36: seq=5 ttl=62 time=0.876 ms
ping_10 | 64 bytes from 128.223.32.36: seq=19 ttl=62 time=0.769 ms
ping_5  | 64 bytes from 128.223.32.36: seq=21 ttl=62 time=0.610 ms
ping_24 | 64 bytes from 128.223.32.36: seq=6 ttl=62 time=0.455 ms
ping_28 | 64 bytes from 128.223.32.36: seq=0 ttl=62 time=0.566 ms
ping_36 | 64 bytes from 128.223.32.36: seq=10 ttl=62 time=0.885 ms
ping_11 | 64 bytes from 128.223.32.36: seq=16 ttl=62 time=0.711 ms
ping_1  | 64 bytes from 128.223.32.36: seq=20 ttl=62 time=0.796 ms
ping_24 | 64 bytes from 128.223.32.36: seq=7 ttl=62 time=0.676 ms
ping_33 | 64 bytes from 128.223.32.36: seq=7 ttl=62 time=0.451 ms
ping_30 | PING 128.223.32.36 (128.223.32.36): 56 data bytes
ping_22 | 64 bytes from 128.223.32.36: seq=8 ttl=62 time=0.456 ms
ping_38 | 64 bytes from 128.223.32.36: seq=7 ttl=62 time=0.634 ms
ping_5  | 64 bytes from 128.223.32.36: seq=22 ttl=62 time=0.658 ms
ping_40 | 64 bytes from 128.223.32.36: seq=9 ttl=62 time=0.444 ms
ping_10 | 64 bytes from 128.223.32.36: seq=20 ttl=62 time=0.646 ms
ping_28 | 64 bytes from 128.223.32.36: seq=1 ttl=62 time=0.831 ms
ping_1  | 64 bytes from 128.223.32.36: seq=22 ttl=62 time=0.611 ms
ping_24 | 64 bytes from 128.223.32.36: seq=8 ttl=62 time=0.650 ms
ping_21 | PING 128.223.32.36 (128.223.32.36): 56 data bytes
ping_34 | PING 128.223.32.36 (128.223.32.36): 56 data bytes
ping_10 | 64 bytes from 128.223.32.36: seq=21 ttl=62 time=0.679 ms
ping_40 | 64 bytes from 128.223.32.36: seq=10 ttl=62 time=0.813 ms
ping_25 | PING 128.223.32.36 (128.223.32.36): 56 data bytes
ping_10 | 64 bytes from 128.223.32.36: seq=22 ttl=62 time=0.618 ms
ping_28 | 64 bytes from 128.223.32.36: seq=2 ttl=62 time=0.449 ms
ping_40 | 64 bytes from 128.223.32.36: seq=11 ttl=62 time=0.427 ms
ping_38 | 64 bytes from 128.223.32.36: seq=8 ttl=62 time=0.659 ms
ping_33 | 64 bytes from 128.223.32.36: seq=8 ttl=62 time=0.899 ms
ping_28 | 64 bytes from 128.223.32.36: seq=3 ttl=62 time=0.550 ms
ping_21 | 64 bytes from 128.223.32.36: seq=2 ttl=62 time=0.687 ms
ping_1  | 64 bytes from 128.223.32.36: seq=23 ttl=62 time=0.653 ms
ping_33 | 64 bytes from 128.223.32.36: seq=9 ttl=62 time=0.651 ms
ping_38 | 64 bytes from 128.223.32.36: seq=9 ttl=62 time=0.629 ms
ping_10 | 64 bytes from 128.223.32.36: seq=23 ttl=62 time=0.652 ms
ping_21 | 64 bytes from 128.223.32.36: seq=3 ttl=62 time=0.562 ms
ping_29 | PING 128.223.32.36 (128.223.32.36): 56 data bytes
ping_10 | 64 bytes from 128.223.32.36: seq=24 ttl=62 time=0.823 ms
ping_10 | 
ping_10 | --- 128.223.32.36 ping statistics ---
ping_10 | 25 packets transmitted, 25 packets received, 0% packet loss
ping_10 | round-trip min/avg/max = 0.451/0.695/0.920 ms
ping_28 | 64 bytes from 128.223.32.36: seq=5 ttl=62 time=0.441 ms
ping_21 | 64 bytes from 128.223.32.36: seq=4 ttl=62 time=0.646 ms
ping_33 | 64 bytes from 128.223.32.36: seq=10 ttl=62 time=0.628 ms
ping_26 | PING 128.223.32.36 (128.223.32.36): 56 data bytes
ping_21 | 64 bytes from 128.223.32.36: seq=5 ttl=62 time=0.420 ms
ping_23 | PING 128.223.32.36 (128.223.32.36): 56 data bytes
ping_28 | 64 bytes from 128.223.32.36: seq=6 ttl=62 time=0.599 ms
softwareoverhead_ping_10 exited with code 0
ping_32 | 64 bytes from 128.223.32.36: seq=10 ttl=62 time=0.452 ms
ping_1  | 64 bytes from 128.223.32.36: seq=24 ttl=62 time=0.596 ms
softwareoverhead_ping_3 exited with code 0
ping_36 | 64 bytes from 128.223.32.36: seq=11 ttl=62 time=0.498 ms
ping_22 | 64 bytes from 128.223.32.36: seq=9 ttl=62 time=0.643 ms
ping_33 | 64 bytes from 128.223.32.36: seq=11 ttl=62 time=0.870 ms
ping_11 | 64 bytes from 128.223.32.36: seq=17 ttl=62 time=0.636 ms
ping_28 | 64 bytes from 128.223.32.36: seq=7 ttl=62 time=0.719 ms
ping_38 | 64 bytes from 128.223.32.36: seq=10 ttl=62 time=0.916 ms
ping_6  | 64 bytes from 128.223.32.36: seq=20 ttl=62 time=0.775 ms
ping_21 | 64 bytes from 128.223.32.36: seq=6 ttl=62 time=0.644 ms
ping_15 | 
ping_15 | --- 128.223.32.36 ping statistics ---
ping_15 | 25 packets transmitted, 10 packets received, 60% packet loss
ping_15 | round-trip min/avg/max = 0.386/0.595/0.805 ms
ping_24 | 64 bytes from 128.223.32.36: seq=9 ttl=62 time=0.451 ms
ping_23 | 64 bytes from 128.223.32.36: seq=1 ttl=62 time=0.740 ms
ping_40 | 64 bytes from 128.223.32.36: seq=12 ttl=62 time=0.638 ms
ping_32 | 64 bytes from 128.223.32.36: seq=11 ttl=62 time=0.592 ms
softwareoverhead_ping_15 exited with code 0
ping_1  | 
ping_1  | --- 128.223.32.36 ping statistics ---
ping_1  | 25 packets transmitted, 24 packets received, 4% packet loss
ping_1  | round-trip min/avg/max = 0.425/0.816/4.007 ms
ping_36 | 64 bytes from 128.223.32.36: seq=12 ttl=62 time=0.535 ms
ping_22 | 64 bytes from 128.223.32.36: seq=10 ttl=62 time=0.475 ms
ping_33 | 64 bytes from 128.223.32.36: seq=12 ttl=62 time=0.566 ms
ping_5  | 64 bytes from 128.223.32.36: seq=24 ttl=62 time=0.582 ms
ping_11 | 64 bytes from 128.223.32.36: seq=18 ttl=62 time=0.474 ms
softwareoverhead_ping_1 exited with code 0
ping_28 | 64 bytes from 128.223.32.36: seq=8 ttl=62 time=0.617 ms
ping_38 | 64 bytes from 128.223.32.36: seq=11 ttl=62 time=0.656 ms
ping_6  | 64 bytes from 128.223.32.36: seq=21 ttl=62 time=0.646 ms
ping_21 | 64 bytes from 128.223.32.36: seq=7 ttl=62 time=0.922 ms
ping_14 | 
ping_14 | --- 128.223.32.36 ping statistics ---
ping_14 | 25 packets transmitted, 5 packets received, 80% packet loss
ping_14 | round-trip min/avg/max = 0.522/0.618/0.725 ms
ping_24 | 64 bytes from 128.223.32.36: seq=10 ttl=62 time=0.613 ms
ping_23 | 64 bytes from 128.223.32.36: seq=2 ttl=62 time=0.660 ms
ping_40 | 64 bytes from 128.223.32.36: seq=13 ttl=62 time=0.624 ms
ping_32 | 64 bytes from 128.223.32.36: seq=12 ttl=62 time=0.476 ms
softwareoverhead_ping_14 exited with code 0
ping_36 | 64 bytes from 128.223.32.36: seq=13 ttl=62 time=0.874 ms
ping_33 | 64 bytes from 128.223.32.36: seq=13 ttl=62 time=0.722 ms
ping_5  | 
ping_5  | --- 128.223.32.36 ping statistics ---
ping_5  | 25 packets transmitted, 23 packets received, 8% packet loss
ping_5  | round-trip min/avg/max = 0.452/0.674/0.920 ms
ping_11 | 64 bytes from 128.223.32.36: seq=19 ttl=62 time=0.423 ms
ping_28 | 64 bytes from 128.223.32.36: seq=9 ttl=62 time=0.701 ms
ping_19 | 64 bytes from 128.223.32.36: seq=18 ttl=62 time=0.854 ms
ping_38 | 64 bytes from 128.223.32.36: seq=12 ttl=62 time=0.566 ms
ping_6  | 64 bytes from 128.223.32.36: seq=22 ttl=62 time=0.709 ms
ping_21 | 64 bytes from 128.223.32.36: seq=8 ttl=62 time=0.459 ms
ping_4  | 64 bytes from 128.223.32.36: seq=17 ttl=62 time=1.045 ms
softwareoverhead_ping_5 exited with code 0
ping_24 | 64 bytes from 128.223.32.36: seq=11 ttl=62 time=0.664 ms
ping_23 | 64 bytes from 128.223.32.36: seq=3 ttl=62 time=0.921 ms
ping_40 | 64 bytes from 128.223.32.36: seq=14 ttl=62 time=0.965 ms
ping_32 | 64 bytes from 128.223.32.36: seq=13 ttl=62 time=0.926 ms
ping_36 | 64 bytes from 128.223.32.36: seq=14 ttl=62 time=0.824 ms
ping_30 | 64 bytes from 128.223.32.36: seq=9 ttl=62 time=0.830 ms
ping_22 | 64 bytes from 128.223.32.36: seq=12 ttl=62 time=0.878 ms
ping_33 | 64 bytes from 128.223.32.36: seq=14 ttl=62 time=0.826 ms
ping_11 | 64 bytes from 128.223.32.36: seq=20 ttl=62 time=0.612 ms
ping_28 | 64 bytes from 128.223.32.36: seq=10 ttl=62 time=0.910 ms
ping_19 | 64 bytes from 128.223.32.36: seq=19 ttl=62 time=0.597 ms
ping_38 | 64 bytes from 128.223.32.36: seq=13 ttl=62 time=0.737 ms
ping_6  | 64 bytes from 128.223.32.36: seq=23 ttl=62 time=0.884 ms
ping_20 | 
ping_20 | --- 128.223.32.36 ping statistics ---
ping_20 | 25 packets transmitted, 12 packets received, 52% packet loss
ping_20 | round-trip min/avg/max = 0.418/0.656/0.908 ms
ping_21 | 64 bytes from 128.223.32.36: seq=9 ttl=62 time=0.886 ms
ping_4  | 64 bytes from 128.223.32.36: seq=18 ttl=62 time=0.492 ms
ping_24 | 64 bytes from 128.223.32.36: seq=12 ttl=62 time=0.607 ms
ping_23 | 64 bytes from 128.223.32.36: seq=4 ttl=62 time=0.639 ms
ping_40 | 64 bytes from 128.223.32.36: seq=15 ttl=62 time=0.477 ms
ping_32 | 64 bytes from 128.223.32.36: seq=14 ttl=62 time=0.702 ms
softwareoverhead_ping_20 exited with code 0
ping_36 | 64 bytes from 128.223.32.36: seq=15 ttl=62 time=0.653 ms
ping_30 | 64 bytes from 128.223.32.36: seq=10 ttl=62 time=0.601 ms
ping_22 | 64 bytes from 128.223.32.36: seq=13 ttl=62 time=0.663 ms
ping_33 | 64 bytes from 128.223.32.36: seq=15 ttl=62 time=0.820 ms
ping_11 | 64 bytes from 128.223.32.36: seq=21 ttl=62 time=0.914 ms
ping_28 | 64 bytes from 128.223.32.36: seq=11 ttl=62 time=0.841 ms
ping_19 | 64 bytes from 128.223.32.36: seq=20 ttl=62 time=0.823 ms
ping_38 | 64 bytes from 128.223.32.36: seq=14 ttl=62 time=0.927 ms
ping_18 | 
ping_18 | --- 128.223.32.36 ping statistics ---
ping_18 | 25 packets transmitted, 9 packets received, 64% packet loss
ping_18 | round-trip min/avg/max = 0.444/0.554/0.783 ms
ping_6  | 64 bytes from 128.223.32.36: seq=24 ttl=62 time=0.803 ms
ping_21 | 64 bytes from 128.223.32.36: seq=10 ttl=62 time=0.449 ms
ping_4  | 64 bytes from 128.223.32.36: seq=19 ttl=62 time=0.803 ms
ping_24 | 64 bytes from 128.223.32.36: seq=13 ttl=62 time=0.959 ms
ping_23 | 64 bytes from 128.223.32.36: seq=5 ttl=62 time=0.405 ms
softwareoverhead_ping_18 exited with code 0
ping_40 | 64 bytes from 128.223.32.36: seq=16 ttl=62 time=0.848 ms
ping_32 | 64 bytes from 128.223.32.36: seq=15 ttl=62 time=0.856 ms
ping_36 | 64 bytes from 128.223.32.36: seq=16 ttl=62 time=0.622 ms
ping_30 | 64 bytes from 128.223.32.36: seq=11 ttl=62 time=0.916 ms
ping_22 | 64 bytes from 128.223.32.36: seq=14 ttl=62 time=0.850 ms
ping_33 | 64 bytes from 128.223.32.36: seq=16 ttl=62 time=0.553 ms
ping_11 | 64 bytes from 128.223.32.36: seq=22 ttl=62 time=0.882 ms
ping_28 | 64 bytes from 128.223.32.36: seq=12 ttl=62 time=0.872 ms
ping_19 | 64 bytes from 128.223.32.36: seq=21 ttl=62 time=0.926 ms
ping_38 | 64 bytes from 128.223.32.36: seq=15 ttl=62 time=0.815 ms
ping_6  | 
ping_6  | --- 128.223.32.36 ping statistics ---
ping_6  | 25 packets transmitted, 9 packets received, 64% packet loss
ping_6  | round-trip min/avg/max = 0.424/0.713/0.884 ms
ping_9  | 64 bytes from 128.223.32.36: seq=24 ttl=62 time=0.662 ms
ping_4  | 64 bytes from 128.223.32.36: seq=20 ttl=62 time=0.778 ms
ping_24 | 64 bytes from 128.223.32.36: seq=14 ttl=62 time=0.646 ms
ping_23 | 64 bytes from 128.223.32.36: seq=6 ttl=62 time=0.474 ms
ping_40 | 64 bytes from 128.223.32.36: seq=17 ttl=62 time=0.413 ms
softwareoverhead_ping_6 exited with code 0
ping_32 | 64 bytes from 128.223.32.36: seq=16 ttl=62 time=0.637 ms
ping_36 | 64 bytes from 128.223.32.36: seq=17 ttl=62 time=0.946 ms
ping_30 | 64 bytes from 128.223.32.36: seq=12 ttl=62 time=0.875 ms
ping_22 | 64 bytes from 128.223.32.36: seq=15 ttl=62 time=0.897 ms
ping_33 | 64 bytes from 128.223.32.36: seq=17 ttl=62 time=0.874 ms
ping_11 | 64 bytes from 128.223.32.36: seq=23 ttl=62 time=0.863 ms
ping_28 | 64 bytes from 128.223.32.36: seq=13 ttl=62 time=0.821 ms
ping_19 | 64 bytes from 128.223.32.36: seq=22 ttl=62 time=0.821 ms
ping_38 | 64 bytes from 128.223.32.36: seq=16 ttl=62 time=0.849 ms
ping_9  | 
ping_9  | --- 128.223.32.36 ping statistics ---
ping_9  | 25 packets transmitted, 13 packets received, 48% packet loss
ping_9  | round-trip min/avg/max = 0.424/0.597/0.872 ms
ping_29 | 64 bytes from 128.223.32.36: seq=8 ttl=62 time=0.824 ms
ping_21 | 64 bytes from 128.223.32.36: seq=12 ttl=62 time=0.450 ms
ping_4  | 64 bytes from 128.223.32.36: seq=21 ttl=62 time=0.410 ms
ping_24 | 64 bytes from 128.223.32.36: seq=15 ttl=62 time=0.828 ms
ping_23 | 64 bytes from 128.223.32.36: seq=7 ttl=62 time=0.470 ms
ping_40 | 64 bytes from 128.223.32.36: seq=18 ttl=62 time=0.492 ms
softwareoverhead_ping_9 exited with code 0
ping_32 | 64 bytes from 128.223.32.36: seq=17 ttl=62 time=0.847 ms
ping_36 | 64 bytes from 128.223.32.36: seq=18 ttl=62 time=0.815 ms
ping_30 | 64 bytes from 128.223.32.36: seq=13 ttl=62 time=0.829 ms
ping_22 | 64 bytes from 128.223.32.36: seq=16 ttl=62 time=0.878 ms
ping_33 | 64 bytes from 128.223.32.36: seq=18 ttl=62 time=0.852 ms
ping_11 | 64 bytes from 128.223.32.36: seq=24 ttl=62 time=0.858 ms
ping_28 | 64 bytes from 128.223.32.36: seq=14 ttl=62 time=0.642 ms
ping_19 | 64 bytes from 128.223.32.36: seq=23 ttl=62 time=0.821 ms
ping_38 | 64 bytes from 128.223.32.36: seq=17 ttl=62 time=0.814 ms
ping_8  | 
ping_8  | --- 128.223.32.36 ping statistics ---
ping_8  | 25 packets transmitted, 7 packets received, 72% packet loss
ping_8  | round-trip min/avg/max = 0.438/0.572/0.854 ms
ping_29 | 64 bytes from 128.223.32.36: seq=9 ttl=62 time=0.420 ms
ping_21 | 64 bytes from 128.223.32.36: seq=13 ttl=62 time=0.710 ms
ping_4  | 64 bytes from 128.223.32.36: seq=22 ttl=62 time=0.604 ms
ping_24 | 64 bytes from 128.223.32.36: seq=16 ttl=62 time=0.460 ms
softwareoverhead_ping_8 exited with code 0
ping_23 | 64 bytes from 128.223.32.36: seq=8 ttl=62 time=0.598 ms
ping_40 | 64 bytes from 128.223.32.36: seq=19 ttl=62 time=0.672 ms
ping_32 | 64 bytes from 128.223.32.36: seq=18 ttl=62 time=0.828 ms
ping_36 | 64 bytes from 128.223.32.36: seq=19 ttl=62 time=0.907 ms
ping_30 | 64 bytes from 128.223.32.36: seq=14 ttl=62 time=0.912 ms
ping_22 | 64 bytes from 128.223.32.36: seq=17 ttl=62 time=0.864 ms
ping_35 | 64 bytes from 128.223.32.36: seq=16 ttl=62 time=0.723 ms
ping_33 | 64 bytes from 128.223.32.36: seq=19 ttl=62 time=0.917 ms
ping_11 | 
ping_11 | --- 128.223.32.36 ping statistics ---
ping_11 | 25 packets transmitted, 24 packets received, 4% packet loss
ping_11 | round-trip min/avg/max = 0.423/0.668/0.962 ms
ping_28 | 64 bytes from 128.223.32.36: seq=15 ttl=62 time=0.435 ms
ping_19 | 64 bytes from 128.223.32.36: seq=24 ttl=62 time=0.458 ms
ping_38 | 64 bytes from 128.223.32.36: seq=18 ttl=62 time=0.418 ms
ping_29 | 64 bytes from 128.223.32.36: seq=10 ttl=62 time=0.587 ms
ping_21 | 64 bytes from 128.223.32.36: seq=14 ttl=62 time=0.541 ms
ping_4  | 64 bytes from 128.223.32.36: seq=23 ttl=62 time=0.621 ms
ping_24 | 64 bytes from 128.223.32.36: seq=17 ttl=62 time=0.476 ms
softwareoverhead_ping_11 exited with code 0
ping_23 | 64 bytes from 128.223.32.36: seq=9 ttl=62 time=0.840 ms
ping_32 | 64 bytes from 128.223.32.36: seq=19 ttl=62 time=0.809 ms
ping_36 | 64 bytes from 128.223.32.36: seq=20 ttl=62 time=0.912 ms
ping_30 | 64 bytes from 128.223.32.36: seq=15 ttl=62 time=0.913 ms
ping_22 | 64 bytes from 128.223.32.36: seq=18 ttl=62 time=0.879 ms
ping_37 | 64 bytes from 128.223.32.36: seq=16 ttl=62 time=0.921 ms
ping_33 | 64 bytes from 128.223.32.36: seq=20 ttl=62 time=0.822 ms
ping_28 | 64 bytes from 128.223.32.36: seq=16 ttl=62 time=0.910 ms
ping_19 | 
ping_19 | --- 128.223.32.36 ping statistics ---
ping_19 | 25 packets transmitted, 16 packets received, 36% packet loss
ping_19 | round-trip min/avg/max = 0.442/0.660/0.926 ms
ping_38 | 64 bytes from 128.223.32.36: seq=19 ttl=62 time=0.607 ms
ping_34 | 64 bytes from 128.223.32.36: seq=14 ttl=62 time=0.921 ms
ping_29 | 64 bytes from 128.223.32.36: seq=11 ttl=62 time=0.438 ms
ping_26 | 64 bytes from 128.223.32.36: seq=12 ttl=62 time=0.446 ms
ping_4  | 64 bytes from 128.223.32.36: seq=24 ttl=62 time=0.825 ms
ping_24 | 64 bytes from 128.223.32.36: seq=18 ttl=62 time=0.753 ms
ping_23 | 64 bytes from 128.223.32.36: seq=10 ttl=62 time=0.514 ms
softwareoverhead_ping_19 exited with code 0
ping_40 | 64 bytes from 128.223.32.36: seq=21 ttl=62 time=0.635 ms
ping_32 | 64 bytes from 128.223.32.36: seq=20 ttl=62 time=0.861 ms
ping_36 | 64 bytes from 128.223.32.36: seq=21 ttl=62 time=0.820 ms
ping_30 | 64 bytes from 128.223.32.36: seq=16 ttl=62 time=0.628 ms
ping_22 | 64 bytes from 128.223.32.36: seq=19 ttl=62 time=0.880 ms
ping_37 | 64 bytes from 128.223.32.36: seq=17 ttl=62 time=0.873 ms
ping_33 | 64 bytes from 128.223.32.36: seq=21 ttl=62 time=0.878 ms
ping_28 | 64 bytes from 128.223.32.36: seq=17 ttl=62 time=0.811 ms
ping_38 | 64 bytes from 128.223.32.36: seq=20 ttl=62 time=0.779 ms
ping_29 | 64 bytes from 128.223.32.36: seq=12 ttl=62 time=0.868 ms
ping_26 | 64 bytes from 128.223.32.36: seq=13 ttl=62 time=0.918 ms
ping_4  | 
ping_4  | --- 128.223.32.36 ping statistics ---
ping_4  | 25 packets transmitted, 14 packets received, 44% packet loss
ping_4  | round-trip min/avg/max = 0.410/0.708/1.045 ms
ping_24 | 64 bytes from 128.223.32.36: seq=19 ttl=62 time=0.626 ms
ping_23 | 64 bytes from 128.223.32.36: seq=11 ttl=62 time=0.444 ms
ping_40 | 64 bytes from 128.223.32.36: seq=22 ttl=62 time=0.678 ms
ping_32 | 64 bytes from 128.223.32.36: seq=21 ttl=62 time=0.502 ms
softwareoverhead_ping_4 exited with code 0
ping_36 | 64 bytes from 128.223.32.36: seq=22 ttl=62 time=0.682 ms
ping_30 | 64 bytes from 128.223.32.36: seq=17 ttl=62 time=0.812 ms
ping_22 | 64 bytes from 128.223.32.36: seq=20 ttl=62 time=0.628 ms
ping_35 | 64 bytes from 128.223.32.36: seq=19 ttl=62 time=0.980 ms
ping_37 | 64 bytes from 128.223.32.36: seq=18 ttl=62 time=0.945 ms
ping_33 | 64 bytes from 128.223.32.36: seq=22 ttl=62 time=0.848 ms
ping_28 | 64 bytes from 128.223.32.36: seq=18 ttl=62 time=0.822 ms
ping_38 | 64 bytes from 128.223.32.36: seq=21 ttl=62 time=0.651 ms
ping_31 | 64 bytes from 128.223.32.36: seq=23 ttl=62 time=0.920 ms
ping_29 | 64 bytes from 128.223.32.36: seq=13 ttl=62 time=0.928 ms
ping_26 | 64 bytes from 128.223.32.36: seq=14 ttl=62 time=0.948 ms
ping_24 | 64 bytes from 128.223.32.36: seq=20 ttl=62 time=0.919 ms
ping_23 | 64 bytes from 128.223.32.36: seq=12 ttl=62 time=0.835 ms
ping_40 | 64 bytes from 128.223.32.36: seq=23 ttl=62 time=0.884 ms
ping_32 | 64 bytes from 128.223.32.36: seq=22 ttl=62 time=0.666 ms
ping_36 | 64 bytes from 128.223.32.36: seq=23 ttl=62 time=0.615 ms
ping_30 | 64 bytes from 128.223.32.36: seq=18 ttl=62 time=0.597 ms
ping_22 | 64 bytes from 128.223.32.36: seq=21 ttl=62 time=0.820 ms
ping_37 | 64 bytes from 128.223.32.36: seq=19 ttl=62 time=0.878 ms
ping_33 | 64 bytes from 128.223.32.36: seq=23 ttl=62 time=0.913 ms
ping_28 | 64 bytes from 128.223.32.36: seq=19 ttl=62 time=0.777 ms
ping_38 | 64 bytes from 128.223.32.36: seq=22 ttl=62 time=0.755 ms
ping_31 | 64 bytes from 128.223.32.36: seq=24 ttl=62 time=0.852 ms
ping_29 | 64 bytes from 128.223.32.36: seq=14 ttl=62 time=0.905 ms
ping_27 | 64 bytes from 128.223.32.36: seq=20 ttl=62 time=0.863 ms
ping_24 | 64 bytes from 128.223.32.36: seq=21 ttl=62 time=0.824 ms
ping_23 | 64 bytes from 128.223.32.36: seq=13 ttl=62 time=0.816 ms
ping_40 | 64 bytes from 128.223.32.36: seq=24 ttl=62 time=0.814 ms
ping_32 | 64 bytes from 128.223.32.36: seq=23 ttl=62 time=0.920 ms
ping_36 | 64 bytes from 128.223.32.36: seq=24 ttl=62 time=0.654 ms
ping_30 | 64 bytes from 128.223.32.36: seq=19 ttl=62 time=0.607 ms
ping_35 | 64 bytes from 128.223.32.36: seq=21 ttl=62 time=0.622 ms
ping_33 | 64 bytes from 128.223.32.36: seq=24 ttl=62 time=0.870 ms
ping_33 | 
ping_33 | --- 128.223.32.36 ping statistics ---
ping_33 | 25 packets transmitted, 25 packets received, 0% packet loss
ping_33 | round-trip min/avg/max = 0.451/0.758/0.917 ms
ping_28 | 64 bytes from 128.223.32.36: seq=20 ttl=62 time=0.493 ms
ping_38 | 64 bytes from 128.223.32.36: seq=23 ttl=62 time=0.874 ms
ping_31 | 
ping_31 | --- 128.223.32.36 ping statistics ---
ping_31 | 25 packets transmitted, 8 packets received, 68% packet loss
ping_31 | round-trip min/avg/max = 0.442/0.694/0.920 ms
ping_34 | 64 bytes from 128.223.32.36: seq=18 ttl=62 time=0.663 ms
ping_29 | 64 bytes from 128.223.32.36: seq=15 ttl=62 time=0.410 ms
ping_27 | 64 bytes from 128.223.32.36: seq=21 ttl=62 time=0.438 ms
softwareoverhead_ping_33 exited with code 0
ping_24 | 64 bytes from 128.223.32.36: seq=22 ttl=62 time=0.621 ms
softwareoverhead_ping_31 exited with code 0
ping_23 | 64 bytes from 128.223.32.36: seq=14 ttl=62 time=0.472 ms
ping_40 | 
ping_40 | --- 128.223.32.36 ping statistics ---
ping_40 | 25 packets transmitted, 24 packets received, 4% packet loss
ping_40 | round-trip min/avg/max = 0.413/0.663/0.965 ms
ping_32 | 64 bytes from 128.223.32.36: seq=24 ttl=62 time=0.638 ms
ping_36 | 
ping_36 | --- 128.223.32.36 ping statistics ---
ping_36 | 25 packets transmitted, 22 packets received, 12% packet loss
ping_36 | round-trip min/avg/max = 0.489/0.746/0.946 ms
ping_30 | 64 bytes from 128.223.32.36: seq=20 ttl=62 time=0.687 ms
ping_22 | 64 bytes from 128.223.32.36: seq=23 ttl=62 time=0.428 ms
ping_37 | 64 bytes from 128.223.32.36: seq=21 ttl=62 time=0.519 ms
ping_35 | 64 bytes from 128.223.32.36: seq=22 ttl=62 time=0.491 ms
softwareoverhead_ping_40 exited with code 0
ping_28 | 64 bytes from 128.223.32.36: seq=21 ttl=62 time=0.587 ms
ping_38 | 64 bytes from 128.223.32.36: seq=24 ttl=62 time=0.576 ms
ping_34 | 64 bytes from 128.223.32.36: seq=19 ttl=62 time=0.517 ms
softwareoverhead_ping_36 exited with code 0
ping_29 | 64 bytes from 128.223.32.36: seq=16 ttl=62 time=0.551 ms
ping_25 | 64 bytes from 128.223.32.36: seq=18 ttl=62 time=0.613 ms
ping_27 | 64 bytes from 128.223.32.36: seq=22 ttl=62 time=0.851 ms
ping_24 | 64 bytes from 128.223.32.36: seq=23 ttl=62 time=0.913 ms
ping_23 | 64 bytes from 128.223.32.36: seq=15 ttl=62 time=0.901 ms
ping_32 | 
ping_32 | --- 128.223.32.36 ping statistics ---
ping_32 | 25 packets transmitted, 23 packets received, 8% packet loss
ping_32 | round-trip min/avg/max = 0.420/0.696/0.926 ms
ping_30 | 64 bytes from 128.223.32.36: seq=21 ttl=62 time=0.661 ms
ping_22 | 64 bytes from 128.223.32.36: seq=24 ttl=62 time=0.678 ms
ping_37 | 64 bytes from 128.223.32.36: seq=22 ttl=62 time=0.511 ms
ping_35 | 64 bytes from 128.223.32.36: seq=23 ttl=62 time=0.545 ms
softwareoverhead_ping_32 exited with code 0
ping_28 | 64 bytes from 128.223.32.36: seq=22 ttl=62 time=0.689 ms
ping_38 | 
ping_38 | --- 128.223.32.36 ping statistics ---
ping_38 | 25 packets transmitted, 21 packets received, 16% packet loss
ping_38 | round-trip min/avg/max = 0.418/0.687/0.927 ms
ping_34 | 64 bytes from 128.223.32.36: seq=20 ttl=62 time=0.709 ms
ping_29 | 64 bytes from 128.223.32.36: seq=17 ttl=62 time=0.477 ms
ping_25 | 64 bytes from 128.223.32.36: seq=19 ttl=62 time=0.449 ms
ping_27 | 64 bytes from 128.223.32.36: seq=23 ttl=62 time=0.374 ms
ping_26 | 64 bytes from 128.223.32.36: seq=18 ttl=62 time=0.398 ms
ping_21 | 64 bytes from 128.223.32.36: seq=21 ttl=62 time=0.697 ms
ping_24 | 64 bytes from 128.223.32.36: seq=24 ttl=62 time=0.661 ms
ping_23 | 64 bytes from 128.223.32.36: seq=16 ttl=62 time=0.475 ms
softwareoverhead_ping_38 exited with code 0
ping_30 | 64 bytes from 128.223.32.36: seq=22 ttl=62 time=0.674 ms
ping_22 | 
ping_22 | --- 128.223.32.36 ping statistics ---
ping_22 | 25 packets transmitted, 23 packets received, 8% packet loss
ping_22 | round-trip min/avg/max = 0.428/0.696/0.918 ms
ping_37 | 64 bytes from 128.223.32.36: seq=23 ttl=62 time=0.849 ms
ping_35 | 64 bytes from 128.223.32.36: seq=24 ttl=62 time=0.858 ms
ping_28 | 64 bytes from 128.223.32.36: seq=23 ttl=62 time=1.167 ms
ping_34 | 64 bytes from 128.223.32.36: seq=21 ttl=62 time=0.433 ms
ping_29 | 64 bytes from 128.223.32.36: seq=18 ttl=62 time=0.428 ms
softwareoverhead_ping_22 exited with code 0
ping_25 | 64 bytes from 128.223.32.36: seq=20 ttl=62 time=0.651 ms
ping_27 | 64 bytes from 128.223.32.36: seq=24 ttl=62 time=0.656 ms
ping_26 | 64 bytes from 128.223.32.36: seq=19 ttl=62 time=0.720 ms
ping_21 | 64 bytes from 128.223.32.36: seq=22 ttl=62 time=0.878 ms
ping_24 | 
ping_24 | --- 128.223.32.36 ping statistics ---
ping_24 | 25 packets transmitted, 21 packets received, 16% packet loss
ping_24 | round-trip min/avg/max = 0.451/0.695/0.959 ms
ping_23 | 64 bytes from 128.223.32.36: seq=17 ttl=62 time=0.473 ms
softwareoverhead_ping_24 exited with code 0
ping_30 | 64 bytes from 128.223.32.36: seq=23 ttl=62 time=0.664 ms
ping_35 | 
ping_35 | --- 128.223.32.36 ping statistics ---
ping_35 | 25 packets transmitted, 6 packets received, 76% packet loss
ping_35 | round-trip min/avg/max = 0.491/0.703/0.980 ms
ping_37 | 64 bytes from 128.223.32.36: seq=24 ttl=62 time=0.605 ms
ping_28 | 64 bytes from 128.223.32.36: seq=24 ttl=62 time=0.537 ms
ping_34 | 64 bytes from 128.223.32.36: seq=22 ttl=62 time=0.862 ms
ping_29 | 64 bytes from 128.223.32.36: seq=19 ttl=62 time=0.592 ms
ping_25 | 64 bytes from 128.223.32.36: seq=21 ttl=62 time=0.564 ms
ping_27 | 
ping_27 | --- 128.223.32.36 ping statistics ---
ping_27 | 25 packets transmitted, 5 packets received, 80% packet loss
ping_27 | round-trip min/avg/max = 0.374/0.636/0.863 ms
ping_26 | 64 bytes from 128.223.32.36: seq=20 ttl=62 time=0.459 ms
softwareoverhead_ping_35 exited with code 0
ping_21 | 64 bytes from 128.223.32.36: seq=23 ttl=62 time=0.401 ms
ping_23 | 64 bytes from 128.223.32.36: seq=18 ttl=62 time=0.904 ms
softwareoverhead_ping_27 exited with code 0
ping_30 | 64 bytes from 128.223.32.36: seq=24 ttl=62 time=0.692 ms
ping_37 | 
ping_37 | --- 128.223.32.36 ping statistics ---
ping_37 | 25 packets transmitted, 8 packets received, 68% packet loss
ping_37 | round-trip min/avg/max = 0.511/0.762/0.945 ms
ping_28 | 
ping_28 | --- 128.223.32.36 ping statistics ---
ping_28 | 25 packets transmitted, 24 packets received, 4% packet loss
ping_28 | round-trip min/avg/max = 0.435/0.699/1.167 ms
ping_34 | 64 bytes from 128.223.32.36: seq=23 ttl=62 time=0.577 ms
ping_29 | 64 bytes from 128.223.32.36: seq=20 ttl=62 time=0.417 ms
ping_25 | 64 bytes from 128.223.32.36: seq=22 ttl=62 time=0.430 ms
ping_26 | 64 bytes from 128.223.32.36: seq=21 ttl=62 time=0.414 ms
ping_21 | 64 bytes from 128.223.32.36: seq=24 ttl=62 time=0.418 ms
softwareoverhead_ping_37 exited with code 0
ping_23 | 64 bytes from 128.223.32.36: seq=19 ttl=62 time=0.567 ms
softwareoverhead_ping_28 exited with code 0
ping_30 | 
ping_30 | --- 128.223.32.36 ping statistics ---
ping_30 | 25 packets transmitted, 16 packets received, 36% packet loss
ping_30 | round-trip min/avg/max = 0.597/0.743/0.916 ms
ping_34 | 64 bytes from 128.223.32.36: seq=24 ttl=62 time=0.611 ms
softwareoverhead_ping_30 exited with code 0
ping_29 | 64 bytes from 128.223.32.36: seq=21 ttl=62 time=0.574 ms
ping_25 | 64 bytes from 128.223.32.36: seq=23 ttl=62 time=0.889 ms
ping_26 | 64 bytes from 128.223.32.36: seq=22 ttl=62 time=0.792 ms
ping_21 | 
ping_21 | --- 128.223.32.36 ping statistics ---
ping_21 | 25 packets transmitted, 16 packets received, 36% packet loss
ping_21 | round-trip min/avg/max = 0.401/0.610/0.922 ms
ping_23 | 64 bytes from 128.223.32.36: seq=20 ttl=62 time=0.637 ms
softwareoverhead_ping_21 exited with code 0
ping_34 | 
ping_34 | --- 128.223.32.36 ping statistics ---
ping_34 | 25 packets transmitted, 8 packets received, 68% packet loss
ping_34 | round-trip min/avg/max = 0.433/0.661/0.921 ms
ping_29 | 64 bytes from 128.223.32.36: seq=22 ttl=62 time=0.267 ms
ping_25 | 64 bytes from 128.223.32.36: seq=24 ttl=62 time=0.444 ms
ping_26 | 64 bytes from 128.223.32.36: seq=23 ttl=62 time=0.396 ms
ping_23 | 64 bytes from 128.223.32.36: seq=21 ttl=62 time=0.623 ms
softwareoverhead_ping_34 exited with code 0
ping_29 | 64 bytes from 128.223.32.36: seq=23 ttl=62 time=0.833 ms
ping_25 | 
ping_25 | --- 128.223.32.36 ping statistics ---
ping_25 | 25 packets transmitted, 7 packets received, 72% packet loss
ping_25 | round-trip min/avg/max = 0.430/0.577/0.889 ms
ping_26 | 64 bytes from 128.223.32.36: seq=24 ttl=62 time=0.796 ms
ping_23 | 64 bytes from 128.223.32.36: seq=22 ttl=62 time=0.815 ms
softwareoverhead_ping_25 exited with code 0
ping_29 | 64 bytes from 128.223.32.36: seq=24 ttl=62 time=0.453 ms
ping_26 | 
ping_26 | --- 128.223.32.36 ping statistics ---
ping_26 | 25 packets transmitted, 10 packets received, 60% packet loss
ping_26 | round-trip min/avg/max = 0.396/0.628/0.948 ms
ping_23 | 64 bytes from 128.223.32.36: seq=23 ttl=62 time=0.590 ms
softwareoverhead_ping_26 exited with code 0
ping_29 | 
ping_29 | --- 128.223.32.36 ping statistics ---
ping_29 | 25 packets transmitted, 17 packets received, 32% packet loss
ping_29 | round-trip min/avg/max = 0.267/0.586/0.928 ms
ping_23 | 64 bytes from 128.223.32.36: seq=24 ttl=62 time=0.481 ms
softwareoverhead_ping_29 exited with code 0
ping_23 | 
ping_23 | --- 128.223.32.36 ping statistics ---
ping_23 | 25 packets transmitted, 24 packets received, 4% packet loss
ping_23 | round-trip min/avg/max = 0.405/0.637/0.921 ms
softwareoverhead_ping_23 exited with code 0
ping_39 | 
ping_39 | --- 128.223.32.36 ping statistics ---
ping_39 | 25 packets transmitted, 0 packets received, 100% packet loss
softwareoverhead_ping_39 exited with code 1
