100 packets transmitted, 100 received, 0% packet loss, time 99064ms
100 packets transmitted, 100 received, 0% packet loss, time 99065ms
100 packets transmitted, 100 received, 0% packet loss, time 99064ms
100 packets transmitted, 100 received, 0% packet loss, time 99065ms
100 packets transmitted, 100 received, 0% packet loss, time 99064ms
100 packets transmitted, 100 received, 0% packet loss, time 99066ms
100 packets transmitted, 100 received, 0% packet loss, time 99066ms
100 packets transmitted, 100 received, 0% packet loss, time 99064ms
100 packets transmitted, 100 received, 0% packet loss, time 99066ms
100 packets transmitted, 100 received, 0% packet loss, time 99070ms
