50 packets transmitted, 45 received, 10% packet loss, time 50057ms
50 packets transmitted, 49 received, 2% packet loss, time 50057ms
50 packets transmitted, 47 received, 6% packet loss, time 50058ms
50 packets transmitted, 39 received, 22% packet loss, time 50089ms
50 packets transmitted, 45 received, 10% packet loss, time 50121ms
50 packets transmitted, 2 received, 96% packet loss, time 50153ms
50 packets transmitted, 2 received, 96% packet loss, time 50154ms
50 packets transmitted, 3 received, 94% packet loss, time 50154ms
50 packets transmitted, 3 received, 94% packet loss, time 50152ms
50 packets transmitted, 1 received, 98% packet loss, time 50152ms
50 packets transmitted, 4 received, 92% packet loss, time 50154ms
50 packets transmitted, 6 received, 88% packet loss, time 50154ms
50 packets transmitted, 3 received, 94% packet loss, time 50154ms
50 packets transmitted, 1 received, 98% packet loss, time 50152ms
50 packets transmitted, 0 received, 100% packet loss, time 50152ms
50 packets transmitted, 0 received, 100% packet loss, time 50152ms
50 packets transmitted, 0 received, 100% packet loss, time 50151ms
50 packets transmitted, 0 received, 100% packet loss, time 50152ms
50 packets transmitted, 0 received, 100% packet loss, time 50152ms
50 packets transmitted, 0 received, 100% packet loss, time 50153ms
