     1	305 
     2	306 
     3	306 
     4	306 
     5	318 
     6	314 
     7	313 
     8	313 
     9	313 
    10	313 
    11	313 
    12	313 
    13	313 
    14	313 
    15	313 
    16	313 
    17	313 
    18	313 
    19	313 
    20	313 
    21	313 
    22	313 
    23	313 
    24	314 
    25	314 
    26	314 
    27	314 
    28	314 
    29	314 
    30	314 
    31	314 
    32	314 
    33	314 
    34	314 
    35	314 
    36	314 
    37	314 
    38	314 
    39	314 
    40	314 
    41	314 
    42	314 
    43	314 
    44	314 
    45	314 
    46	314 
    47	314 
    48	314 
    49	314 
    50	314 
    51	314 
    52	314 
    53	314 
    54	314 
    55	314 
    56	314 
    57	314 
    58	314 
    59	314 
    60	314 
    61	314 
    62	314 
    63	314 
    64	314 
    65	314 
    66	314 
    67	314 
    68	314 
    69	314 
    70	314 
    71	314 
    72	314 
    73	314 
    74	314 
    75	314 
    76	314 
    77	314 
    78	314 
    79	314 
    80	314 
    81	314 
    82	314 
    83	314 
    84	314 
    85	314 
    86	314 
    87	314 
    88	314 
    89	314 
    90	314 
    91	314 
    92	314 
    93	314 
    94	314 
    95	314 
    96	314 
    97	314 
    98	314 
    99	314 
   100	314 
   101	314 
   102	314 
   103	314 
   104	314 
   105	314 
   106	314 
   107	314 
   108	314 
   109	314 
   110	314 
   111	314 
   112	314 
   113	314 
   114	314 
   115	314 
   116	314 
   117	314 
   118	314 
   119	314 
   120	314 
   121	314 
   122	314 
   123	314 
   124	314 
   125	314 
   126	314 
   127	314 
   128	314 
   129	314 
   130	314 
   131	314 
   132	314 
   133	314 
   134	314 
   135	314 
   136	314 
   137	314 
   138	314 
   139	314 
   140	314 
   141	314 
   142	314 
   143	314 
   144	314 
   145	314 
   146	314 
   147	314 
   148	314 
   149	314 
   150	314 
   151	314 
   152	314 
   153	314 
   154	314 
   155	314 
   156	314 
   157	314 
   158	314 
   159	314 
   160	314 
   161	314 
   162	314 
   163	314 
   164	314 
   165	314 
   166	314 
   167	314 
   168	314 
   169	314 
   170	314 
   171	314 
   172	314 
   173	314 
   174	314 
   175	314 
   176	314 
   177	314 
   178	314 
   179	314 
   180	314 
   181	314 
   182	314 
   183	314 
   184	315 
   185	315 
   186	315 
   187	315 
   188	315 
   189	315 
   190	315 
   191	315 
   192	315 
   193	315 
   194	302 
   195	302 
   196	302 
   197	302 
   198	301 
   199	301 
   200	301 
   201	301 
   202	301 
   203	301 
   204	301 
   205	301 
   206	301 
   207	301 
   208	301 
   209	301 
   210	301 
   211	301 
   212	301 
   213	301 
   214	301 
   215	301 
   216	301 
   217	301 
   218	301 
   219	301 
   220	301 
   221	301 
   222	301 
   223	301 
   224	301 
   225	301 
   226	301 
   227	301 
   228	301 
   229	301 
   230	301 
   231	301 
   232	301 
   233	300 
   234	300 
   235	300 
   236	300 
   237	300 
   238	300 
   239	300 
   240	300 
   241	300 
   242	300 
   243	290 
   244	290 
   245	290 
   246	290 
   247	290 
   248	290 
   249	290 
   250	290 
   251	290 
   252	290 
   253	290 
   254	290 
   255	290 
   256	290 
   257	290 
   258	290 
   259	290 
   260	290 
   261	290 
   262	290 
   263	290 
   264	290 
   265	290 
   266	290 
   267	290 
   268	290 
   269	290 
   270	290 
   271	290 
   272	290 
   273	290 
   274	290 
   275	290 
   276	290 
   277	290 
   278	290 
   279	289 
   280	288 
   281	288 
   282	288 
   283	288 
   284	288 
   285	288 
   286	288 
   287	288 
   288	288 
   289	288 
   290	288 
   291	288 
   292	288 
   293	289 
   294	289 
   295	289 
   296	289 
   297	289 
   298	289 
   299	289 
   300	289 
   301	287 
   302	287 
   303	287 
   304	288 
   305	288 
   306	288 
   307	288 
   308	288 
   309	288 
   310	288 
   311	288 
   312	288 
   313	288 
   314	288 
   315	288 
   316	288 
   317	288 
   318	288 
   319	288 
   320	288 
   321	288 
   322	288 
   323	288 
   324	288 
   325	288 
   326	288 
   327	288 
   328	288 
   329	288 
   330	288 
   331	288 
   332	288 
   333	288 
   334	288 
   335	288 
   336	288 
   337	288 
   338	288 
   339	288 
   340	288 
   341	288 
   342	288 
   343	288 
   344	288 
   345	288 
   346	288 
   347	288 
   348	288 
   349	288 
   350	288 
   351	288 
   352	288 
   353	288 
   354	288 
   355	288 
   356	288 
   357	288 
   358	288 
   359	288 
   360	288 
   361	288 
   362	288 
   363	288 
   364	288 
   365	288 
   366	288 
   367	288 
   368	288 
   369	288 
   370	288 
   371	288 
   372	288 
   373	288 
   374	288 
   375	288 
   376	288 
   377	288 
   378	288 
   379	288 
   380	288 
   381	288 
   382	288 
   383	288 
   384	288 
   385	288 
   386	288 
   387	288 
   388	288 
   389	288 
   390	288 
   391	288 
   392	288 
   393	288 
   394	288 
   395	288 
   396	288 
   397	288 
   398	288 
   399	288 
   400	288 
   401	288 
   402	288 
   403	288 
   404	288 
   405	288 
   406	288 
   407	288 
   408	288 
   409	288 
   410	288 
   411	288 
   412	288 
   413	288 
   414	288 
   415	288 
   416	288 
   417	288 
   418	288 
   419	288 
   420	288 
   421	288 
   422	288 
   423	288 
   424	288 
   425	288 
   426	288 
   427	288 
   428	288 
   429	288 
   430	288 
   431	288 
   432	288 
   433	288 
   434	288 
   435	288 
   436	288 
   437	288 
   438	288 
   439	288 
   440	288 
   441	288 
   442	288 
   443	288 
   444	288 
   445	288 
   446	288 
   447	288 
   448	288 
   449	288 
   450	288 
   451	288 
   452	288 
   453	288 
   454	288 
   455	288 
   456	288 
   457	288 
   458	288 
   459	288 
   460	288 
   461	288 
   462	288 
   463	288 
   464	288 
   465	288 
   466	288 
   467	288 
   468	288 
   469	288 
   470	288 
   471	288 
   472	288 
   473	288 
   474	288 
   475	288 
   476	288 
   477	288 
   478	288 
   479	288 
   480	288 
   481	288 
   482	288 
   483	288 
   484	288 
   485	288 
   486	288 
   487	288 
   488	288 
   489	288 
   490	288 
   491	288 
   492	288 
   493	288 
   494	288 
   495	288 
   496	288 
   497	288 
   498	288 
   499	287 
