     1	1433908 
     2	1433908 
     3	1433908 
     4	1434368 
     5	1434368 
     6	1434368 
     7	1434504 
     8	1434504 
     9	1434504 
    10	1434544 
    11	1434544 
    12	1434544 
    13	1434588 
    14	1434588 
    15	1434588 
    16	1434588 
    17	1434588 
    18	1434588 
    19	1434616 
    20	1434616 
    21	1434616 
    22	1434624 
    23	1434624 
    24	1434624 
    25	1434672 
    26	1434672 
    27	1434672 
