PING speedtest.xsmedia.com (199.66.198.2) 56(84) bytes of data.
64 bytes from 199.66.198.2 (199.66.198.2): icmp_seq=1 ttl=56 time=21.7 ms
PING speedtest.xsmedia.com (199.66.198.2) 56(84) bytes of data.
64 bytes from 199.66.198.2 (199.66.198.2): icmp_seq=1 ttl=56 time=21.3 ms
PING speedtest.xsmedia.com (199.66.198.2) 56(84) bytes of data.
64 bytes from 199.66.198.2 (199.66.198.2): icmp_seq=1 ttl=56 time=21.5 ms
PING speedtest.xsmedia.com (199.66.198.2) 56(84) bytes of data.
64 bytes from 199.66.198.2 (199.66.198.2): icmp_seq=1 ttl=56 time=21.6 ms
PING speedtest.xsmedia.com (199.66.198.2) 56(84) bytes of data.
64 bytes from 199.66.198.2 (199.66.198.2): icmp_seq=1 ttl=56 time=21.7 ms
PING speedtest.xsmedia.com (199.66.198.2) 56(84) bytes of data.
64 bytes from 199.66.198.2 (199.66.198.2): icmp_seq=1 ttl=56 time=21.3 ms
PING speedtest.xsmedia.com (199.66.198.2) 56(84) bytes of data.
64 bytes from 199.66.198.2 (199.66.198.2): icmp_seq=1 ttl=56 time=21.2 ms
PING speedtest.xsmedia.com (199.66.198.2) 56(84) bytes of data.
64 bytes from 199.66.198.2 (199.66.198.2): icmp_seq=1 ttl=56 time=21.1 ms
PING speedtest.xsmedia.com (199.66.198.2) 56(84) bytes of data.
64 bytes from 199.66.198.2 (199.66.198.2): icmp_seq=1 ttl=56 time=21.2 ms
PING speedtest.xsmedia.com (199.66.198.2) 56(84) bytes of data.
64 bytes from 199.66.198.2 (199.66.198.2): icmp_seq=1 ttl=56 time=21.2 ms
PING speedtest.xsmedia.com (199.66.198.2) 56(84) bytes of data.
64 bytes from 199.66.198.2 (199.66.198.2): icmp_seq=1 ttl=56 time=21.2 ms
PING speedtest.xsmedia.com (199.66.198.2) 56(84) bytes of data.
64 bytes from 199.66.198.2 (199.66.198.2): icmp_seq=1 ttl=56 time=21.1 ms
PING speedtest.xsmedia.com (199.66.198.2) 56(84) bytes of data.
64 bytes from 199.66.198.2 (199.66.198.2): icmp_seq=1 ttl=56 time=21.1 ms
PING speedtest.xsmedia.com (199.66.198.2) 56(84) bytes of data.
64 bytes from 199.66.198.2 (199.66.198.2): icmp_seq=1 ttl=56 time=21.0 ms
PING speedtest.xsmedia.com (199.66.198.2) 56(84) bytes of data.
64 bytes from 199.66.198.2 (199.66.198.2): icmp_seq=1 ttl=56 time=21.2 ms
PING speedtest.xsmedia.com (199.66.198.2) 56(84) bytes of data.
64 bytes from 199.66.198.2 (199.66.198.2): icmp_seq=1 ttl=56 time=21.2 ms
PING speedtest.xsmedia.com (199.66.198.2) 56(84) bytes of data.
64 bytes from 199.66.198.2 (199.66.198.2): icmp_seq=1 ttl=56 time=21.1 ms
PING speedtest.xsmedia.com (199.66.198.2) 56(84) bytes of data.
64 bytes from 199.66.198.2 (199.66.198.2): icmp_seq=1 ttl=56 time=21.2 ms
PING speedtest.xsmedia.com (199.66.198.2) 56(84) bytes of data.
64 bytes from 199.66.198.2 (199.66.198.2): icmp_seq=1 ttl=56 time=21.1 ms
PING speedtest.xsmedia.com (199.66.198.2) 56(84) bytes of data.
64 bytes from 199.66.198.2 (199.66.198.2): icmp_seq=1 ttl=56 time=21.2 ms
64 bytes from 199.66.198.2 (199.66.198.2): icmp_seq=2 ttl=56 time=21.4 ms
64 bytes from 199.66.198.2 (199.66.198.2): icmp_seq=2 ttl=56 time=21.3 ms
64 bytes from 199.66.198.2 (199.66.198.2): icmp_seq=2 ttl=56 time=21.3 ms
64 bytes from 199.66.198.2 (199.66.198.2): icmp_seq=2 ttl=56 time=21.4 ms
64 bytes from 199.66.198.2 (199.66.198.2): icmp_seq=2 ttl=56 time=21.2 ms
64 bytes from 199.66.198.2 (199.66.198.2): icmp_seq=2 ttl=56 time=21.2 ms
64 bytes from 199.66.198.2 (199.66.198.2): icmp_seq=2 ttl=56 time=21.3 ms
64 bytes from 199.66.198.2 (199.66.198.2): icmp_seq=2 ttl=56 time=21.4 ms
64 bytes from 199.66.198.2 (199.66.198.2): icmp_seq=2 ttl=56 time=21.4 ms
64 bytes from 199.66.198.2 (199.66.198.2): icmp_seq=2 ttl=56 time=21.4 ms
64 bytes from 199.66.198.2 (199.66.198.2): icmp_seq=2 ttl=56 time=21.3 ms
64 bytes from 199.66.198.2 (199.66.198.2): icmp_seq=2 ttl=56 time=21.3 ms
64 bytes from 199.66.198.2 (199.66.198.2): icmp_seq=2 ttl=56 time=21.4 ms
64 bytes from 199.66.198.2 (199.66.198.2): icmp_seq=2 ttl=56 time=21.3 ms
64 bytes from 199.66.198.2 (199.66.198.2): icmp_seq=2 ttl=56 time=21.3 ms
64 bytes from 199.66.198.2 (199.66.198.2): icmp_seq=2 ttl=56 time=21.2 ms
64 bytes from 199.66.198.2 (199.66.198.2): icmp_seq=2 ttl=56 time=21.2 ms
64 bytes from 199.66.198.2 (199.66.198.2): icmp_seq=2 ttl=56 time=21.1 ms
64 bytes from 199.66.198.2 (199.66.198.2): icmp_seq=2 ttl=56 time=21.1 ms
64 bytes from 199.66.198.2 (199.66.198.2): icmp_seq=2 ttl=56 time=21.4 ms
64 bytes from 199.66.198.2 (199.66.198.2): icmp_seq=3 ttl=56 time=21.8 ms
64 bytes from 199.66.198.2 (199.66.198.2): icmp_seq=3 ttl=56 time=21.8 ms
64 bytes from 199.66.198.2 (199.66.198.2): icmp_seq=3 ttl=56 time=21.8 ms
64 bytes from 199.66.198.2 (199.66.198.2): icmp_seq=3 ttl=56 time=21.3 ms
64 bytes from 199.66.198.2 (199.66.198.2): icmp_seq=3 ttl=56 time=21.3 ms
64 bytes from 199.66.198.2 (199.66.198.2): icmp_seq=3 ttl=56 time=21.2 ms
64 bytes from 199.66.198.2 (199.66.198.2): icmp_seq=3 ttl=56 time=21.7 ms
64 bytes from 199.66.198.2 (199.66.198.2): icmp_seq=3 ttl=56 time=21.1 ms
64 bytes from 199.66.198.2 (199.66.198.2): icmp_seq=3 ttl=56 time=21.8 ms
64 bytes from 199.66.198.2 (199.66.198.2): icmp_seq=3 ttl=56 time=21.7 ms
64 bytes from 199.66.198.2 (199.66.198.2): icmp_seq=3 ttl=56 time=21.8 ms
64 bytes from 199.66.198.2 (199.66.198.2): icmp_seq=3 ttl=56 time=21.8 ms
64 bytes from 199.66.198.2 (199.66.198.2): icmp_seq=3 ttl=56 time=21.9 ms
64 bytes from 199.66.198.2 (199.66.198.2): icmp_seq=3 ttl=56 time=21.9 ms
64 bytes from 199.66.198.2 (199.66.198.2): icmp_seq=3 ttl=56 time=21.8 ms
64 bytes from 199.66.198.2 (199.66.198.2): icmp_seq=3 ttl=56 time=21.9 ms
64 bytes from 199.66.198.2 (199.66.198.2): icmp_seq=3 ttl=56 time=21.9 ms
64 bytes from 199.66.198.2 (199.66.198.2): icmp_seq=3 ttl=56 time=21.7 ms
64 bytes from 199.66.198.2 (199.66.198.2): icmp_seq=3 ttl=56 time=21.9 ms
64 bytes from 199.66.198.2 (199.66.198.2): icmp_seq=3 ttl=56 time=21.7 ms
64 bytes from 199.66.198.2 (199.66.198.2): icmp_seq=4 ttl=56 time=21.5 ms
64 bytes from 199.66.198.2 (199.66.198.2): icmp_seq=4 ttl=56 time=21.5 ms
64 bytes from 199.66.198.2 (199.66.198.2): icmp_seq=4 ttl=56 time=21.7 ms
64 bytes from 199.66.198.2 (199.66.198.2): icmp_seq=4 ttl=56 time=21.7 ms
64 bytes from 199.66.198.2 (199.66.198.2): icmp_seq=4 ttl=56 time=21.7 ms
64 bytes from 199.66.198.2 (199.66.198.2): icmp_seq=4 ttl=56 time=21.8 ms
64 bytes from 199.66.198.2 (199.66.198.2): icmp_seq=4 ttl=56 time=21.8 ms
64 bytes from 199.66.198.2 (199.66.198.2): icmp_seq=4 ttl=56 time=21.8 ms
64 bytes from 199.66.198.2 (199.66.198.2): icmp_seq=4 ttl=56 time=21.8 ms
64 bytes from 199.66.198.2 (199.66.198.2): icmp_seq=4 ttl=56 time=21.8 ms
64 bytes from 199.66.198.2 (199.66.198.2): icmp_seq=4 ttl=56 time=21.6 ms
64 bytes from 199.66.198.2 (199.66.198.2): icmp_seq=4 ttl=56 time=21.4 ms
64 bytes from 199.66.198.2 (199.66.198.2): icmp_seq=4 ttl=56 time=21.4 ms
64 bytes from 199.66.198.2 (199.66.198.2): icmp_seq=4 ttl=56 time=21.3 ms
64 bytes from 199.66.198.2 (199.66.198.2): icmp_seq=4 ttl=56 time=21.4 ms
64 bytes from 199.66.198.2 (199.66.198.2): icmp_seq=4 ttl=56 time=21.3 ms
64 bytes from 199.66.198.2 (199.66.198.2): icmp_seq=4 ttl=56 time=21.3 ms
64 bytes from 199.66.198.2 (199.66.198.2): icmp_seq=4 ttl=56 time=21.6 ms
64 bytes from 199.66.198.2 (199.66.198.2): icmp_seq=4 ttl=56 time=21.7 ms
64 bytes from 199.66.198.2 (199.66.198.2): icmp_seq=4 ttl=56 time=21.7 ms
64 bytes from 199.66.198.2 (199.66.198.2): icmp_seq=5 ttl=56 time=21.9 ms
64 bytes from 199.66.198.2 (199.66.198.2): icmp_seq=5 ttl=56 time=21.8 ms
64 bytes from 199.66.198.2 (199.66.198.2): icmp_seq=5 ttl=56 time=21.9 ms
64 bytes from 199.66.198.2 (199.66.198.2): icmp_seq=5 ttl=56 time=21.8 ms
64 bytes from 199.66.198.2 (199.66.198.2): icmp_seq=5 ttl=56 time=21.6 ms
64 bytes from 199.66.198.2 (199.66.198.2): icmp_seq=5 ttl=56 time=21.6 ms
64 bytes from 199.66.198.2 (199.66.198.2): icmp_seq=5 ttl=56 time=21.6 ms
64 bytes from 199.66.198.2 (199.66.198.2): icmp_seq=5 ttl=56 time=21.7 ms
64 bytes from 199.66.198.2 (199.66.198.2): icmp_seq=5 ttl=56 time=21.6 ms
64 bytes from 199.66.198.2 (199.66.198.2): icmp_seq=5 ttl=56 time=21.7 ms
64 bytes from 199.66.198.2 (199.66.198.2): icmp_seq=5 ttl=56 time=21.7 ms
64 bytes from 199.66.198.2 (199.66.198.2): icmp_seq=5 ttl=56 time=21.7 ms
64 bytes from 199.66.198.2 (199.66.198.2): icmp_seq=5 ttl=56 time=21.7 ms
64 bytes from 199.66.198.2 (199.66.198.2): icmp_seq=5 ttl=56 time=21.7 ms
64 bytes from 199.66.198.2 (199.66.198.2): icmp_seq=5 ttl=56 time=21.5 ms
64 bytes from 199.66.198.2 (199.66.198.2): icmp_seq=5 ttl=56 time=21.5 ms
64 bytes from 199.66.198.2 (199.66.198.2): icmp_seq=5 ttl=56 time=21.5 ms
64 bytes from 199.66.198.2 (199.66.198.2): icmp_seq=5 ttl=56 time=21.6 ms
64 bytes from 199.66.198.2 (199.66.198.2): icmp_seq=5 ttl=56 time=21.6 ms
64 bytes from 199.66.198.2 (199.66.198.2): icmp_seq=5 ttl=56 time=21.7 ms
64 bytes from 199.66.198.2 (199.66.198.2): icmp_seq=6 ttl=56 time=21.3 ms
64 bytes from 199.66.198.2 (199.66.198.2): icmp_seq=6 ttl=56 time=21.4 ms
64 bytes from 199.66.198.2 (199.66.198.2): icmp_seq=6 ttl=56 time=21.4 ms
64 bytes from 199.66.198.2 (199.66.198.2): icmp_seq=6 ttl=56 time=21.4 ms
64 bytes from 199.66.198.2 (199.66.198.2): icmp_seq=6 ttl=56 time=21.3 ms
64 bytes from 199.66.198.2 (199.66.198.2): icmp_seq=6 ttl=56 time=21.3 ms
64 bytes from 199.66.198.2 (199.66.198.2): icmp_seq=6 ttl=56 time=21.3 ms
64 bytes from 199.66.198.2 (199.66.198.2): icmp_seq=6 ttl=56 time=21.7 ms
64 bytes from 199.66.198.2 (199.66.198.2): icmp_seq=6 ttl=56 time=21.7 ms
64 bytes from 199.66.198.2 (199.66.198.2): icmp_seq=6 ttl=56 time=21.7 ms
64 bytes from 199.66.198.2 (199.66.198.2): icmp_seq=6 ttl=56 time=21.7 ms
64 bytes from 199.66.198.2 (199.66.198.2): icmp_seq=6 ttl=56 time=21.8 ms
64 bytes from 199.66.198.2 (199.66.198.2): icmp_seq=6 ttl=56 time=21.7 ms
64 bytes from 199.66.198.2 (199.66.198.2): icmp_seq=6 ttl=56 time=21.8 ms
64 bytes from 199.66.198.2 (199.66.198.2): icmp_seq=6 ttl=56 time=21.8 ms
64 bytes from 199.66.198.2 (199.66.198.2): icmp_seq=6 ttl=56 time=21.8 ms
64 bytes from 199.66.198.2 (199.66.198.2): icmp_seq=6 ttl=56 time=21.6 ms
64 bytes from 199.66.198.2 (199.66.198.2): icmp_seq=6 ttl=56 time=21.6 ms
64 bytes from 199.66.198.2 (199.66.198.2): icmp_seq=6 ttl=56 time=21.6 ms
64 bytes from 199.66.198.2 (199.66.198.2): icmp_seq=6 ttl=56 time=21.7 ms
64 bytes from 199.66.198.2 (199.66.198.2): icmp_seq=7 ttl=56 time=21.9 ms
64 bytes from 199.66.198.2 (199.66.198.2): icmp_seq=7 ttl=56 time=22.0 ms
64 bytes from 199.66.198.2 (199.66.198.2): icmp_seq=7 ttl=56 time=21.9 ms
64 bytes from 199.66.198.2 (199.66.198.2): icmp_seq=7 ttl=56 time=22.0 ms
64 bytes from 199.66.198.2 (199.66.198.2): icmp_seq=7 ttl=56 time=22.0 ms
64 bytes from 199.66.198.2 (199.66.198.2): icmp_seq=7 ttl=56 time=21.8 ms
64 bytes from 199.66.198.2 (199.66.198.2): icmp_seq=7 ttl=56 time=21.6 ms
64 bytes from 199.66.198.2 (199.66.198.2): icmp_seq=7 ttl=56 time=21.6 ms
64 bytes from 199.66.198.2 (199.66.198.2): icmp_seq=7 ttl=56 time=21.4 ms
64 bytes from 199.66.198.2 (199.66.198.2): icmp_seq=7 ttl=56 time=21.5 ms
64 bytes from 199.66.198.2 (199.66.198.2): icmp_seq=7 ttl=56 time=21.4 ms
64 bytes from 199.66.198.2 (199.66.198.2): icmp_seq=7 ttl=56 time=21.4 ms
64 bytes from 199.66.198.2 (199.66.198.2): icmp_seq=7 ttl=56 time=21.5 ms
64 bytes from 199.66.198.2 (199.66.198.2): icmp_seq=7 ttl=56 time=21.4 ms
64 bytes from 199.66.198.2 (199.66.198.2): icmp_seq=7 ttl=56 time=21.4 ms
64 bytes from 199.66.198.2 (199.66.198.2): icmp_seq=7 ttl=56 time=21.4 ms
64 bytes from 199.66.198.2 (199.66.198.2): icmp_seq=7 ttl=56 time=21.4 ms
64 bytes from 199.66.198.2 (199.66.198.2): icmp_seq=7 ttl=56 time=21.4 ms
64 bytes from 199.66.198.2 (199.66.198.2): icmp_seq=7 ttl=56 time=21.4 ms
64 bytes from 199.66.198.2 (199.66.198.2): icmp_seq=7 ttl=56 time=21.5 ms
64 bytes from 199.66.198.2 (199.66.198.2): icmp_seq=8 ttl=56 time=21.8 ms
64 bytes from 199.66.198.2 (199.66.198.2): icmp_seq=8 ttl=56 time=21.9 ms
64 bytes from 199.66.198.2 (199.66.198.2): icmp_seq=8 ttl=56 time=21.9 ms
64 bytes from 199.66.198.2 (199.66.198.2): icmp_seq=8 ttl=56 time=21.9 ms
64 bytes from 199.66.198.2 (199.66.198.2): icmp_seq=8 ttl=56 time=21.9 ms
64 bytes from 199.66.198.2 (199.66.198.2): icmp_seq=8 ttl=56 time=21.9 ms
64 bytes from 199.66.198.2 (199.66.198.2): icmp_seq=8 ttl=56 time=21.9 ms
64 bytes from 199.66.198.2 (199.66.198.2): icmp_seq=8 ttl=56 time=21.7 ms
64 bytes from 199.66.198.2 (199.66.198.2): icmp_seq=8 ttl=56 time=21.6 ms
64 bytes from 199.66.198.2 (199.66.198.2): icmp_seq=8 ttl=56 time=21.4 ms
64 bytes from 199.66.198.2 (199.66.198.2): icmp_seq=8 ttl=56 time=21.4 ms
64 bytes from 199.66.198.2 (199.66.198.2): icmp_seq=8 ttl=56 time=21.4 ms
64 bytes from 199.66.198.2 (199.66.198.2): icmp_seq=8 ttl=56 time=21.4 ms
64 bytes from 199.66.198.2 (199.66.198.2): icmp_seq=8 ttl=56 time=21.4 ms
64 bytes from 199.66.198.2 (199.66.198.2): icmp_seq=8 ttl=56 time=21.4 ms
64 bytes from 199.66.198.2 (199.66.198.2): icmp_seq=8 ttl=56 time=21.4 ms
64 bytes from 199.66.198.2 (199.66.198.2): icmp_seq=8 ttl=56 time=21.4 ms
64 bytes from 199.66.198.2 (199.66.198.2): icmp_seq=8 ttl=56 time=21.5 ms
64 bytes from 199.66.198.2 (199.66.198.2): icmp_seq=8 ttl=56 time=21.6 ms
64 bytes from 199.66.198.2 (199.66.198.2): icmp_seq=8 ttl=56 time=21.7 ms
64 bytes from 199.66.198.2 (199.66.198.2): icmp_seq=9 ttl=56 time=21.8 ms
64 bytes from 199.66.198.2 (199.66.198.2): icmp_seq=9 ttl=56 time=21.8 ms
64 bytes from 199.66.198.2 (199.66.198.2): icmp_seq=9 ttl=56 time=21.8 ms
64 bytes from 199.66.198.2 (199.66.198.2): icmp_seq=9 ttl=56 time=21.8 ms
64 bytes from 199.66.198.2 (199.66.198.2): icmp_seq=9 ttl=56 time=21.8 ms
64 bytes from 199.66.198.2 (199.66.198.2): icmp_seq=9 ttl=56 time=21.8 ms
64 bytes from 199.66.198.2 (199.66.198.2): icmp_seq=9 ttl=56 time=21.9 ms
64 bytes from 199.66.198.2 (199.66.198.2): icmp_seq=9 ttl=56 time=21.7 ms
64 bytes from 199.66.198.2 (199.66.198.2): icmp_seq=9 ttl=56 time=21.7 ms
64 bytes from 199.66.198.2 (199.66.198.2): icmp_seq=9 ttl=56 time=21.3 ms
64 bytes from 199.66.198.2 (199.66.198.2): icmp_seq=9 ttl=56 time=21.3 ms
64 bytes from 199.66.198.2 (199.66.198.2): icmp_seq=9 ttl=56 time=21.3 ms
64 bytes from 199.66.198.2 (199.66.198.2): icmp_seq=9 ttl=56 time=21.6 ms
64 bytes from 199.66.198.2 (199.66.198.2): icmp_seq=9 ttl=56 time=21.4 ms
64 bytes from 199.66.198.2 (199.66.198.2): icmp_seq=9 ttl=56 time=21.3 ms
64 bytes from 199.66.198.2 (199.66.198.2): icmp_seq=9 ttl=56 time=21.4 ms
64 bytes from 199.66.198.2 (199.66.198.2): icmp_seq=9 ttl=56 time=21.4 ms
64 bytes from 199.66.198.2 (199.66.198.2): icmp_seq=9 ttl=56 time=21.6 ms
64 bytes from 199.66.198.2 (199.66.198.2): icmp_seq=9 ttl=56 time=21.6 ms
64 bytes from 199.66.198.2 (199.66.198.2): icmp_seq=9 ttl=56 time=21.7 ms
64 bytes from 199.66.198.2 (199.66.198.2): icmp_seq=10 ttl=56 time=21.7 ms
64 bytes from 199.66.198.2 (199.66.198.2): icmp_seq=10 ttl=56 time=21.7 ms
64 bytes from 199.66.198.2 (199.66.198.2): icmp_seq=10 ttl=56 time=21.7 ms
64 bytes from 199.66.198.2 (199.66.198.2): icmp_seq=10 ttl=56 time=21.6 ms
64 bytes from 199.66.198.2 (199.66.198.2): icmp_seq=10 ttl=56 time=21.7 ms
64 bytes from 199.66.198.2 (199.66.198.2): icmp_seq=10 ttl=56 time=21.4 ms
64 bytes from 199.66.198.2 (199.66.198.2): icmp_seq=10 ttl=56 time=21.4 ms
64 bytes from 199.66.198.2 (199.66.198.2): icmp_seq=10 ttl=56 time=21.4 ms
64 bytes from 199.66.198.2 (199.66.198.2): icmp_seq=10 ttl=56 time=21.7 ms
64 bytes from 199.66.198.2 (199.66.198.2): icmp_seq=10 ttl=56 time=21.7 ms
64 bytes from 199.66.198.2 (199.66.198.2): icmp_seq=10 ttl=56 time=21.7 ms
64 bytes from 199.66.198.2 (199.66.198.2): icmp_seq=10 ttl=56 time=21.7 ms
64 bytes from 199.66.198.2 (199.66.198.2): icmp_seq=10 ttl=56 time=21.8 ms
64 bytes from 199.66.198.2 (199.66.198.2): icmp_seq=10 ttl=56 time=21.8 ms
64 bytes from 199.66.198.2 (199.66.198.2): icmp_seq=10 ttl=56 time=21.8 ms
64 bytes from 199.66.198.2 (199.66.198.2): icmp_seq=10 ttl=56 time=21.8 ms
64 bytes from 199.66.198.2 (199.66.198.2): icmp_seq=10 ttl=56 time=21.6 ms
64 bytes from 199.66.198.2 (199.66.198.2): icmp_seq=10 ttl=56 time=21.7 ms
64 bytes from 199.66.198.2 (199.66.198.2): icmp_seq=10 ttl=56 time=21.7 ms
64 bytes from 199.66.198.2 (199.66.198.2): icmp_seq=10 ttl=56 time=21.6 ms
64 bytes from 199.66.198.2 (199.66.198.2): icmp_seq=11 ttl=56 time=22.0 ms
64 bytes from 199.66.198.2 (199.66.198.2): icmp_seq=11 ttl=56 time=22.0 ms
64 bytes from 199.66.198.2 (199.66.198.2): icmp_seq=11 ttl=56 time=22.0 ms
64 bytes from 199.66.198.2 (199.66.198.2): icmp_seq=11 ttl=56 time=22.0 ms
64 bytes from 199.66.198.2 (199.66.198.2): icmp_seq=11 ttl=56 time=22.0 ms
64 bytes from 199.66.198.2 (199.66.198.2): icmp_seq=11 ttl=56 time=22.0 ms
64 bytes from 199.66.198.2 (199.66.198.2): icmp_seq=11 ttl=56 time=21.9 ms
64 bytes from 199.66.198.2 (199.66.198.2): icmp_seq=11 ttl=56 time=21.5 ms
64 bytes from 199.66.198.2 (199.66.198.2): icmp_seq=11 ttl=56 time=21.5 ms
64 bytes from 199.66.198.2 (199.66.198.2): icmp_seq=11 ttl=56 time=21.6 ms
64 bytes from 199.66.198.2 (199.66.198.2): icmp_seq=11 ttl=56 time=21.5 ms
64 bytes from 199.66.198.2 (199.66.198.2): icmp_seq=11 ttl=56 time=21.6 ms
64 bytes from 199.66.198.2 (199.66.198.2): icmp_seq=11 ttl=56 time=21.5 ms
64 bytes from 199.66.198.2 (199.66.198.2): icmp_seq=11 ttl=56 time=21.5 ms
64 bytes from 199.66.198.2 (199.66.198.2): icmp_seq=11 ttl=56 time=21.5 ms
64 bytes from 199.66.198.2 (199.66.198.2): icmp_seq=11 ttl=56 time=21.6 ms
64 bytes from 199.66.198.2 (199.66.198.2): icmp_seq=11 ttl=56 time=21.5 ms
64 bytes from 199.66.198.2 (199.66.198.2): icmp_seq=11 ttl=56 time=21.6 ms
64 bytes from 199.66.198.2 (199.66.198.2): icmp_seq=11 ttl=56 time=21.7 ms
64 bytes from 199.66.198.2 (199.66.198.2): icmp_seq=11 ttl=56 time=21.7 ms
64 bytes from 199.66.198.2 (199.66.198.2): icmp_seq=12 ttl=56 time=22.0 ms
64 bytes from 199.66.198.2 (199.66.198.2): icmp_seq=12 ttl=56 time=22.1 ms
64 bytes from 199.66.198.2 (199.66.198.2): icmp_seq=12 ttl=56 time=22.0 ms
64 bytes from 199.66.198.2 (199.66.198.2): icmp_seq=12 ttl=56 time=22.0 ms
64 bytes from 199.66.198.2 (199.66.198.2): icmp_seq=12 ttl=56 time=22.0 ms
64 bytes from 199.66.198.2 (199.66.198.2): icmp_seq=12 ttl=56 time=22.0 ms
64 bytes from 199.66.198.2 (199.66.198.2): icmp_seq=12 ttl=56 time=21.9 ms
64 bytes from 199.66.198.2 (199.66.198.2): icmp_seq=12 ttl=56 time=22.1 ms
64 bytes from 199.66.198.2 (199.66.198.2): icmp_seq=12 ttl=56 time=21.4 ms
64 bytes from 199.66.198.2 (199.66.198.2): icmp_seq=12 ttl=56 time=21.4 ms
64 bytes from 199.66.198.2 (199.66.198.2): icmp_seq=12 ttl=56 time=21.2 ms
64 bytes from 199.66.198.2 (199.66.198.2): icmp_seq=12 ttl=56 time=21.4 ms
64 bytes from 199.66.198.2 (199.66.198.2): icmp_seq=12 ttl=56 time=21.2 ms
64 bytes from 199.66.198.2 (199.66.198.2): icmp_seq=12 ttl=56 time=21.4 ms
64 bytes from 199.66.198.2 (199.66.198.2): icmp_seq=12 ttl=56 time=21.2 ms
64 bytes from 199.66.198.2 (199.66.198.2): icmp_seq=12 ttl=56 time=21.2 ms
64 bytes from 199.66.198.2 (199.66.198.2): icmp_seq=12 ttl=56 time=21.3 ms
64 bytes from 199.66.198.2 (199.66.198.2): icmp_seq=12 ttl=56 time=21.5 ms
64 bytes from 199.66.198.2 (199.66.198.2): icmp_seq=12 ttl=56 time=21.6 ms
64 bytes from 199.66.198.2 (199.66.198.2): icmp_seq=12 ttl=56 time=21.7 ms
64 bytes from 199.66.198.2 (199.66.198.2): icmp_seq=13 ttl=56 time=21.6 ms
64 bytes from 199.66.198.2 (199.66.198.2): icmp_seq=13 ttl=56 time=21.7 ms
64 bytes from 199.66.198.2 (199.66.198.2): icmp_seq=13 ttl=56 time=21.7 ms
64 bytes from 199.66.198.2 (199.66.198.2): icmp_seq=13 ttl=56 time=21.7 ms
64 bytes from 199.66.198.2 (199.66.198.2): icmp_seq=13 ttl=56 time=21.7 ms
64 bytes from 199.66.198.2 (199.66.198.2): icmp_seq=13 ttl=56 time=21.8 ms
64 bytes from 199.66.198.2 (199.66.198.2): icmp_seq=13 ttl=56 time=21.5 ms
64 bytes from 199.66.198.2 (199.66.198.2): icmp_seq=13 ttl=56 time=21.8 ms
64 bytes from 199.66.198.2 (199.66.198.2): icmp_seq=13 ttl=56 time=21.7 ms
64 bytes from 199.66.198.2 (199.66.198.2): icmp_seq=13 ttl=56 time=21.8 ms
64 bytes from 199.66.198.2 (199.66.198.2): icmp_seq=13 ttl=56 time=21.8 ms
64 bytes from 199.66.198.2 (199.66.198.2): icmp_seq=13 ttl=56 time=21.8 ms
64 bytes from 199.66.198.2 (199.66.198.2): icmp_seq=13 ttl=56 time=21.9 ms
64 bytes from 199.66.198.2 (199.66.198.2): icmp_seq=13 ttl=56 time=21.8 ms
64 bytes from 199.66.198.2 (199.66.198.2): icmp_seq=13 ttl=56 time=21.9 ms
64 bytes from 199.66.198.2 (199.66.198.2): icmp_seq=13 ttl=56 time=21.8 ms
64 bytes from 199.66.198.2 (199.66.198.2): icmp_seq=13 ttl=56 time=21.6 ms
64 bytes from 199.66.198.2 (199.66.198.2): icmp_seq=13 ttl=56 time=21.7 ms
64 bytes from 199.66.198.2 (199.66.198.2): icmp_seq=13 ttl=56 time=21.5 ms
64 bytes from 199.66.198.2 (199.66.198.2): icmp_seq=13 ttl=56 time=21.5 ms
64 bytes from 199.66.198.2 (199.66.198.2): icmp_seq=14 ttl=56 time=21.6 ms
64 bytes from 199.66.198.2 (199.66.198.2): icmp_seq=14 ttl=56 time=21.6 ms
64 bytes from 199.66.198.2 (199.66.198.2): icmp_seq=14 ttl=56 time=21.6 ms
64 bytes from 199.66.198.2 (199.66.198.2): icmp_seq=14 ttl=56 time=21.6 ms
64 bytes from 199.66.198.2 (199.66.198.2): icmp_seq=14 ttl=56 time=21.6 ms
64 bytes from 199.66.198.2 (199.66.198.2): icmp_seq=14 ttl=56 time=21.6 ms
64 bytes from 199.66.198.2 (199.66.198.2): icmp_seq=14 ttl=56 time=22.0 ms
64 bytes from 199.66.198.2 (199.66.198.2): icmp_seq=14 ttl=56 time=21.6 ms
64 bytes from 199.66.198.2 (199.66.198.2): icmp_seq=14 ttl=56 time=21.8 ms
64 bytes from 199.66.198.2 (199.66.198.2): icmp_seq=14 ttl=56 time=21.8 ms
64 bytes from 199.66.198.2 (199.66.198.2): icmp_seq=14 ttl=56 time=21.8 ms
64 bytes from 199.66.198.2 (199.66.198.2): icmp_seq=14 ttl=56 time=21.9 ms
64 bytes from 199.66.198.2 (199.66.198.2): icmp_seq=14 ttl=56 time=21.8 ms
64 bytes from 199.66.198.2 (199.66.198.2): icmp_seq=14 ttl=56 time=21.7 ms
64 bytes from 199.66.198.2 (199.66.198.2): icmp_seq=14 ttl=56 time=21.5 ms
64 bytes from 199.66.198.2 (199.66.198.2): icmp_seq=14 ttl=56 time=21.6 ms
64 bytes from 199.66.198.2 (199.66.198.2): icmp_seq=14 ttl=56 time=21.6 ms
64 bytes from 199.66.198.2 (199.66.198.2): icmp_seq=14 ttl=56 time=21.2 ms
64 bytes from 199.66.198.2 (199.66.198.2): icmp_seq=14 ttl=56 time=21.6 ms
64 bytes from 199.66.198.2 (199.66.198.2): icmp_seq=14 ttl=56 time=21.8 ms
64 bytes from 199.66.198.2 (199.66.198.2): icmp_seq=15 ttl=56 time=21.9 ms
64 bytes from 199.66.198.2 (199.66.198.2): icmp_seq=15 ttl=56 time=21.7 ms
64 bytes from 199.66.198.2 (199.66.198.2): icmp_seq=15 ttl=56 time=21.4 ms
64 bytes from 199.66.198.2 (199.66.198.2): icmp_seq=15 ttl=56 time=21.5 ms
64 bytes from 199.66.198.2 (199.66.198.2): icmp_seq=15 ttl=56 time=21.8 ms
64 bytes from 199.66.198.2 (199.66.198.2): icmp_seq=15 ttl=56 time=21.5 ms
64 bytes from 199.66.198.2 (199.66.198.2): icmp_seq=15 ttl=56 time=21.4 ms
64 bytes from 199.66.198.2 (199.66.198.2): icmp_seq=15 ttl=56 time=21.5 ms
64 bytes from 199.66.198.2 (199.66.198.2): icmp_seq=15 ttl=56 time=21.8 ms
64 bytes from 199.66.198.2 (199.66.198.2): icmp_seq=15 ttl=56 time=21.8 ms
64 bytes from 199.66.198.2 (199.66.198.2): icmp_seq=15 ttl=56 time=21.7 ms
64 bytes from 199.66.198.2 (199.66.198.2): icmp_seq=15 ttl=56 time=21.8 ms
64 bytes from 199.66.198.2 (199.66.198.2): icmp_seq=15 ttl=56 time=21.9 ms
64 bytes from 199.66.198.2 (199.66.198.2): icmp_seq=15 ttl=56 time=21.5 ms
64 bytes from 199.66.198.2 (199.66.198.2): icmp_seq=15 ttl=56 time=21.7 ms
64 bytes from 199.66.198.2 (199.66.198.2): icmp_seq=15 ttl=56 time=21.7 ms
64 bytes from 199.66.198.2 (199.66.198.2): icmp_seq=15 ttl=56 time=21.6 ms
64 bytes from 199.66.198.2 (199.66.198.2): icmp_seq=15 ttl=56 time=21.6 ms
64 bytes from 199.66.198.2 (199.66.198.2): icmp_seq=15 ttl=56 time=21.5 ms
64 bytes from 199.66.198.2 (199.66.198.2): icmp_seq=15 ttl=56 time=21.8 ms
64 bytes from 199.66.198.2 (199.66.198.2): icmp_seq=16 ttl=56 time=21.8 ms
64 bytes from 199.66.198.2 (199.66.198.2): icmp_seq=16 ttl=56 time=21.3 ms
64 bytes from 199.66.198.2 (199.66.198.2): icmp_seq=16 ttl=56 time=21.4 ms
64 bytes from 199.66.198.2 (199.66.198.2): icmp_seq=16 ttl=56 time=21.4 ms
64 bytes from 199.66.198.2 (199.66.198.2): icmp_seq=16 ttl=56 time=21.4 ms
64 bytes from 199.66.198.2 (199.66.198.2): icmp_seq=16 ttl=56 time=21.4 ms
64 bytes from 199.66.198.2 (199.66.198.2): icmp_seq=16 ttl=56 time=21.7 ms
64 bytes from 199.66.198.2 (199.66.198.2): icmp_seq=16 ttl=56 time=21.4 ms
64 bytes from 199.66.198.2 (199.66.198.2): icmp_seq=16 ttl=56 time=21.8 ms
64 bytes from 199.66.198.2 (199.66.198.2): icmp_seq=16 ttl=56 time=21.7 ms
64 bytes from 199.66.198.2 (199.66.198.2): icmp_seq=16 ttl=56 time=21.7 ms
64 bytes from 199.66.198.2 (199.66.198.2): icmp_seq=16 ttl=56 time=21.7 ms
64 bytes from 199.66.198.2 (199.66.198.2): icmp_seq=16 ttl=56 time=21.8 ms
64 bytes from 199.66.198.2 (199.66.198.2): icmp_seq=16 ttl=56 time=21.6 ms
64 bytes from 199.66.198.2 (199.66.198.2): icmp_seq=16 ttl=56 time=21.7 ms
64 bytes from 199.66.198.2 (199.66.198.2): icmp_seq=16 ttl=56 time=21.5 ms
64 bytes from 199.66.198.2 (199.66.198.2): icmp_seq=16 ttl=56 time=21.6 ms
64 bytes from 199.66.198.2 (199.66.198.2): icmp_seq=16 ttl=56 time=21.6 ms
64 bytes from 199.66.198.2 (199.66.198.2): icmp_seq=16 ttl=56 time=21.8 ms
64 bytes from 199.66.198.2 (199.66.198.2): icmp_seq=16 ttl=56 time=21.8 ms
64 bytes from 199.66.198.2 (199.66.198.2): icmp_seq=17 ttl=56 time=21.6 ms
64 bytes from 199.66.198.2 (199.66.198.2): icmp_seq=17 ttl=56 time=21.6 ms
64 bytes from 199.66.198.2 (199.66.198.2): icmp_seq=17 ttl=56 time=21.6 ms
64 bytes from 199.66.198.2 (199.66.198.2): icmp_seq=17 ttl=56 time=21.4 ms
64 bytes from 199.66.198.2 (199.66.198.2): icmp_seq=17 ttl=56 time=21.4 ms
64 bytes from 199.66.198.2 (199.66.198.2): icmp_seq=17 ttl=56 time=21.4 ms
64 bytes from 199.66.198.2 (199.66.198.2): icmp_seq=17 ttl=56 time=21.4 ms
64 bytes from 199.66.198.2 (199.66.198.2): icmp_seq=17 ttl=56 time=21.6 ms
64 bytes from 199.66.198.2 (199.66.198.2): icmp_seq=17 ttl=56 time=21.6 ms
64 bytes from 199.66.198.2 (199.66.198.2): icmp_seq=17 ttl=56 time=21.6 ms
64 bytes from 199.66.198.2 (199.66.198.2): icmp_seq=17 ttl=56 time=21.6 ms
64 bytes from 199.66.198.2 (199.66.198.2): icmp_seq=17 ttl=56 time=21.9 ms
64 bytes from 199.66.198.2 (199.66.198.2): icmp_seq=17 ttl=56 time=21.3 ms
64 bytes from 199.66.198.2 (199.66.198.2): icmp_seq=17 ttl=56 time=21.5 ms
64 bytes from 199.66.198.2 (199.66.198.2): icmp_seq=17 ttl=56 time=21.6 ms
64 bytes from 199.66.198.2 (199.66.198.2): icmp_seq=17 ttl=56 time=21.5 ms
64 bytes from 199.66.198.2 (199.66.198.2): icmp_seq=17 ttl=56 time=21.6 ms
64 bytes from 199.66.198.2 (199.66.198.2): icmp_seq=17 ttl=56 time=21.6 ms
64 bytes from 199.66.198.2 (199.66.198.2): icmp_seq=17 ttl=56 time=21.7 ms
64 bytes from 199.66.198.2 (199.66.198.2): icmp_seq=17 ttl=56 time=21.6 ms
64 bytes from 199.66.198.2 (199.66.198.2): icmp_seq=18 ttl=56 time=21.9 ms
64 bytes from 199.66.198.2 (199.66.198.2): icmp_seq=18 ttl=56 time=21.5 ms
64 bytes from 199.66.198.2 (199.66.198.2): icmp_seq=18 ttl=56 time=21.5 ms
64 bytes from 199.66.198.2 (199.66.198.2): icmp_seq=18 ttl=56 time=21.5 ms
64 bytes from 199.66.198.2 (199.66.198.2): icmp_seq=18 ttl=56 time=21.5 ms
64 bytes from 199.66.198.2 (199.66.198.2): icmp_seq=18 ttl=56 time=21.5 ms
64 bytes from 199.66.198.2 (199.66.198.2): icmp_seq=18 ttl=56 time=21.6 ms
64 bytes from 199.66.198.2 (199.66.198.2): icmp_seq=18 ttl=56 time=21.6 ms
64 bytes from 199.66.198.2 (199.66.198.2): icmp_seq=18 ttl=56 time=21.4 ms
64 bytes from 199.66.198.2 (199.66.198.2): icmp_seq=18 ttl=56 time=21.7 ms
64 bytes from 199.66.198.2 (199.66.198.2): icmp_seq=18 ttl=56 time=21.8 ms
64 bytes from 199.66.198.2 (199.66.198.2): icmp_seq=18 ttl=56 time=21.8 ms
64 bytes from 199.66.198.2 (199.66.198.2): icmp_seq=18 ttl=56 time=21.9 ms
64 bytes from 199.66.198.2 (199.66.198.2): icmp_seq=18 ttl=56 time=21.8 ms
64 bytes from 199.66.198.2 (199.66.198.2): icmp_seq=18 ttl=56 time=21.8 ms
64 bytes from 199.66.198.2 (199.66.198.2): icmp_seq=18 ttl=56 time=21.8 ms
64 bytes from 199.66.198.2 (199.66.198.2): icmp_seq=18 ttl=56 time=21.8 ms
64 bytes from 199.66.198.2 (199.66.198.2): icmp_seq=18 ttl=56 time=21.9 ms
64 bytes from 199.66.198.2 (199.66.198.2): icmp_seq=18 ttl=56 time=21.7 ms
64 bytes from 199.66.198.2 (199.66.198.2): icmp_seq=18 ttl=56 time=21.6 ms
64 bytes from 199.66.198.2 (199.66.198.2): icmp_seq=19 ttl=56 time=22.0 ms
64 bytes from 199.66.198.2 (199.66.198.2): icmp_seq=19 ttl=56 time=21.7 ms
64 bytes from 199.66.198.2 (199.66.198.2): icmp_seq=19 ttl=56 time=21.7 ms
64 bytes from 199.66.198.2 (199.66.198.2): icmp_seq=19 ttl=56 time=21.8 ms
64 bytes from 199.66.198.2 (199.66.198.2): icmp_seq=19 ttl=56 time=21.7 ms
64 bytes from 199.66.198.2 (199.66.198.2): icmp_seq=19 ttl=56 time=21.8 ms
64 bytes from 199.66.198.2 (199.66.198.2): icmp_seq=19 ttl=56 time=21.8 ms
64 bytes from 199.66.198.2 (199.66.198.2): icmp_seq=19 ttl=56 time=21.6 ms
64 bytes from 199.66.198.2 (199.66.198.2): icmp_seq=19 ttl=56 time=21.8 ms
64 bytes from 199.66.198.2 (199.66.198.2): icmp_seq=19 ttl=56 time=22.0 ms
64 bytes from 199.66.198.2 (199.66.198.2): icmp_seq=19 ttl=56 time=21.9 ms
64 bytes from 199.66.198.2 (199.66.198.2): icmp_seq=19 ttl=56 time=22.0 ms
64 bytes from 199.66.198.2 (199.66.198.2): icmp_seq=19 ttl=56 time=22.0 ms
64 bytes from 199.66.198.2 (199.66.198.2): icmp_seq=19 ttl=56 time=21.6 ms
64 bytes from 199.66.198.2 (199.66.198.2): icmp_seq=19 ttl=56 time=21.6 ms
64 bytes from 199.66.198.2 (199.66.198.2): icmp_seq=19 ttl=56 time=21.6 ms
64 bytes from 199.66.198.2 (199.66.198.2): icmp_seq=19 ttl=56 time=21.6 ms
64 bytes from 199.66.198.2 (199.66.198.2): icmp_seq=19 ttl=56 time=21.7 ms
64 bytes from 199.66.198.2 (199.66.198.2): icmp_seq=19 ttl=56 time=21.7 ms
64 bytes from 199.66.198.2 (199.66.198.2): icmp_seq=19 ttl=56 time=21.7 ms
64 bytes from 199.66.198.2 (199.66.198.2): icmp_seq=20 ttl=56 time=21.8 ms
64 bytes from 199.66.198.2 (199.66.198.2): icmp_seq=20 ttl=56 time=21.7 ms
64 bytes from 199.66.198.2 (199.66.198.2): icmp_seq=20 ttl=56 time=21.3 ms
64 bytes from 199.66.198.2 (199.66.198.2): icmp_seq=20 ttl=56 time=21.3 ms
64 bytes from 199.66.198.2 (199.66.198.2): icmp_seq=20 ttl=56 time=21.6 ms
64 bytes from 199.66.198.2 (199.66.198.2): icmp_seq=20 ttl=56 time=21.6 ms
64 bytes from 199.66.198.2 (199.66.198.2): icmp_seq=20 ttl=56 time=21.6 ms
64 bytes from 199.66.198.2 (199.66.198.2): icmp_seq=20 ttl=56 time=21.6 ms
64 bytes from 199.66.198.2 (199.66.198.2): icmp_seq=20 ttl=56 time=21.6 ms
64 bytes from 199.66.198.2 (199.66.198.2): icmp_seq=20 ttl=56 time=21.6 ms
64 bytes from 199.66.198.2 (199.66.198.2): icmp_seq=20 ttl=56 time=21.6 ms
64 bytes from 199.66.198.2 (199.66.198.2): icmp_seq=20 ttl=56 time=21.5 ms
64 bytes from 199.66.198.2 (199.66.198.2): icmp_seq=20 ttl=56 time=21.6 ms
64 bytes from 199.66.198.2 (199.66.198.2): icmp_seq=20 ttl=56 time=21.8 ms
64 bytes from 199.66.198.2 (199.66.198.2): icmp_seq=20 ttl=56 time=21.8 ms
64 bytes from 199.66.198.2 (199.66.198.2): icmp_seq=20 ttl=56 time=21.8 ms
64 bytes from 199.66.198.2 (199.66.198.2): icmp_seq=20 ttl=56 time=21.8 ms
64 bytes from 199.66.198.2 (199.66.198.2): icmp_seq=20 ttl=56 time=21.7 ms
64 bytes from 199.66.198.2 (199.66.198.2): icmp_seq=20 ttl=56 time=21.6 ms
64 bytes from 199.66.198.2 (199.66.198.2): icmp_seq=20 ttl=56 time=21.5 ms
64 bytes from 199.66.198.2 (199.66.198.2): icmp_seq=21 ttl=56 time=21.7 ms
64 bytes from 199.66.198.2 (199.66.198.2): icmp_seq=21 ttl=56 time=21.4 ms
64 bytes from 199.66.198.2 (199.66.198.2): icmp_seq=21 ttl=56 time=21.3 ms
64 bytes from 199.66.198.2 (199.66.198.2): icmp_seq=21 ttl=56 time=21.3 ms
64 bytes from 199.66.198.2 (199.66.198.2): icmp_seq=21 ttl=56 time=21.4 ms
64 bytes from 199.66.198.2 (199.66.198.2): icmp_seq=21 ttl=56 time=21.4 ms
64 bytes from 199.66.198.2 (199.66.198.2): icmp_seq=21 ttl=56 time=21.4 ms
64 bytes from 199.66.198.2 (199.66.198.2): icmp_seq=21 ttl=56 time=21.4 ms
64 bytes from 199.66.198.2 (199.66.198.2): icmp_seq=21 ttl=56 time=21.5 ms
64 bytes from 199.66.198.2 (199.66.198.2): icmp_seq=21 ttl=56 time=21.5 ms
64 bytes from 199.66.198.2 (199.66.198.2): icmp_seq=21 ttl=56 time=21.4 ms
64 bytes from 199.66.198.2 (199.66.198.2): icmp_seq=21 ttl=56 time=21.5 ms
64 bytes from 199.66.198.2 (199.66.198.2): icmp_seq=21 ttl=56 time=21.5 ms
64 bytes from 199.66.198.2 (199.66.198.2): icmp_seq=21 ttl=56 time=21.8 ms
64 bytes from 199.66.198.2 (199.66.198.2): icmp_seq=21 ttl=56 time=21.7 ms
64 bytes from 199.66.198.2 (199.66.198.2): icmp_seq=21 ttl=56 time=21.8 ms
64 bytes from 199.66.198.2 (199.66.198.2): icmp_seq=21 ttl=56 time=21.7 ms
64 bytes from 199.66.198.2 (199.66.198.2): icmp_seq=21 ttl=56 time=21.8 ms
64 bytes from 199.66.198.2 (199.66.198.2): icmp_seq=21 ttl=56 time=21.7 ms
64 bytes from 199.66.198.2 (199.66.198.2): icmp_seq=21 ttl=56 time=21.6 ms
64 bytes from 199.66.198.2 (199.66.198.2): icmp_seq=22 ttl=56 time=21.9 ms
64 bytes from 199.66.198.2 (199.66.198.2): icmp_seq=22 ttl=56 time=21.9 ms
64 bytes from 199.66.198.2 (199.66.198.2): icmp_seq=22 ttl=56 time=21.4 ms
64 bytes from 199.66.198.2 (199.66.198.2): icmp_seq=22 ttl=56 time=21.4 ms
64 bytes from 199.66.198.2 (199.66.198.2): icmp_seq=22 ttl=56 time=21.4 ms
64 bytes from 199.66.198.2 (199.66.198.2): icmp_seq=22 ttl=56 time=21.4 ms
64 bytes from 199.66.198.2 (199.66.198.2): icmp_seq=22 ttl=56 time=21.5 ms
64 bytes from 199.66.198.2 (199.66.198.2): icmp_seq=22 ttl=56 time=21.5 ms
64 bytes from 199.66.198.2 (199.66.198.2): icmp_seq=22 ttl=56 time=21.4 ms
64 bytes from 199.66.198.2 (199.66.198.2): icmp_seq=22 ttl=56 time=21.4 ms
64 bytes from 199.66.198.2 (199.66.198.2): icmp_seq=22 ttl=56 time=21.5 ms
64 bytes from 199.66.198.2 (199.66.198.2): icmp_seq=22 ttl=56 time=21.4 ms
64 bytes from 199.66.198.2 (199.66.198.2): icmp_seq=22 ttl=56 time=21.4 ms
64 bytes from 199.66.198.2 (199.66.198.2): icmp_seq=22 ttl=56 time=21.7 ms
64 bytes from 199.66.198.2 (199.66.198.2): icmp_seq=22 ttl=56 time=21.8 ms
64 bytes from 199.66.198.2 (199.66.198.2): icmp_seq=22 ttl=56 time=21.6 ms
64 bytes from 199.66.198.2 (199.66.198.2): icmp_seq=22 ttl=56 time=21.4 ms
64 bytes from 199.66.198.2 (199.66.198.2): icmp_seq=22 ttl=56 time=21.4 ms
64 bytes from 199.66.198.2 (199.66.198.2): icmp_seq=22 ttl=56 time=21.8 ms
64 bytes from 199.66.198.2 (199.66.198.2): icmp_seq=22 ttl=56 time=21.7 ms
64 bytes from 199.66.198.2 (199.66.198.2): icmp_seq=23 ttl=56 time=21.8 ms
64 bytes from 199.66.198.2 (199.66.198.2): icmp_seq=23 ttl=56 time=21.9 ms
64 bytes from 199.66.198.2 (199.66.198.2): icmp_seq=23 ttl=56 time=21.7 ms
64 bytes from 199.66.198.2 (199.66.198.2): icmp_seq=23 ttl=56 time=21.7 ms
64 bytes from 199.66.198.2 (199.66.198.2): icmp_seq=23 ttl=56 time=21.7 ms
64 bytes from 199.66.198.2 (199.66.198.2): icmp_seq=23 ttl=56 time=21.6 ms
64 bytes from 199.66.198.2 (199.66.198.2): icmp_seq=23 ttl=56 time=21.6 ms
64 bytes from 199.66.198.2 (199.66.198.2): icmp_seq=23 ttl=56 time=21.6 ms
64 bytes from 199.66.198.2 (199.66.198.2): icmp_seq=23 ttl=56 time=21.6 ms
64 bytes from 199.66.198.2 (199.66.198.2): icmp_seq=23 ttl=56 time=21.6 ms
64 bytes from 199.66.198.2 (199.66.198.2): icmp_seq=23 ttl=56 time=21.6 ms
64 bytes from 199.66.198.2 (199.66.198.2): icmp_seq=23 ttl=56 time=21.6 ms
64 bytes from 199.66.198.2 (199.66.198.2): icmp_seq=23 ttl=56 time=21.5 ms
64 bytes from 199.66.198.2 (199.66.198.2): icmp_seq=23 ttl=56 time=21.7 ms
64 bytes from 199.66.198.2 (199.66.198.2): icmp_seq=23 ttl=56 time=21.7 ms
64 bytes from 199.66.198.2 (199.66.198.2): icmp_seq=23 ttl=56 time=21.7 ms
64 bytes from 199.66.198.2 (199.66.198.2): icmp_seq=23 ttl=56 time=21.6 ms
64 bytes from 199.66.198.2 (199.66.198.2): icmp_seq=23 ttl=56 time=21.4 ms
64 bytes from 199.66.198.2 (199.66.198.2): icmp_seq=23 ttl=56 time=21.7 ms
64 bytes from 199.66.198.2 (199.66.198.2): icmp_seq=23 ttl=56 time=21.8 ms
64 bytes from 199.66.198.2 (199.66.198.2): icmp_seq=24 ttl=56 time=21.9 ms
64 bytes from 199.66.198.2 (199.66.198.2): icmp_seq=24 ttl=56 time=22.0 ms
64 bytes from 199.66.198.2 (199.66.198.2): icmp_seq=24 ttl=56 time=21.7 ms
64 bytes from 199.66.198.2 (199.66.198.2): icmp_seq=24 ttl=56 time=21.7 ms
64 bytes from 199.66.198.2 (199.66.198.2): icmp_seq=24 ttl=56 time=21.7 ms
64 bytes from 199.66.198.2 (199.66.198.2): icmp_seq=24 ttl=56 time=21.7 ms
64 bytes from 199.66.198.2 (199.66.198.2): icmp_seq=24 ttl=56 time=21.7 ms
64 bytes from 199.66.198.2 (199.66.198.2): icmp_seq=24 ttl=56 time=21.7 ms
64 bytes from 199.66.198.2 (199.66.198.2): icmp_seq=24 ttl=56 time=21.7 ms
64 bytes from 199.66.198.2 (199.66.198.2): icmp_seq=24 ttl=56 time=21.6 ms
64 bytes from 199.66.198.2 (199.66.198.2): icmp_seq=24 ttl=56 time=21.5 ms
64 bytes from 199.66.198.2 (199.66.198.2): icmp_seq=24 ttl=56 time=21.4 ms
64 bytes from 199.66.198.2 (199.66.198.2): icmp_seq=24 ttl=56 time=21.5 ms
64 bytes from 199.66.198.2 (199.66.198.2): icmp_seq=24 ttl=56 time=21.7 ms
64 bytes from 199.66.198.2 (199.66.198.2): icmp_seq=24 ttl=56 time=21.8 ms
64 bytes from 199.66.198.2 (199.66.198.2): icmp_seq=24 ttl=56 time=21.4 ms
64 bytes from 199.66.198.2 (199.66.198.2): icmp_seq=24 ttl=56 time=21.4 ms
64 bytes from 199.66.198.2 (199.66.198.2): icmp_seq=24 ttl=56 time=21.4 ms
64 bytes from 199.66.198.2 (199.66.198.2): icmp_seq=24 ttl=56 time=21.7 ms
64 bytes from 199.66.198.2 (199.66.198.2): icmp_seq=24 ttl=56 time=21.6 ms
64 bytes from 199.66.198.2 (199.66.198.2): icmp_seq=25 ttl=56 time=21.8 ms
64 bytes from 199.66.198.2 (199.66.198.2): icmp_seq=25 ttl=56 time=21.9 ms
64 bytes from 199.66.198.2 (199.66.198.2): icmp_seq=25 ttl=56 time=21.7 ms
64 bytes from 199.66.198.2 (199.66.198.2): icmp_seq=25 ttl=56 time=21.7 ms
64 bytes from 199.66.198.2 (199.66.198.2): icmp_seq=25 ttl=56 time=21.6 ms
64 bytes from 199.66.198.2 (199.66.198.2): icmp_seq=25 ttl=56 time=21.6 ms
64 bytes from 199.66.198.2 (199.66.198.2): icmp_seq=25 ttl=56 time=21.7 ms
64 bytes from 199.66.198.2 (199.66.198.2): icmp_seq=25 ttl=56 time=21.7 ms
64 bytes from 199.66.198.2 (199.66.198.2): icmp_seq=25 ttl=56 time=21.6 ms
64 bytes from 199.66.198.2 (199.66.198.2): icmp_seq=25 ttl=56 time=21.7 ms
64 bytes from 199.66.198.2 (199.66.198.2): icmp_seq=25 ttl=56 time=21.6 ms
64 bytes from 199.66.198.2 (199.66.198.2): icmp_seq=25 ttl=56 time=21.6 ms
64 bytes from 199.66.198.2 (199.66.198.2): icmp_seq=25 ttl=56 time=21.5 ms
64 bytes from 199.66.198.2 (199.66.198.2): icmp_seq=25 ttl=56 time=21.7 ms
64 bytes from 199.66.198.2 (199.66.198.2): icmp_seq=25 ttl=56 time=21.7 ms
64 bytes from 199.66.198.2 (199.66.198.2): icmp_seq=25 ttl=56 time=21.6 ms
64 bytes from 199.66.198.2 (199.66.198.2): icmp_seq=25 ttl=56 time=21.7 ms
64 bytes from 199.66.198.2 (199.66.198.2): icmp_seq=25 ttl=56 time=21.7 ms
64 bytes from 199.66.198.2 (199.66.198.2): icmp_seq=25 ttl=56 time=21.4 ms
64 bytes from 199.66.198.2 (199.66.198.2): icmp_seq=25 ttl=56 time=21.6 ms
64 bytes from 199.66.198.2 (199.66.198.2): icmp_seq=26 ttl=56 time=21.6 ms
64 bytes from 199.66.198.2 (199.66.198.2): icmp_seq=26 ttl=56 time=21.7 ms
64 bytes from 199.66.198.2 (199.66.198.2): icmp_seq=26 ttl=56 time=21.8 ms
64 bytes from 199.66.198.2 (199.66.198.2): icmp_seq=26 ttl=56 time=21.7 ms
64 bytes from 199.66.198.2 (199.66.198.2): icmp_seq=26 ttl=56 time=21.7 ms
64 bytes from 199.66.198.2 (199.66.198.2): icmp_seq=26 ttl=56 time=21.3 ms
64 bytes from 199.66.198.2 (199.66.198.2): icmp_seq=26 ttl=56 time=21.4 ms
64 bytes from 199.66.198.2 (199.66.198.2): icmp_seq=26 ttl=56 time=21.4 ms
64 bytes from 199.66.198.2 (199.66.198.2): icmp_seq=26 ttl=56 time=21.4 ms
64 bytes from 199.66.198.2 (199.66.198.2): icmp_seq=26 ttl=56 time=21.3 ms
64 bytes from 199.66.198.2 (199.66.198.2): icmp_seq=26 ttl=56 time=21.7 ms
64 bytes from 199.66.198.2 (199.66.198.2): icmp_seq=26 ttl=56 time=21.3 ms
64 bytes from 199.66.198.2 (199.66.198.2): icmp_seq=26 ttl=56 time=21.4 ms
64 bytes from 199.66.198.2 (199.66.198.2): icmp_seq=26 ttl=56 time=21.7 ms
64 bytes from 199.66.198.2 (199.66.198.2): icmp_seq=26 ttl=56 time=21.7 ms
64 bytes from 199.66.198.2 (199.66.198.2): icmp_seq=26 ttl=56 time=21.7 ms
64 bytes from 199.66.198.2 (199.66.198.2): icmp_seq=26 ttl=56 time=21.6 ms
64 bytes from 199.66.198.2 (199.66.198.2): icmp_seq=26 ttl=56 time=21.7 ms
64 bytes from 199.66.198.2 (199.66.198.2): icmp_seq=26 ttl=56 time=21.5 ms
64 bytes from 199.66.198.2 (199.66.198.2): icmp_seq=26 ttl=56 time=21.7 ms
64 bytes from 199.66.198.2 (199.66.198.2): icmp_seq=27 ttl=56 time=21.7 ms
64 bytes from 199.66.198.2 (199.66.198.2): icmp_seq=27 ttl=56 time=21.8 ms
64 bytes from 199.66.198.2 (199.66.198.2): icmp_seq=27 ttl=56 time=21.4 ms
64 bytes from 199.66.198.2 (199.66.198.2): icmp_seq=27 ttl=56 time=21.3 ms
64 bytes from 199.66.198.2 (199.66.198.2): icmp_seq=27 ttl=56 time=21.3 ms
64 bytes from 199.66.198.2 (199.66.198.2): icmp_seq=27 ttl=56 time=21.3 ms
64 bytes from 199.66.198.2 (199.66.198.2): icmp_seq=27 ttl=56 time=21.3 ms
64 bytes from 199.66.198.2 (199.66.198.2): icmp_seq=27 ttl=56 time=21.1 ms
64 bytes from 199.66.198.2 (199.66.198.2): icmp_seq=27 ttl=56 time=21.3 ms
64 bytes from 199.66.198.2 (199.66.198.2): icmp_seq=27 ttl=56 time=21.1 ms
64 bytes from 199.66.198.2 (199.66.198.2): icmp_seq=27 ttl=56 time=21.1 ms
64 bytes from 199.66.198.2 (199.66.198.2): icmp_seq=27 ttl=56 time=21.2 ms
64 bytes from 199.66.198.2 (199.66.198.2): icmp_seq=27 ttl=56 time=21.2 ms
64 bytes from 199.66.198.2 (199.66.198.2): icmp_seq=27 ttl=56 time=21.6 ms
64 bytes from 199.66.198.2 (199.66.198.2): icmp_seq=27 ttl=56 time=21.5 ms
64 bytes from 199.66.198.2 (199.66.198.2): icmp_seq=27 ttl=56 time=21.6 ms
64 bytes from 199.66.198.2 (199.66.198.2): icmp_seq=27 ttl=56 time=21.6 ms
64 bytes from 199.66.198.2 (199.66.198.2): icmp_seq=27 ttl=56 time=21.6 ms
64 bytes from 199.66.198.2 (199.66.198.2): icmp_seq=27 ttl=56 time=21.6 ms
64 bytes from 199.66.198.2 (199.66.198.2): icmp_seq=27 ttl=56 time=21.7 ms
64 bytes from 199.66.198.2 (199.66.198.2): icmp_seq=28 ttl=56 time=21.7 ms
64 bytes from 199.66.198.2 (199.66.198.2): icmp_seq=28 ttl=56 time=21.5 ms
64 bytes from 199.66.198.2 (199.66.198.2): icmp_seq=28 ttl=56 time=21.5 ms
64 bytes from 199.66.198.2 (199.66.198.2): icmp_seq=28 ttl=56 time=21.5 ms
64 bytes from 199.66.198.2 (199.66.198.2): icmp_seq=28 ttl=56 time=21.5 ms
64 bytes from 199.66.198.2 (199.66.198.2): icmp_seq=28 ttl=56 time=21.5 ms
64 bytes from 199.66.198.2 (199.66.198.2): icmp_seq=28 ttl=56 time=21.5 ms
64 bytes from 199.66.198.2 (199.66.198.2): icmp_seq=28 ttl=56 time=21.6 ms
64 bytes from 199.66.198.2 (199.66.198.2): icmp_seq=28 ttl=56 time=21.6 ms
64 bytes from 199.66.198.2 (199.66.198.2): icmp_seq=28 ttl=56 time=21.5 ms
64 bytes from 199.66.198.2 (199.66.198.2): icmp_seq=28 ttl=56 time=21.6 ms
64 bytes from 199.66.198.2 (199.66.198.2): icmp_seq=28 ttl=56 time=21.4 ms
64 bytes from 199.66.198.2 (199.66.198.2): icmp_seq=28 ttl=56 time=21.5 ms
64 bytes from 199.66.198.2 (199.66.198.2): icmp_seq=28 ttl=56 time=21.7 ms
64 bytes from 199.66.198.2 (199.66.198.2): icmp_seq=28 ttl=56 time=21.7 ms
64 bytes from 199.66.198.2 (199.66.198.2): icmp_seq=28 ttl=56 time=21.7 ms
64 bytes from 199.66.198.2 (199.66.198.2): icmp_seq=28 ttl=56 time=21.6 ms
64 bytes from 199.66.198.2 (199.66.198.2): icmp_seq=28 ttl=56 time=21.7 ms
64 bytes from 199.66.198.2 (199.66.198.2): icmp_seq=28 ttl=56 time=21.6 ms
64 bytes from 199.66.198.2 (199.66.198.2): icmp_seq=28 ttl=56 time=21.6 ms
64 bytes from 199.66.198.2 (199.66.198.2): icmp_seq=29 ttl=56 time=21.7 ms
64 bytes from 199.66.198.2 (199.66.198.2): icmp_seq=29 ttl=56 time=21.7 ms
64 bytes from 199.66.198.2 (199.66.198.2): icmp_seq=29 ttl=56 time=21.5 ms
64 bytes from 199.66.198.2 (199.66.198.2): icmp_seq=29 ttl=56 time=21.5 ms
64 bytes from 199.66.198.2 (199.66.198.2): icmp_seq=29 ttl=56 time=21.6 ms
64 bytes from 199.66.198.2 (199.66.198.2): icmp_seq=29 ttl=56 time=21.6 ms
64 bytes from 199.66.198.2 (199.66.198.2): icmp_seq=29 ttl=56 time=21.7 ms
64 bytes from 199.66.198.2 (199.66.198.2): icmp_seq=29 ttl=56 time=21.7 ms
64 bytes from 199.66.198.2 (199.66.198.2): icmp_seq=29 ttl=56 time=21.7 ms
64 bytes from 199.66.198.2 (199.66.198.2): icmp_seq=29 ttl=56 time=21.7 ms
64 bytes from 199.66.198.2 (199.66.198.2): icmp_seq=29 ttl=56 time=21.6 ms
64 bytes from 199.66.198.2 (199.66.198.2): icmp_seq=29 ttl=56 time=21.7 ms
64 bytes from 199.66.198.2 (199.66.198.2): icmp_seq=29 ttl=56 time=21.4 ms
64 bytes from 199.66.198.2 (199.66.198.2): icmp_seq=29 ttl=56 time=22.0 ms
64 bytes from 199.66.198.2 (199.66.198.2): icmp_seq=29 ttl=56 time=22.1 ms
64 bytes from 199.66.198.2 (199.66.198.2): icmp_seq=29 ttl=56 time=22.0 ms
64 bytes from 199.66.198.2 (199.66.198.2): icmp_seq=29 ttl=56 time=21.9 ms
64 bytes from 199.66.198.2 (199.66.198.2): icmp_seq=29 ttl=56 time=22.1 ms
64 bytes from 199.66.198.2 (199.66.198.2): icmp_seq=29 ttl=56 time=21.8 ms
64 bytes from 199.66.198.2 (199.66.198.2): icmp_seq=29 ttl=56 time=21.7 ms
64 bytes from 199.66.198.2 (199.66.198.2): icmp_seq=30 ttl=56 time=21.8 ms
64 bytes from 199.66.198.2 (199.66.198.2): icmp_seq=30 ttl=56 time=21.9 ms
64 bytes from 199.66.198.2 (199.66.198.2): icmp_seq=30 ttl=56 time=21.8 ms
64 bytes from 199.66.198.2 (199.66.198.2): icmp_seq=30 ttl=56 time=21.8 ms
64 bytes from 199.66.198.2 (199.66.198.2): icmp_seq=30 ttl=56 time=21.8 ms
64 bytes from 199.66.198.2 (199.66.198.2): icmp_seq=30 ttl=56 time=21.8 ms
64 bytes from 199.66.198.2 (199.66.198.2): icmp_seq=30 ttl=56 time=21.9 ms
64 bytes from 199.66.198.2 (199.66.198.2): icmp_seq=30 ttl=56 time=21.9 ms
64 bytes from 199.66.198.2 (199.66.198.2): icmp_seq=30 ttl=56 time=22.0 ms
64 bytes from 199.66.198.2 (199.66.198.2): icmp_seq=30 ttl=56 time=21.9 ms
64 bytes from 199.66.198.2 (199.66.198.2): icmp_seq=30 ttl=56 time=21.9 ms
64 bytes from 199.66.198.2 (199.66.198.2): icmp_seq=30 ttl=56 time=21.9 ms
64 bytes from 199.66.198.2 (199.66.198.2): icmp_seq=30 ttl=56 time=21.7 ms
64 bytes from 199.66.198.2 (199.66.198.2): icmp_seq=30 ttl=56 time=21.9 ms
64 bytes from 199.66.198.2 (199.66.198.2): icmp_seq=30 ttl=56 time=22.0 ms
64 bytes from 199.66.198.2 (199.66.198.2): icmp_seq=30 ttl=56 time=21.8 ms
64 bytes from 199.66.198.2 (199.66.198.2): icmp_seq=30 ttl=56 time=22.0 ms
64 bytes from 199.66.198.2 (199.66.198.2): icmp_seq=30 ttl=56 time=22.0 ms
64 bytes from 199.66.198.2 (199.66.198.2): icmp_seq=30 ttl=56 time=21.8 ms
64 bytes from 199.66.198.2 (199.66.198.2): icmp_seq=30 ttl=56 time=21.7 ms
64 bytes from 199.66.198.2 (199.66.198.2): icmp_seq=31 ttl=56 time=21.6 ms
64 bytes from 199.66.198.2 (199.66.198.2): icmp_seq=31 ttl=56 time=21.7 ms
64 bytes from 199.66.198.2 (199.66.198.2): icmp_seq=31 ttl=56 time=21.6 ms
64 bytes from 199.66.198.2 (199.66.198.2): icmp_seq=31 ttl=56 time=21.5 ms
64 bytes from 199.66.198.2 (199.66.198.2): icmp_seq=31 ttl=56 time=21.6 ms
64 bytes from 199.66.198.2 (199.66.198.2): icmp_seq=31 ttl=56 time=21.6 ms
64 bytes from 199.66.198.2 (199.66.198.2): icmp_seq=31 ttl=56 time=21.6 ms
64 bytes from 199.66.198.2 (199.66.198.2): icmp_seq=31 ttl=56 time=21.7 ms
64 bytes from 199.66.198.2 (199.66.198.2): icmp_seq=31 ttl=56 time=21.6 ms
64 bytes from 199.66.198.2 (199.66.198.2): icmp_seq=31 ttl=56 time=21.6 ms
64 bytes from 199.66.198.2 (199.66.198.2): icmp_seq=31 ttl=56 time=21.6 ms
64 bytes from 199.66.198.2 (199.66.198.2): icmp_seq=31 ttl=56 time=21.5 ms
64 bytes from 199.66.198.2 (199.66.198.2): icmp_seq=31 ttl=56 time=21.6 ms
64 bytes from 199.66.198.2 (199.66.198.2): icmp_seq=31 ttl=56 time=21.8 ms
64 bytes from 199.66.198.2 (199.66.198.2): icmp_seq=31 ttl=56 time=21.9 ms
64 bytes from 199.66.198.2 (199.66.198.2): icmp_seq=31 ttl=56 time=21.9 ms
64 bytes from 199.66.198.2 (199.66.198.2): icmp_seq=31 ttl=56 time=21.8 ms
64 bytes from 199.66.198.2 (199.66.198.2): icmp_seq=31 ttl=56 time=21.9 ms
64 bytes from 199.66.198.2 (199.66.198.2): icmp_seq=31 ttl=56 time=21.7 ms
64 bytes from 199.66.198.2 (199.66.198.2): icmp_seq=31 ttl=56 time=21.6 ms
64 bytes from 199.66.198.2 (199.66.198.2): icmp_seq=32 ttl=56 time=22.1 ms
64 bytes from 199.66.198.2 (199.66.198.2): icmp_seq=32 ttl=56 time=21.9 ms
64 bytes from 199.66.198.2 (199.66.198.2): icmp_seq=32 ttl=56 time=21.8 ms
64 bytes from 199.66.198.2 (199.66.198.2): icmp_seq=32 ttl=56 time=21.7 ms
64 bytes from 199.66.198.2 (199.66.198.2): icmp_seq=32 ttl=56 time=21.7 ms
64 bytes from 199.66.198.2 (199.66.198.2): icmp_seq=32 ttl=56 time=21.8 ms
64 bytes from 199.66.198.2 (199.66.198.2): icmp_seq=32 ttl=56 time=21.8 ms
64 bytes from 199.66.198.2 (199.66.198.2): icmp_seq=32 ttl=56 time=21.8 ms
64 bytes from 199.66.198.2 (199.66.198.2): icmp_seq=32 ttl=56 time=21.9 ms
64 bytes from 199.66.198.2 (199.66.198.2): icmp_seq=32 ttl=56 time=21.8 ms
64 bytes from 199.66.198.2 (199.66.198.2): icmp_seq=32 ttl=56 time=21.8 ms
64 bytes from 199.66.198.2 (199.66.198.2): icmp_seq=32 ttl=56 time=21.8 ms
64 bytes from 199.66.198.2 (199.66.198.2): icmp_seq=32 ttl=56 time=21.6 ms
64 bytes from 199.66.198.2 (199.66.198.2): icmp_seq=32 ttl=56 time=21.8 ms
64 bytes from 199.66.198.2 (199.66.198.2): icmp_seq=32 ttl=56 time=21.8 ms
64 bytes from 199.66.198.2 (199.66.198.2): icmp_seq=32 ttl=56 time=21.8 ms
64 bytes from 199.66.198.2 (199.66.198.2): icmp_seq=32 ttl=56 time=21.7 ms
64 bytes from 199.66.198.2 (199.66.198.2): icmp_seq=32 ttl=56 time=21.8 ms
64 bytes from 199.66.198.2 (199.66.198.2): icmp_seq=32 ttl=56 time=21.7 ms
64 bytes from 199.66.198.2 (199.66.198.2): icmp_seq=32 ttl=56 time=21.8 ms
64 bytes from 199.66.198.2 (199.66.198.2): icmp_seq=33 ttl=56 time=21.8 ms
64 bytes from 199.66.198.2 (199.66.198.2): icmp_seq=33 ttl=56 time=21.9 ms
64 bytes from 199.66.198.2 (199.66.198.2): icmp_seq=33 ttl=56 time=21.3 ms
64 bytes from 199.66.198.2 (199.66.198.2): icmp_seq=33 ttl=56 time=21.3 ms
64 bytes from 199.66.198.2 (199.66.198.2): icmp_seq=33 ttl=56 time=21.3 ms
64 bytes from 199.66.198.2 (199.66.198.2): icmp_seq=33 ttl=56 time=21.4 ms
64 bytes from 199.66.198.2 (199.66.198.2): icmp_seq=33 ttl=56 time=21.4 ms
64 bytes from 199.66.198.2 (199.66.198.2): icmp_seq=33 ttl=56 time=21.5 ms
64 bytes from 199.66.198.2 (199.66.198.2): icmp_seq=33 ttl=56 time=21.4 ms
64 bytes from 199.66.198.2 (199.66.198.2): icmp_seq=33 ttl=56 time=21.4 ms
64 bytes from 199.66.198.2 (199.66.198.2): icmp_seq=33 ttl=56 time=21.4 ms
64 bytes from 199.66.198.2 (199.66.198.2): icmp_seq=33 ttl=56 time=21.5 ms
64 bytes from 199.66.198.2 (199.66.198.2): icmp_seq=33 ttl=56 time=21.4 ms
64 bytes from 199.66.198.2 (199.66.198.2): icmp_seq=33 ttl=56 time=21.8 ms
64 bytes from 199.66.198.2 (199.66.198.2): icmp_seq=33 ttl=56 time=21.8 ms
64 bytes from 199.66.198.2 (199.66.198.2): icmp_seq=33 ttl=56 time=21.9 ms
64 bytes from 199.66.198.2 (199.66.198.2): icmp_seq=33 ttl=56 time=21.8 ms
64 bytes from 199.66.198.2 (199.66.198.2): icmp_seq=33 ttl=56 time=21.7 ms
64 bytes from 199.66.198.2 (199.66.198.2): icmp_seq=33 ttl=56 time=21.7 ms
64 bytes from 199.66.198.2 (199.66.198.2): icmp_seq=33 ttl=56 time=21.6 ms
64 bytes from 199.66.198.2 (199.66.198.2): icmp_seq=34 ttl=56 time=21.8 ms
64 bytes from 199.66.198.2 (199.66.198.2): icmp_seq=34 ttl=56 time=21.4 ms
64 bytes from 199.66.198.2 (199.66.198.2): icmp_seq=34 ttl=56 time=21.3 ms
64 bytes from 199.66.198.2 (199.66.198.2): icmp_seq=34 ttl=56 time=21.3 ms
64 bytes from 199.66.198.2 (199.66.198.2): icmp_seq=34 ttl=56 time=21.5 ms
64 bytes from 199.66.198.2 (199.66.198.2): icmp_seq=34 ttl=56 time=21.4 ms
64 bytes from 199.66.198.2 (199.66.198.2): icmp_seq=34 ttl=56 time=21.4 ms
64 bytes from 199.66.198.2 (199.66.198.2): icmp_seq=34 ttl=56 time=21.5 ms
64 bytes from 199.66.198.2 (199.66.198.2): icmp_seq=34 ttl=56 time=21.5 ms
64 bytes from 199.66.198.2 (199.66.198.2): icmp_seq=34 ttl=56 time=21.5 ms
64 bytes from 199.66.198.2 (199.66.198.2): icmp_seq=34 ttl=56 time=21.5 ms
64 bytes from 199.66.198.2 (199.66.198.2): icmp_seq=34 ttl=56 time=21.3 ms
64 bytes from 199.66.198.2 (199.66.198.2): icmp_seq=34 ttl=56 time=21.3 ms
64 bytes from 199.66.198.2 (199.66.198.2): icmp_seq=34 ttl=56 time=21.7 ms
64 bytes from 199.66.198.2 (199.66.198.2): icmp_seq=34 ttl=56 time=21.8 ms
64 bytes from 199.66.198.2 (199.66.198.2): icmp_seq=34 ttl=56 time=21.8 ms
64 bytes from 199.66.198.2 (199.66.198.2): icmp_seq=34 ttl=56 time=21.7 ms
64 bytes from 199.66.198.2 (199.66.198.2): icmp_seq=34 ttl=56 time=21.7 ms
64 bytes from 199.66.198.2 (199.66.198.2): icmp_seq=34 ttl=56 time=21.4 ms
64 bytes from 199.66.198.2 (199.66.198.2): icmp_seq=34 ttl=56 time=21.7 ms
64 bytes from 199.66.198.2 (199.66.198.2): icmp_seq=35 ttl=56 time=21.8 ms
64 bytes from 199.66.198.2 (199.66.198.2): icmp_seq=35 ttl=56 time=21.3 ms
64 bytes from 199.66.198.2 (199.66.198.2): icmp_seq=35 ttl=56 time=21.6 ms
64 bytes from 199.66.198.2 (199.66.198.2): icmp_seq=35 ttl=56 time=21.3 ms
64 bytes from 199.66.198.2 (199.66.198.2): icmp_seq=35 ttl=56 time=21.6 ms
64 bytes from 199.66.198.2 (199.66.198.2): icmp_seq=35 ttl=56 time=21.6 ms
64 bytes from 199.66.198.2 (199.66.198.2): icmp_seq=35 ttl=56 time=21.6 ms
64 bytes from 199.66.198.2 (199.66.198.2): icmp_seq=35 ttl=56 time=21.7 ms
64 bytes from 199.66.198.2 (199.66.198.2): icmp_seq=35 ttl=56 time=21.6 ms
64 bytes from 199.66.198.2 (199.66.198.2): icmp_seq=35 ttl=56 time=21.7 ms
64 bytes from 199.66.198.2 (199.66.198.2): icmp_seq=35 ttl=56 time=21.7 ms
64 bytes from 199.66.198.2 (199.66.198.2): icmp_seq=35 ttl=56 time=21.7 ms
64 bytes from 199.66.198.2 (199.66.198.2): icmp_seq=35 ttl=56 time=21.5 ms
64 bytes from 199.66.198.2 (199.66.198.2): icmp_seq=35 ttl=56 time=21.5 ms
64 bytes from 199.66.198.2 (199.66.198.2): icmp_seq=35 ttl=56 time=21.5 ms
64 bytes from 199.66.198.2 (199.66.198.2): icmp_seq=35 ttl=56 time=21.4 ms
64 bytes from 199.66.198.2 (199.66.198.2): icmp_seq=35 ttl=56 time=21.6 ms
64 bytes from 199.66.198.2 (199.66.198.2): icmp_seq=35 ttl=56 time=21.6 ms
64 bytes from 199.66.198.2 (199.66.198.2): icmp_seq=35 ttl=56 time=21.4 ms
64 bytes from 199.66.198.2 (199.66.198.2): icmp_seq=35 ttl=56 time=21.4 ms
64 bytes from 199.66.198.2 (199.66.198.2): icmp_seq=36 ttl=56 time=21.6 ms
64 bytes from 199.66.198.2 (199.66.198.2): icmp_seq=36 ttl=56 time=21.8 ms
64 bytes from 199.66.198.2 (199.66.198.2): icmp_seq=36 ttl=56 time=21.7 ms
64 bytes from 199.66.198.2 (199.66.198.2): icmp_seq=36 ttl=56 time=21.8 ms
64 bytes from 199.66.198.2 (199.66.198.2): icmp_seq=36 ttl=56 time=21.7 ms
64 bytes from 199.66.198.2 (199.66.198.2): icmp_seq=36 ttl=56 time=21.7 ms
64 bytes from 199.66.198.2 (199.66.198.2): icmp_seq=36 ttl=56 time=21.7 ms
64 bytes from 199.66.198.2 (199.66.198.2): icmp_seq=36 ttl=56 time=21.8 ms
64 bytes from 199.66.198.2 (199.66.198.2): icmp_seq=36 ttl=56 time=21.8 ms
64 bytes from 199.66.198.2 (199.66.198.2): icmp_seq=36 ttl=56 time=21.8 ms
64 bytes from 199.66.198.2 (199.66.198.2): icmp_seq=36 ttl=56 time=21.9 ms
64 bytes from 199.66.198.2 (199.66.198.2): icmp_seq=36 ttl=56 time=21.6 ms
64 bytes from 199.66.198.2 (199.66.198.2): icmp_seq=36 ttl=56 time=21.8 ms
64 bytes from 199.66.198.2 (199.66.198.2): icmp_seq=36 ttl=56 time=21.8 ms
64 bytes from 199.66.198.2 (199.66.198.2): icmp_seq=36 ttl=56 time=21.9 ms
64 bytes from 199.66.198.2 (199.66.198.2): icmp_seq=36 ttl=56 time=21.9 ms
64 bytes from 199.66.198.2 (199.66.198.2): icmp_seq=36 ttl=56 time=21.7 ms
64 bytes from 199.66.198.2 (199.66.198.2): icmp_seq=36 ttl=56 time=21.9 ms
64 bytes from 199.66.198.2 (199.66.198.2): icmp_seq=36 ttl=56 time=21.7 ms
64 bytes from 199.66.198.2 (199.66.198.2): icmp_seq=36 ttl=56 time=21.7 ms
64 bytes from 199.66.198.2 (199.66.198.2): icmp_seq=37 ttl=56 time=21.6 ms
64 bytes from 199.66.198.2 (199.66.198.2): icmp_seq=37 ttl=56 time=21.7 ms
64 bytes from 199.66.198.2 (199.66.198.2): icmp_seq=37 ttl=56 time=21.4 ms
64 bytes from 199.66.198.2 (199.66.198.2): icmp_seq=37 ttl=56 time=21.3 ms
64 bytes from 199.66.198.2 (199.66.198.2): icmp_seq=37 ttl=56 time=21.6 ms
64 bytes from 199.66.198.2 (199.66.198.2): icmp_seq=37 ttl=56 time=21.6 ms
64 bytes from 199.66.198.2 (199.66.198.2): icmp_seq=37 ttl=56 time=21.6 ms
64 bytes from 199.66.198.2 (199.66.198.2): icmp_seq=37 ttl=56 time=21.6 ms
64 bytes from 199.66.198.2 (199.66.198.2): icmp_seq=37 ttl=56 time=21.4 ms
64 bytes from 199.66.198.2 (199.66.198.2): icmp_seq=37 ttl=56 time=21.4 ms
64 bytes from 199.66.198.2 (199.66.198.2): icmp_seq=37 ttl=56 time=21.5 ms
64 bytes from 199.66.198.2 (199.66.198.2): icmp_seq=37 ttl=56 time=21.4 ms
64 bytes from 199.66.198.2 (199.66.198.2): icmp_seq=37 ttl=56 time=21.5 ms
64 bytes from 199.66.198.2 (199.66.198.2): icmp_seq=37 ttl=56 time=21.6 ms
64 bytes from 199.66.198.2 (199.66.198.2): icmp_seq=37 ttl=56 time=21.6 ms
64 bytes from 199.66.198.2 (199.66.198.2): icmp_seq=37 ttl=56 time=21.6 ms
64 bytes from 199.66.198.2 (199.66.198.2): icmp_seq=37 ttl=56 time=21.5 ms
64 bytes from 199.66.198.2 (199.66.198.2): icmp_seq=37 ttl=56 time=21.6 ms
64 bytes from 199.66.198.2 (199.66.198.2): icmp_seq=37 ttl=56 time=21.6 ms
64 bytes from 199.66.198.2 (199.66.198.2): icmp_seq=37 ttl=56 time=21.6 ms
64 bytes from 199.66.198.2 (199.66.198.2): icmp_seq=38 ttl=56 time=21.8 ms
64 bytes from 199.66.198.2 (199.66.198.2): icmp_seq=38 ttl=56 time=21.8 ms
64 bytes from 199.66.198.2 (199.66.198.2): icmp_seq=38 ttl=56 time=21.7 ms
64 bytes from 199.66.198.2 (199.66.198.2): icmp_seq=38 ttl=56 time=21.6 ms
64 bytes from 199.66.198.2 (199.66.198.2): icmp_seq=38 ttl=56 time=21.5 ms
64 bytes from 199.66.198.2 (199.66.198.2): icmp_seq=38 ttl=56 time=21.5 ms
64 bytes from 199.66.198.2 (199.66.198.2): icmp_seq=38 ttl=56 time=21.5 ms
64 bytes from 199.66.198.2 (199.66.198.2): icmp_seq=38 ttl=56 time=21.6 ms
64 bytes from 199.66.198.2 (199.66.198.2): icmp_seq=38 ttl=56 time=21.5 ms
64 bytes from 199.66.198.2 (199.66.198.2): icmp_seq=38 ttl=56 time=21.6 ms
64 bytes from 199.66.198.2 (199.66.198.2): icmp_seq=38 ttl=56 time=21.4 ms
64 bytes from 199.66.198.2 (199.66.198.2): icmp_seq=38 ttl=56 time=21.4 ms
64 bytes from 199.66.198.2 (199.66.198.2): icmp_seq=38 ttl=56 time=21.5 ms
64 bytes from 199.66.198.2 (199.66.198.2): icmp_seq=38 ttl=56 time=21.6 ms
64 bytes from 199.66.198.2 (199.66.198.2): icmp_seq=38 ttl=56 time=21.6 ms
64 bytes from 199.66.198.2 (199.66.198.2): icmp_seq=38 ttl=56 time=21.7 ms
64 bytes from 199.66.198.2 (199.66.198.2): icmp_seq=38 ttl=56 time=21.5 ms
64 bytes from 199.66.198.2 (199.66.198.2): icmp_seq=38 ttl=56 time=21.7 ms
64 bytes from 199.66.198.2 (199.66.198.2): icmp_seq=38 ttl=56 time=21.7 ms
64 bytes from 199.66.198.2 (199.66.198.2): icmp_seq=38 ttl=56 time=21.8 ms
64 bytes from 199.66.198.2 (199.66.198.2): icmp_seq=39 ttl=56 time=21.8 ms
64 bytes from 199.66.198.2 (199.66.198.2): icmp_seq=39 ttl=56 time=21.8 ms
64 bytes from 199.66.198.2 (199.66.198.2): icmp_seq=39 ttl=56 time=21.4 ms
64 bytes from 199.66.198.2 (199.66.198.2): icmp_seq=39 ttl=56 time=21.4 ms
64 bytes from 199.66.198.2 (199.66.198.2): icmp_seq=39 ttl=56 time=21.8 ms
64 bytes from 199.66.198.2 (199.66.198.2): icmp_seq=39 ttl=56 time=21.8 ms
64 bytes from 199.66.198.2 (199.66.198.2): icmp_seq=39 ttl=56 time=21.8 ms
64 bytes from 199.66.198.2 (199.66.198.2): icmp_seq=39 ttl=56 time=21.9 ms
64 bytes from 199.66.198.2 (199.66.198.2): icmp_seq=39 ttl=56 time=21.9 ms
64 bytes from 199.66.198.2 (199.66.198.2): icmp_seq=39 ttl=56 time=21.9 ms
64 bytes from 199.66.198.2 (199.66.198.2): icmp_seq=39 ttl=56 time=21.9 ms
64 bytes from 199.66.198.2 (199.66.198.2): icmp_seq=39 ttl=56 time=21.9 ms
64 bytes from 199.66.198.2 (199.66.198.2): icmp_seq=39 ttl=56 time=21.7 ms
64 bytes from 199.66.198.2 (199.66.198.2): icmp_seq=39 ttl=56 time=21.8 ms
64 bytes from 199.66.198.2 (199.66.198.2): icmp_seq=39 ttl=56 time=21.9 ms
64 bytes from 199.66.198.2 (199.66.198.2): icmp_seq=39 ttl=56 time=21.9 ms
64 bytes from 199.66.198.2 (199.66.198.2): icmp_seq=39 ttl=56 time=21.8 ms
64 bytes from 199.66.198.2 (199.66.198.2): icmp_seq=39 ttl=56 time=21.9 ms
64 bytes from 199.66.198.2 (199.66.198.2): icmp_seq=39 ttl=56 time=21.8 ms
64 bytes from 199.66.198.2 (199.66.198.2): icmp_seq=39 ttl=56 time=21.8 ms
64 bytes from 199.66.198.2 (199.66.198.2): icmp_seq=40 ttl=56 time=21.7 ms
64 bytes from 199.66.198.2 (199.66.198.2): icmp_seq=40 ttl=56 time=21.8 ms
64 bytes from 199.66.198.2 (199.66.198.2): icmp_seq=40 ttl=56 time=21.4 ms
64 bytes from 199.66.198.2 (199.66.198.2): icmp_seq=40 ttl=56 time=21.5 ms
64 bytes from 199.66.198.2 (199.66.198.2): icmp_seq=40 ttl=56 time=21.7 ms
64 bytes from 199.66.198.2 (199.66.198.2): icmp_seq=40 ttl=56 time=21.3 ms
64 bytes from 199.66.198.2 (199.66.198.2): icmp_seq=40 ttl=56 time=21.6 ms
64 bytes from 199.66.198.2 (199.66.198.2): icmp_seq=40 ttl=56 time=21.3 ms
64 bytes from 199.66.198.2 (199.66.198.2): icmp_seq=40 ttl=56 time=21.4 ms
64 bytes from 199.66.198.2 (199.66.198.2): icmp_seq=40 ttl=56 time=21.4 ms
64 bytes from 199.66.198.2 (199.66.198.2): icmp_seq=40 ttl=56 time=21.5 ms
64 bytes from 199.66.198.2 (199.66.198.2): icmp_seq=40 ttl=56 time=21.4 ms
64 bytes from 199.66.198.2 (199.66.198.2): icmp_seq=40 ttl=56 time=21.4 ms
64 bytes from 199.66.198.2 (199.66.198.2): icmp_seq=40 ttl=56 time=21.7 ms
64 bytes from 199.66.198.2 (199.66.198.2): icmp_seq=40 ttl=56 time=21.8 ms
64 bytes from 199.66.198.2 (199.66.198.2): icmp_seq=40 ttl=56 time=21.7 ms
64 bytes from 199.66.198.2 (199.66.198.2): icmp_seq=40 ttl=56 time=21.6 ms
64 bytes from 199.66.198.2 (199.66.198.2): icmp_seq=40 ttl=56 time=21.8 ms
64 bytes from 199.66.198.2 (199.66.198.2): icmp_seq=40 ttl=56 time=21.6 ms
64 bytes from 199.66.198.2 (199.66.198.2): icmp_seq=40 ttl=56 time=21.8 ms
64 bytes from 199.66.198.2 (199.66.198.2): icmp_seq=41 ttl=56 time=21.8 ms
64 bytes from 199.66.198.2 (199.66.198.2): icmp_seq=41 ttl=56 time=21.8 ms
64 bytes from 199.66.198.2 (199.66.198.2): icmp_seq=41 ttl=56 time=21.7 ms
64 bytes from 199.66.198.2 (199.66.198.2): icmp_seq=41 ttl=56 time=21.3 ms
64 bytes from 199.66.198.2 (199.66.198.2): icmp_seq=41 ttl=56 time=21.6 ms
64 bytes from 199.66.198.2 (199.66.198.2): icmp_seq=41 ttl=56 time=21.7 ms
64 bytes from 199.66.198.2 (199.66.198.2): icmp_seq=41 ttl=56 time=21.6 ms
64 bytes from 199.66.198.2 (199.66.198.2): icmp_seq=41 ttl=56 time=21.6 ms
64 bytes from 199.66.198.2 (199.66.198.2): icmp_seq=41 ttl=56 time=21.6 ms
64 bytes from 199.66.198.2 (199.66.198.2): icmp_seq=41 ttl=56 time=21.6 ms
64 bytes from 199.66.198.2 (199.66.198.2): icmp_seq=41 ttl=56 time=21.6 ms
64 bytes from 199.66.198.2 (199.66.198.2): icmp_seq=41 ttl=56 time=21.6 ms
64 bytes from 199.66.198.2 (199.66.198.2): icmp_seq=41 ttl=56 time=21.6 ms
64 bytes from 199.66.198.2 (199.66.198.2): icmp_seq=41 ttl=56 time=21.7 ms
64 bytes from 199.66.198.2 (199.66.198.2): icmp_seq=41 ttl=56 time=21.7 ms
64 bytes from 199.66.198.2 (199.66.198.2): icmp_seq=41 ttl=56 time=21.8 ms
64 bytes from 199.66.198.2 (199.66.198.2): icmp_seq=41 ttl=56 time=21.6 ms
64 bytes from 199.66.198.2 (199.66.198.2): icmp_seq=41 ttl=56 time=21.7 ms
64 bytes from 199.66.198.2 (199.66.198.2): icmp_seq=41 ttl=56 time=21.6 ms
64 bytes from 199.66.198.2 (199.66.198.2): icmp_seq=41 ttl=56 time=21.5 ms
64 bytes from 199.66.198.2 (199.66.198.2): icmp_seq=42 ttl=56 time=21.6 ms
64 bytes from 199.66.198.2 (199.66.198.2): icmp_seq=42 ttl=56 time=21.6 ms
64 bytes from 199.66.198.2 (199.66.198.2): icmp_seq=42 ttl=56 time=21.7 ms
64 bytes from 199.66.198.2 (199.66.198.2): icmp_seq=42 ttl=56 time=21.7 ms
64 bytes from 199.66.198.2 (199.66.198.2): icmp_seq=42 ttl=56 time=21.5 ms
64 bytes from 199.66.198.2 (199.66.198.2): icmp_seq=42 ttl=56 time=21.6 ms
64 bytes from 199.66.198.2 (199.66.198.2): icmp_seq=42 ttl=56 time=21.6 ms
64 bytes from 199.66.198.2 (199.66.198.2): icmp_seq=42 ttl=56 time=21.6 ms
64 bytes from 199.66.198.2 (199.66.198.2): icmp_seq=42 ttl=56 time=21.6 ms
64 bytes from 199.66.198.2 (199.66.198.2): icmp_seq=42 ttl=56 time=21.7 ms
64 bytes from 199.66.198.2 (199.66.198.2): icmp_seq=42 ttl=56 time=21.7 ms
64 bytes from 199.66.198.2 (199.66.198.2): icmp_seq=42 ttl=56 time=21.6 ms
64 bytes from 199.66.198.2 (199.66.198.2): icmp_seq=42 ttl=56 time=21.7 ms
64 bytes from 199.66.198.2 (199.66.198.2): icmp_seq=42 ttl=56 time=21.7 ms
64 bytes from 199.66.198.2 (199.66.198.2): icmp_seq=42 ttl=56 time=21.7 ms
64 bytes from 199.66.198.2 (199.66.198.2): icmp_seq=42 ttl=56 time=21.8 ms
64 bytes from 199.66.198.2 (199.66.198.2): icmp_seq=42 ttl=56 time=21.8 ms
64 bytes from 199.66.198.2 (199.66.198.2): icmp_seq=42 ttl=56 time=21.6 ms
64 bytes from 199.66.198.2 (199.66.198.2): icmp_seq=42 ttl=56 time=21.6 ms
64 bytes from 199.66.198.2 (199.66.198.2): icmp_seq=42 ttl=56 time=21.7 ms
64 bytes from 199.66.198.2 (199.66.198.2): icmp_seq=43 ttl=56 time=21.9 ms
64 bytes from 199.66.198.2 (199.66.198.2): icmp_seq=43 ttl=56 time=21.4 ms
64 bytes from 199.66.198.2 (199.66.198.2): icmp_seq=43 ttl=56 time=21.4 ms
64 bytes from 199.66.198.2 (199.66.198.2): icmp_seq=43 ttl=56 time=21.4 ms
64 bytes from 199.66.198.2 (199.66.198.2): icmp_seq=43 ttl=56 time=21.4 ms
64 bytes from 199.66.198.2 (199.66.198.2): icmp_seq=43 ttl=56 time=21.8 ms
64 bytes from 199.66.198.2 (199.66.198.2): icmp_seq=43 ttl=56 time=21.4 ms
64 bytes from 199.66.198.2 (199.66.198.2): icmp_seq=43 ttl=56 time=21.4 ms
64 bytes from 199.66.198.2 (199.66.198.2): icmp_seq=43 ttl=56 time=21.4 ms
64 bytes from 199.66.198.2 (199.66.198.2): icmp_seq=43 ttl=56 time=21.4 ms
64 bytes from 199.66.198.2 (199.66.198.2): icmp_seq=43 ttl=56 time=21.4 ms
64 bytes from 199.66.198.2 (199.66.198.2): icmp_seq=43 ttl=56 time=21.4 ms
64 bytes from 199.66.198.2 (199.66.198.2): icmp_seq=43 ttl=56 time=21.4 ms
64 bytes from 199.66.198.2 (199.66.198.2): icmp_seq=43 ttl=56 time=21.5 ms
64 bytes from 199.66.198.2 (199.66.198.2): icmp_seq=43 ttl=56 time=21.5 ms
64 bytes from 199.66.198.2 (199.66.198.2): icmp_seq=43 ttl=56 time=21.5 ms
64 bytes from 199.66.198.2 (199.66.198.2): icmp_seq=43 ttl=56 time=21.6 ms
64 bytes from 199.66.198.2 (199.66.198.2): icmp_seq=43 ttl=56 time=21.4 ms
64 bytes from 199.66.198.2 (199.66.198.2): icmp_seq=43 ttl=56 time=22.0 ms
64 bytes from 199.66.198.2 (199.66.198.2): icmp_seq=43 ttl=56 time=21.7 ms
64 bytes from 199.66.198.2 (199.66.198.2): icmp_seq=44 ttl=56 time=21.8 ms
64 bytes from 199.66.198.2 (199.66.198.2): icmp_seq=44 ttl=56 time=21.8 ms
64 bytes from 199.66.198.2 (199.66.198.2): icmp_seq=44 ttl=56 time=21.3 ms
64 bytes from 199.66.198.2 (199.66.198.2): icmp_seq=44 ttl=56 time=21.7 ms
64 bytes from 199.66.198.2 (199.66.198.2): icmp_seq=44 ttl=56 time=21.2 ms
64 bytes from 199.66.198.2 (199.66.198.2): icmp_seq=44 ttl=56 time=21.4 ms
64 bytes from 199.66.198.2 (199.66.198.2): icmp_seq=44 ttl=56 time=21.5 ms
64 bytes from 199.66.198.2 (199.66.198.2): icmp_seq=44 ttl=56 time=21.5 ms
64 bytes from 199.66.198.2 (199.66.198.2): icmp_seq=44 ttl=56 time=21.4 ms
64 bytes from 199.66.198.2 (199.66.198.2): icmp_seq=44 ttl=56 time=21.4 ms
64 bytes from 199.66.198.2 (199.66.198.2): icmp_seq=44 ttl=56 time=21.4 ms
64 bytes from 199.66.198.2 (199.66.198.2): icmp_seq=44 ttl=56 time=21.5 ms
64 bytes from 199.66.198.2 (199.66.198.2): icmp_seq=44 ttl=56 time=21.5 ms
64 bytes from 199.66.198.2 (199.66.198.2): icmp_seq=44 ttl=56 time=21.8 ms
64 bytes from 199.66.198.2 (199.66.198.2): icmp_seq=44 ttl=56 time=21.8 ms
64 bytes from 199.66.198.2 (199.66.198.2): icmp_seq=44 ttl=56 time=21.9 ms
64 bytes from 199.66.198.2 (199.66.198.2): icmp_seq=44 ttl=56 time=21.7 ms
64 bytes from 199.66.198.2 (199.66.198.2): icmp_seq=44 ttl=56 time=21.9 ms
64 bytes from 199.66.198.2 (199.66.198.2): icmp_seq=44 ttl=56 time=21.8 ms
64 bytes from 199.66.198.2 (199.66.198.2): icmp_seq=44 ttl=56 time=21.6 ms
64 bytes from 199.66.198.2 (199.66.198.2): icmp_seq=45 ttl=56 time=21.7 ms
64 bytes from 199.66.198.2 (199.66.198.2): icmp_seq=45 ttl=56 time=21.7 ms
64 bytes from 199.66.198.2 (199.66.198.2): icmp_seq=45 ttl=56 time=21.6 ms
64 bytes from 199.66.198.2 (199.66.198.2): icmp_seq=45 ttl=56 time=21.7 ms
64 bytes from 199.66.198.2 (199.66.198.2): icmp_seq=45 ttl=56 time=21.7 ms
64 bytes from 199.66.198.2 (199.66.198.2): icmp_seq=45 ttl=56 time=21.4 ms
64 bytes from 199.66.198.2 (199.66.198.2): icmp_seq=45 ttl=56 time=21.4 ms
64 bytes from 199.66.198.2 (199.66.198.2): icmp_seq=45 ttl=56 time=21.6 ms
64 bytes from 199.66.198.2 (199.66.198.2): icmp_seq=45 ttl=56 time=21.7 ms
64 bytes from 199.66.198.2 (199.66.198.2): icmp_seq=45 ttl=56 time=21.7 ms
64 bytes from 199.66.198.2 (199.66.198.2): icmp_seq=45 ttl=56 time=21.6 ms
64 bytes from 199.66.198.2 (199.66.198.2): icmp_seq=45 ttl=56 time=21.7 ms
64 bytes from 199.66.198.2 (199.66.198.2): icmp_seq=45 ttl=56 time=21.5 ms
64 bytes from 199.66.198.2 (199.66.198.2): icmp_seq=45 ttl=56 time=21.8 ms
64 bytes from 199.66.198.2 (199.66.198.2): icmp_seq=45 ttl=56 time=21.7 ms
64 bytes from 199.66.198.2 (199.66.198.2): icmp_seq=45 ttl=56 time=21.8 ms
64 bytes from 199.66.198.2 (199.66.198.2): icmp_seq=45 ttl=56 time=21.7 ms
64 bytes from 199.66.198.2 (199.66.198.2): icmp_seq=45 ttl=56 time=21.8 ms
64 bytes from 199.66.198.2 (199.66.198.2): icmp_seq=45 ttl=56 time=21.4 ms
64 bytes from 199.66.198.2 (199.66.198.2): icmp_seq=45 ttl=56 time=21.8 ms
64 bytes from 199.66.198.2 (199.66.198.2): icmp_seq=46 ttl=56 time=21.8 ms
64 bytes from 199.66.198.2 (199.66.198.2): icmp_seq=46 ttl=56 time=21.8 ms
64 bytes from 199.66.198.2 (199.66.198.2): icmp_seq=46 ttl=56 time=21.7 ms
64 bytes from 199.66.198.2 (199.66.198.2): icmp_seq=46 ttl=56 time=21.8 ms
64 bytes from 199.66.198.2 (199.66.198.2): icmp_seq=46 ttl=56 time=21.3 ms
64 bytes from 199.66.198.2 (199.66.198.2): icmp_seq=46 ttl=56 time=21.3 ms
64 bytes from 199.66.198.2 (199.66.198.2): icmp_seq=46 ttl=56 time=21.3 ms
64 bytes from 199.66.198.2 (199.66.198.2): icmp_seq=46 ttl=56 time=21.4 ms
64 bytes from 199.66.198.2 (199.66.198.2): icmp_seq=46 ttl=56 time=21.6 ms
64 bytes from 199.66.198.2 (199.66.198.2): icmp_seq=46 ttl=56 time=21.6 ms
64 bytes from 199.66.198.2 (199.66.198.2): icmp_seq=46 ttl=56 time=21.6 ms
64 bytes from 199.66.198.2 (199.66.198.2): icmp_seq=46 ttl=56 time=21.6 ms
64 bytes from 199.66.198.2 (199.66.198.2): icmp_seq=46 ttl=56 time=21.6 ms
64 bytes from 199.66.198.2 (199.66.198.2): icmp_seq=46 ttl=56 time=21.8 ms
64 bytes from 199.66.198.2 (199.66.198.2): icmp_seq=46 ttl=56 time=21.9 ms
64 bytes from 199.66.198.2 (199.66.198.2): icmp_seq=46 ttl=56 time=21.4 ms
64 bytes from 199.66.198.2 (199.66.198.2): icmp_seq=46 ttl=56 time=21.4 ms
64 bytes from 199.66.198.2 (199.66.198.2): icmp_seq=46 ttl=56 time=21.4 ms
64 bytes from 199.66.198.2 (199.66.198.2): icmp_seq=46 ttl=56 time=21.7 ms
64 bytes from 199.66.198.2 (199.66.198.2): icmp_seq=46 ttl=56 time=21.7 ms
64 bytes from 199.66.198.2 (199.66.198.2): icmp_seq=47 ttl=56 time=21.6 ms
64 bytes from 199.66.198.2 (199.66.198.2): icmp_seq=47 ttl=56 time=21.7 ms
64 bytes from 199.66.198.2 (199.66.198.2): icmp_seq=47 ttl=56 time=21.6 ms
64 bytes from 199.66.198.2 (199.66.198.2): icmp_seq=47 ttl=56 time=21.6 ms
64 bytes from 199.66.198.2 (199.66.198.2): icmp_seq=47 ttl=56 time=21.4 ms
64 bytes from 199.66.198.2 (199.66.198.2): icmp_seq=47 ttl=56 time=21.4 ms
64 bytes from 199.66.198.2 (199.66.198.2): icmp_seq=47 ttl=56 time=21.4 ms
64 bytes from 199.66.198.2 (199.66.198.2): icmp_seq=47 ttl=56 time=21.5 ms
64 bytes from 199.66.198.2 (199.66.198.2): icmp_seq=47 ttl=56 time=21.8 ms
64 bytes from 199.66.198.2 (199.66.198.2): icmp_seq=47 ttl=56 time=21.8 ms
64 bytes from 199.66.198.2 (199.66.198.2): icmp_seq=47 ttl=56 time=21.8 ms
64 bytes from 199.66.198.2 (199.66.198.2): icmp_seq=47 ttl=56 time=21.7 ms
64 bytes from 199.66.198.2 (199.66.198.2): icmp_seq=47 ttl=56 time=21.8 ms
64 bytes from 199.66.198.2 (199.66.198.2): icmp_seq=47 ttl=56 time=21.7 ms
64 bytes from 199.66.198.2 (199.66.198.2): icmp_seq=47 ttl=56 time=21.7 ms
64 bytes from 199.66.198.2 (199.66.198.2): icmp_seq=47 ttl=56 time=21.7 ms
64 bytes from 199.66.198.2 (199.66.198.2): icmp_seq=47 ttl=56 time=21.5 ms
64 bytes from 199.66.198.2 (199.66.198.2): icmp_seq=47 ttl=56 time=21.6 ms
64 bytes from 199.66.198.2 (199.66.198.2): icmp_seq=47 ttl=56 time=21.8 ms
64 bytes from 199.66.198.2 (199.66.198.2): icmp_seq=47 ttl=56 time=21.7 ms
64 bytes from 199.66.198.2 (199.66.198.2): icmp_seq=48 ttl=56 time=21.7 ms
64 bytes from 199.66.198.2 (199.66.198.2): icmp_seq=48 ttl=56 time=21.6 ms
64 bytes from 199.66.198.2 (199.66.198.2): icmp_seq=48 ttl=56 time=21.7 ms
64 bytes from 199.66.198.2 (199.66.198.2): icmp_seq=48 ttl=56 time=21.7 ms
64 bytes from 199.66.198.2 (199.66.198.2): icmp_seq=48 ttl=56 time=21.4 ms
64 bytes from 199.66.198.2 (199.66.198.2): icmp_seq=48 ttl=56 time=21.4 ms
64 bytes from 199.66.198.2 (199.66.198.2): icmp_seq=48 ttl=56 time=21.4 ms
64 bytes from 199.66.198.2 (199.66.198.2): icmp_seq=48 ttl=56 time=21.4 ms
64 bytes from 199.66.198.2 (199.66.198.2): icmp_seq=48 ttl=56 time=21.4 ms
64 bytes from 199.66.198.2 (199.66.198.2): icmp_seq=48 ttl=56 time=21.5 ms
64 bytes from 199.66.198.2 (199.66.198.2): icmp_seq=48 ttl=56 time=21.5 ms
64 bytes from 199.66.198.2 (199.66.198.2): icmp_seq=48 ttl=56 time=21.4 ms
64 bytes from 199.66.198.2 (199.66.198.2): icmp_seq=48 ttl=56 time=21.6 ms
64 bytes from 199.66.198.2 (199.66.198.2): icmp_seq=48 ttl=56 time=21.5 ms
64 bytes from 199.66.198.2 (199.66.198.2): icmp_seq=48 ttl=56 time=21.5 ms
64 bytes from 199.66.198.2 (199.66.198.2): icmp_seq=48 ttl=56 time=21.5 ms
64 bytes from 199.66.198.2 (199.66.198.2): icmp_seq=48 ttl=56 time=21.6 ms
64 bytes from 199.66.198.2 (199.66.198.2): icmp_seq=48 ttl=56 time=21.4 ms
64 bytes from 199.66.198.2 (199.66.198.2): icmp_seq=48 ttl=56 time=21.7 ms
64 bytes from 199.66.198.2 (199.66.198.2): icmp_seq=48 ttl=56 time=21.7 ms
64 bytes from 199.66.198.2 (199.66.198.2): icmp_seq=49 ttl=56 time=21.5 ms
64 bytes from 199.66.198.2 (199.66.198.2): icmp_seq=49 ttl=56 time=21.5 ms
64 bytes from 199.66.198.2 (199.66.198.2): icmp_seq=49 ttl=56 time=21.6 ms
64 bytes from 199.66.198.2 (199.66.198.2): icmp_seq=49 ttl=56 time=21.6 ms
64 bytes from 199.66.198.2 (199.66.198.2): icmp_seq=49 ttl=56 time=21.6 ms
64 bytes from 199.66.198.2 (199.66.198.2): icmp_seq=49 ttl=56 time=21.6 ms
64 bytes from 199.66.198.2 (199.66.198.2): icmp_seq=49 ttl=56 time=21.6 ms
64 bytes from 199.66.198.2 (199.66.198.2): icmp_seq=49 ttl=56 time=21.4 ms
64 bytes from 199.66.198.2 (199.66.198.2): icmp_seq=49 ttl=56 time=21.8 ms
64 bytes from 199.66.198.2 (199.66.198.2): icmp_seq=49 ttl=56 time=21.8 ms
64 bytes from 199.66.198.2 (199.66.198.2): icmp_seq=49 ttl=56 time=21.7 ms
64 bytes from 199.66.198.2 (199.66.198.2): icmp_seq=49 ttl=56 time=21.9 ms
64 bytes from 199.66.198.2 (199.66.198.2): icmp_seq=49 ttl=56 time=21.6 ms
64 bytes from 199.66.198.2 (199.66.198.2): icmp_seq=49 ttl=56 time=22.0 ms
64 bytes from 199.66.198.2 (199.66.198.2): icmp_seq=49 ttl=56 time=22.0 ms
64 bytes from 199.66.198.2 (199.66.198.2): icmp_seq=49 ttl=56 time=22.0 ms
64 bytes from 199.66.198.2 (199.66.198.2): icmp_seq=49 ttl=56 time=21.9 ms
64 bytes from 199.66.198.2 (199.66.198.2): icmp_seq=49 ttl=56 time=22.0 ms
64 bytes from 199.66.198.2 (199.66.198.2): icmp_seq=49 ttl=56 time=21.9 ms
64 bytes from 199.66.198.2 (199.66.198.2): icmp_seq=49 ttl=56 time=21.8 ms
64 bytes from 199.66.198.2 (199.66.198.2): icmp_seq=50 ttl=56 time=21.9 ms
64 bytes from 199.66.198.2 (199.66.198.2): icmp_seq=50 ttl=56 time=22.0 ms
64 bytes from 199.66.198.2 (199.66.198.2): icmp_seq=50 ttl=56 time=21.9 ms



64 bytes from 199.66.198.2 (199.66.198.2): icmp_seq=50 ttl=56 time=22.0 ms
64 bytes from 199.66.198.2 (199.66.198.2): icmp_seq=50 ttl=56 time=22.0 ms
64 bytes from 199.66.198.2 (199.66.198.2): icmp_seq=50 ttl=56 time=22.0 ms


64 bytes from 199.66.198.2 (199.66.198.2): icmp_seq=50 ttl=56 time=22.0 ms


--- speedtest.xsmedia.com ping statistics ---
50 packets transmitted, 50 received, 0% packet loss, time 49076ms
rtt min/avg/max/mdev = 21.121/21.627/22.069/0.236 ms
--- speedtest.xsmedia.com ping statistics ---
50 packets transmitted, 50 received, 0% packet loss, time 49079ms
rtt min/avg/max/mdev = 21.279/21.639/22.037/0.215 ms
--- speedtest.xsmedia.com ping statistics ---
50 packets transmitted, 50 received, 0% packet loss, time 49077ms
rtt min/avg/max/mdev = 21.063/21.625/22.085/0.233 ms
--- speedtest.xsmedia.com ping statistics ---
50 packets transmitted, 50 received, 0% packet loss, time 49079ms
rtt min/avg/max/mdev = 21.284/21.688/22.121/0.232 ms
--- speedtest.xsmedia.com ping statistics ---
50 packets transmitted, 50 received, 0% packet loss, time 49079ms
rtt min/avg/max/mdev = 21.354/21.778/22.135/0.210 ms
--- speedtest.xsmedia.com ping statistics ---
50 packets transmitted, 50 received, 0% packet loss, time 49079ms
rtt min/avg/max/mdev = 21.342/21.655/22.077/0.285 ms
--- speedtest.xsmedia.com ping statistics ---
50 packets transmitted, 50 received, 0% packet loss, time 49077ms
rtt min/avg/max/mdev = 21.116/21.613/22.062/0.232 ms
64 bytes from 199.66.198.2 (199.66.198.2): icmp_seq=50 ttl=56 time=22.0 ms

--- speedtest.xsmedia.com ping statistics ---
50 packets transmitted, 50 received, 0% packet loss, time 49077ms
rtt min/avg/max/mdev = 21.216/21.623/22.029/0.232 ms
64 bytes from 199.66.198.2 (199.66.198.2): icmp_seq=50 ttl=56 time=21.9 ms

64 bytes from 199.66.198.2 (199.66.198.2): icmp_seq=50 ttl=56 time=21.9 ms
64 bytes from 199.66.198.2 (199.66.198.2): icmp_seq=50 ttl=56 time=21.8 ms

--- speedtest.xsmedia.com ping statistics ---
50 packets transmitted, 50 received, 0% packet loss, time 49077ms
rtt min/avg/max/mdev = 21.128/21.633/22.046/0.226 ms

--- speedtest.xsmedia.com ping statistics ---
50 packets transmitted, 50 received, 0% packet loss, time 49076ms
rtt min/avg/max/mdev = 21.229/21.635/22.014/0.218 ms
--- speedtest.xsmedia.com ping statistics ---
50 packets transmitted, 50 received, 0% packet loss, time 49077ms
rtt min/avg/max/mdev = 21.144/21.671/22.105/0.261 ms
64 bytes from 199.66.198.2 (199.66.198.2): icmp_seq=50 ttl=56 time=21.8 ms

--- speedtest.xsmedia.com ping statistics ---
50 packets transmitted, 50 received, 0% packet loss, time 49077ms
rtt min/avg/max/mdev = 21.100/21.695/22.075/0.287 ms
64 bytes from 199.66.198.2 (199.66.198.2): icmp_seq=50 ttl=56 time=21.4 ms

--- speedtest.xsmedia.com ping statistics ---
50 packets transmitted, 50 received, 0% packet loss, time 49079ms
rtt min/avg/max/mdev = 21.113/21.641/22.023/0.201 ms
64 bytes from 199.66.198.2 (199.66.198.2): icmp_seq=50 ttl=56 time=21.7 ms
64 bytes from 199.66.198.2 (199.66.198.2): icmp_seq=50 ttl=56 time=21.6 ms
64 bytes from 199.66.198.2 (199.66.198.2): icmp_seq=50 ttl=56 time=21.8 ms
64 bytes from 199.66.198.2 (199.66.198.2): icmp_seq=50 ttl=56 time=21.7 ms
64 bytes from 199.66.198.2 (199.66.198.2): icmp_seq=50 ttl=56 time=21.7 ms





--- speedtest.xsmedia.com ping statistics ---
50 packets transmitted, 50 received, 0% packet loss, time 49084ms
rtt min/avg/max/mdev = 21.105/21.701/22.127/0.243 ms
--- speedtest.xsmedia.com ping statistics ---
50 packets transmitted, 50 received, 0% packet loss, time 49084ms
rtt min/avg/max/mdev = 21.215/21.700/22.056/0.217 ms
--- speedtest.xsmedia.com ping statistics ---
50 packets transmitted, 50 received, 0% packet loss, time 49086ms
rtt min/avg/max/mdev = 21.305/21.698/22.079/0.207 ms
--- speedtest.xsmedia.com ping statistics ---
50 packets transmitted, 50 received, 0% packet loss, time 49085ms
rtt min/avg/max/mdev = 21.216/21.704/22.102/0.191 ms
--- speedtest.xsmedia.com ping statistics ---
50 packets transmitted, 50 received, 0% packet loss, time 49085ms
rtt min/avg/max/mdev = 21.220/21.711/22.090/0.221 ms
64 bytes from 199.66.198.2 (199.66.198.2): icmp_seq=50 ttl=56 time=21.7 ms

--- speedtest.xsmedia.com ping statistics ---
50 packets transmitted, 50 received, 0% packet loss, time 49093ms
rtt min/avg/max/mdev = 21.307/21.694/22.095/0.239 ms
64 bytes from 199.66.198.2 (199.66.198.2): icmp_seq=50 ttl=56 time=21.4 ms

--- speedtest.xsmedia.com ping statistics ---
50 packets transmitted, 50 received, 0% packet loss, time 49095ms
rtt min/avg/max/mdev = 21.217/21.700/21.843/0.225 ms
