     1	1394840 
     2	1394840 
     3	1394976 
     4	1394976 
     5	1394976 
     6	1395032 
     7	1395032 
     8	1395032 
     9	1395012 
    10	1395012 
    11	1395012 
    12	1395000 
    13	1395000 
    14	1395000 
    15	1394956 
    16	1394956 
    17	1394956 
    18	1394976 
    19	1394976 
    20	1394976 
    21	1394988 
    22	1394988 
    23	1394988 
    24	1395008 
