     1	277 
     2	278 
     3	293 
     4	290 
     5	289 
     6	289 
     7	289 
     8	289 
     9	289 
    10	289 
    11	289 
    12	289 
    13	289 
    14	289 
    15	289 
    16	289 
    17	289 
    18	289 
    19	289 
    20	289 
    21	289 
    22	289 
    23	289 
    24	289 
    25	289 
    26	289 
    27	289 
    28	289 
    29	289 
    30	289 
    31	289 
    32	289 
    33	289 
    34	289 
    35	289 
    36	289 
    37	289 
    38	289 
    39	289 
    40	289 
    41	289 
    42	289 
    43	289 
    44	289 
    45	289 
    46	289 
    47	289 
    48	289 
    49	289 
    50	289 
    51	289 
    52	289 
    53	289 
    54	289 
    55	289 
    56	289 
    57	289 
    58	289 
    59	289 
    60	289 
    61	289 
    62	289 
    63	289 
    64	289 
    65	289 
    66	289 
    67	289 
    68	289 
    69	289 
    70	289 
    71	289 
    72	289 
    73	289 
    74	289 
    75	289 
    76	289 
    77	289 
    78	289 
    79	289 
    80	289 
    81	289 
    82	289 
    83	289 
    84	289 
    85	289 
    86	289 
    87	289 
    88	289 
    89	289 
    90	289 
    91	289 
    92	289 
    93	289 
    94	289 
    95	289 
    96	289 
    97	289 
    98	289 
    99	289 
   100	289 
   101	289 
   102	289 
   103	289 
   104	289 
   105	289 
   106	289 
   107	289 
   108	289 
   109	289 
   110	289 
   111	289 
   112	289 
   113	289 
   114	289 
   115	289 
   116	289 
   117	289 
   118	289 
   119	289 
   120	289 
   121	289 
   122	289 
   123	289 
   124	289 
   125	289 
   126	289 
   127	289 
   128	289 
   129	289 
   130	289 
   131	289 
   132	289 
   133	289 
   134	289 
   135	289 
   136	289 
   137	289 
   138	289 
   139	289 
   140	289 
   141	289 
   142	289 
   143	289 
   144	289 
   145	289 
   146	289 
   147	289 
   148	289 
   149	289 
   150	289 
   151	289 
   152	289 
   153	289 
   154	289 
   155	289 
   156	289 
   157	289 
   158	289 
   159	289 
   160	289 
   161	289 
   162	289 
   163	289 
   164	289 
   165	289 
   166	289 
   167	289 
   168	289 
   169	289 
   170	289 
   171	289 
   172	289 
   173	289 
   174	289 
   175	288 
   176	288 
   177	288 
   178	288 
   179	288 
   180	288 
   181	288 
   182	288 
   183	288 
   184	288 
   185	288 
   186	288 
   187	288 
   188	288 
   189	288 
   190	288 
   191	288 
   192	288 
   193	288 
   194	288 
   195	288 
   196	288 
   197	288 
   198	288 
   199	288 
   200	288 
   201	288 
   202	288 
   203	288 
   204	288 
   205	288 
   206	288 
   207	288 
   208	288 
   209	288 
   210	288 
   211	288 
   212	288 
   213	288 
   214	288 
   215	288 
   216	288 
   217	288 
   218	288 
   219	288 
   220	288 
   221	288 
   222	288 
   223	288 
   224	288 
   225	288 
   226	288 
   227	288 
   228	288 
   229	288 
   230	288 
   231	288 
   232	288 
   233	288 
   234	288 
   235	288 
   236	288 
   237	288 
   238	288 
   239	288 
   240	288 
   241	288 
   242	288 
   243	288 
   244	288 
   245	288 
   246	288 
   247	288 
   248	288 
   249	288 
   250	288 
   251	288 
   252	288 
   253	288 
   254	288 
   255	288 
   256	288 
   257	288 
   258	288 
   259	288 
   260	288 
   261	288 
   262	288 
   263	288 
   264	288 
   265	288 
   266	288 
   267	288 
   268	288 
   269	288 
   270	288 
   271	288 
   272	288 
   273	288 
   274	288 
   275	288 
   276	288 
   277	288 
   278	288 
   279	288 
   280	288 
   281	288 
   282	288 
   283	288 
   284	288 
   285	288 
   286	288 
   287	288 
   288	287 
   289	287 
   290	287 
   291	287 
   292	287 
   293	287 
   294	287 
   295	287 
   296	287 
   297	287 
   298	287 
   299	287 
   300	287 
   301	287 
   302	287 
   303	287 
   304	283 
   305	283 
   306	283 
   307	282 
   308	282 
   309	282 
   310	282 
   311	282 
   312	282 
   313	282 
   314	282 
   315	282 
   316	282 
   317	282 
   318	282 
   319	282 
   320	282 
   321	282 
   322	282 
   323	282 
   324	282 
   325	282 
   326	282 
   327	282 
   328	282 
   329	282 
   330	282 
   331	282 
   332	282 
   333	282 
   334	282 
   335	282 
   336	282 
   337	282 
   338	282 
   339	282 
   340	282 
   341	282 
   342	282 
   343	282 
   344	282 
   345	282 
   346	282 
   347	282 
   348	282 
   349	282 
   350	282 
   351	282 
   352	282 
   353	282 
   354	282 
   355	282 
   356	282 
   357	282 
   358	282 
   359	282 
   360	282 
   361	282 
   362	282 
   363	282 
   364	282 
   365	282 
   366	282 
   367	282 
   368	282 
   369	282 
   370	282 
   371	282 
   372	282 
   373	282 
   374	282 
   375	282 
   376	282 
   377	282 
   378	282 
   379	282 
   380	282 
   381	282 
   382	282 
   383	282 
   384	282 
   385	282 
   386	282 
   387	282 
   388	282 
   389	282 
   390	282 
   391	282 
   392	282 
   393	282 
   394	282 
   395	282 
   396	282 
   397	282 
   398	282 
   399	282 
   400	282 
   401	282 
   402	282 
   403	282 
   404	282 
   405	282 
   406	282 
   407	282 
   408	282 
   409	282 
   410	282 
   411	282 
   412	282 
   413	282 
   414	282 
   415	282 
   416	282 
   417	282 
   418	282 
   419	282 
   420	282 
   421	282 
   422	282 
   423	282 
   424	282 
   425	282 
   426	282 
   427	282 
   428	282 
   429	282 
   430	282 
   431	282 
   432	282 
   433	282 
   434	282 
   435	282 
   436	282 
   437	282 
   438	282 
   439	282 
   440	282 
   441	282 
   442	282 
   443	282 
   444	282 
   445	282 
   446	282 
   447	282 
   448	282 
   449	282 
   450	282 
   451	282 
   452	282 
   453	282 
   454	282 
   455	282 
   456	282 
   457	282 
   458	282 
   459	282 
   460	282 
   461	282 
   462	282 
   463	282 
   464	282 
   465	282 
   466	282 
   467	282 
   468	282 
   469	282 
   470	282 
   471	282 
   472	282 
   473	282 
   474	282 
   475	282 
   476	282 
   477	282 
   478	282 
   479	282 
   480	282 
   481	282 
   482	282 
   483	282 
   484	282 
   485	282 
   486	282 
   487	282 
   488	282 
   489	282 
   490	282 
   491	282 
   492	282 
   493	282 
   494	282 
   495	282 
   496	282 
   497	283 
   498	281 
