     1	300 
     2	301 
     3	339 
     4	367 
     5	360 
     6	352 
     7	344 
     8	340 
     9	336 
    10	332 
    11	332 
    12	332 
    13	332 
    14	332 
    15	332 
    16	332 
    17	332 
    18	332 
    19	332 
    20	332 
    21	332 
    22	332 
    23	332 
    24	332 
    25	332 
    26	332 
    27	332 
    28	332 
    29	332 
    30	332 
    31	332 
    32	332 
    33	332 
    34	332 
    35	332 
    36	332 
    37	332 
    38	330 
    39	330 
    40	330 
    41	330 
    42	330 
    43	330 
    44	330 
    45	330 
    46	330 
    47	330 
    48	330 
    49	330 
    50	330 
    51	330 
    52	330 
    53	330 
    54	330 
    55	330 
    56	330 
    57	330 
    58	330 
    59	330 
    60	330 
    61	330 
    62	330 
    63	330 
    64	330 
    65	330 
    66	330 
    67	330 
    68	330 
    69	330 
    70	330 
    71	330 
    72	330 
    73	330 
    74	330 
    75	330 
    76	330 
    77	330 
    78	330 
    79	330 
    80	330 
    81	330 
    82	330 
    83	330 
    84	330 
    85	330 
    86	330 
    87	330 
    88	330 
    89	330 
    90	330 
    91	330 
    92	330 
    93	330 
    94	330 
    95	330 
    96	330 
    97	330 
    98	330 
    99	330 
   100	330 
   101	330 
   102	327 
   103	322 
   104	315 
   105	311 
   106	308 
   107	305 
   108	300 
   109	300 
   110	300 
   111	300 
   112	300 
