     1	 96.2 
     2	 97.3 
     3	 37.0 
     4	 70.9 
     5	 92.3 
     6	 96.3 
     7	 96.2 
     8	 96.0 
     9	 92.9 
    10	 95.8 
    11	 91.0 
    12	 18.8 
    13	 89.6 
    14	 94.4 
    15	 93.8 
    16	 95.3 
    17	 86.1 
    18	 89.7 
    19	 90.2 
    20	 94.6 
    21	 94.0 
    22	 98.5 
    23	 96.0 
    24	 94.1 
    25	 87.0 
    26	 96.4 
    27	 98.9 
    28	 99.0 
    29	 98.8 
    30	 98.6 
    31	 98.9 
    32	 98.9 
    33	 99.0 
    34	 98.3 
    35	 98.0 
    36	 99.0 
    37	 99.5 
    38	 99.6 
    39	 99.1 
    40	 99.1 
    41	 99.4 
    42	 99.1 
    43	 99.5 
    44	 98.9 
    45	 99.3 
    46	 99.4 
    47	 99.4 
    48	 99.3 
    49	 99.1 
    50	 99.4 
    51	 99.5 
    52	 99.4 
    53	 92.8 
    54	 85.1 
    55	 92.3 
    56	 92.4 
    57	 91.1 
    58	 84.1 
    59	 91.9 
    60	 93.1 
    61	 99.6 
    62	 81.1 
    63	 84.7 
    64	 93.3 
    65	 94.8 
    66	 93.7 
    67	 99.8 
    68	 99.4 
    69	 99.5 
