     1	286 
     2	287 
     3	327 
     4	355 
     5	346 
     6	342 
     7	338 
     8	334 
     9	326 
    10	322 
    11	318 
    12	384 
    13	378 
    14	370 
    15	365 
    16	361 
    17	357 
    18	354 
    19	411 
    20	411 
    21	412 
    22	412 
    23	412 
    24	411 
    25	411 
    26	411 
    27	411 
    28	411 
    29	411 
    30	410 
    31	410 
    32	410 
    33	410 
    34	410 
    35	410 
    36	410 
    37	410 
    38	410 
    39	410 
    40	410 
    41	410 
    42	410 
    43	410 
    44	410 
    45	410 
    46	410 
    47	410 
    48	410 
    49	410 
    50	410 
    51	410 
    52	410 
    53	407 
    54	401 
    55	398 
    56	395 
    57	392 
    58	386 
    59	383 
    60	380 
    61	380 
    62	371 
    63	365 
    64	362 
    65	359 
    66	356 
    67	356 
    68	356 
    69	356 
