PING csl2.hkspeedtest.com (203.210.4.91) 56(84) bytes of data.
64 bytes from 203-210-4-091.static.pccw-hkt.com (203.210.4.91): icmp_seq=1 ttl=56 time=196 ms
PING csl2.hkspeedtest.com (203.210.4.91) 56(84) bytes of data.
64 bytes from 203-210-4-091.static.pccw-hkt.com (203.210.4.91): icmp_seq=1 ttl=56 time=195 ms
PING csl2.hkspeedtest.com (203.210.4.91) 56(84) bytes of data.
64 bytes from 203-210-4-091.static.pccw-hkt.com (203.210.4.91): icmp_seq=1 ttl=56 time=198 ms
PING csl2.hkspeedtest.com (203.210.4.91) 56(84) bytes of data.
64 bytes from 203-210-4-091.static.pccw-hkt.com (203.210.4.91): icmp_seq=1 ttl=56 time=195 ms
PING csl2.hkspeedtest.com (203.210.4.91) 56(84) bytes of data.
64 bytes from 203-210-4-091.static.pccw-hkt.com (203.210.4.91): icmp_seq=1 ttl=56 time=198 ms
PING csl2.hkspeedtest.com (203.210.4.91) 56(84) bytes of data.
64 bytes from 203-210-4-091.static.pccw-hkt.com (203.210.4.91): icmp_seq=1 ttl=56 time=196 ms
PING csl2.hkspeedtest.com (203.210.4.91) 56(84) bytes of data.
64 bytes from 203-210-4-091.static.pccw-hkt.com (203.210.4.91): icmp_seq=1 ttl=56 time=198 ms
PING csl2.hkspeedtest.com (203.210.4.91) 56(84) bytes of data.
64 bytes from 203-210-4-091.static.pccw-hkt.com (203.210.4.91): icmp_seq=1 ttl=56 time=198 ms
PING csl2.hkspeedtest.com (203.210.4.91) 56(84) bytes of data.
64 bytes from 203-210-4-091.static.pccw-hkt.com (203.210.4.91): icmp_seq=1 ttl=56 time=195 ms
PING csl2.hkspeedtest.com (203.210.4.91) 56(84) bytes of data.
64 bytes from 203-210-4-091.static.pccw-hkt.com (203.210.4.91): icmp_seq=1 ttl=56 time=195 ms
PING csl2.hkspeedtest.com (203.210.4.91) 56(84) bytes of data.
64 bytes from 203-210-4-091.static.pccw-hkt.com (203.210.4.91): icmp_seq=1 ttl=56 time=199 ms
PING csl2.hkspeedtest.com (203.210.4.91) 56(84) bytes of data.
64 bytes from 203-210-4-091.static.pccw-hkt.com (203.210.4.91): icmp_seq=1 ttl=56 time=199 ms
PING csl2.hkspeedtest.com (203.210.4.91) 56(84) bytes of data.
64 bytes from 203-210-4-091.static.pccw-hkt.com (203.210.4.91): icmp_seq=1 ttl=56 time=198 ms
PING csl2.hkspeedtest.com (203.210.4.91) 56(84) bytes of data.
64 bytes from 203-210-4-091.static.pccw-hkt.com (203.210.4.91): icmp_seq=1 ttl=56 time=198 ms
PING csl2.hkspeedtest.com (203.210.4.91) 56(84) bytes of data.
64 bytes from 203-210-4-091.static.pccw-hkt.com (203.210.4.91): icmp_seq=1 ttl=56 time=199 ms
PING csl2.hkspeedtest.com (203.210.4.91) 56(84) bytes of data.
64 bytes from 203-210-4-091.static.pccw-hkt.com (203.210.4.91): icmp_seq=1 ttl=56 time=198 ms
PING csl2.hkspeedtest.com (203.210.4.91) 56(84) bytes of data.
64 bytes from 203-210-4-091.static.pccw-hkt.com (203.210.4.91): icmp_seq=1 ttl=56 time=198 ms
PING csl2.hkspeedtest.com (203.210.4.91) 56(84) bytes of data.
64 bytes from 203-210-4-091.static.pccw-hkt.com (203.210.4.91): icmp_seq=1 ttl=56 time=198 ms
PING csl2.hkspeedtest.com (203.210.4.91) 56(84) bytes of data.
64 bytes from 203-210-4-091.static.pccw-hkt.com (203.210.4.91): icmp_seq=1 ttl=56 time=198 ms
PING csl2.hkspeedtest.com (203.210.4.91) 56(84) bytes of data.
64 bytes from 203-210-4-091.static.pccw-hkt.com (203.210.4.91): icmp_seq=1 ttl=56 time=199 ms
64 bytes from 203-210-4-091.static.pccw-hkt.com (203.210.4.91): icmp_seq=2 ttl=56 time=198 ms
64 bytes from 203-210-4-091.static.pccw-hkt.com (203.210.4.91): icmp_seq=2 ttl=56 time=198 ms
64 bytes from 203-210-4-091.static.pccw-hkt.com (203.210.4.91): icmp_seq=2 ttl=56 time=198 ms
64 bytes from 203-210-4-091.static.pccw-hkt.com (203.210.4.91): icmp_seq=2 ttl=56 time=198 ms
64 bytes from 203-210-4-091.static.pccw-hkt.com (203.210.4.91): icmp_seq=2 ttl=56 time=198 ms
64 bytes from 203-210-4-091.static.pccw-hkt.com (203.210.4.91): icmp_seq=2 ttl=56 time=198 ms
64 bytes from 203-210-4-091.static.pccw-hkt.com (203.210.4.91): icmp_seq=2 ttl=56 time=197 ms
64 bytes from 203-210-4-091.static.pccw-hkt.com (203.210.4.91): icmp_seq=2 ttl=56 time=197 ms
64 bytes from 203-210-4-091.static.pccw-hkt.com (203.210.4.91): icmp_seq=2 ttl=56 time=200 ms
64 bytes from 203-210-4-091.static.pccw-hkt.com (203.210.4.91): icmp_seq=2 ttl=56 time=200 ms
64 bytes from 203-210-4-091.static.pccw-hkt.com (203.210.4.91): icmp_seq=2 ttl=56 time=200 ms
64 bytes from 203-210-4-091.static.pccw-hkt.com (203.210.4.91): icmp_seq=2 ttl=56 time=200 ms
64 bytes from 203-210-4-091.static.pccw-hkt.com (203.210.4.91): icmp_seq=2 ttl=56 time=200 ms
64 bytes from 203-210-4-091.static.pccw-hkt.com (203.210.4.91): icmp_seq=2 ttl=56 time=200 ms
64 bytes from 203-210-4-091.static.pccw-hkt.com (203.210.4.91): icmp_seq=2 ttl=56 time=200 ms
64 bytes from 203-210-4-091.static.pccw-hkt.com (203.210.4.91): icmp_seq=2 ttl=56 time=200 ms
64 bytes from 203-210-4-091.static.pccw-hkt.com (203.210.4.91): icmp_seq=2 ttl=56 time=199 ms
64 bytes from 203-210-4-091.static.pccw-hkt.com (203.210.4.91): icmp_seq=2 ttl=56 time=200 ms
64 bytes from 203-210-4-091.static.pccw-hkt.com (203.210.4.91): icmp_seq=2 ttl=56 time=199 ms
64 bytes from 203-210-4-091.static.pccw-hkt.com (203.210.4.91): icmp_seq=2 ttl=56 time=199 ms
64 bytes from 203-210-4-091.static.pccw-hkt.com (203.210.4.91): icmp_seq=3 ttl=56 time=196 ms
64 bytes from 203-210-4-091.static.pccw-hkt.com (203.210.4.91): icmp_seq=3 ttl=56 time=196 ms
64 bytes from 203-210-4-091.static.pccw-hkt.com (203.210.4.91): icmp_seq=3 ttl=56 time=195 ms
64 bytes from 203-210-4-091.static.pccw-hkt.com (203.210.4.91): icmp_seq=3 ttl=56 time=195 ms
64 bytes from 203-210-4-091.static.pccw-hkt.com (203.210.4.91): icmp_seq=3 ttl=56 time=195 ms
64 bytes from 203-210-4-091.static.pccw-hkt.com (203.210.4.91): icmp_seq=3 ttl=56 time=195 ms
64 bytes from 203-210-4-091.static.pccw-hkt.com (203.210.4.91): icmp_seq=3 ttl=56 time=196 ms
64 bytes from 203-210-4-091.static.pccw-hkt.com (203.210.4.91): icmp_seq=3 ttl=56 time=196 ms
64 bytes from 203-210-4-091.static.pccw-hkt.com (203.210.4.91): icmp_seq=3 ttl=56 time=196 ms
64 bytes from 203-210-4-091.static.pccw-hkt.com (203.210.4.91): icmp_seq=3 ttl=56 time=196 ms
64 bytes from 203-210-4-091.static.pccw-hkt.com (203.210.4.91): icmp_seq=3 ttl=56 time=195 ms
64 bytes from 203-210-4-091.static.pccw-hkt.com (203.210.4.91): icmp_seq=3 ttl=56 time=195 ms
64 bytes from 203-210-4-091.static.pccw-hkt.com (203.210.4.91): icmp_seq=3 ttl=56 time=195 ms
64 bytes from 203-210-4-091.static.pccw-hkt.com (203.210.4.91): icmp_seq=3 ttl=56 time=195 ms
64 bytes from 203-210-4-091.static.pccw-hkt.com (203.210.4.91): icmp_seq=3 ttl=56 time=195 ms
64 bytes from 203-210-4-091.static.pccw-hkt.com (203.210.4.91): icmp_seq=3 ttl=56 time=196 ms
64 bytes from 203-210-4-091.static.pccw-hkt.com (203.210.4.91): icmp_seq=3 ttl=56 time=196 ms
64 bytes from 203-210-4-091.static.pccw-hkt.com (203.210.4.91): icmp_seq=3 ttl=56 time=196 ms
64 bytes from 203-210-4-091.static.pccw-hkt.com (203.210.4.91): icmp_seq=3 ttl=56 time=196 ms
64 bytes from 203-210-4-091.static.pccw-hkt.com (203.210.4.91): icmp_seq=3 ttl=56 time=196 ms
64 bytes from 203-210-4-091.static.pccw-hkt.com (203.210.4.91): icmp_seq=4 ttl=56 time=183 ms
64 bytes from 203-210-4-091.static.pccw-hkt.com (203.210.4.91): icmp_seq=4 ttl=56 time=183 ms
64 bytes from 203-210-4-091.static.pccw-hkt.com (203.210.4.91): icmp_seq=4 ttl=56 time=183 ms
64 bytes from 203-210-4-091.static.pccw-hkt.com (203.210.4.91): icmp_seq=4 ttl=56 time=183 ms
64 bytes from 203-210-4-091.static.pccw-hkt.com (203.210.4.91): icmp_seq=4 ttl=56 time=184 ms
64 bytes from 203-210-4-091.static.pccw-hkt.com (203.210.4.91): icmp_seq=4 ttl=56 time=184 ms
64 bytes from 203-210-4-091.static.pccw-hkt.com (203.210.4.91): icmp_seq=4 ttl=56 time=184 ms
64 bytes from 203-210-4-091.static.pccw-hkt.com (203.210.4.91): icmp_seq=4 ttl=56 time=183 ms
64 bytes from 203-210-4-091.static.pccw-hkt.com (203.210.4.91): icmp_seq=4 ttl=56 time=184 ms
64 bytes from 203-210-4-091.static.pccw-hkt.com (203.210.4.91): icmp_seq=4 ttl=56 time=183 ms
64 bytes from 203-210-4-091.static.pccw-hkt.com (203.210.4.91): icmp_seq=4 ttl=56 time=183 ms
64 bytes from 203-210-4-091.static.pccw-hkt.com (203.210.4.91): icmp_seq=4 ttl=56 time=183 ms
64 bytes from 203-210-4-091.static.pccw-hkt.com (203.210.4.91): icmp_seq=4 ttl=56 time=183 ms
64 bytes from 203-210-4-091.static.pccw-hkt.com (203.210.4.91): icmp_seq=4 ttl=56 time=183 ms
64 bytes from 203-210-4-091.static.pccw-hkt.com (203.210.4.91): icmp_seq=4 ttl=56 time=183 ms
64 bytes from 203-210-4-091.static.pccw-hkt.com (203.210.4.91): icmp_seq=4 ttl=56 time=184 ms
64 bytes from 203-210-4-091.static.pccw-hkt.com (203.210.4.91): icmp_seq=4 ttl=56 time=183 ms
64 bytes from 203-210-4-091.static.pccw-hkt.com (203.210.4.91): icmp_seq=4 ttl=56 time=183 ms
64 bytes from 203-210-4-091.static.pccw-hkt.com (203.210.4.91): icmp_seq=4 ttl=56 time=183 ms
64 bytes from 203-210-4-091.static.pccw-hkt.com (203.210.4.91): icmp_seq=4 ttl=56 time=184 ms
64 bytes from 203-210-4-091.static.pccw-hkt.com (203.210.4.91): icmp_seq=5 ttl=56 time=195 ms
64 bytes from 203-210-4-091.static.pccw-hkt.com (203.210.4.91): icmp_seq=5 ttl=56 time=195 ms
64 bytes from 203-210-4-091.static.pccw-hkt.com (203.210.4.91): icmp_seq=5 ttl=56 time=195 ms
64 bytes from 203-210-4-091.static.pccw-hkt.com (203.210.4.91): icmp_seq=5 ttl=56 time=196 ms
64 bytes from 203-210-4-091.static.pccw-hkt.com (203.210.4.91): icmp_seq=5 ttl=56 time=198 ms
64 bytes from 203-210-4-091.static.pccw-hkt.com (203.210.4.91): icmp_seq=5 ttl=56 time=198 ms
64 bytes from 203-210-4-091.static.pccw-hkt.com (203.210.4.91): icmp_seq=5 ttl=56 time=198 ms
64 bytes from 203-210-4-091.static.pccw-hkt.com (203.210.4.91): icmp_seq=5 ttl=56 time=199 ms
64 bytes from 203-210-4-091.static.pccw-hkt.com (203.210.4.91): icmp_seq=5 ttl=56 time=199 ms
64 bytes from 203-210-4-091.static.pccw-hkt.com (203.210.4.91): icmp_seq=5 ttl=56 time=199 ms
64 bytes from 203-210-4-091.static.pccw-hkt.com (203.210.4.91): icmp_seq=5 ttl=56 time=199 ms
64 bytes from 203-210-4-091.static.pccw-hkt.com (203.210.4.91): icmp_seq=5 ttl=56 time=199 ms
64 bytes from 203-210-4-091.static.pccw-hkt.com (203.210.4.91): icmp_seq=5 ttl=56 time=199 ms
64 bytes from 203-210-4-091.static.pccw-hkt.com (203.210.4.91): icmp_seq=5 ttl=56 time=199 ms
64 bytes from 203-210-4-091.static.pccw-hkt.com (203.210.4.91): icmp_seq=5 ttl=56 time=199 ms
64 bytes from 203-210-4-091.static.pccw-hkt.com (203.210.4.91): icmp_seq=5 ttl=56 time=199 ms
64 bytes from 203-210-4-091.static.pccw-hkt.com (203.210.4.91): icmp_seq=5 ttl=56 time=199 ms
64 bytes from 203-210-4-091.static.pccw-hkt.com (203.210.4.91): icmp_seq=5 ttl=56 time=199 ms
64 bytes from 203-210-4-091.static.pccw-hkt.com (203.210.4.91): icmp_seq=5 ttl=56 time=199 ms
64 bytes from 203-210-4-091.static.pccw-hkt.com (203.210.4.91): icmp_seq=5 ttl=56 time=198 ms
64 bytes from 203-210-4-091.static.pccw-hkt.com (203.210.4.91): icmp_seq=6 ttl=56 time=183 ms
64 bytes from 203-210-4-091.static.pccw-hkt.com (203.210.4.91): icmp_seq=6 ttl=56 time=183 ms
64 bytes from 203-210-4-091.static.pccw-hkt.com (203.210.4.91): icmp_seq=6 ttl=56 time=183 ms
64 bytes from 203-210-4-091.static.pccw-hkt.com (203.210.4.91): icmp_seq=6 ttl=56 time=183 ms
64 bytes from 203-210-4-091.static.pccw-hkt.com (203.210.4.91): icmp_seq=6 ttl=56 time=183 ms
64 bytes from 203-210-4-091.static.pccw-hkt.com (203.210.4.91): icmp_seq=6 ttl=56 time=183 ms
64 bytes from 203-210-4-091.static.pccw-hkt.com (203.210.4.91): icmp_seq=6 ttl=56 time=184 ms
64 bytes from 203-210-4-091.static.pccw-hkt.com (203.210.4.91): icmp_seq=6 ttl=56 time=184 ms
64 bytes from 203-210-4-091.static.pccw-hkt.com (203.210.4.91): icmp_seq=6 ttl=56 time=184 ms
64 bytes from 203-210-4-091.static.pccw-hkt.com (203.210.4.91): icmp_seq=6 ttl=56 time=184 ms
64 bytes from 203-210-4-091.static.pccw-hkt.com (203.210.4.91): icmp_seq=6 ttl=56 time=184 ms
64 bytes from 203-210-4-091.static.pccw-hkt.com (203.210.4.91): icmp_seq=6 ttl=56 time=184 ms
64 bytes from 203-210-4-091.static.pccw-hkt.com (203.210.4.91): icmp_seq=6 ttl=56 time=184 ms
64 bytes from 203-210-4-091.static.pccw-hkt.com (203.210.4.91): icmp_seq=6 ttl=56 time=185 ms
64 bytes from 203-210-4-091.static.pccw-hkt.com (203.210.4.91): icmp_seq=6 ttl=56 time=185 ms
64 bytes from 203-210-4-091.static.pccw-hkt.com (203.210.4.91): icmp_seq=6 ttl=56 time=184 ms
64 bytes from 203-210-4-091.static.pccw-hkt.com (203.210.4.91): icmp_seq=6 ttl=56 time=184 ms
64 bytes from 203-210-4-091.static.pccw-hkt.com (203.210.4.91): icmp_seq=6 ttl=56 time=184 ms
64 bytes from 203-210-4-091.static.pccw-hkt.com (203.210.4.91): icmp_seq=6 ttl=56 time=184 ms
64 bytes from 203-210-4-091.static.pccw-hkt.com (203.210.4.91): icmp_seq=6 ttl=56 time=184 ms
64 bytes from 203-210-4-091.static.pccw-hkt.com (203.210.4.91): icmp_seq=7 ttl=56 time=181 ms
64 bytes from 203-210-4-091.static.pccw-hkt.com (203.210.4.91): icmp_seq=7 ttl=56 time=181 ms
64 bytes from 203-210-4-091.static.pccw-hkt.com (203.210.4.91): icmp_seq=7 ttl=56 time=181 ms
64 bytes from 203-210-4-091.static.pccw-hkt.com (203.210.4.91): icmp_seq=7 ttl=56 time=181 ms
64 bytes from 203-210-4-091.static.pccw-hkt.com (203.210.4.91): icmp_seq=7 ttl=56 time=181 ms
64 bytes from 203-210-4-091.static.pccw-hkt.com (203.210.4.91): icmp_seq=7 ttl=56 time=180 ms
64 bytes from 203-210-4-091.static.pccw-hkt.com (203.210.4.91): icmp_seq=7 ttl=56 time=182 ms
64 bytes from 203-210-4-091.static.pccw-hkt.com (203.210.4.91): icmp_seq=7 ttl=56 time=181 ms
64 bytes from 203-210-4-091.static.pccw-hkt.com (203.210.4.91): icmp_seq=7 ttl=56 time=181 ms
64 bytes from 203-210-4-091.static.pccw-hkt.com (203.210.4.91): icmp_seq=7 ttl=56 time=184 ms
64 bytes from 203-210-4-091.static.pccw-hkt.com (203.210.4.91): icmp_seq=7 ttl=56 time=184 ms
64 bytes from 203-210-4-091.static.pccw-hkt.com (203.210.4.91): icmp_seq=7 ttl=56 time=184 ms
64 bytes from 203-210-4-091.static.pccw-hkt.com (203.210.4.91): icmp_seq=7 ttl=56 time=183 ms
64 bytes from 203-210-4-091.static.pccw-hkt.com (203.210.4.91): icmp_seq=7 ttl=56 time=183 ms
64 bytes from 203-210-4-091.static.pccw-hkt.com (203.210.4.91): icmp_seq=7 ttl=56 time=183 ms
64 bytes from 203-210-4-091.static.pccw-hkt.com (203.210.4.91): icmp_seq=7 ttl=56 time=183 ms
64 bytes from 203-210-4-091.static.pccw-hkt.com (203.210.4.91): icmp_seq=7 ttl=56 time=183 ms
64 bytes from 203-210-4-091.static.pccw-hkt.com (203.210.4.91): icmp_seq=7 ttl=56 time=183 ms
64 bytes from 203-210-4-091.static.pccw-hkt.com (203.210.4.91): icmp_seq=7 ttl=56 time=183 ms
64 bytes from 203-210-4-091.static.pccw-hkt.com (203.210.4.91): icmp_seq=7 ttl=56 time=183 ms
64 bytes from 203-210-4-091.static.pccw-hkt.com (203.210.4.91): icmp_seq=8 ttl=56 time=180 ms
64 bytes from 203-210-4-091.static.pccw-hkt.com (203.210.4.91): icmp_seq=8 ttl=56 time=180 ms
64 bytes from 203-210-4-091.static.pccw-hkt.com (203.210.4.91): icmp_seq=8 ttl=56 time=180 ms
64 bytes from 203-210-4-091.static.pccw-hkt.com (203.210.4.91): icmp_seq=8 ttl=56 time=180 ms
64 bytes from 203-210-4-091.static.pccw-hkt.com (203.210.4.91): icmp_seq=8 ttl=56 time=180 ms
64 bytes from 203-210-4-091.static.pccw-hkt.com (203.210.4.91): icmp_seq=8 ttl=56 time=180 ms
64 bytes from 203-210-4-091.static.pccw-hkt.com (203.210.4.91): icmp_seq=8 ttl=56 time=180 ms
64 bytes from 203-210-4-091.static.pccw-hkt.com (203.210.4.91): icmp_seq=8 ttl=56 time=180 ms
64 bytes from 203-210-4-091.static.pccw-hkt.com (203.210.4.91): icmp_seq=8 ttl=56 time=180 ms
64 bytes from 203-210-4-091.static.pccw-hkt.com (203.210.4.91): icmp_seq=8 ttl=56 time=180 ms
64 bytes from 203-210-4-091.static.pccw-hkt.com (203.210.4.91): icmp_seq=8 ttl=56 time=180 ms
64 bytes from 203-210-4-091.static.pccw-hkt.com (203.210.4.91): icmp_seq=8 ttl=56 time=180 ms
64 bytes from 203-210-4-091.static.pccw-hkt.com (203.210.4.91): icmp_seq=8 ttl=56 time=179 ms
64 bytes from 203-210-4-091.static.pccw-hkt.com (203.210.4.91): icmp_seq=8 ttl=56 time=179 ms
64 bytes from 203-210-4-091.static.pccw-hkt.com (203.210.4.91): icmp_seq=8 ttl=56 time=179 ms
64 bytes from 203-210-4-091.static.pccw-hkt.com (203.210.4.91): icmp_seq=8 ttl=56 time=179 ms
64 bytes from 203-210-4-091.static.pccw-hkt.com (203.210.4.91): icmp_seq=8 ttl=56 time=179 ms
64 bytes from 203-210-4-091.static.pccw-hkt.com (203.210.4.91): icmp_seq=8 ttl=56 time=179 ms
64 bytes from 203-210-4-091.static.pccw-hkt.com (203.210.4.91): icmp_seq=8 ttl=56 time=179 ms
64 bytes from 203-210-4-091.static.pccw-hkt.com (203.210.4.91): icmp_seq=8 ttl=56 time=179 ms
64 bytes from 203-210-4-091.static.pccw-hkt.com (203.210.4.91): icmp_seq=9 ttl=56 time=179 ms
64 bytes from 203-210-4-091.static.pccw-hkt.com (203.210.4.91): icmp_seq=9 ttl=56 time=179 ms
64 bytes from 203-210-4-091.static.pccw-hkt.com (203.210.4.91): icmp_seq=9 ttl=56 time=179 ms
64 bytes from 203-210-4-091.static.pccw-hkt.com (203.210.4.91): icmp_seq=9 ttl=56 time=179 ms
64 bytes from 203-210-4-091.static.pccw-hkt.com (203.210.4.91): icmp_seq=9 ttl=56 time=179 ms
64 bytes from 203-210-4-091.static.pccw-hkt.com (203.210.4.91): icmp_seq=9 ttl=56 time=180 ms
64 bytes from 203-210-4-091.static.pccw-hkt.com (203.210.4.91): icmp_seq=9 ttl=56 time=180 ms
64 bytes from 203-210-4-091.static.pccw-hkt.com (203.210.4.91): icmp_seq=9 ttl=56 time=180 ms
64 bytes from 203-210-4-091.static.pccw-hkt.com (203.210.4.91): icmp_seq=9 ttl=56 time=180 ms
64 bytes from 203-210-4-091.static.pccw-hkt.com (203.210.4.91): icmp_seq=9 ttl=56 time=180 ms
64 bytes from 203-210-4-091.static.pccw-hkt.com (203.210.4.91): icmp_seq=9 ttl=56 time=180 ms
64 bytes from 203-210-4-091.static.pccw-hkt.com (203.210.4.91): icmp_seq=9 ttl=56 time=180 ms
64 bytes from 203-210-4-091.static.pccw-hkt.com (203.210.4.91): icmp_seq=9 ttl=56 time=180 ms
64 bytes from 203-210-4-091.static.pccw-hkt.com (203.210.4.91): icmp_seq=9 ttl=56 time=181 ms
64 bytes from 203-210-4-091.static.pccw-hkt.com (203.210.4.91): icmp_seq=9 ttl=56 time=180 ms
64 bytes from 203-210-4-091.static.pccw-hkt.com (203.210.4.91): icmp_seq=9 ttl=56 time=181 ms
64 bytes from 203-210-4-091.static.pccw-hkt.com (203.210.4.91): icmp_seq=9 ttl=56 time=181 ms
64 bytes from 203-210-4-091.static.pccw-hkt.com (203.210.4.91): icmp_seq=9 ttl=56 time=181 ms
64 bytes from 203-210-4-091.static.pccw-hkt.com (203.210.4.91): icmp_seq=9 ttl=56 time=181 ms
64 bytes from 203-210-4-091.static.pccw-hkt.com (203.210.4.91): icmp_seq=9 ttl=56 time=181 ms
64 bytes from 203-210-4-091.static.pccw-hkt.com (203.210.4.91): icmp_seq=10 ttl=56 time=181 ms
64 bytes from 203-210-4-091.static.pccw-hkt.com (203.210.4.91): icmp_seq=10 ttl=56 time=181 ms
64 bytes from 203-210-4-091.static.pccw-hkt.com (203.210.4.91): icmp_seq=10 ttl=56 time=181 ms
64 bytes from 203-210-4-091.static.pccw-hkt.com (203.210.4.91): icmp_seq=10 ttl=56 time=183 ms
64 bytes from 203-210-4-091.static.pccw-hkt.com (203.210.4.91): icmp_seq=10 ttl=56 time=183 ms
64 bytes from 203-210-4-091.static.pccw-hkt.com (203.210.4.91): icmp_seq=10 ttl=56 time=183 ms
64 bytes from 203-210-4-091.static.pccw-hkt.com (203.210.4.91): icmp_seq=10 ttl=56 time=183 ms
64 bytes from 203-210-4-091.static.pccw-hkt.com (203.210.4.91): icmp_seq=10 ttl=56 time=183 ms
64 bytes from 203-210-4-091.static.pccw-hkt.com (203.210.4.91): icmp_seq=10 ttl=56 time=183 ms
64 bytes from 203-210-4-091.static.pccw-hkt.com (203.210.4.91): icmp_seq=10 ttl=56 time=183 ms
64 bytes from 203-210-4-091.static.pccw-hkt.com (203.210.4.91): icmp_seq=10 ttl=56 time=183 ms
64 bytes from 203-210-4-091.static.pccw-hkt.com (203.210.4.91): icmp_seq=10 ttl=56 time=183 ms
64 bytes from 203-210-4-091.static.pccw-hkt.com (203.210.4.91): icmp_seq=10 ttl=56 time=183 ms
64 bytes from 203-210-4-091.static.pccw-hkt.com (203.210.4.91): icmp_seq=10 ttl=56 time=183 ms
64 bytes from 203-210-4-091.static.pccw-hkt.com (203.210.4.91): icmp_seq=10 ttl=56 time=183 ms
64 bytes from 203-210-4-091.static.pccw-hkt.com (203.210.4.91): icmp_seq=10 ttl=56 time=183 ms
64 bytes from 203-210-4-091.static.pccw-hkt.com (203.210.4.91): icmp_seq=10 ttl=56 time=183 ms
64 bytes from 203-210-4-091.static.pccw-hkt.com (203.210.4.91): icmp_seq=10 ttl=56 time=183 ms
64 bytes from 203-210-4-091.static.pccw-hkt.com (203.210.4.91): icmp_seq=10 ttl=56 time=183 ms
64 bytes from 203-210-4-091.static.pccw-hkt.com (203.210.4.91): icmp_seq=10 ttl=56 time=183 ms
64 bytes from 203-210-4-091.static.pccw-hkt.com (203.210.4.91): icmp_seq=11 ttl=56 time=178 ms
64 bytes from 203-210-4-091.static.pccw-hkt.com (203.210.4.91): icmp_seq=11 ttl=56 time=178 ms
64 bytes from 203-210-4-091.static.pccw-hkt.com (203.210.4.91): icmp_seq=11 ttl=56 time=178 ms
64 bytes from 203-210-4-091.static.pccw-hkt.com (203.210.4.91): icmp_seq=11 ttl=56 time=179 ms
64 bytes from 203-210-4-091.static.pccw-hkt.com (203.210.4.91): icmp_seq=11 ttl=56 time=179 ms
64 bytes from 203-210-4-091.static.pccw-hkt.com (203.210.4.91): icmp_seq=11 ttl=56 time=179 ms
64 bytes from 203-210-4-091.static.pccw-hkt.com (203.210.4.91): icmp_seq=11 ttl=56 time=179 ms
64 bytes from 203-210-4-091.static.pccw-hkt.com (203.210.4.91): icmp_seq=11 ttl=56 time=179 ms
64 bytes from 203-210-4-091.static.pccw-hkt.com (203.210.4.91): icmp_seq=11 ttl=56 time=179 ms
64 bytes from 203-210-4-091.static.pccw-hkt.com (203.210.4.91): icmp_seq=11 ttl=56 time=179 ms
64 bytes from 203-210-4-091.static.pccw-hkt.com (203.210.4.91): icmp_seq=11 ttl=56 time=179 ms
64 bytes from 203-210-4-091.static.pccw-hkt.com (203.210.4.91): icmp_seq=11 ttl=56 time=179 ms
64 bytes from 203-210-4-091.static.pccw-hkt.com (203.210.4.91): icmp_seq=11 ttl=56 time=179 ms
64 bytes from 203-210-4-091.static.pccw-hkt.com (203.210.4.91): icmp_seq=11 ttl=56 time=179 ms
64 bytes from 203-210-4-091.static.pccw-hkt.com (203.210.4.91): icmp_seq=11 ttl=56 time=180 ms
64 bytes from 203-210-4-091.static.pccw-hkt.com (203.210.4.91): icmp_seq=11 ttl=56 time=180 ms
64 bytes from 203-210-4-091.static.pccw-hkt.com (203.210.4.91): icmp_seq=11 ttl=56 time=180 ms
64 bytes from 203-210-4-091.static.pccw-hkt.com (203.210.4.91): icmp_seq=11 ttl=56 time=180 ms
64 bytes from 203-210-4-091.static.pccw-hkt.com (203.210.4.91): icmp_seq=11 ttl=56 time=180 ms
64 bytes from 203-210-4-091.static.pccw-hkt.com (203.210.4.91): icmp_seq=11 ttl=56 time=180 ms
64 bytes from 203-210-4-091.static.pccw-hkt.com (203.210.4.91): icmp_seq=12 ttl=56 time=200 ms
64 bytes from 203-210-4-091.static.pccw-hkt.com (203.210.4.91): icmp_seq=12 ttl=56 time=201 ms
64 bytes from 203-210-4-091.static.pccw-hkt.com (203.210.4.91): icmp_seq=12 ttl=56 time=200 ms
64 bytes from 203-210-4-091.static.pccw-hkt.com (203.210.4.91): icmp_seq=12 ttl=56 time=200 ms
64 bytes from 203-210-4-091.static.pccw-hkt.com (203.210.4.91): icmp_seq=12 ttl=56 time=201 ms
64 bytes from 203-210-4-091.static.pccw-hkt.com (203.210.4.91): icmp_seq=12 ttl=56 time=201 ms
64 bytes from 203-210-4-091.static.pccw-hkt.com (203.210.4.91): icmp_seq=12 ttl=56 time=201 ms
64 bytes from 203-210-4-091.static.pccw-hkt.com (203.210.4.91): icmp_seq=12 ttl=56 time=202 ms
64 bytes from 203-210-4-091.static.pccw-hkt.com (203.210.4.91): icmp_seq=12 ttl=56 time=202 ms
64 bytes from 203-210-4-091.static.pccw-hkt.com (203.210.4.91): icmp_seq=12 ttl=56 time=202 ms
64 bytes from 203-210-4-091.static.pccw-hkt.com (203.210.4.91): icmp_seq=12 ttl=56 time=203 ms
64 bytes from 203-210-4-091.static.pccw-hkt.com (203.210.4.91): icmp_seq=12 ttl=56 time=203 ms
64 bytes from 203-210-4-091.static.pccw-hkt.com (203.210.4.91): icmp_seq=12 ttl=56 time=203 ms
64 bytes from 203-210-4-091.static.pccw-hkt.com (203.210.4.91): icmp_seq=12 ttl=56 time=203 ms
64 bytes from 203-210-4-091.static.pccw-hkt.com (203.210.4.91): icmp_seq=12 ttl=56 time=204 ms
64 bytes from 203-210-4-091.static.pccw-hkt.com (203.210.4.91): icmp_seq=12 ttl=56 time=204 ms
64 bytes from 203-210-4-091.static.pccw-hkt.com (203.210.4.91): icmp_seq=12 ttl=56 time=204 ms
64 bytes from 203-210-4-091.static.pccw-hkt.com (203.210.4.91): icmp_seq=12 ttl=56 time=204 ms
64 bytes from 203-210-4-091.static.pccw-hkt.com (203.210.4.91): icmp_seq=12 ttl=56 time=205 ms
64 bytes from 203-210-4-091.static.pccw-hkt.com (203.210.4.91): icmp_seq=12 ttl=56 time=204 ms
64 bytes from 203-210-4-091.static.pccw-hkt.com (203.210.4.91): icmp_seq=13 ttl=56 time=190 ms
64 bytes from 203-210-4-091.static.pccw-hkt.com (203.210.4.91): icmp_seq=13 ttl=56 time=191 ms
64 bytes from 203-210-4-091.static.pccw-hkt.com (203.210.4.91): icmp_seq=13 ttl=56 time=193 ms
64 bytes from 203-210-4-091.static.pccw-hkt.com (203.210.4.91): icmp_seq=13 ttl=56 time=193 ms
64 bytes from 203-210-4-091.static.pccw-hkt.com (203.210.4.91): icmp_seq=13 ttl=56 time=193 ms
64 bytes from 203-210-4-091.static.pccw-hkt.com (203.210.4.91): icmp_seq=13 ttl=56 time=193 ms
64 bytes from 203-210-4-091.static.pccw-hkt.com (203.210.4.91): icmp_seq=13 ttl=56 time=192 ms
64 bytes from 203-210-4-091.static.pccw-hkt.com (203.210.4.91): icmp_seq=13 ttl=56 time=193 ms
64 bytes from 203-210-4-091.static.pccw-hkt.com (203.210.4.91): icmp_seq=13 ttl=56 time=192 ms
64 bytes from 203-210-4-091.static.pccw-hkt.com (203.210.4.91): icmp_seq=13 ttl=56 time=193 ms
64 bytes from 203-210-4-091.static.pccw-hkt.com (203.210.4.91): icmp_seq=13 ttl=56 time=192 ms
64 bytes from 203-210-4-091.static.pccw-hkt.com (203.210.4.91): icmp_seq=13 ttl=56 time=193 ms
64 bytes from 203-210-4-091.static.pccw-hkt.com (203.210.4.91): icmp_seq=13 ttl=56 time=192 ms
64 bytes from 203-210-4-091.static.pccw-hkt.com (203.210.4.91): icmp_seq=13 ttl=56 time=193 ms
64 bytes from 203-210-4-091.static.pccw-hkt.com (203.210.4.91): icmp_seq=13 ttl=56 time=192 ms
64 bytes from 203-210-4-091.static.pccw-hkt.com (203.210.4.91): icmp_seq=13 ttl=56 time=191 ms
64 bytes from 203-210-4-091.static.pccw-hkt.com (203.210.4.91): icmp_seq=13 ttl=56 time=193 ms
64 bytes from 203-210-4-091.static.pccw-hkt.com (203.210.4.91): icmp_seq=13 ttl=56 time=192 ms
64 bytes from 203-210-4-091.static.pccw-hkt.com (203.210.4.91): icmp_seq=13 ttl=56 time=190 ms
64 bytes from 203-210-4-091.static.pccw-hkt.com (203.210.4.91): icmp_seq=13 ttl=56 time=190 ms
64 bytes from 203-210-4-091.static.pccw-hkt.com (203.210.4.91): icmp_seq=14 ttl=56 time=189 ms
64 bytes from 203-210-4-091.static.pccw-hkt.com (203.210.4.91): icmp_seq=14 ttl=56 time=189 ms
64 bytes from 203-210-4-091.static.pccw-hkt.com (203.210.4.91): icmp_seq=14 ttl=56 time=189 ms
64 bytes from 203-210-4-091.static.pccw-hkt.com (203.210.4.91): icmp_seq=14 ttl=56 time=192 ms
64 bytes from 203-210-4-091.static.pccw-hkt.com (203.210.4.91): icmp_seq=14 ttl=56 time=189 ms
64 bytes from 203-210-4-091.static.pccw-hkt.com (203.210.4.91): icmp_seq=14 ttl=56 time=192 ms
64 bytes from 203-210-4-091.static.pccw-hkt.com (203.210.4.91): icmp_seq=14 ttl=56 time=191 ms
64 bytes from 203-210-4-091.static.pccw-hkt.com (203.210.4.91): icmp_seq=14 ttl=56 time=191 ms
64 bytes from 203-210-4-091.static.pccw-hkt.com (203.210.4.91): icmp_seq=14 ttl=56 time=191 ms
64 bytes from 203-210-4-091.static.pccw-hkt.com (203.210.4.91): icmp_seq=14 ttl=56 time=191 ms
64 bytes from 203-210-4-091.static.pccw-hkt.com (203.210.4.91): icmp_seq=14 ttl=56 time=191 ms
64 bytes from 203-210-4-091.static.pccw-hkt.com (203.210.4.91): icmp_seq=14 ttl=56 time=191 ms
64 bytes from 203-210-4-091.static.pccw-hkt.com (203.210.4.91): icmp_seq=14 ttl=56 time=191 ms
64 bytes from 203-210-4-091.static.pccw-hkt.com (203.210.4.91): icmp_seq=14 ttl=56 time=191 ms
64 bytes from 203-210-4-091.static.pccw-hkt.com (203.210.4.91): icmp_seq=14 ttl=56 time=191 ms
64 bytes from 203-210-4-091.static.pccw-hkt.com (203.210.4.91): icmp_seq=14 ttl=56 time=191 ms
64 bytes from 203-210-4-091.static.pccw-hkt.com (203.210.4.91): icmp_seq=14 ttl=56 time=191 ms
64 bytes from 203-210-4-091.static.pccw-hkt.com (203.210.4.91): icmp_seq=14 ttl=56 time=190 ms
64 bytes from 203-210-4-091.static.pccw-hkt.com (203.210.4.91): icmp_seq=14 ttl=56 time=190 ms
64 bytes from 203-210-4-091.static.pccw-hkt.com (203.210.4.91): icmp_seq=14 ttl=56 time=189 ms
64 bytes from 203-210-4-091.static.pccw-hkt.com (203.210.4.91): icmp_seq=15 ttl=56 time=226 ms
64 bytes from 203-210-4-091.static.pccw-hkt.com (203.210.4.91): icmp_seq=15 ttl=56 time=226 ms
64 bytes from 203-210-4-091.static.pccw-hkt.com (203.210.4.91): icmp_seq=15 ttl=56 time=226 ms
64 bytes from 203-210-4-091.static.pccw-hkt.com (203.210.4.91): icmp_seq=15 ttl=56 time=226 ms
64 bytes from 203-210-4-091.static.pccw-hkt.com (203.210.4.91): icmp_seq=15 ttl=56 time=226 ms
64 bytes from 203-210-4-091.static.pccw-hkt.com (203.210.4.91): icmp_seq=15 ttl=56 time=226 ms
64 bytes from 203-210-4-091.static.pccw-hkt.com (203.210.4.91): icmp_seq=15 ttl=56 time=227 ms
64 bytes from 203-210-4-091.static.pccw-hkt.com (203.210.4.91): icmp_seq=15 ttl=56 time=227 ms
64 bytes from 203-210-4-091.static.pccw-hkt.com (203.210.4.91): icmp_seq=15 ttl=56 time=227 ms
64 bytes from 203-210-4-091.static.pccw-hkt.com (203.210.4.91): icmp_seq=15 ttl=56 time=227 ms
64 bytes from 203-210-4-091.static.pccw-hkt.com (203.210.4.91): icmp_seq=15 ttl=56 time=227 ms
64 bytes from 203-210-4-091.static.pccw-hkt.com (203.210.4.91): icmp_seq=15 ttl=56 time=227 ms
64 bytes from 203-210-4-091.static.pccw-hkt.com (203.210.4.91): icmp_seq=15 ttl=56 time=227 ms
64 bytes from 203-210-4-091.static.pccw-hkt.com (203.210.4.91): icmp_seq=15 ttl=56 time=227 ms
64 bytes from 203-210-4-091.static.pccw-hkt.com (203.210.4.91): icmp_seq=15 ttl=56 time=227 ms
64 bytes from 203-210-4-091.static.pccw-hkt.com (203.210.4.91): icmp_seq=15 ttl=56 time=227 ms
64 bytes from 203-210-4-091.static.pccw-hkt.com (203.210.4.91): icmp_seq=15 ttl=56 time=227 ms
64 bytes from 203-210-4-091.static.pccw-hkt.com (203.210.4.91): icmp_seq=15 ttl=56 time=227 ms
64 bytes from 203-210-4-091.static.pccw-hkt.com (203.210.4.91): icmp_seq=15 ttl=56 time=227 ms
64 bytes from 203-210-4-091.static.pccw-hkt.com (203.210.4.91): icmp_seq=15 ttl=56 time=227 ms
64 bytes from 203-210-4-091.static.pccw-hkt.com (203.210.4.91): icmp_seq=16 ttl=56 time=203 ms
64 bytes from 203-210-4-091.static.pccw-hkt.com (203.210.4.91): icmp_seq=16 ttl=56 time=203 ms
64 bytes from 203-210-4-091.static.pccw-hkt.com (203.210.4.91): icmp_seq=16 ttl=56 time=203 ms
64 bytes from 203-210-4-091.static.pccw-hkt.com (203.210.4.91): icmp_seq=16 ttl=56 time=206 ms
64 bytes from 203-210-4-091.static.pccw-hkt.com (203.210.4.91): icmp_seq=16 ttl=56 time=206 ms
64 bytes from 203-210-4-091.static.pccw-hkt.com (203.210.4.91): icmp_seq=16 ttl=56 time=206 ms
64 bytes from 203-210-4-091.static.pccw-hkt.com (203.210.4.91): icmp_seq=16 ttl=56 time=206 ms
64 bytes from 203-210-4-091.static.pccw-hkt.com (203.210.4.91): icmp_seq=16 ttl=56 time=206 ms
64 bytes from 203-210-4-091.static.pccw-hkt.com (203.210.4.91): icmp_seq=16 ttl=56 time=206 ms
64 bytes from 203-210-4-091.static.pccw-hkt.com (203.210.4.91): icmp_seq=16 ttl=56 time=206 ms
64 bytes from 203-210-4-091.static.pccw-hkt.com (203.210.4.91): icmp_seq=16 ttl=56 time=206 ms
64 bytes from 203-210-4-091.static.pccw-hkt.com (203.210.4.91): icmp_seq=16 ttl=56 time=206 ms
64 bytes from 203-210-4-091.static.pccw-hkt.com (203.210.4.91): icmp_seq=16 ttl=56 time=206 ms
64 bytes from 203-210-4-091.static.pccw-hkt.com (203.210.4.91): icmp_seq=16 ttl=56 time=206 ms
64 bytes from 203-210-4-091.static.pccw-hkt.com (203.210.4.91): icmp_seq=16 ttl=56 time=206 ms
64 bytes from 203-210-4-091.static.pccw-hkt.com (203.210.4.91): icmp_seq=16 ttl=56 time=206 ms
64 bytes from 203-210-4-091.static.pccw-hkt.com (203.210.4.91): icmp_seq=16 ttl=56 time=206 ms
64 bytes from 203-210-4-091.static.pccw-hkt.com (203.210.4.91): icmp_seq=16 ttl=56 time=206 ms
64 bytes from 203-210-4-091.static.pccw-hkt.com (203.210.4.91): icmp_seq=16 ttl=56 time=206 ms
64 bytes from 203-210-4-091.static.pccw-hkt.com (203.210.4.91): icmp_seq=16 ttl=56 time=206 ms
64 bytes from 203-210-4-091.static.pccw-hkt.com (203.210.4.91): icmp_seq=17 ttl=56 time=186 ms
64 bytes from 203-210-4-091.static.pccw-hkt.com (203.210.4.91): icmp_seq=17 ttl=56 time=186 ms
64 bytes from 203-210-4-091.static.pccw-hkt.com (203.210.4.91): icmp_seq=17 ttl=56 time=186 ms
64 bytes from 203-210-4-091.static.pccw-hkt.com (203.210.4.91): icmp_seq=17 ttl=56 time=186 ms
64 bytes from 203-210-4-091.static.pccw-hkt.com (203.210.4.91): icmp_seq=17 ttl=56 time=186 ms
64 bytes from 203-210-4-091.static.pccw-hkt.com (203.210.4.91): icmp_seq=17 ttl=56 time=186 ms
64 bytes from 203-210-4-091.static.pccw-hkt.com (203.210.4.91): icmp_seq=17 ttl=56 time=186 ms
64 bytes from 203-210-4-091.static.pccw-hkt.com (203.210.4.91): icmp_seq=17 ttl=56 time=186 ms
64 bytes from 203-210-4-091.static.pccw-hkt.com (203.210.4.91): icmp_seq=17 ttl=56 time=186 ms
64 bytes from 203-210-4-091.static.pccw-hkt.com (203.210.4.91): icmp_seq=17 ttl=56 time=186 ms
64 bytes from 203-210-4-091.static.pccw-hkt.com (203.210.4.91): icmp_seq=17 ttl=56 time=186 ms
64 bytes from 203-210-4-091.static.pccw-hkt.com (203.210.4.91): icmp_seq=17 ttl=56 time=186 ms
64 bytes from 203-210-4-091.static.pccw-hkt.com (203.210.4.91): icmp_seq=17 ttl=56 time=186 ms
64 bytes from 203-210-4-091.static.pccw-hkt.com (203.210.4.91): icmp_seq=17 ttl=56 time=187 ms
64 bytes from 203-210-4-091.static.pccw-hkt.com (203.210.4.91): icmp_seq=17 ttl=56 time=187 ms
64 bytes from 203-210-4-091.static.pccw-hkt.com (203.210.4.91): icmp_seq=17 ttl=56 time=186 ms
64 bytes from 203-210-4-091.static.pccw-hkt.com (203.210.4.91): icmp_seq=17 ttl=56 time=187 ms
64 bytes from 203-210-4-091.static.pccw-hkt.com (203.210.4.91): icmp_seq=17 ttl=56 time=186 ms
64 bytes from 203-210-4-091.static.pccw-hkt.com (203.210.4.91): icmp_seq=17 ttl=56 time=186 ms
64 bytes from 203-210-4-091.static.pccw-hkt.com (203.210.4.91): icmp_seq=17 ttl=56 time=187 ms
64 bytes from 203-210-4-091.static.pccw-hkt.com (203.210.4.91): icmp_seq=18 ttl=56 time=193 ms
64 bytes from 203-210-4-091.static.pccw-hkt.com (203.210.4.91): icmp_seq=18 ttl=56 time=193 ms
64 bytes from 203-210-4-091.static.pccw-hkt.com (203.210.4.91): icmp_seq=18 ttl=56 time=193 ms
64 bytes from 203-210-4-091.static.pccw-hkt.com (203.210.4.91): icmp_seq=18 ttl=56 time=193 ms
64 bytes from 203-210-4-091.static.pccw-hkt.com (203.210.4.91): icmp_seq=18 ttl=56 time=196 ms
64 bytes from 203-210-4-091.static.pccw-hkt.com (203.210.4.91): icmp_seq=18 ttl=56 time=196 ms
64 bytes from 203-210-4-091.static.pccw-hkt.com (203.210.4.91): icmp_seq=18 ttl=56 time=196 ms
64 bytes from 203-210-4-091.static.pccw-hkt.com (203.210.4.91): icmp_seq=18 ttl=56 time=196 ms
64 bytes from 203-210-4-091.static.pccw-hkt.com (203.210.4.91): icmp_seq=18 ttl=56 time=193 ms
64 bytes from 203-210-4-091.static.pccw-hkt.com (203.210.4.91): icmp_seq=18 ttl=56 time=196 ms
64 bytes from 203-210-4-091.static.pccw-hkt.com (203.210.4.91): icmp_seq=18 ttl=56 time=196 ms
64 bytes from 203-210-4-091.static.pccw-hkt.com (203.210.4.91): icmp_seq=18 ttl=56 time=196 ms
64 bytes from 203-210-4-091.static.pccw-hkt.com (203.210.4.91): icmp_seq=18 ttl=56 time=196 ms
64 bytes from 203-210-4-091.static.pccw-hkt.com (203.210.4.91): icmp_seq=18 ttl=56 time=196 ms
64 bytes from 203-210-4-091.static.pccw-hkt.com (203.210.4.91): icmp_seq=18 ttl=56 time=196 ms
64 bytes from 203-210-4-091.static.pccw-hkt.com (203.210.4.91): icmp_seq=18 ttl=56 time=196 ms
64 bytes from 203-210-4-091.static.pccw-hkt.com (203.210.4.91): icmp_seq=18 ttl=56 time=196 ms
64 bytes from 203-210-4-091.static.pccw-hkt.com (203.210.4.91): icmp_seq=18 ttl=56 time=195 ms
64 bytes from 203-210-4-091.static.pccw-hkt.com (203.210.4.91): icmp_seq=18 ttl=56 time=196 ms
64 bytes from 203-210-4-091.static.pccw-hkt.com (203.210.4.91): icmp_seq=18 ttl=56 time=195 ms
64 bytes from 203-210-4-091.static.pccw-hkt.com (203.210.4.91): icmp_seq=19 ttl=56 time=192 ms
64 bytes from 203-210-4-091.static.pccw-hkt.com (203.210.4.91): icmp_seq=19 ttl=56 time=195 ms
64 bytes from 203-210-4-091.static.pccw-hkt.com (203.210.4.91): icmp_seq=19 ttl=56 time=194 ms
64 bytes from 203-210-4-091.static.pccw-hkt.com (203.210.4.91): icmp_seq=19 ttl=56 time=194 ms
64 bytes from 203-210-4-091.static.pccw-hkt.com (203.210.4.91): icmp_seq=19 ttl=56 time=194 ms
64 bytes from 203-210-4-091.static.pccw-hkt.com (203.210.4.91): icmp_seq=19 ttl=56 time=194 ms
64 bytes from 203-210-4-091.static.pccw-hkt.com (203.210.4.91): icmp_seq=19 ttl=56 time=194 ms
64 bytes from 203-210-4-091.static.pccw-hkt.com (203.210.4.91): icmp_seq=19 ttl=56 time=194 ms
64 bytes from 203-210-4-091.static.pccw-hkt.com (203.210.4.91): icmp_seq=19 ttl=56 time=194 ms
64 bytes from 203-210-4-091.static.pccw-hkt.com (203.210.4.91): icmp_seq=19 ttl=56 time=194 ms
64 bytes from 203-210-4-091.static.pccw-hkt.com (203.210.4.91): icmp_seq=19 ttl=56 time=194 ms
64 bytes from 203-210-4-091.static.pccw-hkt.com (203.210.4.91): icmp_seq=19 ttl=56 time=194 ms
64 bytes from 203-210-4-091.static.pccw-hkt.com (203.210.4.91): icmp_seq=19 ttl=56 time=194 ms
64 bytes from 203-210-4-091.static.pccw-hkt.com (203.210.4.91): icmp_seq=19 ttl=56 time=194 ms
64 bytes from 203-210-4-091.static.pccw-hkt.com (203.210.4.91): icmp_seq=19 ttl=56 time=194 ms
64 bytes from 203-210-4-091.static.pccw-hkt.com (203.210.4.91): icmp_seq=19 ttl=56 time=194 ms
64 bytes from 203-210-4-091.static.pccw-hkt.com (203.210.4.91): icmp_seq=19 ttl=56 time=194 ms
64 bytes from 203-210-4-091.static.pccw-hkt.com (203.210.4.91): icmp_seq=19 ttl=56 time=193 ms
64 bytes from 203-210-4-091.static.pccw-hkt.com (203.210.4.91): icmp_seq=19 ttl=56 time=193 ms
64 bytes from 203-210-4-091.static.pccw-hkt.com (203.210.4.91): icmp_seq=19 ttl=56 time=196 ms
64 bytes from 203-210-4-091.static.pccw-hkt.com (203.210.4.91): icmp_seq=20 ttl=56 time=195 ms
64 bytes from 203-210-4-091.static.pccw-hkt.com (203.210.4.91): icmp_seq=20 ttl=56 time=195 ms
64 bytes from 203-210-4-091.static.pccw-hkt.com (203.210.4.91): icmp_seq=20 ttl=56 time=195 ms
64 bytes from 203-210-4-091.static.pccw-hkt.com (203.210.4.91): icmp_seq=20 ttl=56 time=195 ms
64 bytes from 203-210-4-091.static.pccw-hkt.com (203.210.4.91): icmp_seq=20 ttl=56 time=195 ms
64 bytes from 203-210-4-091.static.pccw-hkt.com (203.210.4.91): icmp_seq=20 ttl=56 time=195 ms
64 bytes from 203-210-4-091.static.pccw-hkt.com (203.210.4.91): icmp_seq=20 ttl=56 time=195 ms
64 bytes from 203-210-4-091.static.pccw-hkt.com (203.210.4.91): icmp_seq=20 ttl=56 time=196 ms
64 bytes from 203-210-4-091.static.pccw-hkt.com (203.210.4.91): icmp_seq=20 ttl=56 time=196 ms
64 bytes from 203-210-4-091.static.pccw-hkt.com (203.210.4.91): icmp_seq=20 ttl=56 time=196 ms
64 bytes from 203-210-4-091.static.pccw-hkt.com (203.210.4.91): icmp_seq=20 ttl=56 time=196 ms
64 bytes from 203-210-4-091.static.pccw-hkt.com (203.210.4.91): icmp_seq=20 ttl=56 time=196 ms
64 bytes from 203-210-4-091.static.pccw-hkt.com (203.210.4.91): icmp_seq=20 ttl=56 time=196 ms
64 bytes from 203-210-4-091.static.pccw-hkt.com (203.210.4.91): icmp_seq=20 ttl=56 time=196 ms
64 bytes from 203-210-4-091.static.pccw-hkt.com (203.210.4.91): icmp_seq=20 ttl=56 time=196 ms
64 bytes from 203-210-4-091.static.pccw-hkt.com (203.210.4.91): icmp_seq=20 ttl=56 time=196 ms
64 bytes from 203-210-4-091.static.pccw-hkt.com (203.210.4.91): icmp_seq=20 ttl=56 time=196 ms
64 bytes from 203-210-4-091.static.pccw-hkt.com (203.210.4.91): icmp_seq=20 ttl=56 time=196 ms
64 bytes from 203-210-4-091.static.pccw-hkt.com (203.210.4.91): icmp_seq=20 ttl=56 time=197 ms
64 bytes from 203-210-4-091.static.pccw-hkt.com (203.210.4.91): icmp_seq=20 ttl=56 time=197 ms
64 bytes from 203-210-4-091.static.pccw-hkt.com (203.210.4.91): icmp_seq=21 ttl=56 time=190 ms
64 bytes from 203-210-4-091.static.pccw-hkt.com (203.210.4.91): icmp_seq=21 ttl=56 time=192 ms
64 bytes from 203-210-4-091.static.pccw-hkt.com (203.210.4.91): icmp_seq=21 ttl=56 time=190 ms
64 bytes from 203-210-4-091.static.pccw-hkt.com (203.210.4.91): icmp_seq=21 ttl=56 time=189 ms
64 bytes from 203-210-4-091.static.pccw-hkt.com (203.210.4.91): icmp_seq=21 ttl=56 time=189 ms
64 bytes from 203-210-4-091.static.pccw-hkt.com (203.210.4.91): icmp_seq=21 ttl=56 time=189 ms
64 bytes from 203-210-4-091.static.pccw-hkt.com (203.210.4.91): icmp_seq=21 ttl=56 time=189 ms
64 bytes from 203-210-4-091.static.pccw-hkt.com (203.210.4.91): icmp_seq=21 ttl=56 time=189 ms
64 bytes from 203-210-4-091.static.pccw-hkt.com (203.210.4.91): icmp_seq=21 ttl=56 time=189 ms
64 bytes from 203-210-4-091.static.pccw-hkt.com (203.210.4.91): icmp_seq=21 ttl=56 time=189 ms
64 bytes from 203-210-4-091.static.pccw-hkt.com (203.210.4.91): icmp_seq=21 ttl=56 time=189 ms
64 bytes from 203-210-4-091.static.pccw-hkt.com (203.210.4.91): icmp_seq=21 ttl=56 time=190 ms
64 bytes from 203-210-4-091.static.pccw-hkt.com (203.210.4.91): icmp_seq=21 ttl=56 time=190 ms
64 bytes from 203-210-4-091.static.pccw-hkt.com (203.210.4.91): icmp_seq=21 ttl=56 time=190 ms
64 bytes from 203-210-4-091.static.pccw-hkt.com (203.210.4.91): icmp_seq=21 ttl=56 time=190 ms
64 bytes from 203-210-4-091.static.pccw-hkt.com (203.210.4.91): icmp_seq=21 ttl=56 time=190 ms
64 bytes from 203-210-4-091.static.pccw-hkt.com (203.210.4.91): icmp_seq=21 ttl=56 time=193 ms
64 bytes from 203-210-4-091.static.pccw-hkt.com (203.210.4.91): icmp_seq=21 ttl=56 time=193 ms
64 bytes from 203-210-4-091.static.pccw-hkt.com (203.210.4.91): icmp_seq=21 ttl=56 time=193 ms
64 bytes from 203-210-4-091.static.pccw-hkt.com (203.210.4.91): icmp_seq=21 ttl=56 time=193 ms
64 bytes from 203-210-4-091.static.pccw-hkt.com (203.210.4.91): icmp_seq=22 ttl=56 time=198 ms
64 bytes from 203-210-4-091.static.pccw-hkt.com (203.210.4.91): icmp_seq=22 ttl=56 time=198 ms
64 bytes from 203-210-4-091.static.pccw-hkt.com (203.210.4.91): icmp_seq=22 ttl=56 time=197 ms
64 bytes from 203-210-4-091.static.pccw-hkt.com (203.210.4.91): icmp_seq=22 ttl=56 time=197 ms
64 bytes from 203-210-4-091.static.pccw-hkt.com (203.210.4.91): icmp_seq=22 ttl=56 time=197 ms
64 bytes from 203-210-4-091.static.pccw-hkt.com (203.210.4.91): icmp_seq=22 ttl=56 time=197 ms
64 bytes from 203-210-4-091.static.pccw-hkt.com (203.210.4.91): icmp_seq=22 ttl=56 time=197 ms
64 bytes from 203-210-4-091.static.pccw-hkt.com (203.210.4.91): icmp_seq=22 ttl=56 time=197 ms
64 bytes from 203-210-4-091.static.pccw-hkt.com (203.210.4.91): icmp_seq=22 ttl=56 time=197 ms
64 bytes from 203-210-4-091.static.pccw-hkt.com (203.210.4.91): icmp_seq=22 ttl=56 time=197 ms
64 bytes from 203-210-4-091.static.pccw-hkt.com (203.210.4.91): icmp_seq=22 ttl=56 time=197 ms
64 bytes from 203-210-4-091.static.pccw-hkt.com (203.210.4.91): icmp_seq=22 ttl=56 time=197 ms
64 bytes from 203-210-4-091.static.pccw-hkt.com (203.210.4.91): icmp_seq=22 ttl=56 time=197 ms
64 bytes from 203-210-4-091.static.pccw-hkt.com (203.210.4.91): icmp_seq=22 ttl=56 time=197 ms
64 bytes from 203-210-4-091.static.pccw-hkt.com (203.210.4.91): icmp_seq=22 ttl=56 time=197 ms
64 bytes from 203-210-4-091.static.pccw-hkt.com (203.210.4.91): icmp_seq=22 ttl=56 time=197 ms
64 bytes from 203-210-4-091.static.pccw-hkt.com (203.210.4.91): icmp_seq=22 ttl=56 time=197 ms
64 bytes from 203-210-4-091.static.pccw-hkt.com (203.210.4.91): icmp_seq=22 ttl=56 time=197 ms
64 bytes from 203-210-4-091.static.pccw-hkt.com (203.210.4.91): icmp_seq=22 ttl=56 time=198 ms
64 bytes from 203-210-4-091.static.pccw-hkt.com (203.210.4.91): icmp_seq=22 ttl=56 time=198 ms
64 bytes from 203-210-4-091.static.pccw-hkt.com (203.210.4.91): icmp_seq=23 ttl=56 time=194 ms
64 bytes from 203-210-4-091.static.pccw-hkt.com (203.210.4.91): icmp_seq=23 ttl=56 time=193 ms
64 bytes from 203-210-4-091.static.pccw-hkt.com (203.210.4.91): icmp_seq=23 ttl=56 time=194 ms
64 bytes from 203-210-4-091.static.pccw-hkt.com (203.210.4.91): icmp_seq=23 ttl=56 time=193 ms
64 bytes from 203-210-4-091.static.pccw-hkt.com (203.210.4.91): icmp_seq=23 ttl=56 time=193 ms
64 bytes from 203-210-4-091.static.pccw-hkt.com (203.210.4.91): icmp_seq=23 ttl=56 time=193 ms
64 bytes from 203-210-4-091.static.pccw-hkt.com (203.210.4.91): icmp_seq=23 ttl=56 time=193 ms
64 bytes from 203-210-4-091.static.pccw-hkt.com (203.210.4.91): icmp_seq=23 ttl=56 time=193 ms
64 bytes from 203-210-4-091.static.pccw-hkt.com (203.210.4.91): icmp_seq=23 ttl=56 time=193 ms
64 bytes from 203-210-4-091.static.pccw-hkt.com (203.210.4.91): icmp_seq=23 ttl=56 time=194 ms
64 bytes from 203-210-4-091.static.pccw-hkt.com (203.210.4.91): icmp_seq=23 ttl=56 time=194 ms
64 bytes from 203-210-4-091.static.pccw-hkt.com (203.210.4.91): icmp_seq=23 ttl=56 time=192 ms
64 bytes from 203-210-4-091.static.pccw-hkt.com (203.210.4.91): icmp_seq=23 ttl=56 time=194 ms
64 bytes from 203-210-4-091.static.pccw-hkt.com (203.210.4.91): icmp_seq=23 ttl=56 time=192 ms
64 bytes from 203-210-4-091.static.pccw-hkt.com (203.210.4.91): icmp_seq=23 ttl=56 time=191 ms
64 bytes from 203-210-4-091.static.pccw-hkt.com (203.210.4.91): icmp_seq=23 ttl=56 time=190 ms
64 bytes from 203-210-4-091.static.pccw-hkt.com (203.210.4.91): icmp_seq=23 ttl=56 time=191 ms
64 bytes from 203-210-4-091.static.pccw-hkt.com (203.210.4.91): icmp_seq=23 ttl=56 time=190 ms
64 bytes from 203-210-4-091.static.pccw-hkt.com (203.210.4.91): icmp_seq=23 ttl=56 time=190 ms
64 bytes from 203-210-4-091.static.pccw-hkt.com (203.210.4.91): icmp_seq=23 ttl=56 time=193 ms
64 bytes from 203-210-4-091.static.pccw-hkt.com (203.210.4.91): icmp_seq=24 ttl=56 time=197 ms
64 bytes from 203-210-4-091.static.pccw-hkt.com (203.210.4.91): icmp_seq=24 ttl=56 time=197 ms
64 bytes from 203-210-4-091.static.pccw-hkt.com (203.210.4.91): icmp_seq=24 ttl=56 time=197 ms
64 bytes from 203-210-4-091.static.pccw-hkt.com (203.210.4.91): icmp_seq=24 ttl=56 time=197 ms
64 bytes from 203-210-4-091.static.pccw-hkt.com (203.210.4.91): icmp_seq=24 ttl=56 time=197 ms
64 bytes from 203-210-4-091.static.pccw-hkt.com (203.210.4.91): icmp_seq=24 ttl=56 time=196 ms
64 bytes from 203-210-4-091.static.pccw-hkt.com (203.210.4.91): icmp_seq=24 ttl=56 time=196 ms
64 bytes from 203-210-4-091.static.pccw-hkt.com (203.210.4.91): icmp_seq=24 ttl=56 time=196 ms
64 bytes from 203-210-4-091.static.pccw-hkt.com (203.210.4.91): icmp_seq=24 ttl=56 time=196 ms
64 bytes from 203-210-4-091.static.pccw-hkt.com (203.210.4.91): icmp_seq=24 ttl=56 time=196 ms
64 bytes from 203-210-4-091.static.pccw-hkt.com (203.210.4.91): icmp_seq=24 ttl=56 time=196 ms
64 bytes from 203-210-4-091.static.pccw-hkt.com (203.210.4.91): icmp_seq=24 ttl=56 time=196 ms
64 bytes from 203-210-4-091.static.pccw-hkt.com (203.210.4.91): icmp_seq=24 ttl=56 time=196 ms
64 bytes from 203-210-4-091.static.pccw-hkt.com (203.210.4.91): icmp_seq=24 ttl=56 time=199 ms
64 bytes from 203-210-4-091.static.pccw-hkt.com (203.210.4.91): icmp_seq=24 ttl=56 time=199 ms
64 bytes from 203-210-4-091.static.pccw-hkt.com (203.210.4.91): icmp_seq=24 ttl=56 time=195 ms
64 bytes from 203-210-4-091.static.pccw-hkt.com (203.210.4.91): icmp_seq=24 ttl=56 time=199 ms
64 bytes from 203-210-4-091.static.pccw-hkt.com (203.210.4.91): icmp_seq=24 ttl=56 time=196 ms
64 bytes from 203-210-4-091.static.pccw-hkt.com (203.210.4.91): icmp_seq=24 ttl=56 time=195 ms
64 bytes from 203-210-4-091.static.pccw-hkt.com (203.210.4.91): icmp_seq=24 ttl=56 time=195 ms
64 bytes from 203-210-4-091.static.pccw-hkt.com (203.210.4.91): icmp_seq=25 ttl=56 time=192 ms
64 bytes from 203-210-4-091.static.pccw-hkt.com (203.210.4.91): icmp_seq=25 ttl=56 time=192 ms
64 bytes from 203-210-4-091.static.pccw-hkt.com (203.210.4.91): icmp_seq=25 ttl=56 time=192 ms
64 bytes from 203-210-4-091.static.pccw-hkt.com (203.210.4.91): icmp_seq=25 ttl=56 time=192 ms
64 bytes from 203-210-4-091.static.pccw-hkt.com (203.210.4.91): icmp_seq=25 ttl=56 time=192 ms
64 bytes from 203-210-4-091.static.pccw-hkt.com (203.210.4.91): icmp_seq=25 ttl=56 time=192 ms
64 bytes from 203-210-4-091.static.pccw-hkt.com (203.210.4.91): icmp_seq=25 ttl=56 time=191 ms
64 bytes from 203-210-4-091.static.pccw-hkt.com (203.210.4.91): icmp_seq=25 ttl=56 time=191 ms
64 bytes from 203-210-4-091.static.pccw-hkt.com (203.210.4.91): icmp_seq=25 ttl=56 time=191 ms
64 bytes from 203-210-4-091.static.pccw-hkt.com (203.210.4.91): icmp_seq=25 ttl=56 time=191 ms
64 bytes from 203-210-4-091.static.pccw-hkt.com (203.210.4.91): icmp_seq=25 ttl=56 time=192 ms
64 bytes from 203-210-4-091.static.pccw-hkt.com (203.210.4.91): icmp_seq=25 ttl=56 time=192 ms
64 bytes from 203-210-4-091.static.pccw-hkt.com (203.210.4.91): icmp_seq=25 ttl=56 time=192 ms
64 bytes from 203-210-4-091.static.pccw-hkt.com (203.210.4.91): icmp_seq=25 ttl=56 time=191 ms
64 bytes from 203-210-4-091.static.pccw-hkt.com (203.210.4.91): icmp_seq=25 ttl=56 time=189 ms
64 bytes from 203-210-4-091.static.pccw-hkt.com (203.210.4.91): icmp_seq=25 ttl=56 time=189 ms
64 bytes from 203-210-4-091.static.pccw-hkt.com (203.210.4.91): icmp_seq=25 ttl=56 time=189 ms
64 bytes from 203-210-4-091.static.pccw-hkt.com (203.210.4.91): icmp_seq=25 ttl=56 time=189 ms
64 bytes from 203-210-4-091.static.pccw-hkt.com (203.210.4.91): icmp_seq=25 ttl=56 time=189 ms
64 bytes from 203-210-4-091.static.pccw-hkt.com (203.210.4.91): icmp_seq=25 ttl=56 time=192 ms
64 bytes from 203-210-4-091.static.pccw-hkt.com (203.210.4.91): icmp_seq=26 ttl=56 time=194 ms
64 bytes from 203-210-4-091.static.pccw-hkt.com (203.210.4.91): icmp_seq=26 ttl=56 time=193 ms
64 bytes from 203-210-4-091.static.pccw-hkt.com (203.210.4.91): icmp_seq=26 ttl=56 time=193 ms
64 bytes from 203-210-4-091.static.pccw-hkt.com (203.210.4.91): icmp_seq=26 ttl=56 time=192 ms
64 bytes from 203-210-4-091.static.pccw-hkt.com (203.210.4.91): icmp_seq=26 ttl=56 time=193 ms
64 bytes from 203-210-4-091.static.pccw-hkt.com (203.210.4.91): icmp_seq=26 ttl=56 time=193 ms
64 bytes from 203-210-4-091.static.pccw-hkt.com (203.210.4.91): icmp_seq=26 ttl=56 time=193 ms
64 bytes from 203-210-4-091.static.pccw-hkt.com (203.210.4.91): icmp_seq=26 ttl=56 time=193 ms
64 bytes from 203-210-4-091.static.pccw-hkt.com (203.210.4.91): icmp_seq=26 ttl=56 time=194 ms
64 bytes from 203-210-4-091.static.pccw-hkt.com (203.210.4.91): icmp_seq=26 ttl=56 time=194 ms
64 bytes from 203-210-4-091.static.pccw-hkt.com (203.210.4.91): icmp_seq=26 ttl=56 time=194 ms
64 bytes from 203-210-4-091.static.pccw-hkt.com (203.210.4.91): icmp_seq=26 ttl=56 time=194 ms
64 bytes from 203-210-4-091.static.pccw-hkt.com (203.210.4.91): icmp_seq=26 ttl=56 time=194 ms
64 bytes from 203-210-4-091.static.pccw-hkt.com (203.210.4.91): icmp_seq=26 ttl=56 time=193 ms
64 bytes from 203-210-4-091.static.pccw-hkt.com (203.210.4.91): icmp_seq=26 ttl=56 time=192 ms
64 bytes from 203-210-4-091.static.pccw-hkt.com (203.210.4.91): icmp_seq=26 ttl=56 time=193 ms
64 bytes from 203-210-4-091.static.pccw-hkt.com (203.210.4.91): icmp_seq=26 ttl=56 time=192 ms
64 bytes from 203-210-4-091.static.pccw-hkt.com (203.210.4.91): icmp_seq=26 ttl=56 time=192 ms
64 bytes from 203-210-4-091.static.pccw-hkt.com (203.210.4.91): icmp_seq=26 ttl=56 time=192 ms
64 bytes from 203-210-4-091.static.pccw-hkt.com (203.210.4.91): icmp_seq=26 ttl=56 time=192 ms
64 bytes from 203-210-4-091.static.pccw-hkt.com (203.210.4.91): icmp_seq=27 ttl=56 time=183 ms
64 bytes from 203-210-4-091.static.pccw-hkt.com (203.210.4.91): icmp_seq=27 ttl=56 time=183 ms
64 bytes from 203-210-4-091.static.pccw-hkt.com (203.210.4.91): icmp_seq=27 ttl=56 time=182 ms
64 bytes from 203-210-4-091.static.pccw-hkt.com (203.210.4.91): icmp_seq=27 ttl=56 time=182 ms
64 bytes from 203-210-4-091.static.pccw-hkt.com (203.210.4.91): icmp_seq=27 ttl=56 time=183 ms
64 bytes from 203-210-4-091.static.pccw-hkt.com (203.210.4.91): icmp_seq=27 ttl=56 time=182 ms
64 bytes from 203-210-4-091.static.pccw-hkt.com (203.210.4.91): icmp_seq=27 ttl=56 time=182 ms
64 bytes from 203-210-4-091.static.pccw-hkt.com (203.210.4.91): icmp_seq=27 ttl=56 time=182 ms
64 bytes from 203-210-4-091.static.pccw-hkt.com (203.210.4.91): icmp_seq=27 ttl=56 time=182 ms
64 bytes from 203-210-4-091.static.pccw-hkt.com (203.210.4.91): icmp_seq=27 ttl=56 time=182 ms
64 bytes from 203-210-4-091.static.pccw-hkt.com (203.210.4.91): icmp_seq=27 ttl=56 time=182 ms
64 bytes from 203-210-4-091.static.pccw-hkt.com (203.210.4.91): icmp_seq=27 ttl=56 time=182 ms
64 bytes from 203-210-4-091.static.pccw-hkt.com (203.210.4.91): icmp_seq=27 ttl=56 time=182 ms
64 bytes from 203-210-4-091.static.pccw-hkt.com (203.210.4.91): icmp_seq=27 ttl=56 time=182 ms
64 bytes from 203-210-4-091.static.pccw-hkt.com (203.210.4.91): icmp_seq=27 ttl=56 time=179 ms
64 bytes from 203-210-4-091.static.pccw-hkt.com (203.210.4.91): icmp_seq=27 ttl=56 time=179 ms
64 bytes from 203-210-4-091.static.pccw-hkt.com (203.210.4.91): icmp_seq=27 ttl=56 time=178 ms
64 bytes from 203-210-4-091.static.pccw-hkt.com (203.210.4.91): icmp_seq=27 ttl=56 time=177 ms
64 bytes from 203-210-4-091.static.pccw-hkt.com (203.210.4.91): icmp_seq=27 ttl=56 time=177 ms
64 bytes from 203-210-4-091.static.pccw-hkt.com (203.210.4.91): icmp_seq=27 ttl=56 time=177 ms
64 bytes from 203-210-4-091.static.pccw-hkt.com (203.210.4.91): icmp_seq=28 ttl=56 time=194 ms
64 bytes from 203-210-4-091.static.pccw-hkt.com (203.210.4.91): icmp_seq=28 ttl=56 time=194 ms
64 bytes from 203-210-4-091.static.pccw-hkt.com (203.210.4.91): icmp_seq=28 ttl=56 time=194 ms
64 bytes from 203-210-4-091.static.pccw-hkt.com (203.210.4.91): icmp_seq=28 ttl=56 time=194 ms
64 bytes from 203-210-4-091.static.pccw-hkt.com (203.210.4.91): icmp_seq=28 ttl=56 time=194 ms
64 bytes from 203-210-4-091.static.pccw-hkt.com (203.210.4.91): icmp_seq=28 ttl=56 time=194 ms
64 bytes from 203-210-4-091.static.pccw-hkt.com (203.210.4.91): icmp_seq=28 ttl=56 time=194 ms
64 bytes from 203-210-4-091.static.pccw-hkt.com (203.210.4.91): icmp_seq=28 ttl=56 time=194 ms
64 bytes from 203-210-4-091.static.pccw-hkt.com (203.210.4.91): icmp_seq=28 ttl=56 time=194 ms
64 bytes from 203-210-4-091.static.pccw-hkt.com (203.210.4.91): icmp_seq=28 ttl=56 time=194 ms
64 bytes from 203-210-4-091.static.pccw-hkt.com (203.210.4.91): icmp_seq=28 ttl=56 time=193 ms
64 bytes from 203-210-4-091.static.pccw-hkt.com (203.210.4.91): icmp_seq=28 ttl=56 time=193 ms
64 bytes from 203-210-4-091.static.pccw-hkt.com (203.210.4.91): icmp_seq=28 ttl=56 time=193 ms
64 bytes from 203-210-4-091.static.pccw-hkt.com (203.210.4.91): icmp_seq=28 ttl=56 time=193 ms
64 bytes from 203-210-4-091.static.pccw-hkt.com (203.210.4.91): icmp_seq=28 ttl=56 time=190 ms
64 bytes from 203-210-4-091.static.pccw-hkt.com (203.210.4.91): icmp_seq=28 ttl=56 time=191 ms
64 bytes from 203-210-4-091.static.pccw-hkt.com (203.210.4.91): icmp_seq=28 ttl=56 time=192 ms
64 bytes from 203-210-4-091.static.pccw-hkt.com (203.210.4.91): icmp_seq=28 ttl=56 time=192 ms
64 bytes from 203-210-4-091.static.pccw-hkt.com (203.210.4.91): icmp_seq=28 ttl=56 time=192 ms
64 bytes from 203-210-4-091.static.pccw-hkt.com (203.210.4.91): icmp_seq=28 ttl=56 time=192 ms
64 bytes from 203-210-4-091.static.pccw-hkt.com (203.210.4.91): icmp_seq=29 ttl=56 time=193 ms
64 bytes from 203-210-4-091.static.pccw-hkt.com (203.210.4.91): icmp_seq=29 ttl=56 time=193 ms
64 bytes from 203-210-4-091.static.pccw-hkt.com (203.210.4.91): icmp_seq=29 ttl=56 time=193 ms
64 bytes from 203-210-4-091.static.pccw-hkt.com (203.210.4.91): icmp_seq=29 ttl=56 time=193 ms
64 bytes from 203-210-4-091.static.pccw-hkt.com (203.210.4.91): icmp_seq=29 ttl=56 time=193 ms
64 bytes from 203-210-4-091.static.pccw-hkt.com (203.210.4.91): icmp_seq=29 ttl=56 time=193 ms
64 bytes from 203-210-4-091.static.pccw-hkt.com (203.210.4.91): icmp_seq=29 ttl=56 time=193 ms
64 bytes from 203-210-4-091.static.pccw-hkt.com (203.210.4.91): icmp_seq=29 ttl=56 time=193 ms
64 bytes from 203-210-4-091.static.pccw-hkt.com (203.210.4.91): icmp_seq=29 ttl=56 time=193 ms
64 bytes from 203-210-4-091.static.pccw-hkt.com (203.210.4.91): icmp_seq=29 ttl=56 time=193 ms
64 bytes from 203-210-4-091.static.pccw-hkt.com (203.210.4.91): icmp_seq=29 ttl=56 time=193 ms
64 bytes from 203-210-4-091.static.pccw-hkt.com (203.210.4.91): icmp_seq=29 ttl=56 time=193 ms
64 bytes from 203-210-4-091.static.pccw-hkt.com (203.210.4.91): icmp_seq=29 ttl=56 time=195 ms
64 bytes from 203-210-4-091.static.pccw-hkt.com (203.210.4.91): icmp_seq=29 ttl=56 time=195 ms
64 bytes from 203-210-4-091.static.pccw-hkt.com (203.210.4.91): icmp_seq=29 ttl=56 time=195 ms
64 bytes from 203-210-4-091.static.pccw-hkt.com (203.210.4.91): icmp_seq=29 ttl=56 time=195 ms
64 bytes from 203-210-4-091.static.pccw-hkt.com (203.210.4.91): icmp_seq=29 ttl=56 time=195 ms
64 bytes from 203-210-4-091.static.pccw-hkt.com (203.210.4.91): icmp_seq=29 ttl=56 time=195 ms
64 bytes from 203-210-4-091.static.pccw-hkt.com (203.210.4.91): icmp_seq=29 ttl=56 time=195 ms
64 bytes from 203-210-4-091.static.pccw-hkt.com (203.210.4.91): icmp_seq=29 ttl=56 time=195 ms
64 bytes from 203-210-4-091.static.pccw-hkt.com (203.210.4.91): icmp_seq=30 ttl=56 time=365 ms
64 bytes from 203-210-4-091.static.pccw-hkt.com (203.210.4.91): icmp_seq=30 ttl=56 time=365 ms
64 bytes from 203-210-4-091.static.pccw-hkt.com (203.210.4.91): icmp_seq=30 ttl=56 time=365 ms
64 bytes from 203-210-4-091.static.pccw-hkt.com (203.210.4.91): icmp_seq=30 ttl=56 time=365 ms
64 bytes from 203-210-4-091.static.pccw-hkt.com (203.210.4.91): icmp_seq=30 ttl=56 time=365 ms
64 bytes from 203-210-4-091.static.pccw-hkt.com (203.210.4.91): icmp_seq=30 ttl=56 time=368 ms
64 bytes from 203-210-4-091.static.pccw-hkt.com (203.210.4.91): icmp_seq=30 ttl=56 time=368 ms
64 bytes from 203-210-4-091.static.pccw-hkt.com (203.210.4.91): icmp_seq=30 ttl=56 time=367 ms
64 bytes from 203-210-4-091.static.pccw-hkt.com (203.210.4.91): icmp_seq=30 ttl=56 time=368 ms
64 bytes from 203-210-4-091.static.pccw-hkt.com (203.210.4.91): icmp_seq=30 ttl=56 time=367 ms
64 bytes from 203-210-4-091.static.pccw-hkt.com (203.210.4.91): icmp_seq=30 ttl=56 time=367 ms
64 bytes from 203-210-4-091.static.pccw-hkt.com (203.210.4.91): icmp_seq=30 ttl=56 time=368 ms
64 bytes from 203-210-4-091.static.pccw-hkt.com (203.210.4.91): icmp_seq=30 ttl=56 time=367 ms
64 bytes from 203-210-4-091.static.pccw-hkt.com (203.210.4.91): icmp_seq=30 ttl=56 time=367 ms
64 bytes from 203-210-4-091.static.pccw-hkt.com (203.210.4.91): icmp_seq=30 ttl=56 time=367 ms
64 bytes from 203-210-4-091.static.pccw-hkt.com (203.210.4.91): icmp_seq=30 ttl=56 time=367 ms
64 bytes from 203-210-4-091.static.pccw-hkt.com (203.210.4.91): icmp_seq=30 ttl=56 time=367 ms
64 bytes from 203-210-4-091.static.pccw-hkt.com (203.210.4.91): icmp_seq=30 ttl=56 time=367 ms
64 bytes from 203-210-4-091.static.pccw-hkt.com (203.210.4.91): icmp_seq=30 ttl=56 time=367 ms
64 bytes from 203-210-4-091.static.pccw-hkt.com (203.210.4.91): icmp_seq=30 ttl=56 time=367 ms
64 bytes from 203-210-4-091.static.pccw-hkt.com (203.210.4.91): icmp_seq=31 ttl=56 time=196 ms
64 bytes from 203-210-4-091.static.pccw-hkt.com (203.210.4.91): icmp_seq=31 ttl=56 time=196 ms
64 bytes from 203-210-4-091.static.pccw-hkt.com (203.210.4.91): icmp_seq=31 ttl=56 time=196 ms
64 bytes from 203-210-4-091.static.pccw-hkt.com (203.210.4.91): icmp_seq=31 ttl=56 time=196 ms
64 bytes from 203-210-4-091.static.pccw-hkt.com (203.210.4.91): icmp_seq=31 ttl=56 time=196 ms
64 bytes from 203-210-4-091.static.pccw-hkt.com (203.210.4.91): icmp_seq=31 ttl=56 time=196 ms
64 bytes from 203-210-4-091.static.pccw-hkt.com (203.210.4.91): icmp_seq=31 ttl=56 time=196 ms
64 bytes from 203-210-4-091.static.pccw-hkt.com (203.210.4.91): icmp_seq=31 ttl=56 time=197 ms
64 bytes from 203-210-4-091.static.pccw-hkt.com (203.210.4.91): icmp_seq=31 ttl=56 time=197 ms
64 bytes from 203-210-4-091.static.pccw-hkt.com (203.210.4.91): icmp_seq=31 ttl=56 time=197 ms
64 bytes from 203-210-4-091.static.pccw-hkt.com (203.210.4.91): icmp_seq=31 ttl=56 time=196 ms
64 bytes from 203-210-4-091.static.pccw-hkt.com (203.210.4.91): icmp_seq=31 ttl=56 time=197 ms
64 bytes from 203-210-4-091.static.pccw-hkt.com (203.210.4.91): icmp_seq=31 ttl=56 time=197 ms
64 bytes from 203-210-4-091.static.pccw-hkt.com (203.210.4.91): icmp_seq=31 ttl=56 time=197 ms
64 bytes from 203-210-4-091.static.pccw-hkt.com (203.210.4.91): icmp_seq=31 ttl=56 time=197 ms
64 bytes from 203-210-4-091.static.pccw-hkt.com (203.210.4.91): icmp_seq=31 ttl=56 time=197 ms
64 bytes from 203-210-4-091.static.pccw-hkt.com (203.210.4.91): icmp_seq=31 ttl=56 time=197 ms
64 bytes from 203-210-4-091.static.pccw-hkt.com (203.210.4.91): icmp_seq=31 ttl=56 time=197 ms
64 bytes from 203-210-4-091.static.pccw-hkt.com (203.210.4.91): icmp_seq=31 ttl=56 time=197 ms
64 bytes from 203-210-4-091.static.pccw-hkt.com (203.210.4.91): icmp_seq=31 ttl=56 time=197 ms
64 bytes from 203-210-4-091.static.pccw-hkt.com (203.210.4.91): icmp_seq=32 ttl=56 time=196 ms
64 bytes from 203-210-4-091.static.pccw-hkt.com (203.210.4.91): icmp_seq=32 ttl=56 time=196 ms
64 bytes from 203-210-4-091.static.pccw-hkt.com (203.210.4.91): icmp_seq=32 ttl=56 time=196 ms
64 bytes from 203-210-4-091.static.pccw-hkt.com (203.210.4.91): icmp_seq=32 ttl=56 time=196 ms
64 bytes from 203-210-4-091.static.pccw-hkt.com (203.210.4.91): icmp_seq=32 ttl=56 time=196 ms
64 bytes from 203-210-4-091.static.pccw-hkt.com (203.210.4.91): icmp_seq=32 ttl=56 time=196 ms
64 bytes from 203-210-4-091.static.pccw-hkt.com (203.210.4.91): icmp_seq=32 ttl=56 time=196 ms
64 bytes from 203-210-4-091.static.pccw-hkt.com (203.210.4.91): icmp_seq=32 ttl=56 time=196 ms
64 bytes from 203-210-4-091.static.pccw-hkt.com (203.210.4.91): icmp_seq=32 ttl=56 time=201 ms
64 bytes from 203-210-4-091.static.pccw-hkt.com (203.210.4.91): icmp_seq=32 ttl=56 time=201 ms
64 bytes from 203-210-4-091.static.pccw-hkt.com (203.210.4.91): icmp_seq=32 ttl=56 time=201 ms
64 bytes from 203-210-4-091.static.pccw-hkt.com (203.210.4.91): icmp_seq=32 ttl=56 time=202 ms
64 bytes from 203-210-4-091.static.pccw-hkt.com (203.210.4.91): icmp_seq=32 ttl=56 time=201 ms
64 bytes from 203-210-4-091.static.pccw-hkt.com (203.210.4.91): icmp_seq=32 ttl=56 time=202 ms
64 bytes from 203-210-4-091.static.pccw-hkt.com (203.210.4.91): icmp_seq=32 ttl=56 time=201 ms
64 bytes from 203-210-4-091.static.pccw-hkt.com (203.210.4.91): icmp_seq=32 ttl=56 time=201 ms
64 bytes from 203-210-4-091.static.pccw-hkt.com (203.210.4.91): icmp_seq=32 ttl=56 time=201 ms
64 bytes from 203-210-4-091.static.pccw-hkt.com (203.210.4.91): icmp_seq=32 ttl=56 time=201 ms
64 bytes from 203-210-4-091.static.pccw-hkt.com (203.210.4.91): icmp_seq=32 ttl=56 time=201 ms
64 bytes from 203-210-4-091.static.pccw-hkt.com (203.210.4.91): icmp_seq=32 ttl=56 time=200 ms
64 bytes from 203-210-4-091.static.pccw-hkt.com (203.210.4.91): icmp_seq=33 ttl=56 time=197 ms
64 bytes from 203-210-4-091.static.pccw-hkt.com (203.210.4.91): icmp_seq=33 ttl=56 time=199 ms
64 bytes from 203-210-4-091.static.pccw-hkt.com (203.210.4.91): icmp_seq=33 ttl=56 time=199 ms
64 bytes from 203-210-4-091.static.pccw-hkt.com (203.210.4.91): icmp_seq=33 ttl=56 time=199 ms
64 bytes from 203-210-4-091.static.pccw-hkt.com (203.210.4.91): icmp_seq=33 ttl=56 time=199 ms
64 bytes from 203-210-4-091.static.pccw-hkt.com (203.210.4.91): icmp_seq=33 ttl=56 time=199 ms
64 bytes from 203-210-4-091.static.pccw-hkt.com (203.210.4.91): icmp_seq=33 ttl=56 time=199 ms
64 bytes from 203-210-4-091.static.pccw-hkt.com (203.210.4.91): icmp_seq=33 ttl=56 time=199 ms
64 bytes from 203-210-4-091.static.pccw-hkt.com (203.210.4.91): icmp_seq=33 ttl=56 time=199 ms
64 bytes from 203-210-4-091.static.pccw-hkt.com (203.210.4.91): icmp_seq=33 ttl=56 time=199 ms
64 bytes from 203-210-4-091.static.pccw-hkt.com (203.210.4.91): icmp_seq=33 ttl=56 time=199 ms
64 bytes from 203-210-4-091.static.pccw-hkt.com (203.210.4.91): icmp_seq=33 ttl=56 time=199 ms
64 bytes from 203-210-4-091.static.pccw-hkt.com (203.210.4.91): icmp_seq=33 ttl=56 time=199 ms
64 bytes from 203-210-4-091.static.pccw-hkt.com (203.210.4.91): icmp_seq=33 ttl=56 time=200 ms
64 bytes from 203-210-4-091.static.pccw-hkt.com (203.210.4.91): icmp_seq=33 ttl=56 time=200 ms
64 bytes from 203-210-4-091.static.pccw-hkt.com (203.210.4.91): icmp_seq=33 ttl=56 time=199 ms
64 bytes from 203-210-4-091.static.pccw-hkt.com (203.210.4.91): icmp_seq=33 ttl=56 time=199 ms
64 bytes from 203-210-4-091.static.pccw-hkt.com (203.210.4.91): icmp_seq=33 ttl=56 time=199 ms
64 bytes from 203-210-4-091.static.pccw-hkt.com (203.210.4.91): icmp_seq=33 ttl=56 time=199 ms
64 bytes from 203-210-4-091.static.pccw-hkt.com (203.210.4.91): icmp_seq=33 ttl=56 time=199 ms
64 bytes from 203-210-4-091.static.pccw-hkt.com (203.210.4.91): icmp_seq=34 ttl=56 time=197 ms
64 bytes from 203-210-4-091.static.pccw-hkt.com (203.210.4.91): icmp_seq=34 ttl=56 time=198 ms
64 bytes from 203-210-4-091.static.pccw-hkt.com (203.210.4.91): icmp_seq=34 ttl=56 time=198 ms
64 bytes from 203-210-4-091.static.pccw-hkt.com (203.210.4.91): icmp_seq=34 ttl=56 time=198 ms
64 bytes from 203-210-4-091.static.pccw-hkt.com (203.210.4.91): icmp_seq=34 ttl=56 time=198 ms
64 bytes from 203-210-4-091.static.pccw-hkt.com (203.210.4.91): icmp_seq=34 ttl=56 time=198 ms
64 bytes from 203-210-4-091.static.pccw-hkt.com (203.210.4.91): icmp_seq=34 ttl=56 time=198 ms
64 bytes from 203-210-4-091.static.pccw-hkt.com (203.210.4.91): icmp_seq=34 ttl=56 time=198 ms
64 bytes from 203-210-4-091.static.pccw-hkt.com (203.210.4.91): icmp_seq=34 ttl=56 time=197 ms
64 bytes from 203-210-4-091.static.pccw-hkt.com (203.210.4.91): icmp_seq=34 ttl=56 time=198 ms
64 bytes from 203-210-4-091.static.pccw-hkt.com (203.210.4.91): icmp_seq=34 ttl=56 time=197 ms
64 bytes from 203-210-4-091.static.pccw-hkt.com (203.210.4.91): icmp_seq=34 ttl=56 time=196 ms
64 bytes from 203-210-4-091.static.pccw-hkt.com (203.210.4.91): icmp_seq=34 ttl=56 time=198 ms
64 bytes from 203-210-4-091.static.pccw-hkt.com (203.210.4.91): icmp_seq=34 ttl=56 time=198 ms
64 bytes from 203-210-4-091.static.pccw-hkt.com (203.210.4.91): icmp_seq=34 ttl=56 time=198 ms
64 bytes from 203-210-4-091.static.pccw-hkt.com (203.210.4.91): icmp_seq=34 ttl=56 time=198 ms
64 bytes from 203-210-4-091.static.pccw-hkt.com (203.210.4.91): icmp_seq=34 ttl=56 time=196 ms
64 bytes from 203-210-4-091.static.pccw-hkt.com (203.210.4.91): icmp_seq=34 ttl=56 time=197 ms
64 bytes from 203-210-4-091.static.pccw-hkt.com (203.210.4.91): icmp_seq=34 ttl=56 time=197 ms
64 bytes from 203-210-4-091.static.pccw-hkt.com (203.210.4.91): icmp_seq=34 ttl=56 time=196 ms
64 bytes from 203-210-4-091.static.pccw-hkt.com (203.210.4.91): icmp_seq=35 ttl=56 time=194 ms
64 bytes from 203-210-4-091.static.pccw-hkt.com (203.210.4.91): icmp_seq=35 ttl=56 time=194 ms
64 bytes from 203-210-4-091.static.pccw-hkt.com (203.210.4.91): icmp_seq=35 ttl=56 time=194 ms
64 bytes from 203-210-4-091.static.pccw-hkt.com (203.210.4.91): icmp_seq=35 ttl=56 time=194 ms
64 bytes from 203-210-4-091.static.pccw-hkt.com (203.210.4.91): icmp_seq=35 ttl=56 time=195 ms
64 bytes from 203-210-4-091.static.pccw-hkt.com (203.210.4.91): icmp_seq=35 ttl=56 time=195 ms
64 bytes from 203-210-4-091.static.pccw-hkt.com (203.210.4.91): icmp_seq=35 ttl=56 time=195 ms
64 bytes from 203-210-4-091.static.pccw-hkt.com (203.210.4.91): icmp_seq=35 ttl=56 time=195 ms
64 bytes from 203-210-4-091.static.pccw-hkt.com (203.210.4.91): icmp_seq=35 ttl=56 time=195 ms
64 bytes from 203-210-4-091.static.pccw-hkt.com (203.210.4.91): icmp_seq=35 ttl=56 time=195 ms
64 bytes from 203-210-4-091.static.pccw-hkt.com (203.210.4.91): icmp_seq=35 ttl=56 time=195 ms
64 bytes from 203-210-4-091.static.pccw-hkt.com (203.210.4.91): icmp_seq=35 ttl=56 time=195 ms
64 bytes from 203-210-4-091.static.pccw-hkt.com (203.210.4.91): icmp_seq=35 ttl=56 time=198 ms
64 bytes from 203-210-4-091.static.pccw-hkt.com (203.210.4.91): icmp_seq=35 ttl=56 time=198 ms
64 bytes from 203-210-4-091.static.pccw-hkt.com (203.210.4.91): icmp_seq=35 ttl=56 time=195 ms
64 bytes from 203-210-4-091.static.pccw-hkt.com (203.210.4.91): icmp_seq=35 ttl=56 time=196 ms
64 bytes from 203-210-4-091.static.pccw-hkt.com (203.210.4.91): icmp_seq=35 ttl=56 time=196 ms
64 bytes from 203-210-4-091.static.pccw-hkt.com (203.210.4.91): icmp_seq=35 ttl=56 time=196 ms
64 bytes from 203-210-4-091.static.pccw-hkt.com (203.210.4.91): icmp_seq=35 ttl=56 time=196 ms
64 bytes from 203-210-4-091.static.pccw-hkt.com (203.210.4.91): icmp_seq=35 ttl=56 time=195 ms
64 bytes from 203-210-4-091.static.pccw-hkt.com (203.210.4.91): icmp_seq=36 ttl=56 time=194 ms
64 bytes from 203-210-4-091.static.pccw-hkt.com (203.210.4.91): icmp_seq=36 ttl=56 time=194 ms
64 bytes from 203-210-4-091.static.pccw-hkt.com (203.210.4.91): icmp_seq=36 ttl=56 time=194 ms
64 bytes from 203-210-4-091.static.pccw-hkt.com (203.210.4.91): icmp_seq=36 ttl=56 time=194 ms
64 bytes from 203-210-4-091.static.pccw-hkt.com (203.210.4.91): icmp_seq=36 ttl=56 time=194 ms
64 bytes from 203-210-4-091.static.pccw-hkt.com (203.210.4.91): icmp_seq=36 ttl=56 time=194 ms
64 bytes from 203-210-4-091.static.pccw-hkt.com (203.210.4.91): icmp_seq=36 ttl=56 time=194 ms
64 bytes from 203-210-4-091.static.pccw-hkt.com (203.210.4.91): icmp_seq=36 ttl=56 time=194 ms
64 bytes from 203-210-4-091.static.pccw-hkt.com (203.210.4.91): icmp_seq=36 ttl=56 time=194 ms
64 bytes from 203-210-4-091.static.pccw-hkt.com (203.210.4.91): icmp_seq=36 ttl=56 time=194 ms
64 bytes from 203-210-4-091.static.pccw-hkt.com (203.210.4.91): icmp_seq=36 ttl=56 time=194 ms
64 bytes from 203-210-4-091.static.pccw-hkt.com (203.210.4.91): icmp_seq=36 ttl=56 time=195 ms
64 bytes from 203-210-4-091.static.pccw-hkt.com (203.210.4.91): icmp_seq=36 ttl=56 time=195 ms
64 bytes from 203-210-4-091.static.pccw-hkt.com (203.210.4.91): icmp_seq=36 ttl=56 time=195 ms
64 bytes from 203-210-4-091.static.pccw-hkt.com (203.210.4.91): icmp_seq=36 ttl=56 time=192 ms
64 bytes from 203-210-4-091.static.pccw-hkt.com (203.210.4.91): icmp_seq=36 ttl=56 time=192 ms
64 bytes from 203-210-4-091.static.pccw-hkt.com (203.210.4.91): icmp_seq=36 ttl=56 time=193 ms
64 bytes from 203-210-4-091.static.pccw-hkt.com (203.210.4.91): icmp_seq=36 ttl=56 time=193 ms
64 bytes from 203-210-4-091.static.pccw-hkt.com (203.210.4.91): icmp_seq=36 ttl=56 time=194 ms
64 bytes from 203-210-4-091.static.pccw-hkt.com (203.210.4.91): icmp_seq=36 ttl=56 time=194 ms
64 bytes from 203-210-4-091.static.pccw-hkt.com (203.210.4.91): icmp_seq=37 ttl=56 time=192 ms
64 bytes from 203-210-4-091.static.pccw-hkt.com (203.210.4.91): icmp_seq=37 ttl=56 time=192 ms
64 bytes from 203-210-4-091.static.pccw-hkt.com (203.210.4.91): icmp_seq=37 ttl=56 time=192 ms
64 bytes from 203-210-4-091.static.pccw-hkt.com (203.210.4.91): icmp_seq=37 ttl=56 time=192 ms
64 bytes from 203-210-4-091.static.pccw-hkt.com (203.210.4.91): icmp_seq=37 ttl=56 time=192 ms
64 bytes from 203-210-4-091.static.pccw-hkt.com (203.210.4.91): icmp_seq=37 ttl=56 time=192 ms
64 bytes from 203-210-4-091.static.pccw-hkt.com (203.210.4.91): icmp_seq=37 ttl=56 time=193 ms
64 bytes from 203-210-4-091.static.pccw-hkt.com (203.210.4.91): icmp_seq=37 ttl=56 time=193 ms
64 bytes from 203-210-4-091.static.pccw-hkt.com (203.210.4.91): icmp_seq=37 ttl=56 time=193 ms
64 bytes from 203-210-4-091.static.pccw-hkt.com (203.210.4.91): icmp_seq=37 ttl=56 time=193 ms
64 bytes from 203-210-4-091.static.pccw-hkt.com (203.210.4.91): icmp_seq=37 ttl=56 time=193 ms
64 bytes from 203-210-4-091.static.pccw-hkt.com (203.210.4.91): icmp_seq=37 ttl=56 time=193 ms
64 bytes from 203-210-4-091.static.pccw-hkt.com (203.210.4.91): icmp_seq=37 ttl=56 time=193 ms
64 bytes from 203-210-4-091.static.pccw-hkt.com (203.210.4.91): icmp_seq=37 ttl=56 time=192 ms
64 bytes from 203-210-4-091.static.pccw-hkt.com (203.210.4.91): icmp_seq=37 ttl=56 time=190 ms
64 bytes from 203-210-4-091.static.pccw-hkt.com (203.210.4.91): icmp_seq=37 ttl=56 time=190 ms
64 bytes from 203-210-4-091.static.pccw-hkt.com (203.210.4.91): icmp_seq=37 ttl=56 time=190 ms
64 bytes from 203-210-4-091.static.pccw-hkt.com (203.210.4.91): icmp_seq=37 ttl=56 time=190 ms
64 bytes from 203-210-4-091.static.pccw-hkt.com (203.210.4.91): icmp_seq=37 ttl=56 time=190 ms
64 bytes from 203-210-4-091.static.pccw-hkt.com (203.210.4.91): icmp_seq=37 ttl=56 time=190 ms
64 bytes from 203-210-4-091.static.pccw-hkt.com (203.210.4.91): icmp_seq=38 ttl=56 time=189 ms
64 bytes from 203-210-4-091.static.pccw-hkt.com (203.210.4.91): icmp_seq=38 ttl=56 time=189 ms
64 bytes from 203-210-4-091.static.pccw-hkt.com (203.210.4.91): icmp_seq=38 ttl=56 time=189 ms
64 bytes from 203-210-4-091.static.pccw-hkt.com (203.210.4.91): icmp_seq=38 ttl=56 time=189 ms
64 bytes from 203-210-4-091.static.pccw-hkt.com (203.210.4.91): icmp_seq=38 ttl=56 time=189 ms
64 bytes from 203-210-4-091.static.pccw-hkt.com (203.210.4.91): icmp_seq=38 ttl=56 time=189 ms
64 bytes from 203-210-4-091.static.pccw-hkt.com (203.210.4.91): icmp_seq=38 ttl=56 time=189 ms
64 bytes from 203-210-4-091.static.pccw-hkt.com (203.210.4.91): icmp_seq=38 ttl=56 time=190 ms
64 bytes from 203-210-4-091.static.pccw-hkt.com (203.210.4.91): icmp_seq=38 ttl=56 time=190 ms
64 bytes from 203-210-4-091.static.pccw-hkt.com (203.210.4.91): icmp_seq=38 ttl=56 time=190 ms
64 bytes from 203-210-4-091.static.pccw-hkt.com (203.210.4.91): icmp_seq=38 ttl=56 time=190 ms
64 bytes from 203-210-4-091.static.pccw-hkt.com (203.210.4.91): icmp_seq=38 ttl=56 time=187 ms
64 bytes from 203-210-4-091.static.pccw-hkt.com (203.210.4.91): icmp_seq=38 ttl=56 time=189 ms
64 bytes from 203-210-4-091.static.pccw-hkt.com (203.210.4.91): icmp_seq=38 ttl=56 time=190 ms
64 bytes from 203-210-4-091.static.pccw-hkt.com (203.210.4.91): icmp_seq=38 ttl=56 time=187 ms
64 bytes from 203-210-4-091.static.pccw-hkt.com (203.210.4.91): icmp_seq=38 ttl=56 time=187 ms
64 bytes from 203-210-4-091.static.pccw-hkt.com (203.210.4.91): icmp_seq=38 ttl=56 time=189 ms
64 bytes from 203-210-4-091.static.pccw-hkt.com (203.210.4.91): icmp_seq=38 ttl=56 time=189 ms
64 bytes from 203-210-4-091.static.pccw-hkt.com (203.210.4.91): icmp_seq=38 ttl=56 time=191 ms
64 bytes from 203-210-4-091.static.pccw-hkt.com (203.210.4.91): icmp_seq=38 ttl=56 time=191 ms
64 bytes from 203-210-4-091.static.pccw-hkt.com (203.210.4.91): icmp_seq=39 ttl=56 time=221 ms
64 bytes from 203-210-4-091.static.pccw-hkt.com (203.210.4.91): icmp_seq=39 ttl=56 time=221 ms
64 bytes from 203-210-4-091.static.pccw-hkt.com (203.210.4.91): icmp_seq=39 ttl=56 time=221 ms
64 bytes from 203-210-4-091.static.pccw-hkt.com (203.210.4.91): icmp_seq=39 ttl=56 time=221 ms
64 bytes from 203-210-4-091.static.pccw-hkt.com (203.210.4.91): icmp_seq=39 ttl=56 time=221 ms
64 bytes from 203-210-4-091.static.pccw-hkt.com (203.210.4.91): icmp_seq=39 ttl=56 time=221 ms
64 bytes from 203-210-4-091.static.pccw-hkt.com (203.210.4.91): icmp_seq=39 ttl=56 time=221 ms
64 bytes from 203-210-4-091.static.pccw-hkt.com (203.210.4.91): icmp_seq=39 ttl=56 time=221 ms
64 bytes from 203-210-4-091.static.pccw-hkt.com (203.210.4.91): icmp_seq=39 ttl=56 time=221 ms
64 bytes from 203-210-4-091.static.pccw-hkt.com (203.210.4.91): icmp_seq=39 ttl=56 time=221 ms
64 bytes from 203-210-4-091.static.pccw-hkt.com (203.210.4.91): icmp_seq=39 ttl=56 time=221 ms
64 bytes from 203-210-4-091.static.pccw-hkt.com (203.210.4.91): icmp_seq=39 ttl=56 time=224 ms
64 bytes from 203-210-4-091.static.pccw-hkt.com (203.210.4.91): icmp_seq=39 ttl=56 time=224 ms
64 bytes from 203-210-4-091.static.pccw-hkt.com (203.210.4.91): icmp_seq=39 ttl=56 time=224 ms
64 bytes from 203-210-4-091.static.pccw-hkt.com (203.210.4.91): icmp_seq=39 ttl=56 time=224 ms
64 bytes from 203-210-4-091.static.pccw-hkt.com (203.210.4.91): icmp_seq=39 ttl=56 time=224 ms
64 bytes from 203-210-4-091.static.pccw-hkt.com (203.210.4.91): icmp_seq=39 ttl=56 time=224 ms
64 bytes from 203-210-4-091.static.pccw-hkt.com (203.210.4.91): icmp_seq=39 ttl=56 time=224 ms
64 bytes from 203-210-4-091.static.pccw-hkt.com (203.210.4.91): icmp_seq=39 ttl=56 time=224 ms
64 bytes from 203-210-4-091.static.pccw-hkt.com (203.210.4.91): icmp_seq=39 ttl=56 time=223 ms
64 bytes from 203-210-4-091.static.pccw-hkt.com (203.210.4.91): icmp_seq=40 ttl=56 time=192 ms
64 bytes from 203-210-4-091.static.pccw-hkt.com (203.210.4.91): icmp_seq=40 ttl=56 time=192 ms
64 bytes from 203-210-4-091.static.pccw-hkt.com (203.210.4.91): icmp_seq=40 ttl=56 time=192 ms
64 bytes from 203-210-4-091.static.pccw-hkt.com (203.210.4.91): icmp_seq=40 ttl=56 time=193 ms
64 bytes from 203-210-4-091.static.pccw-hkt.com (203.210.4.91): icmp_seq=40 ttl=56 time=195 ms
64 bytes from 203-210-4-091.static.pccw-hkt.com (203.210.4.91): icmp_seq=40 ttl=56 time=195 ms
64 bytes from 203-210-4-091.static.pccw-hkt.com (203.210.4.91): icmp_seq=40 ttl=56 time=195 ms
64 bytes from 203-210-4-091.static.pccw-hkt.com (203.210.4.91): icmp_seq=40 ttl=56 time=195 ms
64 bytes from 203-210-4-091.static.pccw-hkt.com (203.210.4.91): icmp_seq=40 ttl=56 time=195 ms
64 bytes from 203-210-4-091.static.pccw-hkt.com (203.210.4.91): icmp_seq=40 ttl=56 time=195 ms
64 bytes from 203-210-4-091.static.pccw-hkt.com (203.210.4.91): icmp_seq=40 ttl=56 time=195 ms
64 bytes from 203-210-4-091.static.pccw-hkt.com (203.210.4.91): icmp_seq=40 ttl=56 time=194 ms
64 bytes from 203-210-4-091.static.pccw-hkt.com (203.210.4.91): icmp_seq=40 ttl=56 time=195 ms
64 bytes from 203-210-4-091.static.pccw-hkt.com (203.210.4.91): icmp_seq=40 ttl=56 time=195 ms
64 bytes from 203-210-4-091.static.pccw-hkt.com (203.210.4.91): icmp_seq=40 ttl=56 time=194 ms
64 bytes from 203-210-4-091.static.pccw-hkt.com (203.210.4.91): icmp_seq=40 ttl=56 time=195 ms
64 bytes from 203-210-4-091.static.pccw-hkt.com (203.210.4.91): icmp_seq=40 ttl=56 time=193 ms
64 bytes from 203-210-4-091.static.pccw-hkt.com (203.210.4.91): icmp_seq=40 ttl=56 time=195 ms
64 bytes from 203-210-4-091.static.pccw-hkt.com (203.210.4.91): icmp_seq=40 ttl=56 time=193 ms
64 bytes from 203-210-4-091.static.pccw-hkt.com (203.210.4.91): icmp_seq=40 ttl=56 time=195 ms
64 bytes from 203-210-4-091.static.pccw-hkt.com (203.210.4.91): icmp_seq=41 ttl=56 time=187 ms
64 bytes from 203-210-4-091.static.pccw-hkt.com (203.210.4.91): icmp_seq=41 ttl=56 time=189 ms
64 bytes from 203-210-4-091.static.pccw-hkt.com (203.210.4.91): icmp_seq=41 ttl=56 time=189 ms
64 bytes from 203-210-4-091.static.pccw-hkt.com (203.210.4.91): icmp_seq=41 ttl=56 time=189 ms
64 bytes from 203-210-4-091.static.pccw-hkt.com (203.210.4.91): icmp_seq=41 ttl=56 time=189 ms
64 bytes from 203-210-4-091.static.pccw-hkt.com (203.210.4.91): icmp_seq=41 ttl=56 time=189 ms
64 bytes from 203-210-4-091.static.pccw-hkt.com (203.210.4.91): icmp_seq=41 ttl=56 time=189 ms
64 bytes from 203-210-4-091.static.pccw-hkt.com (203.210.4.91): icmp_seq=41 ttl=56 time=191 ms
64 bytes from 203-210-4-091.static.pccw-hkt.com (203.210.4.91): icmp_seq=41 ttl=56 time=191 ms
64 bytes from 203-210-4-091.static.pccw-hkt.com (203.210.4.91): icmp_seq=41 ttl=56 time=191 ms
64 bytes from 203-210-4-091.static.pccw-hkt.com (203.210.4.91): icmp_seq=41 ttl=56 time=191 ms
64 bytes from 203-210-4-091.static.pccw-hkt.com (203.210.4.91): icmp_seq=41 ttl=56 time=191 ms
64 bytes from 203-210-4-091.static.pccw-hkt.com (203.210.4.91): icmp_seq=41 ttl=56 time=191 ms
64 bytes from 203-210-4-091.static.pccw-hkt.com (203.210.4.91): icmp_seq=41 ttl=56 time=191 ms
64 bytes from 203-210-4-091.static.pccw-hkt.com (203.210.4.91): icmp_seq=41 ttl=56 time=191 ms
64 bytes from 203-210-4-091.static.pccw-hkt.com (203.210.4.91): icmp_seq=41 ttl=56 time=191 ms
64 bytes from 203-210-4-091.static.pccw-hkt.com (203.210.4.91): icmp_seq=41 ttl=56 time=188 ms
64 bytes from 203-210-4-091.static.pccw-hkt.com (203.210.4.91): icmp_seq=41 ttl=56 time=188 ms
64 bytes from 203-210-4-091.static.pccw-hkt.com (203.210.4.91): icmp_seq=41 ttl=56 time=188 ms
64 bytes from 203-210-4-091.static.pccw-hkt.com (203.210.4.91): icmp_seq=41 ttl=56 time=188 ms
64 bytes from 203-210-4-091.static.pccw-hkt.com (203.210.4.91): icmp_seq=42 ttl=56 time=179 ms
64 bytes from 203-210-4-091.static.pccw-hkt.com (203.210.4.91): icmp_seq=42 ttl=56 time=179 ms
64 bytes from 203-210-4-091.static.pccw-hkt.com (203.210.4.91): icmp_seq=42 ttl=56 time=179 ms
64 bytes from 203-210-4-091.static.pccw-hkt.com (203.210.4.91): icmp_seq=42 ttl=56 time=179 ms
64 bytes from 203-210-4-091.static.pccw-hkt.com (203.210.4.91): icmp_seq=42 ttl=56 time=179 ms
64 bytes from 203-210-4-091.static.pccw-hkt.com (203.210.4.91): icmp_seq=42 ttl=56 time=180 ms
64 bytes from 203-210-4-091.static.pccw-hkt.com (203.210.4.91): icmp_seq=42 ttl=56 time=180 ms
64 bytes from 203-210-4-091.static.pccw-hkt.com (203.210.4.91): icmp_seq=42 ttl=56 time=179 ms
64 bytes from 203-210-4-091.static.pccw-hkt.com (203.210.4.91): icmp_seq=42 ttl=56 time=180 ms
64 bytes from 203-210-4-091.static.pccw-hkt.com (203.210.4.91): icmp_seq=42 ttl=56 time=180 ms
64 bytes from 203-210-4-091.static.pccw-hkt.com (203.210.4.91): icmp_seq=42 ttl=56 time=180 ms
64 bytes from 203-210-4-091.static.pccw-hkt.com (203.210.4.91): icmp_seq=42 ttl=56 time=180 ms
64 bytes from 203-210-4-091.static.pccw-hkt.com (203.210.4.91): icmp_seq=42 ttl=56 time=180 ms
64 bytes from 203-210-4-091.static.pccw-hkt.com (203.210.4.91): icmp_seq=42 ttl=56 time=180 ms
64 bytes from 203-210-4-091.static.pccw-hkt.com (203.210.4.91): icmp_seq=42 ttl=56 time=180 ms
64 bytes from 203-210-4-091.static.pccw-hkt.com (203.210.4.91): icmp_seq=42 ttl=56 time=180 ms
64 bytes from 203-210-4-091.static.pccw-hkt.com (203.210.4.91): icmp_seq=42 ttl=56 time=179 ms
64 bytes from 203-210-4-091.static.pccw-hkt.com (203.210.4.91): icmp_seq=42 ttl=56 time=178 ms
64 bytes from 203-210-4-091.static.pccw-hkt.com (203.210.4.91): icmp_seq=42 ttl=56 time=177 ms
64 bytes from 203-210-4-091.static.pccw-hkt.com (203.210.4.91): icmp_seq=42 ttl=56 time=177 ms
64 bytes from 203-210-4-091.static.pccw-hkt.com (203.210.4.91): icmp_seq=43 ttl=56 time=178 ms
64 bytes from 203-210-4-091.static.pccw-hkt.com (203.210.4.91): icmp_seq=43 ttl=56 time=178 ms
64 bytes from 203-210-4-091.static.pccw-hkt.com (203.210.4.91): icmp_seq=43 ttl=56 time=180 ms
64 bytes from 203-210-4-091.static.pccw-hkt.com (203.210.4.91): icmp_seq=43 ttl=56 time=180 ms
64 bytes from 203-210-4-091.static.pccw-hkt.com (203.210.4.91): icmp_seq=43 ttl=56 time=180 ms
64 bytes from 203-210-4-091.static.pccw-hkt.com (203.210.4.91): icmp_seq=43 ttl=56 time=180 ms
64 bytes from 203-210-4-091.static.pccw-hkt.com (203.210.4.91): icmp_seq=43 ttl=56 time=180 ms
64 bytes from 203-210-4-091.static.pccw-hkt.com (203.210.4.91): icmp_seq=43 ttl=56 time=180 ms
64 bytes from 203-210-4-091.static.pccw-hkt.com (203.210.4.91): icmp_seq=43 ttl=56 time=180 ms
64 bytes from 203-210-4-091.static.pccw-hkt.com (203.210.4.91): icmp_seq=43 ttl=56 time=180 ms
64 bytes from 203-210-4-091.static.pccw-hkt.com (203.210.4.91): icmp_seq=43 ttl=56 time=180 ms
64 bytes from 203-210-4-091.static.pccw-hkt.com (203.210.4.91): icmp_seq=43 ttl=56 time=180 ms
64 bytes from 203-210-4-091.static.pccw-hkt.com (203.210.4.91): icmp_seq=43 ttl=56 time=180 ms
64 bytes from 203-210-4-091.static.pccw-hkt.com (203.210.4.91): icmp_seq=43 ttl=56 time=180 ms
64 bytes from 203-210-4-091.static.pccw-hkt.com (203.210.4.91): icmp_seq=43 ttl=56 time=180 ms
64 bytes from 203-210-4-091.static.pccw-hkt.com (203.210.4.91): icmp_seq=43 ttl=56 time=180 ms
64 bytes from 203-210-4-091.static.pccw-hkt.com (203.210.4.91): icmp_seq=43 ttl=56 time=180 ms
64 bytes from 203-210-4-091.static.pccw-hkt.com (203.210.4.91): icmp_seq=43 ttl=56 time=177 ms
64 bytes from 203-210-4-091.static.pccw-hkt.com (203.210.4.91): icmp_seq=43 ttl=56 time=177 ms
64 bytes from 203-210-4-091.static.pccw-hkt.com (203.210.4.91): icmp_seq=43 ttl=56 time=178 ms
64 bytes from 203-210-4-091.static.pccw-hkt.com (203.210.4.91): icmp_seq=44 ttl=56 time=217 ms
64 bytes from 203-210-4-091.static.pccw-hkt.com (203.210.4.91): icmp_seq=44 ttl=56 time=217 ms
64 bytes from 203-210-4-091.static.pccw-hkt.com (203.210.4.91): icmp_seq=44 ttl=56 time=221 ms
64 bytes from 203-210-4-091.static.pccw-hkt.com (203.210.4.91): icmp_seq=44 ttl=56 time=221 ms
64 bytes from 203-210-4-091.static.pccw-hkt.com (203.210.4.91): icmp_seq=44 ttl=56 time=222 ms
64 bytes from 203-210-4-091.static.pccw-hkt.com (203.210.4.91): icmp_seq=44 ttl=56 time=222 ms
64 bytes from 203-210-4-091.static.pccw-hkt.com (203.210.4.91): icmp_seq=44 ttl=56 time=222 ms
64 bytes from 203-210-4-091.static.pccw-hkt.com (203.210.4.91): icmp_seq=44 ttl=56 time=222 ms
64 bytes from 203-210-4-091.static.pccw-hkt.com (203.210.4.91): icmp_seq=44 ttl=56 time=222 ms
64 bytes from 203-210-4-091.static.pccw-hkt.com (203.210.4.91): icmp_seq=44 ttl=56 time=222 ms
64 bytes from 203-210-4-091.static.pccw-hkt.com (203.210.4.91): icmp_seq=44 ttl=56 time=222 ms
64 bytes from 203-210-4-091.static.pccw-hkt.com (203.210.4.91): icmp_seq=44 ttl=56 time=222 ms
64 bytes from 203-210-4-091.static.pccw-hkt.com (203.210.4.91): icmp_seq=44 ttl=56 time=224 ms
64 bytes from 203-210-4-091.static.pccw-hkt.com (203.210.4.91): icmp_seq=44 ttl=56 time=224 ms
64 bytes from 203-210-4-091.static.pccw-hkt.com (203.210.4.91): icmp_seq=44 ttl=56 time=224 ms
64 bytes from 203-210-4-091.static.pccw-hkt.com (203.210.4.91): icmp_seq=44 ttl=56 time=224 ms
64 bytes from 203-210-4-091.static.pccw-hkt.com (203.210.4.91): icmp_seq=44 ttl=56 time=224 ms
64 bytes from 203-210-4-091.static.pccw-hkt.com (203.210.4.91): icmp_seq=44 ttl=56 time=221 ms
64 bytes from 203-210-4-091.static.pccw-hkt.com (203.210.4.91): icmp_seq=44 ttl=56 time=221 ms
64 bytes from 203-210-4-091.static.pccw-hkt.com (203.210.4.91): icmp_seq=44 ttl=56 time=220 ms
64 bytes from 203-210-4-091.static.pccw-hkt.com (203.210.4.91): icmp_seq=45 ttl=56 time=240 ms
64 bytes from 203-210-4-091.static.pccw-hkt.com (203.210.4.91): icmp_seq=45 ttl=56 time=240 ms
64 bytes from 203-210-4-091.static.pccw-hkt.com (203.210.4.91): icmp_seq=45 ttl=56 time=240 ms
64 bytes from 203-210-4-091.static.pccw-hkt.com (203.210.4.91): icmp_seq=45 ttl=56 time=240 ms
64 bytes from 203-210-4-091.static.pccw-hkt.com (203.210.4.91): icmp_seq=45 ttl=56 time=241 ms
64 bytes from 203-210-4-091.static.pccw-hkt.com (203.210.4.91): icmp_seq=45 ttl=56 time=241 ms
64 bytes from 203-210-4-091.static.pccw-hkt.com (203.210.4.91): icmp_seq=45 ttl=56 time=242 ms
64 bytes from 203-210-4-091.static.pccw-hkt.com (203.210.4.91): icmp_seq=45 ttl=56 time=242 ms
64 bytes from 203-210-4-091.static.pccw-hkt.com (203.210.4.91): icmp_seq=45 ttl=56 time=242 ms
64 bytes from 203-210-4-091.static.pccw-hkt.com (203.210.4.91): icmp_seq=45 ttl=56 time=242 ms
64 bytes from 203-210-4-091.static.pccw-hkt.com (203.210.4.91): icmp_seq=45 ttl=56 time=242 ms
64 bytes from 203-210-4-091.static.pccw-hkt.com (203.210.4.91): icmp_seq=45 ttl=56 time=242 ms
64 bytes from 203-210-4-091.static.pccw-hkt.com (203.210.4.91): icmp_seq=45 ttl=56 time=242 ms
64 bytes from 203-210-4-091.static.pccw-hkt.com (203.210.4.91): icmp_seq=45 ttl=56 time=242 ms
64 bytes from 203-210-4-091.static.pccw-hkt.com (203.210.4.91): icmp_seq=45 ttl=56 time=243 ms
64 bytes from 203-210-4-091.static.pccw-hkt.com (203.210.4.91): icmp_seq=45 ttl=56 time=243 ms
64 bytes from 203-210-4-091.static.pccw-hkt.com (203.210.4.91): icmp_seq=45 ttl=56 time=243 ms
64 bytes from 203-210-4-091.static.pccw-hkt.com (203.210.4.91): icmp_seq=45 ttl=56 time=243 ms
64 bytes from 203-210-4-091.static.pccw-hkt.com (203.210.4.91): icmp_seq=45 ttl=56 time=243 ms
64 bytes from 203-210-4-091.static.pccw-hkt.com (203.210.4.91): icmp_seq=45 ttl=56 time=243 ms
64 bytes from 203-210-4-091.static.pccw-hkt.com (203.210.4.91): icmp_seq=46 ttl=56 time=198 ms
64 bytes from 203-210-4-091.static.pccw-hkt.com (203.210.4.91): icmp_seq=46 ttl=56 time=198 ms
64 bytes from 203-210-4-091.static.pccw-hkt.com (203.210.4.91): icmp_seq=46 ttl=56 time=198 ms
64 bytes from 203-210-4-091.static.pccw-hkt.com (203.210.4.91): icmp_seq=46 ttl=56 time=198 ms
64 bytes from 203-210-4-091.static.pccw-hkt.com (203.210.4.91): icmp_seq=46 ttl=56 time=198 ms
64 bytes from 203-210-4-091.static.pccw-hkt.com (203.210.4.91): icmp_seq=46 ttl=56 time=198 ms
64 bytes from 203-210-4-091.static.pccw-hkt.com (203.210.4.91): icmp_seq=46 ttl=56 time=198 ms
64 bytes from 203-210-4-091.static.pccw-hkt.com (203.210.4.91): icmp_seq=46 ttl=56 time=198 ms
64 bytes from 203-210-4-091.static.pccw-hkt.com (203.210.4.91): icmp_seq=46 ttl=56 time=198 ms
64 bytes from 203-210-4-091.static.pccw-hkt.com (203.210.4.91): icmp_seq=46 ttl=56 time=198 ms
64 bytes from 203-210-4-091.static.pccw-hkt.com (203.210.4.91): icmp_seq=46 ttl=56 time=198 ms
64 bytes from 203-210-4-091.static.pccw-hkt.com (203.210.4.91): icmp_seq=46 ttl=56 time=198 ms
64 bytes from 203-210-4-091.static.pccw-hkt.com (203.210.4.91): icmp_seq=46 ttl=56 time=198 ms
64 bytes from 203-210-4-091.static.pccw-hkt.com (203.210.4.91): icmp_seq=46 ttl=56 time=199 ms
64 bytes from 203-210-4-091.static.pccw-hkt.com (203.210.4.91): icmp_seq=46 ttl=56 time=199 ms
64 bytes from 203-210-4-091.static.pccw-hkt.com (203.210.4.91): icmp_seq=46 ttl=56 time=199 ms
64 bytes from 203-210-4-091.static.pccw-hkt.com (203.210.4.91): icmp_seq=46 ttl=56 time=199 ms
64 bytes from 203-210-4-091.static.pccw-hkt.com (203.210.4.91): icmp_seq=46 ttl=56 time=199 ms
64 bytes from 203-210-4-091.static.pccw-hkt.com (203.210.4.91): icmp_seq=46 ttl=56 time=199 ms
64 bytes from 203-210-4-091.static.pccw-hkt.com (203.210.4.91): icmp_seq=46 ttl=56 time=199 ms
64 bytes from 203-210-4-091.static.pccw-hkt.com (203.210.4.91): icmp_seq=47 ttl=56 time=196 ms
64 bytes from 203-210-4-091.static.pccw-hkt.com (203.210.4.91): icmp_seq=47 ttl=56 time=196 ms
64 bytes from 203-210-4-091.static.pccw-hkt.com (203.210.4.91): icmp_seq=47 ttl=56 time=196 ms
64 bytes from 203-210-4-091.static.pccw-hkt.com (203.210.4.91): icmp_seq=47 ttl=56 time=196 ms
64 bytes from 203-210-4-091.static.pccw-hkt.com (203.210.4.91): icmp_seq=47 ttl=56 time=196 ms
64 bytes from 203-210-4-091.static.pccw-hkt.com (203.210.4.91): icmp_seq=47 ttl=56 time=196 ms
64 bytes from 203-210-4-091.static.pccw-hkt.com (203.210.4.91): icmp_seq=47 ttl=56 time=196 ms
64 bytes from 203-210-4-091.static.pccw-hkt.com (203.210.4.91): icmp_seq=47 ttl=56 time=196 ms
64 bytes from 203-210-4-091.static.pccw-hkt.com (203.210.4.91): icmp_seq=47 ttl=56 time=197 ms
64 bytes from 203-210-4-091.static.pccw-hkt.com (203.210.4.91): icmp_seq=47 ttl=56 time=197 ms
64 bytes from 203-210-4-091.static.pccw-hkt.com (203.210.4.91): icmp_seq=47 ttl=56 time=197 ms
64 bytes from 203-210-4-091.static.pccw-hkt.com (203.210.4.91): icmp_seq=47 ttl=56 time=198 ms
64 bytes from 203-210-4-091.static.pccw-hkt.com (203.210.4.91): icmp_seq=47 ttl=56 time=198 ms
64 bytes from 203-210-4-091.static.pccw-hkt.com (203.210.4.91): icmp_seq=47 ttl=56 time=198 ms
64 bytes from 203-210-4-091.static.pccw-hkt.com (203.210.4.91): icmp_seq=47 ttl=56 time=198 ms
64 bytes from 203-210-4-091.static.pccw-hkt.com (203.210.4.91): icmp_seq=47 ttl=56 time=198 ms
64 bytes from 203-210-4-091.static.pccw-hkt.com (203.210.4.91): icmp_seq=47 ttl=56 time=198 ms
64 bytes from 203-210-4-091.static.pccw-hkt.com (203.210.4.91): icmp_seq=47 ttl=56 time=198 ms
64 bytes from 203-210-4-091.static.pccw-hkt.com (203.210.4.91): icmp_seq=47 ttl=56 time=198 ms
64 bytes from 203-210-4-091.static.pccw-hkt.com (203.210.4.91): icmp_seq=47 ttl=56 time=197 ms
64 bytes from 203-210-4-091.static.pccw-hkt.com (203.210.4.91): icmp_seq=48 ttl=56 time=198 ms
64 bytes from 203-210-4-091.static.pccw-hkt.com (203.210.4.91): icmp_seq=48 ttl=56 time=200 ms
64 bytes from 203-210-4-091.static.pccw-hkt.com (203.210.4.91): icmp_seq=48 ttl=56 time=200 ms
64 bytes from 203-210-4-091.static.pccw-hkt.com (203.210.4.91): icmp_seq=48 ttl=56 time=200 ms
64 bytes from 203-210-4-091.static.pccw-hkt.com (203.210.4.91): icmp_seq=48 ttl=56 time=203 ms
64 bytes from 203-210-4-091.static.pccw-hkt.com (203.210.4.91): icmp_seq=48 ttl=56 time=202 ms
64 bytes from 203-210-4-091.static.pccw-hkt.com (203.210.4.91): icmp_seq=48 ttl=56 time=202 ms
64 bytes from 203-210-4-091.static.pccw-hkt.com (203.210.4.91): icmp_seq=48 ttl=56 time=202 ms
64 bytes from 203-210-4-091.static.pccw-hkt.com (203.210.4.91): icmp_seq=48 ttl=56 time=202 ms
64 bytes from 203-210-4-091.static.pccw-hkt.com (203.210.4.91): icmp_seq=48 ttl=56 time=202 ms
64 bytes from 203-210-4-091.static.pccw-hkt.com (203.210.4.91): icmp_seq=48 ttl=56 time=202 ms
64 bytes from 203-210-4-091.static.pccw-hkt.com (203.210.4.91): icmp_seq=48 ttl=56 time=202 ms
64 bytes from 203-210-4-091.static.pccw-hkt.com (203.210.4.91): icmp_seq=48 ttl=56 time=202 ms
64 bytes from 203-210-4-091.static.pccw-hkt.com (203.210.4.91): icmp_seq=48 ttl=56 time=202 ms
64 bytes from 203-210-4-091.static.pccw-hkt.com (203.210.4.91): icmp_seq=48 ttl=56 time=202 ms
64 bytes from 203-210-4-091.static.pccw-hkt.com (203.210.4.91): icmp_seq=48 ttl=56 time=202 ms
64 bytes from 203-210-4-091.static.pccw-hkt.com (203.210.4.91): icmp_seq=48 ttl=56 time=202 ms
64 bytes from 203-210-4-091.static.pccw-hkt.com (203.210.4.91): icmp_seq=48 ttl=56 time=202 ms
64 bytes from 203-210-4-091.static.pccw-hkt.com (203.210.4.91): icmp_seq=48 ttl=56 time=202 ms
64 bytes from 203-210-4-091.static.pccw-hkt.com (203.210.4.91): icmp_seq=48 ttl=56 time=201 ms
64 bytes from 203-210-4-091.static.pccw-hkt.com (203.210.4.91): icmp_seq=49 ttl=56 time=196 ms
64 bytes from 203-210-4-091.static.pccw-hkt.com (203.210.4.91): icmp_seq=49 ttl=56 time=196 ms
64 bytes from 203-210-4-091.static.pccw-hkt.com (203.210.4.91): icmp_seq=49 ttl=56 time=196 ms
64 bytes from 203-210-4-091.static.pccw-hkt.com (203.210.4.91): icmp_seq=49 ttl=56 time=196 ms
64 bytes from 203-210-4-091.static.pccw-hkt.com (203.210.4.91): icmp_seq=49 ttl=56 time=198 ms
64 bytes from 203-210-4-091.static.pccw-hkt.com (203.210.4.91): icmp_seq=49 ttl=56 time=198 ms
64 bytes from 203-210-4-091.static.pccw-hkt.com (203.210.4.91): icmp_seq=49 ttl=56 time=198 ms
64 bytes from 203-210-4-091.static.pccw-hkt.com (203.210.4.91): icmp_seq=49 ttl=56 time=198 ms
64 bytes from 203-210-4-091.static.pccw-hkt.com (203.210.4.91): icmp_seq=49 ttl=56 time=200 ms
64 bytes from 203-210-4-091.static.pccw-hkt.com (203.210.4.91): icmp_seq=49 ttl=56 time=200 ms
64 bytes from 203-210-4-091.static.pccw-hkt.com (203.210.4.91): icmp_seq=49 ttl=56 time=200 ms
64 bytes from 203-210-4-091.static.pccw-hkt.com (203.210.4.91): icmp_seq=49 ttl=56 time=200 ms
64 bytes from 203-210-4-091.static.pccw-hkt.com (203.210.4.91): icmp_seq=49 ttl=56 time=200 ms
64 bytes from 203-210-4-091.static.pccw-hkt.com (203.210.4.91): icmp_seq=49 ttl=56 time=200 ms
64 bytes from 203-210-4-091.static.pccw-hkt.com (203.210.4.91): icmp_seq=49 ttl=56 time=200 ms
64 bytes from 203-210-4-091.static.pccw-hkt.com (203.210.4.91): icmp_seq=49 ttl=56 time=200 ms
64 bytes from 203-210-4-091.static.pccw-hkt.com (203.210.4.91): icmp_seq=49 ttl=56 time=200 ms
64 bytes from 203-210-4-091.static.pccw-hkt.com (203.210.4.91): icmp_seq=49 ttl=56 time=200 ms
64 bytes from 203-210-4-091.static.pccw-hkt.com (203.210.4.91): icmp_seq=49 ttl=56 time=200 ms
64 bytes from 203-210-4-091.static.pccw-hkt.com (203.210.4.91): icmp_seq=49 ttl=56 time=200 ms
64 bytes from 203-210-4-091.static.pccw-hkt.com (203.210.4.91): icmp_seq=50 ttl=56 time=193 ms
64 bytes from 203-210-4-091.static.pccw-hkt.com (203.210.4.91): icmp_seq=50 ttl=56 time=193 ms

--- csl2.hkspeedtest.com ping statistics ---
50 packets transmitted, 50 received, 0% packet loss, time 49221ms
rtt min/avg/max/mdev = 177.558/199.139/367.566/26.923 ms

--- csl2.hkspeedtest.com ping statistics ---
50 packets transmitted, 50 received, 0% packet loss, time 49221ms
rtt min/avg/max/mdev = 179.011/199.186/367.587/27.074 ms
64 bytes from 203-210-4-091.static.pccw-hkt.com (203.210.4.91): icmp_seq=50 ttl=56 time=193 ms

--- csl2.hkspeedtest.com ping statistics ---
50 packets transmitted, 50 received, 0% packet loss, time 49221ms
rtt min/avg/max/mdev = 179.845/198.824/365.636/26.697 ms
64 bytes from 203-210-4-091.static.pccw-hkt.com (203.210.4.91): icmp_seq=50 ttl=56 time=193 ms

--- csl2.hkspeedtest.com ping statistics ---
50 packets transmitted, 50 received, 0% packet loss, time 49221ms
rtt min/avg/max/mdev = 179.406/199.231/367.806/27.015 ms
64 bytes from 203-210-4-091.static.pccw-hkt.com (203.210.4.91): icmp_seq=50 ttl=56 time=193 ms

--- csl2.hkspeedtest.com ping statistics ---
50 packets transmitted, 50 received, 0% packet loss, time 49222ms
rtt min/avg/max/mdev = 179.695/199.113/365.555/26.591 ms
64 bytes from 203-210-4-091.static.pccw-hkt.com (203.210.4.91): icmp_seq=50 ttl=56 time=193 ms

--- csl2.hkspeedtest.com ping statistics ---
50 packets transmitted, 50 received, 0% packet loss, time 49222ms
rtt min/avg/max/mdev = 177.965/198.917/368.059/27.053 ms
64 bytes from 203-210-4-091.static.pccw-hkt.com (203.210.4.91): icmp_seq=50 ttl=56 time=194 ms

--- csl2.hkspeedtest.com ping statistics ---
50 packets transmitted, 50 received, 0% packet loss, time 49221ms
rtt min/avg/max/mdev = 178.739/198.917/367.965/26.929 ms
64 bytes from 203-210-4-091.static.pccw-hkt.com (203.210.4.91): icmp_seq=50 ttl=56 time=193 ms

--- csl2.hkspeedtest.com ping statistics ---
50 packets transmitted, 50 received, 0% packet loss, time 49222ms
rtt min/avg/max/mdev = 179.491/199.163/367.923/26.930 ms
64 bytes from 203-210-4-091.static.pccw-hkt.com (203.210.4.91): icmp_seq=50 ttl=56 time=193 ms

--- csl2.hkspeedtest.com ping statistics ---
50 packets transmitted, 50 received, 0% packet loss, time 49221ms
rtt min/avg/max/mdev = 179.674/199.137/367.723/26.870 ms
64 bytes from 203-210-4-091.static.pccw-hkt.com (203.210.4.91): icmp_seq=50 ttl=56 time=194 ms

--- csl2.hkspeedtest.com ping statistics ---
50 packets transmitted, 50 received, 0% packet loss, time 49221ms
rtt min/avg/max/mdev = 177.841/198.671/367.721/27.178 ms
64 bytes from 203-210-4-091.static.pccw-hkt.com (203.210.4.91): icmp_seq=50 ttl=56 time=193 ms
64 bytes from 203-210-4-091.static.pccw-hkt.com (203.210.4.91): icmp_seq=50 ttl=56 time=194 ms


--- csl2.hkspeedtest.com ping statistics ---
50 packets transmitted, 50 received, 0% packet loss, time 49222ms
rtt min/avg/max/mdev = 179.718/198.752/365.478/26.556 ms
--- csl2.hkspeedtest.com ping statistics ---
50 packets transmitted, 50 received, 0% packet loss, time 49221ms
rtt min/avg/max/mdev = 179.038/199.372/368.043/27.028 ms
64 bytes from 203-210-4-091.static.pccw-hkt.com (203.210.4.91): icmp_seq=50 ttl=56 time=193 ms

--- csl2.hkspeedtest.com ping statistics ---
50 packets transmitted, 50 received, 0% packet loss, time 49221ms
rtt min/avg/max/mdev = 179.639/199.198/368.077/26.844 ms
64 bytes from 203-210-4-091.static.pccw-hkt.com (203.210.4.91): icmp_seq=50 ttl=56 time=194 ms

64 bytes from 203-210-4-091.static.pccw-hkt.com (203.210.4.91): icmp_seq=50 ttl=56 time=194 ms

--- csl2.hkspeedtest.com ping statistics ---
50 packets transmitted, 50 received, 0% packet loss, time 49222ms
rtt min/avg/max/mdev = 179.132/199.021/365.549/26.605 ms
--- csl2.hkspeedtest.com ping statistics ---
50 packets transmitted, 50 received, 0% packet loss, time 49222ms
rtt min/avg/max/mdev = 178.786/199.208/367.599/26.959 ms
64 bytes from 203-210-4-091.static.pccw-hkt.com (203.210.4.91): icmp_seq=50 ttl=56 time=194 ms

64 bytes from 203-210-4-091.static.pccw-hkt.com (203.210.4.91): icmp_seq=50 ttl=56 time=194 ms
64 bytes from 203-210-4-091.static.pccw-hkt.com (203.210.4.91): icmp_seq=50 ttl=56 time=194 ms

--- csl2.hkspeedtest.com ping statistics ---
50 packets transmitted, 50 received, 0% packet loss, time 49221ms
rtt min/avg/max/mdev = 178.793/198.743/365.440/26.603 ms

--- csl2.hkspeedtest.com ping statistics ---
50 packets transmitted, 50 received, 0% packet loss, time 49222ms
rtt min/avg/max/mdev = 177.863/198.661/368.099/26.945 ms
--- csl2.hkspeedtest.com ping statistics ---
50 packets transmitted, 50 received, 0% packet loss, time 49221ms
rtt min/avg/max/mdev = 179.236/198.976/367.929/26.970 ms
64 bytes from 203-210-4-091.static.pccw-hkt.com (203.210.4.91): icmp_seq=50 ttl=56 time=194 ms

64 bytes from 203-210-4-091.static.pccw-hkt.com (203.210.4.91): icmp_seq=50 ttl=56 time=194 ms
--- csl2.hkspeedtest.com ping statistics ---
50 packets transmitted, 50 received, 0% packet loss, time 49222ms
rtt min/avg/max/mdev = 177.773/198.674/367.703/27.070 ms

--- csl2.hkspeedtest.com ping statistics ---
50 packets transmitted, 50 received, 0% packet loss, time 49222ms
rtt min/avg/max/mdev = 177.895/198.766/367.693/27.103 ms
