     1	 95.3 
     2	 97.5 
     3	 67.1 
     4	 12.7 
     5	  6.8 
     6	  6.8 
     7	 41.6 
     8	 88.2 
     9	 95.2 
    10	 88.7 
    11	 94.8 
    12	 87.2 
    13	 89.7 
    14	 84.8 
    15	 89.5 
    16	 90.6 
    17	 71.2 
    18	 82.8 
    19	 64.1 
    20	 79.3 
    21	 73.5 
    22	 73.8 
    23	 82.6 
    24	 79.9 
    25	 83.2 
    26	 55.6 
    27	 10.0 
    28	  6.1 
    29	 11.9 
    30	 14.6 
    31	  5.1 
    32	  1.7 
    33	  1.7 
    34	  1.3 
    35	 50.2 
    36	 89.6 
    37	 80.1 
    38	 79.4 
    39	 83.7 
    40	 84.5 
    41	 89.5 
    42	 87.9 
    43	 82.3 
    44	 83.4 
    45	 63.1 
    46	 57.3 
    47	 62.1 
    48	 80.0 
    49	 71.7 
    50	 75.0 
    51	 56.7 
    52	 73.1 
    53	 56.8 
    54	 86.9 
    55	 85.5 
    56	 59.8 
    57	 74.2 
    58	 90.9 
    59	 88.0 
    60	 89.6 
    61	 82.6 
    62	 91.1 
    63	 88.4 
    64	 91.7 
    65	 92.2 
    66	 92.9 
    67	 93.1 
    68	 92.0 
    69	 92.4 
    70	 92.9 
    71	 92.0 
