     1	.9 
     2	.0 
     3	.1 
     4	.2 
     5	.9 
     6	.3 
     7	.1 
     8	.4 
     9	.5 
    10	.8 
    11	.5 
    12	.3 
    13	.1 
    14	.3 
    15	.3 
    16	.4 
    17	.6 
    18	.4 
    19	.6 
    20	.6 
    21	.3 
    22	.5 
    23	.3 
    24	.5 
    25	.4 
    26	.1 
    27	.4 
    28	.3 
    29	.5 
    30	.4 
    31	.1 
    32	.1 
    33	.4 
    34	.6 
    35	.6 
    36	.6 
    37	.3 
    38	.5 
    39	.3 
    40	.1 
    41	.3 
    42	.6 
    43	.5 
    44	.5 
    45	.3 
    46	.1 
    47	.5 
    48	.6 
    49	.4 
    50	.8 
    51	.6 
    52	.6 
    53	.4 
    54	.4 
    55	.4 
    56	.8 
    57	.5 
    58	.6 
    59	.5 
    60	.5 
    61	.4 
    62	.4 
    63	.4 
    64	.5 
    65	.3 
    66	.4 
    67	.6 
    68	.5 
    69	.6 
    70	.6 
    71	.4 
    72	.5 
    73	.5 
    74	.5 
    75	.4 
    76	.5 
    77	.3 
    78	.6 
    79	.4 
    80	.5 
    81	.5 
    82	.3 
    83	.6 
    84	.5 
    85	.5 
    86	.5 
    87	.5 
    88	.5 
    89	.8 
    90	.1 
    91	.0 
    92	.3 
    93	.5 
    94	.5 
    95	.4 
    96	.4 
    97	.4 
    98	.6 
    99	.1 
   100	.5 
   101	.6 
   102	.0 
   103	.0 
   104	.7 
   105	.9 
   106	.0 
   107	.6 
   108	.0 
   109	.3 
   110	.4 
   111	.3 
   112	.3 
