     1	1379124 
     2	1379124 
     3	1379124 
     4	1552320 
     5	1552320 
     6	1552320 
     7	2938780 
     8	2938780 
     9	2938780 
    10	5232312 
    11	5232312 
    12	5232312 
    13	5501304 
    14	5501304 
    15	5501304 
    16	5625920 
    17	5625920 
    18	5625920 
    19	5515216 
    20	5515216 
    21	5515216 
    22	5630692 
    23	5630692 
    24	5630692 
    25	5452740 
    26	5452740 
    27	5452740 
    28	5536172 
    29	5536172 
    30	5536172 
    31	5285640 
    32	5285640 
    33	5285640 
    34	4652888 
    35	4652888 
    36	4652888 
    37	3649948 
    38	3649948 
    39	3122852 
    40	3122852 
    41	3122852 
    42	2590952 
    43	2590952 
    44	2590952 
    45	1965480 
    46	1965480 
    47	1965480 
    48	1529036 
    49	1529036 
    50	1529036 
    51	1689240 
    52	1689240 
    53	1689240 
    54	2112428 
    55	2112428 
    56	2112428 
    57	3013804 
    58	3013804 
    59	3013804 
    60	4555972 
    61	4555972 
    62	5552344 
    63	5552344 
    64	5552344 
    65	5627560 
    66	5627560 
    67	5627560 
    68	5417396 
    69	5417396 
    70	5417396 
    71	5612008 
    72	5612008 
    73	5612008 
    74	5662060 
    75	5662060 
    76	5662060 
    77	5633912 
    78	5633912 
    79	5633912 
    80	5291560 
    81	5291560 
    82	5291560 
    83	4746672 
    84	4746672 
    85	4746672 
    86	4175244 
    87	4175244 
    88	4175244 
    89	3577136 
    90	3577136 
    91	3577136 
    92	3148388 
    93	3148388 
    94	3148388 
    95	2799124 
    96	2799124 
    97	2799124 
    98	2425876 
    99	2425876 
   100	2425876 
   101	2165520 
   102	2165520 
   103	2022152 
   104	2022152 
   105	2022152 
   106	1823300 
   107	1823300 
   108	1823300 
   109	1620752 
   110	1620752 
   111	1620752 
   112	1468864 
   113	1468864 
   114	1468864 
   115	1456080 
