     1	289 
     2	290 
     3	290 
     4	335 
     5	435 
     6	522 
     7	555 
     8	540 
     9	531 
    10	520 
    11	512 
    12	504 
    13	495 
    14	483 
    15	476 
    16	468 
    17	460 
    18	446 
    19	429 
    20	410 
    21	402 
    22	390 
    23	370 
    24	363 
    25	350 
    26	340 
    27	355 
    28	401 
    29	450 
    30	481 
    31	558 
    32	644 
    33	676 
    34	690 
    35	687 
    36	677 
    37	664 
    38	642 
    39	628 
    40	608 
    41	592 
    42	579 
    43	573 
    44	555 
    45	535 
    46	519 
    47	496 
    48	482 
    49	460 
    50	437 
    51	418 
    52	406 
    53	389 
    54	373 
    55	362 
    56	352 
    57	343 
    58	333 
    59	328 
    60	321 
    61	316 
    62	310 
    63	307 
    64	300 
    65	296 
