top - 13:56:26 up 31 min,  1 user,  load average: 0.10, 0.49, 1.10
Tasks: 287 total,   1 running, 226 sleeping,   0 stopped,   0 zombie
%Cpu(s):  3.3 us,  1.9 sy,  0.0 ni, 94.7 id,  0.1 wa,  0.0 hi,  0.0 si,  0.0 st
KiB Mem : 16278772 total, 13745252 free,  1318140 used,  1215380 buff/cache
KiB Swap: 16630780 total, 16630780 free,        0 used. 14529752 avail Mem 

  PID USER      PR  NI    VIRT    RES    SHR S  %CPU %MEM     TIME+ COMMAND
29675 kenenth   20   0   41936   3672   3072 R  18.8  0.0   0:00.03 top
 2178 root      20   0  432832  93060  61656 S   6.2  0.6   0:11.08 Xorg
 2179 root     -51   0       0      0      0 S   6.2  0.0   0:01.15 irq/142-nv+

top - 13:56:27 up 31 min,  1 user,  load average: 0.10, 0.49, 1.10
Tasks: 287 total,   2 running, 225 sleeping,   0 stopped,   0 zombie
%Cpu(s):  0.2 us,  0.2 sy,  0.0 ni, 99.5 id,  0.0 wa,  0.0 hi,  0.0 si,  0.0 st
KiB Mem : 16278772 total, 13745252 free,  1318140 used,  1215380 buff/cache
KiB Swap: 16630780 total, 16630780 free,        0 used. 14529752 avail Mem 

  PID USER      PR  NI    VIRT    RES    SHR S  %CPU %MEM     TIME+ COMMAND
  920 avahi     20   0   48216   4760   3308 S   2.0  0.0   0:03.14 avahi-daem+
 2178 root      20   0  432832  93060  61656 S   1.0  0.6   0:11.09 Xorg
 2390 kenenth   20   0 3532476 235932  90960 R   1.0  1.4   0:25.88 gnome-shell
 2800 kenenth   20   0  792648  36620  27432 S   1.0  0.2   0:00.98 gnome-term+
29675 kenenth   20   0   41904   3804   3072 R   1.0  0.0   0:00.04 top

top - 13:56:28 up 31 min,  1 user,  load average: 0.10, 0.49, 1.10
Tasks: 287 total,   1 running, 226 sleeping,   0 stopped,   0 zombie
%Cpu(s):  0.1 us,  0.1 sy,  0.0 ni, 99.8 id,  0.0 wa,  0.0 hi,  0.0 si,  0.0 st
KiB Mem : 16278772 total, 13745252 free,  1318140 used,  1215380 buff/cache
KiB Swap: 16630780 total, 16630780 free,        0 used. 14529752 avail Mem 

  PID USER      PR  NI    VIRT    RES    SHR S  %CPU %MEM     TIME+ COMMAND
    8 root      20   0       0      0      0 I   1.0  0.0   0:01.35 rcu_sched
29675 kenenth   20   0   41904   3804   3072 R   1.0  0.0   0:00.05 top

top - 13:56:29 up 31 min,  1 user,  load average: 0.10, 0.49, 1.10
Tasks: 287 total,   1 running, 226 sleeping,   0 stopped,   0 zombie
%Cpu(s):  0.1 us,  0.6 sy,  0.0 ni, 99.3 id,  0.0 wa,  0.0 hi,  0.0 si,  0.0 st
KiB Mem : 16278772 total, 13744768 free,  1318748 used,  1215256 buff/cache
KiB Swap: 16630780 total, 16630780 free,        0 used. 14529296 avail Mem 

  PID USER      PR  NI    VIRT    RES    SHR S  %CPU %MEM     TIME+ COMMAND
29675 kenenth   20   0   41904   3804   3072 R   2.0  0.0   0:00.07 top
 2178 root      20   0  432832  93060  61656 S   1.0  0.6   0:11.10 Xorg
 2390 kenenth   20   0 3532476 235932  90960 S   1.0  1.4   0:25.89 gnome-shell

top - 13:56:30 up 31 min,  1 user,  load average: 0.10, 0.49, 1.10
Tasks: 287 total,   1 running, 226 sleeping,   0 stopped,   0 zombie
%Cpu(s):  0.1 us,  0.2 sy,  0.0 ni, 99.6 id,  0.0 wa,  0.0 hi,  0.0 si,  0.0 st
KiB Mem : 16278772 total, 13744768 free,  1318748 used,  1215256 buff/cache
KiB Swap: 16630780 total, 16630780 free,        0 used. 14529296 avail Mem 

  PID USER      PR  NI    VIRT    RES    SHR S  %CPU %MEM     TIME+ COMMAND
 2179 root     -51   0       0      0      0 S   1.0  0.0   0:01.16 irq/142-nv+
 2390 kenenth   20   0 3532476 235932  90960 S   1.0  1.4   0:25.90 gnome-shell
29675 kenenth   20   0   41904   3804   3072 R   1.0  0.0   0:00.08 top

top - 13:56:31 up 31 min,  1 user,  load average: 0.09, 0.48, 1.09
Tasks: 287 total,   1 running, 226 sleeping,   0 stopped,   0 zombie
%Cpu(s):  0.1 us,  0.1 sy,  0.0 ni, 99.6 id,  0.0 wa,  0.0 hi,  0.1 si,  0.0 st
KiB Mem : 16278772 total, 13744768 free,  1318748 used,  1215256 buff/cache
KiB Swap: 16630780 total, 16630780 free,        0 used. 14529296 avail Mem 

  PID USER      PR  NI    VIRT    RES    SHR S  %CPU %MEM     TIME+ COMMAND
 2178 root      20   0  432832  93060  61656 S   1.0  0.6   0:11.11 Xorg
29675 kenenth   20   0   41904   3804   3072 R   1.0  0.0   0:00.09 top

top - 13:56:32 up 31 min,  1 user,  load average: 0.09, 0.48, 1.09
Tasks: 287 total,   1 running, 226 sleeping,   0 stopped,   0 zombie
%Cpu(s):  0.1 us,  0.2 sy,  0.0 ni, 99.6 id,  0.0 wa,  0.0 hi,  0.0 si,  0.0 st
KiB Mem : 16278772 total, 13744656 free,  1318852 used,  1215264 buff/cache
KiB Swap: 16630780 total, 16630780 free,        0 used. 14529184 avail Mem 

  PID USER      PR  NI    VIRT    RES    SHR S  %CPU %MEM     TIME+ COMMAND
 2178 root      20   0  432832  93060  61656 S   1.0  0.6   0:11.12 Xorg
 2390 kenenth   20   0 3532476 235932  90960 S   1.0  1.4   0:25.91 gnome-shell
29675 kenenth   20   0   41904   3804   3072 R   1.0  0.0   0:00.10 top

top - 13:56:33 up 32 min,  1 user,  load average: 0.09, 0.48, 1.09
Tasks: 287 total,   1 running, 226 sleeping,   0 stopped,   0 zombie
%Cpu(s):  0.1 us,  0.2 sy,  0.0 ni, 99.6 id,  0.0 wa,  0.0 hi,  0.0 si,  0.0 st
KiB Mem : 16278772 total, 13744656 free,  1318852 used,  1215264 buff/cache
KiB Swap: 16630780 total, 16630780 free,        0 used. 14529184 avail Mem 

  PID USER      PR  NI    VIRT    RES    SHR S  %CPU %MEM     TIME+ COMMAND
29675 kenenth   20   0   41904   3804   3072 R   2.0  0.0   0:00.12 top
 2390 kenenth   20   0 3532476 235932  90960 S   1.0  1.4   0:25.92 gnome-shell

top - 13:56:34 up 32 min,  1 user,  load average: 0.09, 0.48, 1.09
Tasks: 287 total,   1 running, 226 sleeping,   0 stopped,   0 zombie
%Cpu(s):  0.0 us,  0.2 sy,  0.0 ni, 99.8 id,  0.0 wa,  0.0 hi,  0.0 si,  0.0 st
KiB Mem : 16278772 total, 13744656 free,  1318852 used,  1215264 buff/cache
KiB Swap: 16630780 total, 16630780 free,        0 used. 14529184 avail Mem 

  PID USER      PR  NI    VIRT    RES    SHR S  %CPU %MEM     TIME+ COMMAND
  990 root      20   0 4987008  41216  25900 S   1.0  0.3   0:10.31 containerd
 2178 root      20   0  432832  93060  61656 S   1.0  0.6   0:11.13 Xorg
 2179 root     -51   0       0      0      0 S   1.0  0.0   0:01.17 irq/142-nv+
 2800 kenenth   20   0  792648  36620  27432 S   1.0  0.2   0:00.99 gnome-term+
29675 kenenth   20   0   41904   3804   3072 R   1.0  0.0   0:00.13 top

top - 13:56:35 up 32 min,  1 user,  load average: 0.09, 0.48, 1.09
Tasks: 287 total,   1 running, 226 sleeping,   0 stopped,   0 zombie
%Cpu(s):  0.2 us,  0.1 sy,  0.0 ni, 99.6 id,  0.0 wa,  0.0 hi,  0.0 si,  0.0 st
KiB Mem : 16278772 total, 13744728 free,  1318776 used,  1215268 buff/cache
KiB Swap: 16630780 total, 16630780 free,        0 used. 14529256 avail Mem 

  PID USER      PR  NI    VIRT    RES    SHR S  %CPU %MEM     TIME+ COMMAND
 2178 root      20   0  432832  93060  61656 S   1.0  0.6   0:11.14 Xorg
 2390 kenenth   20   0 3532476 235932  90960 S   1.0  1.4   0:25.93 gnome-shell
29675 kenenth   20   0   41904   3804   3072 R   1.0  0.0   0:00.14 top

top - 13:56:36 up 32 min,  1 user,  load average: 0.08, 0.47, 1.09
Tasks: 287 total,   1 running, 226 sleeping,   0 stopped,   0 zombie
%Cpu(s):  0.1 us,  0.2 sy,  0.0 ni, 99.5 id,  0.1 wa,  0.0 hi,  0.0 si,  0.0 st
KiB Mem : 16278772 total, 13744728 free,  1318776 used,  1215268 buff/cache
KiB Swap: 16630780 total, 16630780 free,        0 used. 14529256 avail Mem 

  PID USER      PR  NI    VIRT    RES    SHR S  %CPU %MEM     TIME+ COMMAND
29675 kenenth   20   0   41904   3804   3072 R   2.0  0.0   0:00.16 top
  937 root      20   0  269672   5864   5120 S   1.0  0.0   0:00.39 iio-sensor+
 1502 root      20   0 6019008 104460  38544 S   1.0  0.6   0:37.51 dockerd
 2178 root      20   0  432832  93060  61656 S   1.0  0.6   0:11.15 Xorg
 2390 kenenth   20   0 3532476 235932  90960 S   1.0  1.4   0:25.94 gnome-shell

top - 13:56:37 up 32 min,  1 user,  load average: 0.08, 0.47, 1.09
Tasks: 287 total,   1 running, 226 sleeping,   0 stopped,   0 zombie
%Cpu(s):  0.1 us,  0.1 sy,  0.0 ni, 99.8 id,  0.0 wa,  0.0 hi,  0.0 si,  0.0 st
KiB Mem : 16278772 total, 13744728 free,  1318776 used,  1215268 buff/cache
KiB Swap: 16630780 total, 16630780 free,        0 used. 14529256 avail Mem 

  PID USER      PR  NI    VIRT    RES    SHR S  %CPU %MEM     TIME+ COMMAND
  932 root      20   0  179856   9520   8716 S   1.0  0.1   0:01.57 thermald
 2390 kenenth   20   0 3532476 235932  90960 S   1.0  1.4   0:25.95 gnome-shell
29675 kenenth   20   0   41904   3804   3072 R   1.0  0.0   0:00.17 top

top - 13:56:38 up 32 min,  1 user,  load average: 0.08, 0.47, 1.09
Tasks: 287 total,   1 running, 226 sleeping,   0 stopped,   0 zombie
%Cpu(s):  0.4 us,  0.2 sy,  0.0 ni, 99.4 id,  0.0 wa,  0.0 hi,  0.0 si,  0.0 st
KiB Mem : 16278772 total, 13744656 free,  1318836 used,  1215280 buff/cache
KiB Swap: 16630780 total, 16630780 free,        0 used. 14529184 avail Mem 

  PID USER      PR  NI    VIRT    RES    SHR S  %CPU %MEM     TIME+ COMMAND
  906 root      20   0  491168  23300  13904 S   1.0  0.1   0:17.39 NetworkMan+
 2178 root      20   0  432832  93060  61656 S   1.0  0.6   0:11.16 Xorg
29675 kenenth   20   0   41904   3804   3072 R   1.0  0.0   0:00.18 top

top - 13:56:39 up 32 min,  1 user,  load average: 0.08, 0.47, 1.09
Tasks: 287 total,   1 running, 226 sleeping,   0 stopped,   0 zombie
%Cpu(s):  0.1 us,  0.2 sy,  0.0 ni, 99.6 id,  0.0 wa,  0.0 hi,  0.0 si,  0.0 st
KiB Mem : 16278772 total, 13744656 free,  1318836 used,  1215280 buff/cache
KiB Swap: 16630780 total, 16630780 free,        0 used. 14529184 avail Mem 

  PID USER      PR  NI    VIRT    RES    SHR S  %CPU %MEM     TIME+ COMMAND
29675 kenenth   20   0   41904   3804   3072 R   2.0  0.0   0:00.20 top
  907 root      20   0  110512   3472   3136 S   1.0  0.0   0:00.35 irqbalance
 2542 kenenth   20   0  661104  22940  17736 S   1.0  0.1   0:00.27 gsd-color

top - 13:56:40 up 32 min,  1 user,  load average: 0.08, 0.47, 1.09
Tasks: 287 total,   1 running, 226 sleeping,   0 stopped,   0 zombie
%Cpu(s):  0.0 us,  0.1 sy,  0.0 ni, 99.9 id,  0.0 wa,  0.0 hi,  0.0 si,  0.0 st
KiB Mem : 16278772 total, 13744656 free,  1318836 used,  1215280 buff/cache
KiB Swap: 16630780 total, 16630780 free,        0 used. 14529184 avail Mem 

  PID USER      PR  NI    VIRT    RES    SHR S  %CPU %MEM     TIME+ COMMAND

top - 13:56:41 up 32 min,  1 user,  load average: 0.08, 0.47, 1.08
Tasks: 287 total,   1 running, 226 sleeping,   0 stopped,   0 zombie
%Cpu(s):  0.0 us,  0.2 sy,  0.0 ni, 99.8 id,  0.0 wa,  0.0 hi,  0.0 si,  0.0 st
KiB Mem : 16278772 total, 13744664 free,  1318828 used,  1215280 buff/cache
KiB Swap: 16630780 total, 16630780 free,        0 used. 14529192 avail Mem 

  PID USER      PR  NI    VIRT    RES    SHR S  %CPU %MEM     TIME+ COMMAND
29675 kenenth   20   0   41904   3804   3072 R   2.0  0.0   0:00.22 top
  990 root      20   0 4987008  41216  25900 S   1.0  0.3   0:10.32 containerd
 2178 root      20   0  432832  93060  61656 S   1.0  0.6   0:11.17 Xorg

top - 13:56:42 up 32 min,  1 user,  load average: 0.08, 0.47, 1.08
Tasks: 287 total,   1 running, 226 sleeping,   0 stopped,   0 zombie
%Cpu(s):  0.2 us,  0.1 sy,  0.0 ni, 99.6 id,  0.0 wa,  0.0 hi,  0.0 si,  0.0 st
KiB Mem : 16278772 total, 13744664 free,  1318828 used,  1215280 buff/cache
KiB Swap: 16630780 total, 16630780 free,        0 used. 14529192 avail Mem 

  PID USER      PR  NI    VIRT    RES    SHR S  %CPU %MEM     TIME+ COMMAND
 2178 root      20   0  432832  93060  61656 S   1.0  0.6   0:11.18 Xorg
29675 kenenth   20   0   41904   3804   3072 R   1.0  0.0   0:00.23 top

top - 13:56:43 up 32 min,  1 user,  load average: 0.08, 0.47, 1.08
Tasks: 287 total,   1 running, 226 sleeping,   0 stopped,   0 zombie
%Cpu(s):  0.0 us,  0.1 sy,  0.0 ni, 99.9 id,  0.0 wa,  0.0 hi,  0.0 si,  0.0 st
KiB Mem : 16278772 total, 13744664 free,  1318828 used,  1215280 buff/cache
KiB Swap: 16630780 total, 16630780 free,        0 used. 14529192 avail Mem 

  PID USER      PR  NI    VIRT    RES    SHR S  %CPU %MEM     TIME+ COMMAND
29675 kenenth   20   0   41904   3804   3072 R   1.0  0.0   0:00.24 top

top - 13:56:44 up 32 min,  1 user,  load average: 0.08, 0.47, 1.08
Tasks: 287 total,   1 running, 226 sleeping,   0 stopped,   0 zombie
%Cpu(s):  0.1 us,  0.4 sy,  0.0 ni, 99.5 id,  0.0 wa,  0.0 hi,  0.0 si,  0.0 st
KiB Mem : 16278772 total, 13744664 free,  1318824 used,  1215284 buff/cache
KiB Swap: 16630780 total, 16630780 free,        0 used. 14529192 avail Mem 

  PID USER      PR  NI    VIRT    RES    SHR S  %CPU %MEM     TIME+ COMMAND
 2178 root      20   0  432832  93060  61656 S   1.0  0.6   0:11.19 Xorg
 2179 root     -51   0       0      0      0 S   1.0  0.0   0:01.18 irq/142-nv+
29675 kenenth   20   0   41904   3804   3072 R   1.0  0.0   0:00.25 top

top - 13:56:45 up 32 min,  1 user,  load average: 0.08, 0.47, 1.08
Tasks: 287 total,   1 running, 226 sleeping,   0 stopped,   0 zombie
%Cpu(s):  0.2 us,  0.1 sy,  0.0 ni, 99.6 id,  0.0 wa,  0.0 hi,  0.0 si,  0.0 st
KiB Mem : 16278772 total, 13744664 free,  1318824 used,  1215284 buff/cache
KiB Swap: 16630780 total, 16630780 free,        0 used. 14529192 avail Mem 

  PID USER      PR  NI    VIRT    RES    SHR S  %CPU %MEM     TIME+ COMMAND
  920 avahi     20   0   48216   4760   3308 S   1.0  0.0   0:03.15 avahi-daem+
  990 root      20   0 4987008  41216  25900 S   1.0  0.3   0:10.33 containerd
 2502 kenenth   20   0  448080  12912   7944 S   1.0  0.1   0:10.43 gsd-sharing
29675 kenenth   20   0   41904   3804   3072 R   1.0  0.0   0:00.26 top

top - 13:56:46 up 32 min,  1 user,  load average: 0.07, 0.46, 1.07
Tasks: 287 total,   1 running, 226 sleeping,   0 stopped,   0 zombie
%Cpu(s):  0.4 us,  0.1 sy,  0.0 ni, 99.5 id,  0.0 wa,  0.0 hi,  0.0 si,  0.0 st
KiB Mem : 16278772 total, 13744664 free,  1318824 used,  1215284 buff/cache
KiB Swap: 16630780 total, 16630780 free,        0 used. 14529192 avail Mem 

  PID USER      PR  NI    VIRT    RES    SHR S  %CPU %MEM     TIME+ COMMAND
29675 kenenth   20   0   41904   3804   3072 R   2.0  0.0   0:00.28 top

top - 13:56:47 up 32 min,  1 user,  load average: 0.07, 0.46, 1.07
Tasks: 287 total,   1 running, 226 sleeping,   0 stopped,   0 zombie
%Cpu(s):  0.4 us,  0.1 sy,  0.0 ni, 99.5 id,  0.0 wa,  0.0 hi,  0.0 si,  0.0 st
KiB Mem : 16278772 total, 13744460 free,  1319020 used,  1215292 buff/cache
KiB Swap: 16630780 total, 16630780 free,        0 used. 14528988 avail Mem 

  PID USER      PR  NI    VIRT    RES    SHR S  %CPU %MEM     TIME+ COMMAND
 2178 root      20   0  432832  93060  61656 S   1.0  0.6   0:11.20 Xorg
29675 kenenth   20   0   41904   3804   3072 R   1.0  0.0   0:00.29 top

top - 13:56:48 up 32 min,  1 user,  load average: 0.07, 0.46, 1.07
Tasks: 287 total,   1 running, 226 sleeping,   0 stopped,   0 zombie
%Cpu(s):  0.1 us,  0.1 sy,  0.0 ni, 99.8 id,  0.0 wa,  0.0 hi,  0.0 si,  0.0 st
KiB Mem : 16278772 total, 13744460 free,  1319020 used,  1215292 buff/cache
KiB Swap: 16630780 total, 16630780 free,        0 used. 14528988 avail Mem 

  PID USER      PR  NI    VIRT    RES    SHR S  %CPU %MEM     TIME+ COMMAND
29675 kenenth   20   0   41904   3804   3072 R   2.0  0.0   0:00.31 top
 1318 gdm       20   0  730068  30736  23232 S   1.0  0.2   0:00.40 gsd-color

top - 13:56:49 up 32 min,  1 user,  load average: 0.07, 0.46, 1.07
Tasks: 287 total,   1 running, 226 sleeping,   0 stopped,   0 zombie
%Cpu(s):  0.1 us,  0.2 sy,  0.0 ni, 99.6 id,  0.0 wa,  0.0 hi,  0.0 si,  0.0 st
KiB Mem : 16278772 total, 13744460 free,  1319020 used,  1215292 buff/cache
KiB Swap: 16630780 total, 16630780 free,        0 used. 14528988 avail Mem 

  PID USER      PR  NI    VIRT    RES    SHR S  %CPU %MEM     TIME+ COMMAND
 2178 root      20   0  432832  93060  61656 S   1.0  0.6   0:11.21 Xorg
29675 kenenth   20   0   41904   3804   3072 R   1.0  0.0   0:00.32 top

top - 13:56:50 up 32 min,  1 user,  load average: 0.07, 0.46, 1.07
Tasks: 287 total,   1 running, 226 sleeping,   0 stopped,   0 zombie
%Cpu(s):  0.0 us,  0.2 sy,  0.0 ni, 99.8 id,  0.0 wa,  0.0 hi,  0.0 si,  0.0 st
KiB Mem : 16278772 total, 13744468 free,  1319008 used,  1215296 buff/cache
KiB Swap: 16630780 total, 16630780 free,        0 used. 14529000 avail Mem 

  PID USER      PR  NI    VIRT    RES    SHR S  %CPU %MEM     TIME+ COMMAND
29675 kenenth   20   0   41904   3804   3072 R   1.0  0.0   0:00.33 top

top - 13:56:51 up 32 min,  1 user,  load average: 0.06, 0.45, 1.07
Tasks: 287 total,   1 running, 226 sleeping,   0 stopped,   0 zombie
%Cpu(s):  0.1 us,  0.1 sy,  0.0 ni, 99.8 id,  0.0 wa,  0.0 hi,  0.0 si,  0.0 st
KiB Mem : 16278772 total, 13744468 free,  1319008 used,  1215296 buff/cache
KiB Swap: 16630780 total, 16630780 free,        0 used. 14529000 avail Mem 

  PID USER      PR  NI    VIRT    RES    SHR S  %CPU %MEM     TIME+ COMMAND
  920 avahi     20   0   48216   4760   3308 S   1.0  0.0   0:03.16 avahi-daem+
  990 root      20   0 4987008  41216  25900 S   1.0  0.3   0:10.34 containerd
 2178 root      20   0  432832  93060  61656 S   1.0  0.6   0:11.22 Xorg
29675 kenenth   20   0   41904   3804   3072 R   1.0  0.0   0:00.34 top

top - 13:56:52 up 32 min,  1 user,  load average: 0.06, 0.45, 1.07
Tasks: 287 total,   1 running, 226 sleeping,   0 stopped,   0 zombie
%Cpu(s):  0.0 us,  0.4 sy,  0.0 ni, 99.6 id,  0.0 wa,  0.0 hi,  0.0 si,  0.0 st
KiB Mem : 16278772 total, 13744468 free,  1319008 used,  1215296 buff/cache
KiB Swap: 16630780 total, 16630780 free,        0 used. 14529000 avail Mem 

  PID USER      PR  NI    VIRT    RES    SHR S  %CPU %MEM     TIME+ COMMAND
  920 avahi     20   0   48216   4760   3308 S   1.0  0.0   0:03.17 avahi-daem+
29675 kenenth   20   0   41904   3804   3072 R   1.0  0.0   0:00.35 top

top - 13:56:53 up 32 min,  1 user,  load average: 0.06, 0.45, 1.07
Tasks: 287 total,   1 running, 226 sleeping,   0 stopped,   0 zombie
%Cpu(s):  0.0 us,  0.0 sy,  0.0 ni,100.0 id,  0.0 wa,  0.0 hi,  0.0 si,  0.0 st
KiB Mem : 16278772 total, 13744420 free,  1319048 used,  1215304 buff/cache
KiB Swap: 16630780 total, 16630780 free,        0 used. 14528952 avail Mem 

  PID USER      PR  NI    VIRT    RES    SHR S  %CPU %MEM     TIME+ COMMAND
29675 kenenth   20   0   41904   3804   3072 R   2.0  0.0   0:00.37 top
  990 root      20   0 4987008  41216  25900 S   1.0  0.3   0:10.35 containerd

top - 13:56:54 up 32 min,  1 user,  load average: 0.06, 0.45, 1.07
Tasks: 287 total,   1 running, 226 sleeping,   0 stopped,   0 zombie
%Cpu(s):  0.4 us,  0.2 sy,  0.0 ni, 99.4 id,  0.0 wa,  0.0 hi,  0.0 si,  0.0 st
KiB Mem : 16278772 total, 13744420 free,  1319048 used,  1215304 buff/cache
KiB Swap: 16630780 total, 16630780 free,        0 used. 14528952 avail Mem 

  PID USER      PR  NI    VIRT    RES    SHR S  %CPU %MEM     TIME+ COMMAND
 2178 root      20   0  432832  93060  61656 S   2.0  0.6   0:11.24 Xorg
    8 root      20   0       0      0      0 I   1.0  0.0   0:01.36 rcu_sched
 3484 root      20   0       0      0      0 I   1.0  0.0   0:00.25 kworker/4:0
29675 kenenth   20   0   41904   3804   3072 R   1.0  0.0   0:00.38 top

top - 13:56:55 up 32 min,  1 user,  load average: 0.06, 0.45, 1.07
Tasks: 287 total,   1 running, 226 sleeping,   0 stopped,   0 zombie
%Cpu(s):  0.1 us,  0.1 sy,  0.0 ni, 99.8 id,  0.0 wa,  0.0 hi,  0.0 si,  0.0 st
KiB Mem : 16278772 total, 13744420 free,  1319048 used,  1215304 buff/cache
KiB Swap: 16630780 total, 16630780 free,        0 used. 14528952 avail Mem 

  PID USER      PR  NI    VIRT    RES    SHR S  %CPU %MEM     TIME+ COMMAND
29675 kenenth   20   0   41904   3804   3072 R   2.0  0.0   0:00.40 top

top - 13:56:56 up 32 min,  1 user,  load average: 0.14, 0.46, 1.07
Tasks: 287 total,   1 running, 226 sleeping,   0 stopped,   0 zombie
%Cpu(s):  0.0 us,  0.1 sy,  0.0 ni, 99.9 id,  0.0 wa,  0.0 hi,  0.0 si,  0.0 st
KiB Mem : 16278772 total, 13744396 free,  1319068 used,  1215308 buff/cache
KiB Swap: 16630780 total, 16630780 free,        0 used. 14528928 avail Mem 

  PID USER      PR  NI    VIRT    RES    SHR S  %CPU %MEM     TIME+ COMMAND
29675 kenenth   20   0   41904   3804   3072 R   1.0  0.0   0:00.41 top

top - 13:56:57 up 32 min,  1 user,  load average: 0.14, 0.46, 1.07
Tasks: 287 total,   1 running, 226 sleeping,   0 stopped,   0 zombie
%Cpu(s):  0.1 us,  0.2 sy,  0.0 ni, 99.6 id,  0.0 wa,  0.0 hi,  0.0 si,  0.0 st
KiB Mem : 16278772 total, 13744396 free,  1319068 used,  1215308 buff/cache
KiB Swap: 16630780 total, 16630780 free,        0 used. 14528928 avail Mem 

  PID USER      PR  NI    VIRT    RES    SHR S  %CPU %MEM     TIME+ COMMAND
 2178 root      20   0  432832  93060  61656 S   1.0  0.6   0:11.25 Xorg
29675 kenenth   20   0   41904   3804   3072 R   1.0  0.0   0:00.42 top

top - 13:56:59 up 32 min,  1 user,  load average: 0.14, 0.46, 1.07
Tasks: 287 total,   1 running, 226 sleeping,   0 stopped,   0 zombie
%Cpu(s):  0.6 us,  0.2 sy,  0.0 ni, 99.1 id,  0.0 wa,  0.0 hi,  0.0 si,  0.0 st
KiB Mem : 16278772 total, 13744396 free,  1319068 used,  1215308 buff/cache
KiB Swap: 16630780 total, 16630780 free,        0 used. 14528928 avail Mem 

  PID USER      PR  NI    VIRT    RES    SHR S  %CPU %MEM     TIME+ COMMAND
 1502 root      20   0 6019008 104460  38544 S   4.9  0.6   0:37.56 dockerd
29675 kenenth   20   0   41904   3804   3072 R   2.9  0.0   0:00.45 top

top - 13:57:00 up 32 min,  1 user,  load average: 0.14, 0.46, 1.07
Tasks: 287 total,   1 running, 226 sleeping,   0 stopped,   0 zombie
%Cpu(s):  0.2 us,  0.4 sy,  0.0 ni, 99.4 id,  0.0 wa,  0.0 hi,  0.0 si,  0.0 st
KiB Mem : 16278772 total, 13744356 free,  1319100 used,  1215316 buff/cache
KiB Swap: 16630780 total, 16630780 free,        0 used. 14528904 avail Mem 

  PID USER      PR  NI    VIRT    RES    SHR S  %CPU %MEM     TIME+ COMMAND
  906 root      20   0  491168  23300  13904 S   1.0  0.1   0:17.40 NetworkMan+
 2178 root      20   0  432832  93060  61656 S   1.0  0.6   0:11.26 Xorg
 2390 kenenth   20   0 3532476 235932  90960 S   1.0  1.4   0:25.96 gnome-shell
29675 kenenth   20   0   41904   3804   3072 R   1.0  0.0   0:00.46 top

top - 13:57:01 up 32 min,  1 user,  load average: 0.13, 0.45, 1.06
Tasks: 287 total,   1 running, 226 sleeping,   0 stopped,   0 zombie
%Cpu(s):  0.1 us,  0.1 sy,  0.0 ni, 99.8 id,  0.0 wa,  0.0 hi,  0.0 si,  0.0 st
KiB Mem : 16278772 total, 13744356 free,  1319100 used,  1215316 buff/cache
KiB Swap: 16630780 total, 16630780 free,        0 used. 14528904 avail Mem 

  PID USER      PR  NI    VIRT    RES    SHR S  %CPU %MEM     TIME+ COMMAND
29675 kenenth   20   0   41904   3804   3072 R   1.0  0.0   0:00.47 top

top - 13:57:02 up 32 min,  1 user,  load average: 0.13, 0.45, 1.06
Tasks: 287 total,   1 running, 226 sleeping,   0 stopped,   0 zombie
%Cpu(s):  0.1 us,  0.1 sy,  0.0 ni, 99.8 id,  0.0 wa,  0.0 hi,  0.0 si,  0.0 st
KiB Mem : 16278772 total, 13744356 free,  1319100 used,  1215316 buff/cache
KiB Swap: 16630780 total, 16630780 free,        0 used. 14528904 avail Mem 

  PID USER      PR  NI    VIRT    RES    SHR S  %CPU %MEM     TIME+ COMMAND
  990 root      20   0 4987008  41216  25900 S   1.0  0.3   0:10.36 containerd
 2178 root      20   0  432832  93060  61656 S   1.0  0.6   0:11.27 Xorg
29675 kenenth   20   0   41904   3804   3072 R   1.0  0.0   0:00.48 top

top - 13:57:03 up 32 min,  1 user,  load average: 0.13, 0.45, 1.06
Tasks: 287 total,   1 running, 226 sleeping,   0 stopped,   0 zombie
%Cpu(s):  0.0 us,  0.1 sy,  0.0 ni, 99.8 id,  0.1 wa,  0.0 hi,  0.0 si,  0.0 st
KiB Mem : 16278772 total, 13744348 free,  1319100 used,  1215324 buff/cache
KiB Swap: 16630780 total, 16630780 free,        0 used. 14528896 avail Mem 

  PID USER      PR  NI    VIRT    RES    SHR S  %CPU %MEM     TIME+ COMMAND
29675 kenenth   20   0   41904   3804   3072 R   1.0  0.0   0:00.49 top

top - 13:57:04 up 32 min,  1 user,  load average: 0.13, 0.45, 1.06
Tasks: 287 total,   1 running, 226 sleeping,   0 stopped,   0 zombie
%Cpu(s):  0.2 us,  0.2 sy,  0.0 ni, 99.5 id,  0.0 wa,  0.0 hi,  0.0 si,  0.0 st
KiB Mem : 16278772 total, 13744348 free,  1319100 used,  1215324 buff/cache
KiB Swap: 16630780 total, 16630780 free,        0 used. 14528896 avail Mem 

  PID USER      PR  NI    VIRT    RES    SHR S  %CPU %MEM     TIME+ COMMAND
29675 kenenth   20   0   41904   3804   3072 R   2.0  0.0   0:00.51 top

top - 13:57:05 up 32 min,  1 user,  load average: 0.13, 0.45, 1.06
Tasks: 287 total,   1 running, 226 sleeping,   0 stopped,   0 zombie
%Cpu(s):  0.1 us,  0.1 sy,  0.0 ni, 99.8 id,  0.0 wa,  0.0 hi,  0.0 si,  0.0 st
KiB Mem : 16278772 total, 13744348 free,  1319100 used,  1215324 buff/cache
KiB Swap: 16630780 total, 16630780 free,        0 used. 14528896 avail Mem 

  PID USER      PR  NI    VIRT    RES    SHR S  %CPU %MEM     TIME+ COMMAND
  990 root      20   0 4987008  41216  25900 S   1.0  0.3   0:10.37 containerd
 2178 root      20   0  432832  93060  61656 S   1.0  0.6   0:11.28 Xorg
29675 kenenth   20   0   41904   3804   3072 R   1.0  0.0   0:00.52 top

top - 13:57:06 up 32 min,  1 user,  load average: 0.12, 0.44, 1.06
Tasks: 287 total,   1 running, 226 sleeping,   0 stopped,   0 zombie
%Cpu(s):  0.1 us,  0.1 sy,  0.0 ni, 99.8 id,  0.0 wa,  0.0 hi,  0.0 si,  0.0 st
KiB Mem : 16278772 total, 13744316 free,  1319128 used,  1215328 buff/cache
KiB Swap: 16630780 total, 16630780 free,        0 used. 14528868 avail Mem 

  PID USER      PR  NI    VIRT    RES    SHR S  %CPU %MEM     TIME+ COMMAND
 2542 kenenth   20   0  661104  22940  17736 S   1.0  0.1   0:00.28 gsd-color
29675 kenenth   20   0   41904   3804   3072 R   1.0  0.0   0:00.53 top

top - 13:57:07 up 32 min,  1 user,  load average: 0.12, 0.44, 1.06
Tasks: 287 total,   1 running, 226 sleeping,   0 stopped,   0 zombie
%Cpu(s):  0.1 us,  0.1 sy,  0.0 ni, 99.8 id,  0.0 wa,  0.0 hi,  0.0 si,  0.0 st
KiB Mem : 16278772 total, 13744316 free,  1319128 used,  1215328 buff/cache
KiB Swap: 16630780 total, 16630780 free,        0 used. 14528868 avail Mem 

  PID USER      PR  NI    VIRT    RES    SHR S  %CPU %MEM     TIME+ COMMAND
29675 kenenth   20   0   41904   3804   3072 R   2.0  0.0   0:00.55 top

top - 13:57:08 up 32 min,  1 user,  load average: 0.12, 0.44, 1.06
Tasks: 287 total,   1 running, 226 sleeping,   0 stopped,   0 zombie
%Cpu(s):  0.4 us,  0.2 sy,  0.0 ni, 99.4 id,  0.0 wa,  0.0 hi,  0.0 si,  0.0 st
KiB Mem : 16278772 total, 13744316 free,  1319128 used,  1215328 buff/cache
KiB Swap: 16630780 total, 16630780 free,        0 used. 14528868 avail Mem 

  PID USER      PR  NI    VIRT    RES    SHR S  %CPU %MEM     TIME+ COMMAND
 2390 kenenth   20   0 3532476 235932  90960 S   2.0  1.4   0:25.98 gnome-shell
  990 root      20   0 4987008  41216  25900 S   1.0  0.3   0:10.38 containerd
 2178 root      20   0  432832  93060  61656 S   1.0  0.6   0:11.29 Xorg
29675 kenenth   20   0   41904   3804   3072 R   1.0  0.0   0:00.56 top

top - 13:57:09 up 32 min,  1 user,  load average: 0.12, 0.44, 1.06
Tasks: 287 total,   1 running, 226 sleeping,   0 stopped,   0 zombie
%Cpu(s):  0.1 us,  0.0 sy,  0.0 ni, 99.9 id,  0.0 wa,  0.0 hi,  0.0 si,  0.0 st
KiB Mem : 16278772 total, 13744284 free,  1319152 used,  1215336 buff/cache
KiB Swap: 16630780 total, 16630780 free,        0 used. 14528836 avail Mem 

  PID USER      PR  NI    VIRT    RES    SHR S  %CPU %MEM     TIME+ COMMAND
29675 kenenth   20   0   41904   3804   3072 R   1.0  0.0   0:00.57 top
29684 kenenth   20   0   16392   1096    988 S   1.0  0.0   0:00.01 ping

top - 13:57:10 up 32 min,  1 user,  load average: 0.12, 0.44, 1.06
Tasks: 287 total,   1 running, 226 sleeping,   0 stopped,   0 zombie
%Cpu(s):  0.1 us,  0.4 sy,  0.0 ni, 99.5 id,  0.0 wa,  0.0 hi,  0.0 si,  0.0 st
KiB Mem : 16278772 total, 13744284 free,  1319152 used,  1215336 buff/cache
KiB Swap: 16630780 total, 16630780 free,        0 used. 14528836 avail Mem 

  PID USER      PR  NI    VIRT    RES    SHR S  %CPU %MEM     TIME+ COMMAND
 1062 gdm       20   0 3348384 138444  82720 S   2.0  0.9   0:27.57 gnome-shell
29675 kenenth   20   0   41904   3804   3072 R   2.0  0.0   0:00.59 top
  990 root      20   0 4987008  41216  25900 S   1.0  0.3   0:10.39 containerd
 2178 root      20   0  432832  93060  61656 S   1.0  0.6   0:11.30 Xorg

top - 13:57:11 up 32 min,  1 user,  load average: 0.11, 0.44, 1.05
Tasks: 287 total,   1 running, 226 sleeping,   0 stopped,   0 zombie
%Cpu(s):  0.2 us,  0.0 sy,  0.0 ni, 99.8 id,  0.0 wa,  0.0 hi,  0.0 si,  0.0 st
KiB Mem : 16278772 total, 13744284 free,  1319152 used,  1215336 buff/cache
KiB Swap: 16630780 total, 16630780 free,        0 used. 14528836 avail Mem 

  PID USER      PR  NI    VIRT    RES    SHR S  %CPU %MEM     TIME+ COMMAND
 2178 root      20   0  432832  93060  61656 S   1.0  0.6   0:11.31 Xorg
29675 kenenth   20   0   41904   3804   3072 R   1.0  0.0   0:00.60 top

top - 13:57:12 up 32 min,  1 user,  load average: 0.11, 0.44, 1.05
Tasks: 287 total,   1 running, 226 sleeping,   0 stopped,   0 zombie
%Cpu(s):  0.1 us,  0.1 sy,  0.0 ni, 99.8 id,  0.0 wa,  0.0 hi,  0.0 si,  0.0 st
KiB Mem : 16278772 total, 13744276 free,  1319160 used,  1215336 buff/cache
KiB Swap: 16630780 total, 16630780 free,        0 used. 14528828 avail Mem 

  PID USER      PR  NI    VIRT    RES    SHR S  %CPU %MEM     TIME+ COMMAND
29675 kenenth   20   0   41904   3804   3072 R   2.0  0.0   0:00.62 top
  920 avahi     20   0   48216   4760   3308 S   1.0  0.0   0:03.18 avahi-daem+

top - 13:57:13 up 32 min,  1 user,  load average: 0.11, 0.44, 1.05
Tasks: 287 total,   1 running, 226 sleeping,   0 stopped,   0 zombie
%Cpu(s):  0.1 us,  0.1 sy,  0.0 ni, 99.8 id,  0.0 wa,  0.0 hi,  0.0 si,  0.0 st
KiB Mem : 16278772 total, 13744276 free,  1319160 used,  1215336 buff/cache
KiB Swap: 16630780 total, 16630780 free,        0 used. 14528828 avail Mem 

  PID USER      PR  NI    VIRT    RES    SHR S  %CPU %MEM     TIME+ COMMAND
 2178 root      20   0  432832  93060  61656 S   1.0  0.6   0:11.32 Xorg
29675 kenenth   20   0   41904   3804   3072 R   1.0  0.0   0:00.63 top

top - 13:57:14 up 32 min,  1 user,  load average: 0.11, 0.44, 1.05
Tasks: 287 total,   1 running, 226 sleeping,   0 stopped,   0 zombie
%Cpu(s):  0.0 us,  0.1 sy,  0.0 ni, 99.9 id,  0.0 wa,  0.0 hi,  0.0 si,  0.0 st
KiB Mem : 16278772 total, 13744276 free,  1319160 used,  1215336 buff/cache
KiB Swap: 16630780 total, 16630780 free,        0 used. 14528828 avail Mem 

  PID USER      PR  NI    VIRT    RES    SHR S  %CPU %MEM     TIME+ COMMAND
29675 kenenth   20   0   41904   3804   3072 R   1.0  0.0   0:00.64 top

top - 13:57:15 up 32 min,  1 user,  load average: 0.11, 0.44, 1.05
Tasks: 287 total,   1 running, 226 sleeping,   0 stopped,   0 zombie
%Cpu(s):  0.5 us,  0.1 sy,  0.0 ni, 99.4 id,  0.0 wa,  0.0 hi,  0.0 si,  0.0 st
KiB Mem : 16278772 total, 13744244 free,  1319180 used,  1215348 buff/cache
KiB Swap: 16630780 total, 16630780 free,        0 used. 14528796 avail Mem 

  PID USER      PR  NI    VIRT    RES    SHR S  %CPU %MEM     TIME+ COMMAND
  922 root      20   0 1090076  30332  17936 S   2.0  0.2   0:05.76 snapd
 2178 root      20   0  432832  93060  61656 S   1.0  0.6   0:11.33 Xorg
 2179 root     -51   0       0      0      0 S   1.0  0.0   0:01.19 irq/142-nv+
29675 kenenth   20   0   41904   3804   3072 R   1.0  0.0   0:00.65 top

top - 13:57:16 up 32 min,  1 user,  load average: 0.10, 0.43, 1.04
Tasks: 287 total,   1 running, 226 sleeping,   0 stopped,   0 zombie
%Cpu(s):  0.0 us,  0.2 sy,  0.0 ni, 99.8 id,  0.0 wa,  0.0 hi,  0.0 si,  0.0 st
KiB Mem : 16278772 total, 13744244 free,  1319180 used,  1215348 buff/cache
KiB Swap: 16630780 total, 16630780 free,        0 used. 14528796 avail Mem 

  PID USER      PR  NI    VIRT    RES    SHR S  %CPU %MEM     TIME+ COMMAND
29675 kenenth   20   0   41904   3804   3072 R   1.0  0.0   0:00.66 top
29679 kenenth   20   0   16392   1084    976 S   1.0  0.0   0:00.01 ping

top - 13:57:17 up 32 min,  1 user,  load average: 0.10, 0.43, 1.04
Tasks: 287 total,   1 running, 226 sleeping,   0 stopped,   0 zombie
%Cpu(s):  0.1 us,  0.2 sy,  0.0 ni, 99.6 id,  0.0 wa,  0.0 hi,  0.0 si,  0.0 st
KiB Mem : 16278772 total, 13744244 free,  1319180 used,  1215348 buff/cache
KiB Swap: 16630780 total, 16630780 free,        0 used. 14528796 avail Mem 

  PID USER      PR  NI    VIRT    RES    SHR S  %CPU %MEM     TIME+ COMMAND
29675 kenenth   20   0   41904   3804   3072 R   2.0  0.0   0:00.68 top
  906 root      20   0  491168  23300  13904 S   1.0  0.1   0:17.41 NetworkMan+

top - 13:57:18 up 32 min,  1 user,  load average: 0.10, 0.43, 1.04
Tasks: 287 total,   1 running, 226 sleeping,   0 stopped,   0 zombie
%Cpu(s):  0.0 us,  0.1 sy,  0.0 ni, 99.9 id,  0.0 wa,  0.0 hi,  0.0 si,  0.0 st
KiB Mem : 16278772 total, 13744244 free,  1319180 used,  1215348 buff/cache
KiB Swap: 16630780 total, 16630780 free,        0 used. 14528796 avail Mem 

  PID USER      PR  NI    VIRT    RES    SHR S  %CPU %MEM     TIME+ COMMAND
  990 root      20   0 4987008  41216  25900 S   1.0  0.3   0:10.40 containerd
 2178 root      20   0  432832  93060  61656 S   1.0  0.6   0:11.34 Xorg
 2390 kenenth   20   0 3532476 235932  90960 S   1.0  1.4   0:25.99 gnome-shell
29675 kenenth   20   0   41904   3804   3072 R   1.0  0.0   0:00.69 top

top - 13:57:19 up 32 min,  1 user,  load average: 0.10, 0.43, 1.04
Tasks: 287 total,   1 running, 226 sleeping,   0 stopped,   0 zombie
%Cpu(s):  0.0 us,  0.2 sy,  0.0 ni, 99.8 id,  0.0 wa,  0.0 hi,  0.0 si,  0.0 st
KiB Mem : 16278772 total, 13744244 free,  1319180 used,  1215348 buff/cache
KiB Swap: 16630780 total, 16630780 free,        0 used. 14528796 avail Mem 

  PID USER      PR  NI    VIRT    RES    SHR S  %CPU %MEM     TIME+ COMMAND
29675 kenenth   20   0   41904   3804   3072 R   2.0  0.0   0:00.71 top
    8 root      20   0       0      0      0 I   1.0  0.0   0:01.37 rcu_sched
 2178 root      20   0  432832  93060  61656 S   1.0  0.6   0:11.35 Xorg

top - 13:57:20 up 32 min,  1 user,  load average: 0.10, 0.43, 1.04
Tasks: 287 total,   1 running, 226 sleeping,   0 stopped,   0 zombie
%Cpu(s):  0.1 us,  0.1 sy,  0.0 ni, 99.8 id,  0.0 wa,  0.0 hi,  0.0 si,  0.0 st
KiB Mem : 16278772 total, 13744244 free,  1319180 used,  1215348 buff/cache
KiB Swap: 16630780 total, 16630780 free,        0 used. 14528796 avail Mem 

  PID USER      PR  NI    VIRT    RES    SHR S  %CPU %MEM     TIME+ COMMAND
    5 root      20   0       0      0      0 I   1.0  0.0   0:00.28 kworker/u1+
29675 kenenth   20   0   41904   3804   3072 R   1.0  0.0   0:00.72 top

top - 13:57:21 up 32 min,  1 user,  load average: 0.09, 0.42, 1.04
Tasks: 287 total,   1 running, 226 sleeping,   0 stopped,   0 zombie
%Cpu(s):  0.1 us,  0.1 sy,  0.0 ni, 99.8 id,  0.0 wa,  0.0 hi,  0.0 si,  0.0 st
KiB Mem : 16278772 total, 13744212 free,  1319196 used,  1215364 buff/cache
KiB Swap: 16630780 total, 16630780 free,        0 used. 14528764 avail Mem 

  PID USER      PR  NI    VIRT    RES    SHR S  %CPU %MEM     TIME+ COMMAND
29675 kenenth   20   0   41904   3804   3072 R   1.0  0.0   0:00.73 top
29686 kenenth   20   0   16392   1076    968 S   1.0  0.0   0:00.01 ping

top - 13:57:22 up 32 min,  1 user,  load average: 0.09, 0.42, 1.04
Tasks: 287 total,   1 running, 226 sleeping,   0 stopped,   0 zombie
%Cpu(s):  0.1 us,  0.2 sy,  0.0 ni, 99.5 id,  0.0 wa,  0.0 hi,  0.1 si,  0.0 st
KiB Mem : 16278772 total, 13744212 free,  1319196 used,  1215364 buff/cache
KiB Swap: 16630780 total, 16630780 free,        0 used. 14528764 avail Mem 

  PID USER      PR  NI    VIRT    RES    SHR S  %CPU %MEM     TIME+ COMMAND
29675 kenenth   20   0   41904   3804   3072 R   2.0  0.0   0:00.75 top
  937 root      20   0  269672   5864   5120 S   1.0  0.0   0:00.40 iio-sensor+
 2178 root      20   0  432832  93060  61656 S   1.0  0.6   0:11.36 Xorg
29685 kenenth   20   0   16392   1116   1012 S   1.0  0.0   0:00.01 ping

top - 13:57:23 up 32 min,  1 user,  load average: 0.09, 0.42, 1.04
Tasks: 287 total,   1 running, 226 sleeping,   0 stopped,   0 zombie
%Cpu(s):  0.0 us,  0.1 sy,  0.0 ni, 99.9 id,  0.0 wa,  0.0 hi,  0.0 si,  0.0 st
KiB Mem : 16278772 total, 13744212 free,  1319196 used,  1215364 buff/cache
KiB Swap: 16630780 total, 16630780 free,        0 used. 14528764 avail Mem 

  PID USER      PR  NI    VIRT    RES    SHR S  %CPU %MEM     TIME+ COMMAND
29682 kenenth   20   0   16392   1080    972 S   1.0  0.0   0:00.01 ping

top - 13:57:24 up 32 min,  1 user,  load average: 0.09, 0.42, 1.04
Tasks: 287 total,   1 running, 226 sleeping,   0 stopped,   0 zombie
%Cpu(s):  0.1 us,  0.1 sy,  0.0 ni, 99.6 id,  0.1 wa,  0.0 hi,  0.0 si,  0.0 st
KiB Mem : 16278772 total, 13744180 free,  1319224 used,  1215368 buff/cache
KiB Swap: 16630780 total, 16630780 free,        0 used. 14528732 avail Mem 

  PID USER      PR  NI    VIRT    RES    SHR S  %CPU %MEM     TIME+ COMMAND
29675 kenenth   20   0   41904   3804   3072 R   2.0  0.0   0:00.77 top
 2178 root      20   0  432832  93060  61656 S   1.0  0.6   0:11.37 Xorg

top - 13:57:25 up 32 min,  1 user,  load average: 0.09, 0.42, 1.04
Tasks: 287 total,   1 running, 226 sleeping,   0 stopped,   0 zombie
%Cpu(s):  0.0 us,  0.2 sy,  0.0 ni, 99.8 id,  0.0 wa,  0.0 hi,  0.0 si,  0.0 st
KiB Mem : 16278772 total, 13744180 free,  1319224 used,  1215368 buff/cache
KiB Swap: 16630780 total, 16630780 free,        0 used. 14528732 avail Mem 

  PID USER      PR  NI    VIRT    RES    SHR S  %CPU %MEM     TIME+ COMMAND
29675 kenenth   20   0   41904   3804   3072 R   1.0  0.0   0:00.78 top
29687 kenenth   20   0   16392   1080    972 S   1.0  0.0   0:00.01 ping

top - 13:57:26 up 32 min,  1 user,  load average: 0.08, 0.41, 1.03
Tasks: 287 total,   1 running, 226 sleeping,   0 stopped,   0 zombie
%Cpu(s):  0.1 us,  0.1 sy,  0.0 ni, 99.8 id,  0.0 wa,  0.0 hi,  0.0 si,  0.0 st
KiB Mem : 16278772 total, 13744180 free,  1319224 used,  1215368 buff/cache
KiB Swap: 16630780 total, 16630780 free,        0 used. 14528732 avail Mem 

  PID USER      PR  NI    VIRT    RES    SHR S  %CPU %MEM     TIME+ COMMAND
  990 root      20   0 4987008  41216  25900 S   1.0  0.3   0:10.41 containerd
 2178 root      20   0  432832  93060  61656 S   1.0  0.6   0:11.38 Xorg
29675 kenenth   20   0   41904   3804   3072 R   1.0  0.0   0:00.79 top

top - 13:57:27 up 32 min,  1 user,  load average: 0.08, 0.41, 1.03
Tasks: 287 total,   1 running, 226 sleeping,   0 stopped,   0 zombie
%Cpu(s):  0.1 us,  0.1 sy,  0.0 ni, 99.8 id,  0.0 wa,  0.0 hi,  0.0 si,  0.0 st
KiB Mem : 16278772 total, 13744180 free,  1319220 used,  1215372 buff/cache
KiB Swap: 16630780 total, 16630780 free,        0 used. 14528732 avail Mem 

  PID USER      PR  NI    VIRT    RES    SHR S  %CPU %MEM     TIME+ COMMAND
29675 kenenth   20   0   41904   3804   3072 R   2.0  0.0   0:00.81 top
29680 kenenth   20   0   16392   1084    976 S   1.0  0.0   0:00.01 ping

top - 13:57:28 up 32 min,  1 user,  load average: 0.08, 0.41, 1.03
Tasks: 287 total,   1 running, 226 sleeping,   0 stopped,   0 zombie
%Cpu(s):  0.0 us,  0.2 sy,  0.0 ni, 99.8 id,  0.0 wa,  0.0 hi,  0.0 si,  0.0 st
KiB Mem : 16278772 total, 13744180 free,  1319220 used,  1215372 buff/cache
KiB Swap: 16630780 total, 16630780 free,        0 used. 14528732 avail Mem 

  PID USER      PR  NI    VIRT    RES    SHR S  %CPU %MEM     TIME+ COMMAND
  906 root      20   0  491168  23300  13904 S   1.0  0.1   0:17.42 NetworkMan+
29675 kenenth   20   0   41904   3804   3072 R   1.0  0.0   0:00.82 top
29681 kenenth   20   0   16392   1108    996 S   1.0  0.0   0:00.01 ping

top - 13:57:29 up 32 min,  1 user,  load average: 0.08, 0.41, 1.03
Tasks: 287 total,   1 running, 226 sleeping,   0 stopped,   0 zombie
%Cpu(s):  0.1 us,  0.2 sy,  0.0 ni, 99.6 id,  0.0 wa,  0.0 hi,  0.0 si,  0.0 st
KiB Mem : 16278772 total, 13744180 free,  1319220 used,  1215372 buff/cache
KiB Swap: 16630780 total, 16630780 free,        0 used. 14528732 avail Mem 

  PID USER      PR  NI    VIRT    RES    SHR S  %CPU %MEM     TIME+ COMMAND
 2178 root      20   0  432832  93060  61656 S   1.0  0.6   0:11.39 Xorg
29675 kenenth   20   0   41904   3804   3072 R   1.0  0.0   0:00.83 top
29678 kenenth   20   0   16392   1108   1000 S   1.0  0.0   0:00.01 ping
29683 kenenth   20   0   16392   1124   1016 S   1.0  0.0   0:00.01 ping

top - 13:57:30 up 32 min,  1 user,  load average: 0.08, 0.41, 1.03
Tasks: 287 total,   1 running, 226 sleeping,   0 stopped,   0 zombie
%Cpu(s):  0.0 us,  0.2 sy,  0.0 ni, 99.8 id,  0.0 wa,  0.0 hi,  0.0 si,  0.0 st
KiB Mem : 16278772 total, 13744148 free,  1319248 used,  1215376 buff/cache
KiB Swap: 16630780 total, 16630780 free,        0 used. 14528716 avail Mem 

  PID USER      PR  NI    VIRT    RES    SHR S  %CPU %MEM     TIME+ COMMAND
 2178 root      20   0  432832  93060  61656 S   1.0  0.6   0:11.40 Xorg
29675 kenenth   20   0   41904   3804   3072 R   1.0  0.0   0:00.84 top

top - 13:57:31 up 32 min,  1 user,  load average: 0.08, 0.41, 1.03
Tasks: 287 total,   1 running, 226 sleeping,   0 stopped,   0 zombie
%Cpu(s):  0.1 us,  0.1 sy,  0.0 ni, 99.8 id,  0.0 wa,  0.0 hi,  0.0 si,  0.0 st
KiB Mem : 16278772 total, 13744148 free,  1319248 used,  1215376 buff/cache
KiB Swap: 16630780 total, 16630780 free,        0 used. 14528716 avail Mem 

  PID USER      PR  NI    VIRT    RES    SHR S  %CPU %MEM     TIME+ COMMAND
29675 kenenth   20   0   41904   3804   3072 R   2.0  0.0   0:00.86 top

top - 13:57:32 up 32 min,  1 user,  load average: 0.08, 0.41, 1.03
Tasks: 287 total,   1 running, 226 sleeping,   0 stopped,   0 zombie
%Cpu(s):  0.1 us,  0.1 sy,  0.0 ni, 99.8 id,  0.0 wa,  0.0 hi,  0.0 si,  0.0 st
KiB Mem : 16278772 total, 13744148 free,  1319248 used,  1215376 buff/cache
KiB Swap: 16630780 total, 16630780 free,        0 used. 14528716 avail Mem 

  PID USER      PR  NI    VIRT    RES    SHR S  %CPU %MEM     TIME+ COMMAND
29675 kenenth   20   0   41904   3804   3072 R   1.0  0.0   0:00.87 top

top - 13:57:33 up 33 min,  1 user,  load average: 0.08, 0.41, 1.03
Tasks: 287 total,   1 running, 226 sleeping,   0 stopped,   0 zombie
%Cpu(s):  0.2 us,  0.0 sy,  0.0 ni, 99.8 id,  0.0 wa,  0.0 hi,  0.0 si,  0.0 st
KiB Mem : 16278772 total, 13744140 free,  1319252 used,  1215380 buff/cache
KiB Swap: 16630780 total, 16630780 free,        0 used. 14528708 avail Mem 

  PID USER      PR  NI    VIRT    RES    SHR S  %CPU %MEM     TIME+ COMMAND
29675 kenenth   20   0   41904   3804   3072 R   1.0  0.0   0:00.88 top

top - 13:57:34 up 33 min,  1 user,  load average: 0.08, 0.41, 1.03
Tasks: 287 total,   1 running, 226 sleeping,   0 stopped,   0 zombie
%Cpu(s):  0.0 us,  0.1 sy,  0.0 ni, 99.9 id,  0.0 wa,  0.0 hi,  0.0 si,  0.0 st
KiB Mem : 16278772 total, 13744140 free,  1319252 used,  1215380 buff/cache
KiB Swap: 16630780 total, 16630780 free,        0 used. 14528708 avail Mem 

  PID USER      PR  NI    VIRT    RES    SHR S  %CPU %MEM     TIME+ COMMAND
 2178 root      20   0  432832  93060  61656 S   2.0  0.6   0:11.42 Xorg
  990 root      20   0 4987008  41216  25900 S   1.0  0.3   0:10.42 containerd
29675 kenenth   20   0   41904   3804   3072 R   1.0  0.0   0:00.89 top

top - 13:57:35 up 33 min,  1 user,  load average: 0.08, 0.41, 1.03
Tasks: 287 total,   1 running, 226 sleeping,   0 stopped,   0 zombie
%Cpu(s):  0.0 us,  0.2 sy,  0.0 ni, 99.8 id,  0.0 wa,  0.0 hi,  0.0 si,  0.0 st
KiB Mem : 16278772 total, 13744140 free,  1319252 used,  1215380 buff/cache
KiB Swap: 16630780 total, 16630780 free,        0 used. 14528708 avail Mem 

  PID USER      PR  NI    VIRT    RES    SHR S  %CPU %MEM     TIME+ COMMAND
29675 kenenth   20   0   41904   3804   3072 R   1.0  0.0   0:00.90 top

top - 13:57:36 up 33 min,  1 user,  load average: 0.07, 0.40, 1.02
Tasks: 287 total,   1 running, 226 sleeping,   0 stopped,   0 zombie
%Cpu(s):  0.0 us,  0.1 sy,  0.0 ni, 99.9 id,  0.0 wa,  0.0 hi,  0.0 si,  0.0 st
KiB Mem : 16278772 total, 13744108 free,  1319284 used,  1215380 buff/cache
KiB Swap: 16630780 total, 16630780 free,        0 used. 14528680 avail Mem 

  PID USER      PR  NI    VIRT    RES    SHR S  %CPU %MEM     TIME+ COMMAND
29675 kenenth   20   0   41904   3804   3072 R   1.0  0.0   0:00.91 top

top - 13:57:37 up 33 min,  1 user,  load average: 0.07, 0.40, 1.02
Tasks: 287 total,   1 running, 226 sleeping,   0 stopped,   0 zombie
%Cpu(s):  0.1 us,  0.1 sy,  0.0 ni, 99.8 id,  0.0 wa,  0.0 hi,  0.0 si,  0.0 st
KiB Mem : 16278772 total, 13744108 free,  1319284 used,  1215380 buff/cache
KiB Swap: 16630780 total, 16630780 free,        0 used. 14528680 avail Mem 

  PID USER      PR  NI    VIRT    RES    SHR S  %CPU %MEM     TIME+ COMMAND
29675 kenenth   20   0   41904   3804   3072 R   2.0  0.0   0:00.93 top
  990 root      20   0 4987008  41216  25900 S   1.0  0.3   0:10.43 containerd
 2178 root      20   0  432832  93060  61656 S   1.0  0.6   0:11.43 Xorg

top - 13:57:38 up 33 min,  1 user,  load average: 0.07, 0.40, 1.02
Tasks: 287 total,   1 running, 226 sleeping,   0 stopped,   0 zombie
%Cpu(s):  0.2 us,  0.1 sy,  0.0 ni, 99.6 id,  0.0 wa,  0.0 hi,  0.0 si,  0.0 st
KiB Mem : 16278772 total, 13744108 free,  1319284 used,  1215380 buff/cache
KiB Swap: 16630780 total, 16630780 free,        0 used. 14528680 avail Mem 

  PID USER      PR  NI    VIRT    RES    SHR S  %CPU %MEM     TIME+ COMMAND
  864 message+  20   0   51732   5960   3720 S   1.0  0.0   0:31.87 dbus-daemon

top - 13:57:39 up 33 min,  1 user,  load average: 0.07, 0.40, 1.02
Tasks: 287 total,   1 running, 226 sleeping,   0 stopped,   0 zombie
%Cpu(s):  0.0 us,  0.4 sy,  0.0 ni, 99.6 id,  0.0 wa,  0.0 hi,  0.0 si,  0.0 st
KiB Mem : 16278772 total, 13744092 free,  1319296 used,  1215384 buff/cache
KiB Swap: 16630780 total, 16630780 free,        0 used. 14528692 avail Mem 

  PID USER      PR  NI    VIRT    RES    SHR S  %CPU %MEM     TIME+ COMMAND
29675 kenenth   20   0   41904   3804   3072 R   2.0  0.0   0:00.95 top

top - 13:57:40 up 33 min,  1 user,  load average: 0.07, 0.40, 1.02
Tasks: 287 total,   1 running, 226 sleeping,   0 stopped,   0 zombie
%Cpu(s):  0.0 us,  0.1 sy,  0.0 ni, 99.9 id,  0.0 wa,  0.0 hi,  0.0 si,  0.0 st
KiB Mem : 16278772 total, 13744092 free,  1319296 used,  1215384 buff/cache
KiB Swap: 16630780 total, 16630780 free,        0 used. 14528692 avail Mem 

  PID USER      PR  NI    VIRT    RES    SHR S  %CPU %MEM     TIME+ COMMAND
 2178 root      20   0  432832  93060  61656 S   1.0  0.6   0:11.44 Xorg
29675 kenenth   20   0   41904   3804   3072 R   1.0  0.0   0:00.96 top

top - 13:57:41 up 33 min,  1 user,  load average: 0.06, 0.39, 1.01
Tasks: 287 total,   1 running, 226 sleeping,   0 stopped,   0 zombie
%Cpu(s):  0.0 us,  0.1 sy,  0.0 ni, 99.9 id,  0.0 wa,  0.0 hi,  0.0 si,  0.0 st
KiB Mem : 16278772 total, 13744092 free,  1319296 used,  1215384 buff/cache
KiB Swap: 16630780 total, 16630780 free,        0 used. 14528692 avail Mem 

  PID USER      PR  NI    VIRT    RES    SHR S  %CPU %MEM     TIME+ COMMAND
29675 kenenth   20   0   41904   3804   3072 R   1.0  0.0   0:00.97 top

top - 13:57:42 up 33 min,  1 user,  load average: 0.06, 0.39, 1.01
Tasks: 287 total,   1 running, 226 sleeping,   0 stopped,   0 zombie
%Cpu(s):  0.1 us,  0.1 sy,  0.0 ni, 99.8 id,  0.0 wa,  0.0 hi,  0.0 si,  0.0 st
KiB Mem : 16278772 total, 13744076 free,  1319308 used,  1215388 buff/cache
KiB Swap: 16630780 total, 16630780 free,        0 used. 14528676 avail Mem 

  PID USER      PR  NI    VIRT    RES    SHR S  %CPU %MEM     TIME+ COMMAND
29675 kenenth   20   0   41904   3804   3072 R   2.0  0.0   0:00.99 top
 2178 root      20   0  432832  93060  61656 S   1.0  0.6   0:11.45 Xorg

top - 13:57:43 up 33 min,  1 user,  load average: 0.06, 0.39, 1.01
Tasks: 287 total,   1 running, 226 sleeping,   0 stopped,   0 zombie
%Cpu(s):  0.2 us,  0.2 sy,  0.0 ni, 99.5 id,  0.0 wa,  0.0 hi,  0.0 si,  0.0 st
KiB Mem : 16278772 total, 13744076 free,  1319308 used,  1215388 buff/cache
KiB Swap: 16630780 total, 16630780 free,        0 used. 14528676 avail Mem 

  PID USER      PR  NI    VIRT    RES    SHR S  %CPU %MEM     TIME+ COMMAND
  692 systemd+  20   0   70736   6188   5504 S   1.0  0.0   0:01.56 systemd-re+
 2178 root      20   0  432832  93060  61656 S   1.0  0.6   0:11.46 Xorg
29675 kenenth   20   0   41904   3804   3072 R   1.0  0.0   0:01.00 top

top - 13:57:44 up 33 min,  1 user,  load average: 0.06, 0.39, 1.01
Tasks: 287 total,   1 running, 226 sleeping,   0 stopped,   0 zombie
%Cpu(s):  0.0 us,  0.1 sy,  0.0 ni, 99.9 id,  0.0 wa,  0.0 hi,  0.0 si,  0.0 st
KiB Mem : 16278772 total, 13744076 free,  1319308 used,  1215388 buff/cache
KiB Swap: 16630780 total, 16630780 free,        0 used. 14528676 avail Mem 

  PID USER      PR  NI    VIRT    RES    SHR S  %CPU %MEM     TIME+ COMMAND
    8 root      20   0       0      0      0 I   1.0  0.0   0:01.38 rcu_sched
29675 kenenth   20   0   41904   3804   3072 R   1.0  0.0   0:01.01 top

top - 13:57:45 up 33 min,  1 user,  load average: 0.06, 0.39, 1.01
Tasks: 287 total,   1 running, 226 sleeping,   0 stopped,   0 zombie
%Cpu(s):  0.2 us,  0.2 sy,  0.0 ni, 99.5 id,  0.0 wa,  0.0 hi,  0.0 si,  0.0 st
KiB Mem : 16278772 total, 13744076 free,  1319308 used,  1215388 buff/cache
KiB Swap: 16630780 total, 16630780 free,        0 used. 14528676 avail Mem 

  PID USER      PR  NI    VIRT    RES    SHR S  %CPU %MEM     TIME+ COMMAND
29675 kenenth   20   0   41904   3804   3072 R   2.0  0.0   0:01.03 top

top - 13:57:46 up 33 min,  1 user,  load average: 0.06, 0.39, 1.01
Tasks: 287 total,   1 running, 226 sleeping,   0 stopped,   0 zombie
%Cpu(s):  0.0 us,  0.2 sy,  0.0 ni, 99.8 id,  0.0 wa,  0.0 hi,  0.0 si,  0.0 st
KiB Mem : 16278772 total, 13744076 free,  1319308 used,  1215388 buff/cache
KiB Swap: 16630780 total, 16630780 free,        0 used. 14528676 avail Mem 

  PID USER      PR  NI    VIRT    RES    SHR S  %CPU %MEM     TIME+ COMMAND
 2178 root      20   0  432832  93060  61656 S   1.0  0.6   0:11.47 Xorg
 2179 root     -51   0       0      0      0 S   1.0  0.0   0:01.20 irq/142-nv+
29675 kenenth   20   0   41904   3804   3072 R   1.0  0.0   0:01.04 top

top - 13:57:47 up 33 min,  1 user,  load average: 0.06, 0.39, 1.01
Tasks: 287 total,   1 running, 226 sleeping,   0 stopped,   0 zombie
%Cpu(s):  0.1 us,  0.1 sy,  0.0 ni, 99.8 id,  0.0 wa,  0.0 hi,  0.0 si,  0.0 st
KiB Mem : 16278772 total, 13744076 free,  1319308 used,  1215388 buff/cache
KiB Swap: 16630780 total, 16630780 free,        0 used. 14528676 avail Mem 

  PID USER      PR  NI    VIRT    RES    SHR S  %CPU %MEM     TIME+ COMMAND
  990 root      20   0 4987008  41216  25900 S   1.0  0.3   0:10.44 containerd
 2178 root      20   0  432832  93060  61656 S   1.0  0.6   0:11.48 Xorg
29675 kenenth   20   0   41904   3804   3072 R   1.0  0.0   0:01.05 top

top - 13:57:48 up 33 min,  1 user,  load average: 0.06, 0.39, 1.01
Tasks: 287 total,   1 running, 226 sleeping,   0 stopped,   0 zombie
%Cpu(s):  0.2 us,  0.1 sy,  0.0 ni, 99.6 id,  0.0 wa,  0.0 hi,  0.0 si,  0.0 st
KiB Mem : 16278772 total, 13744044 free,  1319336 used,  1215392 buff/cache
KiB Swap: 16630780 total, 16630780 free,        0 used. 14528644 avail Mem 

  PID USER      PR  NI    VIRT    RES    SHR S  %CPU %MEM     TIME+ COMMAND
  920 avahi     20   0   48216   4760   3308 S   1.0  0.0   0:03.19 avahi-daem+
  990 root      20   0 4987008  41216  25900 S   1.0  0.3   0:10.45 containerd
29675 kenenth   20   0   41904   3804   3072 R   1.0  0.0   0:01.06 top

top - 13:57:49 up 33 min,  1 user,  load average: 0.06, 0.39, 1.01
Tasks: 287 total,   1 running, 226 sleeping,   0 stopped,   0 zombie
%Cpu(s):  0.1 us,  0.1 sy,  0.0 ni, 99.6 id,  0.1 wa,  0.0 hi,  0.0 si,  0.0 st
KiB Mem : 16278772 total, 13744044 free,  1319336 used,  1215392 buff/cache
KiB Swap: 16630780 total, 16630780 free,        0 used. 14528644 avail Mem 

  PID USER      PR  NI    VIRT    RES    SHR S  %CPU %MEM     TIME+ COMMAND
29675 kenenth   20   0   41904   3804   3072 R   2.0  0.0   0:01.08 top
 2178 root      20   0  432832  93060  61656 S   1.0  0.6   0:11.49 Xorg

top - 13:57:50 up 33 min,  1 user,  load average: 0.06, 0.39, 1.01
Tasks: 287 total,   1 running, 226 sleeping,   0 stopped,   0 zombie
%Cpu(s):  0.1 us,  0.2 sy,  0.0 ni, 99.6 id,  0.0 wa,  0.0 hi,  0.0 si,  0.0 st
KiB Mem : 16278772 total, 13744044 free,  1319336 used,  1215392 buff/cache
KiB Swap: 16630780 total, 16630780 free,        0 used. 14528644 avail Mem 

  PID USER      PR  NI    VIRT    RES    SHR S  %CPU %MEM     TIME+ COMMAND
  920 avahi     20   0   48216   4760   3308 S   1.0  0.0   0:03.20 avahi-daem+
29675 kenenth   20   0   41904   3804   3072 R   1.0  0.0   0:01.09 top

top - 13:57:51 up 33 min,  1 user,  load average: 0.05, 0.38, 1.00
Tasks: 287 total,   1 running, 226 sleeping,   0 stopped,   0 zombie
%Cpu(s):  0.0 us,  0.2 sy,  0.0 ni, 99.8 id,  0.0 wa,  0.0 hi,  0.0 si,  0.0 st
KiB Mem : 16278772 total, 13744028 free,  1319344 used,  1215400 buff/cache
KiB Swap: 16630780 total, 16630780 free,        0 used. 14528628 avail Mem 

  PID USER      PR  NI    VIRT    RES    SHR S  %CPU %MEM     TIME+ COMMAND
29675 kenenth   20   0   41904   3804   3072 R   1.0  0.0   0:01.10 top

top - 13:57:52 up 33 min,  1 user,  load average: 0.05, 0.38, 1.00
Tasks: 287 total,   1 running, 226 sleeping,   0 stopped,   0 zombie
%Cpu(s):  0.1 us,  0.1 sy,  0.0 ni, 99.8 id,  0.0 wa,  0.0 hi,  0.0 si,  0.0 st
KiB Mem : 16278772 total, 13744028 free,  1319344 used,  1215400 buff/cache
KiB Swap: 16630780 total, 16630780 free,        0 used. 14528628 avail Mem 

  PID USER      PR  NI    VIRT    RES    SHR S  %CPU %MEM     TIME+ COMMAND
29675 kenenth   20   0   41904   3804   3072 R   1.0  0.0   0:01.11 top

top - 13:57:53 up 33 min,  1 user,  load average: 0.05, 0.38, 1.00
Tasks: 287 total,   1 running, 226 sleeping,   0 stopped,   0 zombie
%Cpu(s):  0.4 us,  0.2 sy,  0.0 ni, 99.4 id,  0.0 wa,  0.0 hi,  0.0 si,  0.0 st
KiB Mem : 16278772 total, 13744028 free,  1319344 used,  1215400 buff/cache
KiB Swap: 16630780 total, 16630780 free,        0 used. 14528628 avail Mem 

  PID USER      PR  NI    VIRT    RES    SHR S  %CPU %MEM     TIME+ COMMAND
  906 root      20   0  491168  23300  13904 S   1.0  0.1   0:17.43 NetworkMan+
 2178 root      20   0  432832  93060  61656 S   1.0  0.6   0:11.50 Xorg
29675 kenenth   20   0   41904   3804   3072 R   1.0  0.0   0:01.12 top

top - 13:57:54 up 33 min,  1 user,  load average: 0.05, 0.38, 1.00
Tasks: 287 total,   1 running, 226 sleeping,   0 stopped,   0 zombie
%Cpu(s):  0.0 us,  0.1 sy,  0.0 ni, 99.8 id,  0.0 wa,  0.0 hi,  0.1 si,  0.0 st
KiB Mem : 16278772 total, 13743972 free,  1319384 used,  1215416 buff/cache
KiB Swap: 16630780 total, 16630780 free,        0 used. 14528628 avail Mem 

  PID USER      PR  NI    VIRT    RES    SHR S  %CPU %MEM     TIME+ COMMAND
29675 kenenth   20   0   41904   3804   3072 R   2.0  0.0   0:01.14 top

top - 13:57:55 up 33 min,  1 user,  load average: 0.05, 0.38, 1.00
Tasks: 287 total,   1 running, 226 sleeping,   0 stopped,   0 zombie
%Cpu(s):  0.0 us,  0.2 sy,  0.0 ni, 99.8 id,  0.0 wa,  0.0 hi,  0.0 si,  0.0 st
KiB Mem : 16278772 total, 13743972 free,  1319384 used,  1215416 buff/cache
KiB Swap: 16630780 total, 16630780 free,        0 used. 14528628 avail Mem 

  PID USER      PR  NI    VIRT    RES    SHR S  %CPU %MEM     TIME+ COMMAND
29675 kenenth   20   0   41904   3804   3072 R   1.0  0.0   0:01.15 top

top - 13:57:56 up 33 min,  1 user,  load average: 0.05, 0.37, 1.00
Tasks: 287 total,   1 running, 226 sleeping,   0 stopped,   0 zombie
%Cpu(s):  0.1 us,  0.1 sy,  0.0 ni, 99.8 id,  0.0 wa,  0.0 hi,  0.0 si,  0.0 st
KiB Mem : 16278772 total, 13743972 free,  1319384 used,  1215416 buff/cache
KiB Swap: 16630780 total, 16630780 free,        0 used. 14528628 avail Mem 

  PID USER      PR  NI    VIRT    RES    SHR S  %CPU %MEM     TIME+ COMMAND
 2178 root      20   0  432832  93060  61656 S   1.0  0.6   0:11.51 Xorg
29675 kenenth   20   0   41904   3804   3072 R   1.0  0.0   0:01.16 top

top - 13:57:57 up 33 min,  1 user,  load average: 0.05, 0.37, 1.00
Tasks: 287 total,   1 running, 226 sleeping,   0 stopped,   0 zombie
%Cpu(s):  0.2 us,  0.0 sy,  0.0 ni, 99.8 id,  0.0 wa,  0.0 hi,  0.0 si,  0.0 st
KiB Mem : 16278772 total, 13743988 free,  1319368 used,  1215416 buff/cache
KiB Swap: 16630780 total, 16630780 free,        0 used. 14528644 avail Mem 

  PID USER      PR  NI    VIRT    RES    SHR S  %CPU %MEM     TIME+ COMMAND
29675 kenenth   20   0   41904   3804   3072 R   2.0  0.0   0:01.18 top
  932 root      20   0  179856   9520   8716 S   1.0  0.1   0:01.58 thermald

top - 13:57:58 up 33 min,  1 user,  load average: 0.05, 0.37, 1.00
Tasks: 287 total,   1 running, 226 sleeping,   0 stopped,   0 zombie
%Cpu(s):  0.0 us,  0.2 sy,  0.0 ni, 99.8 id,  0.0 wa,  0.0 hi,  0.0 si,  0.0 st
KiB Mem : 16278772 total, 13743988 free,  1319368 used,  1215416 buff/cache
KiB Swap: 16630780 total, 16630780 free,        0 used. 14528644 avail Mem 

  PID USER      PR  NI    VIRT    RES    SHR S  %CPU %MEM     TIME+ COMMAND
 2178 root      20   0  432832  93060  61656 S   1.0  0.6   0:11.52 Xorg
29675 kenenth   20   0   41904   3804   3072 R   1.0  0.0   0:01.19 top
29684 kenenth   20   0   16392   1096    988 S   1.0  0.0   0:00.02 ping

top - 13:57:59 up 33 min,  1 user,  load average: 0.05, 0.37, 1.00
Tasks: 287 total,   1 running, 226 sleeping,   0 stopped,   0 zombie
%Cpu(s):  0.1 us,  0.2 sy,  0.0 ni, 99.6 id,  0.0 wa,  0.0 hi,  0.0 si,  0.0 st
KiB Mem : 16278772 total, 13743988 free,  1319368 used,  1215416 buff/cache
KiB Swap: 16630780 total, 16630780 free,        0 used. 14528644 avail Mem 

  PID USER      PR  NI    VIRT    RES    SHR S  %CPU %MEM     TIME+ COMMAND
  907 root      20   0  110512   3472   3136 S   1.0  0.0   0:00.36 irqbalance
 2178 root      20   0  432832  93060  61656 S   1.0  0.6   0:11.53 Xorg
29675 kenenth   20   0   41904   3804   3072 R   1.0  0.0   0:01.20 top

top - 13:58:00 up 33 min,  1 user,  load average: 0.05, 0.37, 1.00
Tasks: 287 total,   1 running, 226 sleeping,   0 stopped,   0 zombie
%Cpu(s):  0.2 us,  0.1 sy,  0.0 ni, 99.6 id,  0.0 wa,  0.0 hi,  0.0 si,  0.0 st
KiB Mem : 16278772 total, 13743940 free,  1319408 used,  1215424 buff/cache
KiB Swap: 16630780 total, 16630780 free,        0 used. 14528596 avail Mem 

  PID USER      PR  NI    VIRT    RES    SHR S  %CPU %MEM     TIME+ COMMAND
29675 kenenth   20   0   41904   3804   3072 R   2.0  0.0   0:01.22 top
  990 root      20   0 4987008  41208  25900 S   1.0  0.3   0:10.46 containerd
 1520 kernoops  20   0   56936    420      0 S   1.0  0.0   0:00.08 kerneloops
 2390 kenenth   20   0 3532476 235932  90960 S   1.0  1.4   0:26.00 gnome-shell
 8265 root      20   0       0      0      0 I   1.0  0.0   0:00.93 kworker/u1+

top - 13:58:01 up 33 min,  1 user,  load average: 0.05, 0.37, 0.99
Tasks: 287 total,   1 running, 226 sleeping,   0 stopped,   0 zombie
%Cpu(s):  0.0 us,  0.1 sy,  0.0 ni, 99.9 id,  0.0 wa,  0.0 hi,  0.0 si,  0.0 st
KiB Mem : 16278772 total, 13743940 free,  1319408 used,  1215424 buff/cache
KiB Swap: 16630780 total, 16630780 free,        0 used. 14528596 avail Mem 

  PID USER      PR  NI    VIRT    RES    SHR S  %CPU %MEM     TIME+ COMMAND
 2178 root      20   0  432832  93060  61656 S   1.0  0.6   0:11.54 Xorg
29675 kenenth   20   0   41904   3804   3072 R   1.0  0.0   0:01.23 top

top - 13:58:02 up 33 min,  1 user,  load average: 0.05, 0.37, 0.99
Tasks: 287 total,   1 running, 226 sleeping,   0 stopped,   0 zombie
%Cpu(s):  0.1 us,  0.2 sy,  0.0 ni, 99.6 id,  0.0 wa,  0.0 hi,  0.0 si,  0.0 st
KiB Mem : 16278772 total, 13743940 free,  1319408 used,  1215424 buff/cache
KiB Swap: 16630780 total, 16630780 free,        0 used. 14528596 avail Mem 

  PID USER      PR  NI    VIRT    RES    SHR S  %CPU %MEM     TIME+ COMMAND
29675 kenenth   20   0   41904   3804   3072 R   1.0  0.0   0:01.24 top

top - 13:58:03 up 33 min,  1 user,  load average: 0.05, 0.37, 0.99
Tasks: 287 total,   1 running, 226 sleeping,   0 stopped,   0 zombie
%Cpu(s):  0.1 us,  0.0 sy,  0.0 ni, 99.9 id,  0.0 wa,  0.0 hi,  0.0 si,  0.0 st
KiB Mem : 16278772 total, 13743932 free,  1319416 used,  1215424 buff/cache
KiB Swap: 16630780 total, 16630780 free,        0 used. 14528588 avail Mem 

  PID USER      PR  NI    VIRT    RES    SHR S  %CPU %MEM     TIME+ COMMAND
  990 root      20   0 4987008  41208  25900 S   1.0  0.3   0:10.47 containerd
29675 kenenth   20   0   41904   3804   3072 R   1.0  0.0   0:01.25 top

top - 13:58:04 up 33 min,  1 user,  load average: 0.05, 0.37, 0.99
Tasks: 287 total,   1 running, 226 sleeping,   0 stopped,   0 zombie
%Cpu(s):  0.1 us,  0.1 sy,  0.0 ni, 99.8 id,  0.0 wa,  0.0 hi,  0.0 si,  0.0 st
KiB Mem : 16278772 total, 13743932 free,  1319416 used,  1215424 buff/cache
KiB Swap: 16630780 total, 16630780 free,        0 used. 14528588 avail Mem 

  PID USER      PR  NI    VIRT    RES    SHR S  %CPU %MEM     TIME+ COMMAND
 2178 root      20   0  432832  93060  61656 S   1.0  0.6   0:11.55 Xorg
29675 kenenth   20   0   41904   3804   3072 R   1.0  0.0   0:01.26 top

top - 13:58:05 up 33 min,  1 user,  load average: 0.05, 0.37, 0.99
Tasks: 287 total,   1 running, 226 sleeping,   0 stopped,   0 zombie
%Cpu(s):  0.1 us,  0.2 sy,  0.0 ni, 99.6 id,  0.0 wa,  0.0 hi,  0.0 si,  0.0 st
KiB Mem : 16278772 total, 13743932 free,  1319416 used,  1215424 buff/cache
KiB Swap: 16630780 total, 16630780 free,        0 used. 14528588 avail Mem 

  PID USER      PR  NI    VIRT    RES    SHR S  %CPU %MEM     TIME+ COMMAND
 1502 root      20   0 6019008 104460  38544 S   1.0  0.6   0:37.57 dockerd
29675 kenenth   20   0   41904   3804   3072 R   1.0  0.0   0:01.27 top

top - 13:58:06 up 33 min,  1 user,  load average: 0.04, 0.36, 0.99
Tasks: 287 total,   1 running, 226 sleeping,   0 stopped,   0 zombie
%Cpu(s):  0.0 us,  0.1 sy,  0.0 ni, 99.9 id,  0.0 wa,  0.0 hi,  0.0 si,  0.0 st
KiB Mem : 16278772 total, 13743916 free,  1319428 used,  1215428 buff/cache
KiB Swap: 16630780 total, 16630780 free,        0 used. 14528572 avail Mem 

  PID USER      PR  NI    VIRT    RES    SHR S  %CPU %MEM     TIME+ COMMAND
29675 kenenth   20   0   41904   3804   3072 R   2.0  0.0   0:01.29 top
 2178 root      20   0  432832  93060  61656 S   1.0  0.6   0:11.56 Xorg

top - 13:58:07 up 33 min,  1 user,  load average: 0.04, 0.36, 0.99
Tasks: 287 total,   1 running, 226 sleeping,   0 stopped,   0 zombie
%Cpu(s):  0.4 us,  0.1 sy,  0.0 ni, 99.5 id,  0.0 wa,  0.0 hi,  0.0 si,  0.0 st
KiB Mem : 16278772 total, 13743916 free,  1319428 used,  1215428 buff/cache
KiB Swap: 16630780 total, 16630780 free,        0 used. 14528572 avail Mem 

  PID USER      PR  NI    VIRT    RES    SHR S  %CPU %MEM     TIME+ COMMAND
 2390 kenenth   20   0 3532476 235932  90960 S   2.0  1.4   0:26.02 gnome-shell
29675 kenenth   20   0   41904   3804   3072 R   2.0  0.0   0:01.31 top
 3330 root      20   0  547576  20736  14036 S   1.0  0.1   0:00.15 fwupd