     1	1387020 
     2	1387020 
     3	1387020 
     4	1387076 
     5	1387076 
     6	1387076 
     7	1387152 
     8	1387152 
     9	1387152 
    10	1387096 
    11	1387096 
    12	1387096 
    13	1387240 
    14	1387240 
    15	1387280 
    16	1387280 
    17	1387280 
    18	1387256 
    19	1387256 
    20	1387256 
    21	1387296 
    22	1387296 
    23	1387296 
    24	1387328 
    25	1387328 
    26	1387328 
    27	1387328 
    28	1387328 
    29	1387328 
    30	1387300 
    31	1387300 
    32	1387300 
    33	1387344 
    34	1387344 
    35	1387344 
    36	1387320 
    37	1387320 
    38	1387320 
    39	1387340 
    40	1387340 
    41	1387340 
    42	1387328 
    43	1387328 
    44	1387328 
    45	1387404 
    46	1387404 
    47	1387404 
    48	1387644 
    49	1387644 
